%!PS-Adobe-3.0 EPSF-3.0
%%Title: /home/thaiduong/repo/papers/CoRL2019/figures/check_curve_examples.eps
%%Creator: matplotlib version 3.0.2, http://matplotlib.org/
%%CreationDate: Mon Jun 17 22:26:28 2019
%%Orientation: portrait
%%BoundingBox: 126 216 486 576
%%EndComments
%%BeginProlog
/mpldict 8 dict def
mpldict begin
/m { moveto } bind def
/l { lineto } bind def
/r { rlineto } bind def
/c { curveto } bind def
/cl { closepath } bind def
/box {
m
1 index 0 r
0 exch r
neg 0 r
cl
} bind def
/clipbox {
box
clip
newpath
} bind def
%!PS-Adobe-3.0 Resource-Font
%%Title: DejaVu Sans
%%Copyright: Copyright (c) 2003 by Bitstream, Inc. All Rights Reserved. Copyright (c) 2006 by Tavmjong Bah. All Rights Reserved. DejaVu changes are in public domain 
%%Creator: Converted from TrueType to type 3 by PPR
25 dict begin
/_d{bind def}bind def
/_m{moveto}_d
/_l{lineto}_d
/_cl{closepath eofill}_d
/_c{curveto}_d
/_sc{7 -1 roll{setcachedevice}{pop pop pop pop pop pop}ifelse}_d
/_e{exec}_d
/FontName /DejaVuSans def
/PaintType 0 def
/FontMatrix[.001 0 0 .001 0 0]def
/FontBBox[-1021 -463 1793 1232]def
/FontType 3 def
/Encoding [ /space /quotesingle /zero /one /two /four /six /eight /a /b /c /d /e /f /g /h /i /k /l /n /o /p /r /s /t /u /v /y /minus ] def
/FontInfo 10 dict dup begin
/FamilyName (DejaVu Sans) def
/FullName (DejaVu Sans) def
/Notice (Copyright (c) 2003 by Bitstream, Inc. All Rights Reserved. Copyright (c) 2006 by Tavmjong Bah. All Rights Reserved. DejaVu changes are in public domain ) def
/Weight (Book) def
/Version (Version 2.35) def
/ItalicAngle 0.0 def
/isFixedPitch false def
/UnderlinePosition -130 def
/UnderlineThickness 90 def
end readonly def
/CharStrings 30 dict dup begin
/.notdef 0 def
/space{318 0 0 0 0 0 _sc
}_d
/quotesingle{275 0 96 458 179 729 _sc
179 729 _m
179 458 _l
96 458 _l
96 729 _l
179 729 _l
_cl}_d
/zero{636 0 66 -13 570 742 _sc
318 664 _m
267 664 229 639 203 589 _c
177 539 165 464 165 364 _c
165 264 177 189 203 139 _c
229 89 267 64 318 64 _c
369 64 407 89 433 139 _c
458 189 471 264 471 364 _c
471 464 458 539 433 589 _c
407 639 369 664 318 664 _c
318 742 _m
399 742 461 709 505 645 _c
548 580 570 486 570 364 _c
570 241 548 147 505 83 _c
461 19 399 -13 318 -13 _c
236 -13 173 19 130 83 _c
87 147 66 241 66 364 _c
66 486 87 580 130 645 _c
173 709 236 742 318 742 _c
_cl}_d
/one{636 0 110 0 544 729 _sc
124 83 _m
285 83 _l
285 639 _l
110 604 _l
110 694 _l
284 729 _l
383 729 _l
383 83 _l
544 83 _l
544 0 _l
124 0 _l
124 83 _l
_cl}_d
/two{{636 0 73 0 536 742 _sc
192 83 _m
536 83 _l
536 0 _l
73 0 _l
73 83 _l
110 121 161 173 226 239 _c
290 304 331 346 348 365 _c
380 400 402 430 414 455 _c
426 479 433 504 433 528 _c
433 566 419 598 392 622 _c
365 646 330 659 286 659 _c
255 659 222 653 188 643 _c
154 632 117 616 78 594 _c
78 694 _l
118 710 155 722 189 730 _c
223 738 255 742 284 742 _c
}_e{359 742 419 723 464 685 _c
509 647 532 597 532 534 _c
532 504 526 475 515 449 _c
504 422 484 390 454 354 _c
446 344 420 317 376 272 _c
332 227 271 164 192 83 _c
_cl}_e}_d
/four{636 0 49 0 580 729 _sc
378 643 _m
129 254 _l
378 254 _l
378 643 _l
352 729 _m
476 729 _l
476 254 _l
580 254 _l
580 172 _l
476 172 _l
476 0 _l
378 0 _l
378 172 _l
49 172 _l
49 267 _l
352 729 _l
_cl}_d
/six{{636 0 70 -13 573 742 _sc
330 404 _m
286 404 251 388 225 358 _c
199 328 186 286 186 234 _c
186 181 199 139 225 109 _c
251 79 286 64 330 64 _c
374 64 409 79 435 109 _c
461 139 474 181 474 234 _c
474 286 461 328 435 358 _c
409 388 374 404 330 404 _c
526 713 _m
526 623 _l
501 635 476 644 451 650 _c
425 656 400 659 376 659 _c
310 659 260 637 226 593 _c
}_e{192 549 172 482 168 394 _c
187 422 211 444 240 459 _c
269 474 301 482 336 482 _c
409 482 467 459 509 415 _c
551 371 573 310 573 234 _c
573 159 550 99 506 54 _c
462 9 403 -13 330 -13 _c
246 -13 181 19 137 83 _c
92 147 70 241 70 364 _c
70 479 97 571 152 639 _c
206 707 280 742 372 742 _c
396 742 421 739 447 735 _c
472 730 498 723 526 713 _c
_cl}_e}_d
/eight{{636 0 68 -13 568 742 _sc
318 346 _m
271 346 234 333 207 308 _c
180 283 167 249 167 205 _c
167 161 180 126 207 101 _c
234 76 271 64 318 64 _c
364 64 401 76 428 102 _c
455 127 469 161 469 205 _c
469 249 455 283 429 308 _c
402 333 365 346 318 346 _c
219 388 _m
177 398 144 418 120 447 _c
96 476 85 511 85 553 _c
85 611 105 657 147 691 _c
188 725 245 742 318 742 _c
}_e{390 742 447 725 489 691 _c
530 657 551 611 551 553 _c
551 511 539 476 515 447 _c
491 418 459 398 417 388 _c
464 377 501 355 528 323 _c
554 291 568 251 568 205 _c
568 134 546 80 503 43 _c
459 5 398 -13 318 -13 _c
237 -13 175 5 132 43 _c
89 80 68 134 68 205 _c
68 251 81 291 108 323 _c
134 355 171 377 219 388 _c
183 544 _m
183 506 194 476 218 455 _c
}_e{242 434 275 424 318 424 _c
360 424 393 434 417 455 _c
441 476 453 506 453 544 _c
453 582 441 611 417 632 _c
393 653 360 664 318 664 _c
275 664 242 653 218 632 _c
194 611 183 582 183 544 _c
_cl}_e}_d
/a{{613 0 60 -13 522 560 _sc
343 275 _m
270 275 220 266 192 250 _c
164 233 150 205 150 165 _c
150 133 160 107 181 89 _c
202 70 231 61 267 61 _c
317 61 357 78 387 114 _c
417 149 432 196 432 255 _c
432 275 _l
343 275 _l
522 312 _m
522 0 _l
432 0 _l
432 83 _l
411 49 385 25 355 10 _c
325 -5 287 -13 243 -13 _c
187 -13 142 2 109 33 _c
76 64 60 106 60 159 _c
}_e{60 220 80 266 122 298 _c
163 329 224 345 306 345 _c
432 345 _l
432 354 _l
432 395 418 427 391 450 _c
364 472 326 484 277 484 _c
245 484 215 480 185 472 _c
155 464 127 453 100 439 _c
100 522 _l
132 534 164 544 195 550 _c
226 556 256 560 286 560 _c
365 560 424 539 463 498 _c
502 457 522 395 522 312 _c
_cl}_e}_d
/b{{635 0 91 -13 580 760 _sc
487 273 _m
487 339 473 390 446 428 _c
418 466 381 485 334 485 _c
286 485 249 466 222 428 _c
194 390 181 339 181 273 _c
181 207 194 155 222 117 _c
249 79 286 61 334 61 _c
381 61 418 79 446 117 _c
473 155 487 207 487 273 _c
181 464 _m
199 496 223 520 252 536 _c
281 552 316 560 356 560 _c
422 560 476 533 518 481 _c
559 428 580 359 580 273 _c
}_e{580 187 559 117 518 65 _c
476 13 422 -13 356 -13 _c
316 -13 281 -5 252 10 _c
223 25 199 49 181 82 _c
181 0 _l
91 0 _l
91 760 _l
181 760 _l
181 464 _l
_cl}_e}_d
/c{{550 0 55 -13 488 560 _sc
488 526 _m
488 442 _l
462 456 437 466 411 473 _c
385 480 360 484 334 484 _c
276 484 230 465 198 428 _c
166 391 150 339 150 273 _c
150 206 166 154 198 117 _c
230 80 276 62 334 62 _c
360 62 385 65 411 72 _c
437 79 462 90 488 104 _c
488 21 _l
462 9 436 0 410 -5 _c
383 -10 354 -13 324 -13 _c
242 -13 176 12 128 64 _c
}_e{79 115 55 185 55 273 _c
55 362 79 432 128 483 _c
177 534 244 560 330 560 _c
358 560 385 557 411 551 _c
437 545 463 537 488 526 _c
_cl}_e}_d
/d{{635 0 55 -13 544 760 _sc
454 464 _m
454 760 _l
544 760 _l
544 0 _l
454 0 _l
454 82 _l
435 49 411 25 382 10 _c
353 -5 319 -13 279 -13 _c
213 -13 159 13 117 65 _c
75 117 55 187 55 273 _c
55 359 75 428 117 481 _c
159 533 213 560 279 560 _c
319 560 353 552 382 536 _c
411 520 435 496 454 464 _c
148 273 _m
148 207 161 155 188 117 _c
215 79 253 61 301 61 _c
}_e{348 61 385 79 413 117 _c
440 155 454 207 454 273 _c
454 339 440 390 413 428 _c
385 466 348 485 301 485 _c
253 485 215 466 188 428 _c
161 390 148 339 148 273 _c
_cl}_e}_d
/e{{615 0 55 -13 562 560 _sc
562 296 _m
562 252 _l
149 252 _l
153 190 171 142 205 110 _c
238 78 284 62 344 62 _c
378 62 412 66 444 74 _c
476 82 509 95 541 113 _c
541 28 _l
509 14 476 3 442 -3 _c
408 -9 373 -13 339 -13 _c
251 -13 182 12 131 62 _c
80 112 55 181 55 268 _c
55 357 79 428 127 481 _c
175 533 241 560 323 560 _c
397 560 455 536 498 489 _c
}_e{540 441 562 377 562 296 _c
472 322 _m
471 371 457 410 431 440 _c
404 469 368 484 324 484 _c
274 484 234 469 204 441 _c
174 413 156 373 152 322 _c
472 322 _l
_cl}_e}_d
/f{352 0 23 0 371 760 _sc
371 760 _m
371 685 _l
285 685 _l
253 685 230 678 218 665 _c
205 652 199 629 199 595 _c
199 547 _l
347 547 _l
347 477 _l
199 477 _l
199 0 _l
109 0 _l
109 477 _l
23 477 _l
23 547 _l
109 547 _l
109 585 _l
109 645 123 690 151 718 _c
179 746 224 760 286 760 _c
371 760 _l
_cl}_d
/g{{635 0 55 -207 544 560 _sc
454 280 _m
454 344 440 395 414 431 _c
387 467 349 485 301 485 _c
253 485 215 467 188 431 _c
161 395 148 344 148 280 _c
148 215 161 165 188 129 _c
215 93 253 75 301 75 _c
349 75 387 93 414 129 _c
440 165 454 215 454 280 _c
544 68 _m
544 -24 523 -93 482 -139 _c
440 -184 377 -207 292 -207 _c
260 -207 231 -204 203 -200 _c
175 -195 147 -188 121 -178 _c
}_e{121 -91 _l
147 -105 173 -115 199 -122 _c
225 -129 251 -133 278 -133 _c
336 -133 380 -117 410 -87 _c
439 -56 454 -10 454 52 _c
454 96 _l
435 64 411 40 382 24 _c
353 8 319 0 279 0 _c
211 0 157 25 116 76 _c
75 127 55 195 55 280 _c
55 364 75 432 116 483 _c
157 534 211 560 279 560 _c
319 560 353 552 382 536 _c
411 520 435 496 454 464 _c
454 547 _l
544 547 _l
}_e{544 68 _l
_cl}_e}_d
/h{634 0 91 0 549 760 _sc
549 330 _m
549 0 _l
459 0 _l
459 327 _l
459 379 448 417 428 443 _c
408 469 378 482 338 482 _c
289 482 251 466 223 435 _c
195 404 181 362 181 309 _c
181 0 _l
91 0 _l
91 760 _l
181 760 _l
181 462 _l
202 494 227 519 257 535 _c
286 551 320 560 358 560 _c
420 560 468 540 500 501 _c
532 462 549 405 549 330 _c
_cl}_d
/i{278 0 94 0 184 760 _sc
94 547 _m
184 547 _l
184 0 _l
94 0 _l
94 547 _l
94 760 _m
184 760 _l
184 646 _l
94 646 _l
94 760 _l
_cl}_d
/k{579 0 91 0 576 760 _sc
91 760 _m
181 760 _l
181 311 _l
449 547 _l
564 547 _l
274 291 _l
576 0 _l
459 0 _l
181 267 _l
181 0 _l
91 0 _l
91 760 _l
_cl}_d
/l{278 0 94 0 184 760 _sc
94 760 _m
184 760 _l
184 0 _l
94 0 _l
94 760 _l
_cl}_d
/n{634 0 91 0 549 560 _sc
549 330 _m
549 0 _l
459 0 _l
459 327 _l
459 379 448 417 428 443 _c
408 469 378 482 338 482 _c
289 482 251 466 223 435 _c
195 404 181 362 181 309 _c
181 0 _l
91 0 _l
91 547 _l
181 547 _l
181 462 _l
202 494 227 519 257 535 _c
286 551 320 560 358 560 _c
420 560 468 540 500 501 _c
532 462 549 405 549 330 _c
_cl}_d
/o{612 0 55 -13 557 560 _sc
306 484 _m
258 484 220 465 192 427 _c
164 389 150 338 150 273 _c
150 207 163 156 191 118 _c
219 80 257 62 306 62 _c
354 62 392 80 420 118 _c
448 156 462 207 462 273 _c
462 337 448 389 420 427 _c
392 465 354 484 306 484 _c
306 560 _m
384 560 445 534 490 484 _c
534 433 557 363 557 273 _c
557 183 534 113 490 63 _c
445 12 384 -13 306 -13 _c
227 -13 165 12 121 63 _c
77 113 55 183 55 273 _c
55 363 77 433 121 484 _c
165 534 227 560 306 560 _c
_cl}_d
/p{{635 0 91 -207 580 560 _sc
181 82 _m
181 -207 _l
91 -207 _l
91 547 _l
181 547 _l
181 464 _l
199 496 223 520 252 536 _c
281 552 316 560 356 560 _c
422 560 476 533 518 481 _c
559 428 580 359 580 273 _c
580 187 559 117 518 65 _c
476 13 422 -13 356 -13 _c
316 -13 281 -5 252 10 _c
223 25 199 49 181 82 _c
487 273 _m
487 339 473 390 446 428 _c
418 466 381 485 334 485 _c
}_e{286 485 249 466 222 428 _c
194 390 181 339 181 273 _c
181 207 194 155 222 117 _c
249 79 286 61 334 61 _c
381 61 418 79 446 117 _c
473 155 487 207 487 273 _c
_cl}_e}_d
/r{411 0 91 0 411 560 _sc
411 463 _m
401 469 390 473 378 476 _c
366 478 353 480 339 480 _c
288 480 249 463 222 430 _c
194 397 181 350 181 288 _c
181 0 _l
91 0 _l
91 547 _l
181 547 _l
181 462 _l
199 495 224 520 254 536 _c
284 552 321 560 365 560 _c
371 560 378 559 386 559 _c
393 558 401 557 411 555 _c
411 463 _l
_cl}_d
/s{{521 0 54 -13 472 560 _sc
443 531 _m
443 446 _l
417 458 391 468 364 475 _c
336 481 308 485 279 485 _c
234 485 200 478 178 464 _c
156 450 145 430 145 403 _c
145 382 153 366 169 354 _c
185 342 217 330 265 320 _c
296 313 _l
360 299 405 279 432 255 _c
458 230 472 195 472 151 _c
472 100 452 60 412 31 _c
372 1 316 -13 246 -13 _c
216 -13 186 -10 154 -5 _c
}_e{122 0 89 8 54 20 _c
54 113 _l
87 95 120 82 152 74 _c
184 65 216 61 248 61 _c
290 61 323 68 346 82 _c
368 96 380 117 380 144 _c
380 168 371 187 355 200 _c
339 213 303 226 247 238 _c
216 245 _l
160 257 119 275 95 299 _c
70 323 58 356 58 399 _c
58 450 76 490 112 518 _c
148 546 200 560 268 560 _c
301 560 332 557 362 552 _c
391 547 418 540 443 531 _c
}_e{_cl}_e}_d
/t{392 0 27 0 368 702 _sc
183 702 _m
183 547 _l
368 547 _l
368 477 _l
183 477 _l
183 180 _l
183 135 189 106 201 94 _c
213 81 238 75 276 75 _c
368 75 _l
368 0 _l
276 0 _l
206 0 158 13 132 39 _c
106 65 93 112 93 180 _c
93 477 _l
27 477 _l
27 547 _l
93 547 _l
93 702 _l
183 702 _l
_cl}_d
/u{634 0 85 -13 543 560 _sc
85 216 _m
85 547 _l
175 547 _l
175 219 _l
175 167 185 129 205 103 _c
225 77 255 64 296 64 _c
344 64 383 79 411 110 _c
439 141 453 183 453 237 _c
453 547 _l
543 547 _l
543 0 _l
453 0 _l
453 84 _l
431 50 405 26 377 10 _c
348 -5 315 -13 277 -13 _c
214 -13 166 6 134 45 _c
101 83 85 140 85 216 _c
311 560 _m
311 560 _l
_cl}_d
/v{592 0 30 0 562 547 _sc
30 547 _m
125 547 _l
296 88 _l
467 547 _l
562 547 _l
357 0 _l
235 0 _l
30 547 _l
_cl}_d
/y{592 0 30 -207 562 547 _sc
322 -50 _m
296 -114 271 -157 247 -177 _c
223 -197 191 -207 151 -207 _c
79 -207 _l
79 -132 _l
132 -132 _l
156 -132 175 -126 189 -114 _c
203 -102 218 -75 235 -31 _c
251 9 _l
30 547 _l
125 547 _l
296 119 _l
467 547 _l
562 547 _l
322 -50 _l
_cl}_d
/minus{838 0 106 272 732 355 _sc
106 355 _m
732 355 _l
732 272 _l
106 272 _l
106 355 _l
_cl}_d
end readonly def

/BuildGlyph
 {exch begin
 CharStrings exch
 2 copy known not{pop /.notdef}if
 true 3 1 roll get exec
 end}_d

/BuildChar {
 1 index /Encoding get exch get
 1 index /BuildGlyph get exec
}_d

FontName currentdict end definefont pop
end
%%EndProlog
mpldict begin
126 216 translate
360 360 0 0 clipbox
gsave
0 0 m
360 0 l
360 360 l
0 360 l
cl
1.000 setgray
fill
grestore
gsave
45 39.6 m
324 39.6 l
324 316.8 l
45 316.8 l
cl
1.000 setgray
fill
grestore
1.000 setlinewidth
1 setlinejoin
0 setlinecap
[] 0 setdash
0.898 0.000 0.000 setrgbcolor
gsave
279 277.2 45 39.6 clipbox
/o {
gsave
newpath
translate
1.0 setlinewidth
1 setlinejoin
0 setlinecap
0 4.472136 m
-4.472136 -4.472136 l
4.472136 -4.472136 l
cl

gsave
0.898 0.000 0.000 setrgbcolor
fill
grestore
stroke
grestore
} bind def
149.625 143.55 o
grestore
1.500 setlinewidth
gsave
279 277.2 45 39.6 clipbox
/o {
gsave
newpath
translate
1.5 setlinewidth
1 setlinejoin
0 setlinecap
-4.472136 -4.472136 m
4.472136 4.472136 l
-4.472136 4.472136 m
4.472136 -4.472136 l

gsave
0.898 0.000 0.000 setrgbcolor
fill
grestore
stroke
grestore
} bind def
114.451 123.587 o
grestore
gsave
279 277.2 45 39.6 clipbox
/o {
gsave
newpath
translate
1.5 setlinewidth
1 setlinejoin
0 setlinecap
-4.472136 -4.472136 m
4.472136 4.472136 l
-4.472136 4.472136 m
4.472136 -4.472136 l

gsave
0.898 0.000 0.000 setrgbcolor
fill
grestore
stroke
grestore
} bind def
100.361 124.149 o
grestore
gsave
279 277.2 45 39.6 clipbox
/o {
gsave
newpath
translate
1.5 setlinewidth
1 setlinejoin
0 setlinecap
-4.472136 -4.472136 m
4.472136 4.472136 l
-4.472136 4.472136 m
4.472136 -4.472136 l

gsave
0.898 0.000 0.000 setrgbcolor
fill
grestore
stroke
grestore
} bind def
90.6251 133.491 o
grestore
gsave
279 277.2 45 39.6 clipbox
/o {
gsave
newpath
translate
1.5 setlinewidth
1 setlinejoin
0 setlinecap
-4.472136 -4.472136 m
4.472136 4.472136 l
-4.472136 4.472136 m
4.472136 -4.472136 l

gsave
0.898 0.000 0.000 setrgbcolor
fill
grestore
stroke
grestore
} bind def
88.8785 137.212 o
grestore
gsave
279 277.2 45 39.6 clipbox
/o {
gsave
newpath
translate
1.5 setlinewidth
1 setlinejoin
0 setlinecap
-4.472136 -4.472136 m
4.472136 4.472136 l
-4.472136 4.472136 m
4.472136 -4.472136 l

gsave
0.898 0.000 0.000 setrgbcolor
fill
grestore
stroke
grestore
} bind def
88.7365 137.57 o
grestore
1.000 setlinewidth
0.082 0.690 0.102 setrgbcolor
gsave
279 277.2 45 39.6 clipbox
/o {
gsave
newpath
translate
1.0 setlinewidth
1 setlinejoin
0 setlinecap
0 4.472136 m
-4.472136 -4.472136 l
4.472136 -4.472136 l
cl

gsave
0.082 0.690 0.102 setrgbcolor
fill
grestore
stroke
grestore
} bind def
201.938 212.85 o
grestore
1.500 setlinewidth
gsave
279 277.2 45 39.6 clipbox
/o {
gsave
newpath
translate
1.5 setlinewidth
1 setlinejoin
0 setlinecap
-4.472136 -4.472136 m
4.472136 4.472136 l
-4.472136 4.472136 m
4.472136 -4.472136 l

gsave
0.082 0.690 0.102 setrgbcolor
fill
grestore
stroke
grestore
} bind def
165.196 195.902 o
grestore
gsave
279 277.2 45 39.6 clipbox
/o {
gsave
newpath
translate
1.5 setlinewidth
1 setlinejoin
0 setlinecap
-4.472136 -4.472136 m
4.472136 4.472136 l
-4.472136 4.472136 m
4.472136 -4.472136 l

gsave
0.082 0.690 0.102 setrgbcolor
fill
grestore
stroke
grestore
} bind def
139.441 218.434 o
grestore
gsave
279 277.2 45 39.6 clipbox
/o {
gsave
newpath
translate
1.5 setlinewidth
1 setlinejoin
0 setlinecap
-4.472136 -4.472136 m
4.472136 4.472136 l
-4.472136 4.472136 m
4.472136 -4.472136 l

gsave
0.082 0.690 0.102 setrgbcolor
fill
grestore
stroke
grestore
} bind def
138.657 229.971 o
grestore
gsave
279 277.2 45 39.6 clipbox
/o {
gsave
newpath
translate
1.5 setlinewidth
1 setlinejoin
0 setlinecap
-4.472136 -4.472136 m
4.472136 4.472136 l
-4.472136 4.472136 m
4.472136 -4.472136 l

gsave
0.082 0.690 0.102 setrgbcolor
fill
grestore
stroke
grestore
} bind def
138.795 236.219 o
grestore
gsave
279 277.2 45 39.6 clipbox
/o {
gsave
newpath
translate
1.5 setlinewidth
1 setlinejoin
0 setlinecap
-4.472136 -4.472136 m
4.472136 4.472136 l
-4.472136 4.472136 m
4.472136 -4.472136 l

gsave
0.082 0.690 0.102 setrgbcolor
fill
grestore
stroke
grestore
} bind def
139.223 242.592 o
grestore
gsave
279 277.2 45 39.6 clipbox
/o {
gsave
newpath
translate
1.5 setlinewidth
1 setlinejoin
0 setlinecap
-4.472136 -4.472136 m
4.472136 4.472136 l
-4.472136 4.472136 m
4.472136 -4.472136 l

gsave
0.082 0.690 0.102 setrgbcolor
fill
grestore
stroke
grestore
} bind def
139.932 249.367 o
grestore
gsave
279 277.2 45 39.6 clipbox
/o {
gsave
newpath
translate
1.5 setlinewidth
1 setlinejoin
0 setlinecap
-4.472136 -4.472136 m
4.472136 4.472136 l
-4.472136 4.472136 m
4.472136 -4.472136 l

gsave
0.082 0.690 0.102 setrgbcolor
fill
grestore
stroke
grestore
} bind def
140.959 256.814 o
grestore
gsave
279 277.2 45 39.6 clipbox
/o {
gsave
newpath
translate
1.5 setlinewidth
1 setlinejoin
0 setlinecap
-4.472136 -4.472136 m
4.472136 4.472136 l
-4.472136 4.472136 m
4.472136 -4.472136 l

gsave
0.082 0.690 0.102 setrgbcolor
fill
grestore
stroke
grestore
} bind def
142.376 265.234 o
grestore
gsave
279 277.2 45 39.6 clipbox
/o {
gsave
newpath
translate
1.5 setlinewidth
1 setlinejoin
0 setlinecap
-4.472136 -4.472136 m
4.472136 4.472136 l
-4.472136 4.472136 m
4.472136 -4.472136 l

gsave
0.082 0.690 0.102 setrgbcolor
fill
grestore
stroke
grestore
} bind def
144.297 274.993 o
grestore
gsave
279 277.2 45 39.6 clipbox
/o {
gsave
newpath
translate
1.5 setlinewidth
1 setlinejoin
0 setlinecap
-4.472136 -4.472136 m
4.472136 4.472136 l
-4.472136 4.472136 m
4.472136 -4.472136 l

gsave
0.082 0.690 0.102 setrgbcolor
fill
grestore
stroke
grestore
} bind def
146.895 286.563 o
grestore
0 setlinejoin
[] 0 setdash
0.898 0.000 0.000 setrgbcolor
gsave
279 277.2 45 39.6 clipbox
149.625 103.303026 m
160.367931 103.303026 170.672306 107.543701 178.268706 115.091092 c
185.865106 122.638483 190.133318 132.876378 190.133318 143.55 c
190.133318 154.223622 185.865106 164.461517 178.268706 172.008908 c
170.672306 179.556299 160.367931 183.796974 149.625 183.796974 c
138.882069 183.796974 128.577694 179.556299 120.981294 172.008908 c
113.384894 164.461517 109.116682 154.223622 109.116682 143.55 c
109.116682 132.876378 113.384894 122.638483 120.981294 115.091092 c
128.577694 107.543701 138.882069 103.303026 149.625 103.303026 c
cl
stroke
grestore
gsave
279 277.2 45 39.6 clipbox
114.451039 109.576905 m
118.19067 109.576905 121.777639 111.05309 124.421957 113.680349 c
127.066276 116.307607 128.552047 119.871435 128.552047 123.586939 c
128.552047 127.302444 127.066276 130.866271 124.421957 133.49353 c
121.777639 136.120788 118.19067 137.596974 114.451039 137.596974 c
110.711407 137.596974 107.124438 136.120788 104.48012 133.49353 c
101.835801 130.866271 100.35003 127.302444 100.35003 123.586939 c
100.35003 119.871435 101.835801 116.307607 104.48012 113.680349 c
107.124438 111.05309 110.711407 109.576905 114.451039 109.576905 c
cl
stroke
grestore
gsave
279 277.2 45 39.6 clipbox
100.361376 110.700737 m
103.951018 110.700737 107.394121 112.117715 109.932381 114.639599 c
112.470641 117.161483 113.89682 120.582372 113.89682 124.148855 c
113.89682 127.715338 112.470641 131.136227 109.932381 133.658111 c
107.394121 136.179995 103.951018 137.596974 100.361376 137.596974 c
96.771735 137.596974 93.328632 136.179995 90.790372 133.658111 c
88.252112 131.136227 86.825932 127.715338 86.825932 124.148855 c
86.825932 120.582372 88.252112 117.161483 90.790372 114.639599 c
93.328632 112.117715 96.771735 110.700737 100.361376 110.700737 c
cl
stroke
grestore
gsave
279 277.2 45 39.6 clipbox
90.625147 129.385161 m
91.721116 129.385161 92.772346 129.817785 93.547314 130.587753 c
94.322281 131.357721 94.757715 132.402168 94.757715 133.491067 c
94.757715 134.579966 94.322281 135.624414 93.547314 136.394382 c
92.772346 137.164349 91.721116 137.596974 90.625147 137.596974 c
89.529177 137.596974 88.477947 137.164349 87.70298 136.394382 c
86.928012 135.624414 86.492579 134.579966 86.492579 133.491067 c
86.492579 132.402168 86.928012 131.357721 87.70298 130.587753 c
88.477947 129.817785 89.529177 129.385161 90.625147 129.385161 c
cl
stroke
grestore
gsave
279 277.2 45 39.6 clipbox
88.878462 136.827418 m
88.981169 136.827418 89.079683 136.867961 89.152307 136.940117 c
89.224932 137.012273 89.265738 137.110152 89.265738 137.212196 c
89.265738 137.31424 89.224932 137.412119 89.152307 137.484275 c
89.079683 137.556431 88.981169 137.596974 88.878462 137.596974 c
88.775755 137.596974 88.677241 137.556431 88.604616 137.484275 c
88.531991 137.412119 88.491186 137.31424 88.491186 137.212196 c
88.491186 137.110152 88.531991 137.012273 88.604616 136.940117 c
88.677241 136.867961 88.775755 136.827418 88.878462 136.827418 c
cl
stroke
grestore
0.082 0.690 0.102 setrgbcolor
gsave
279 277.2 45 39.6 clipbox
201.9375 172.603026 m
212.680431 172.603026 222.984806 176.843701 230.581206 184.391092 c
238.177606 191.938483 242.445818 202.176378 242.445818 212.85 c
242.445818 223.523622 238.177606 233.761517 230.581206 241.308908 c
222.984806 248.856299 212.680431 253.096974 201.9375 253.096974 c
191.194569 253.096974 180.890194 248.856299 173.293794 241.308908 c
165.697394 233.761517 161.429182 223.523622 161.429182 212.85 c
161.429182 202.176378 165.697394 191.938483 173.293794 184.391092 c
180.890194 176.843701 191.194569 172.603026 201.9375 172.603026 c
cl
stroke
grestore
gsave
279 277.2 45 39.6 clipbox
165.196067 161.806226 m
174.296981 161.806226 183.026371 165.398729 189.461689 171.79253 c
195.897008 178.18633 199.512839 186.859401 199.512839 195.9016 c
199.512839 204.943799 195.897008 213.61687 189.461689 220.01067 c
183.026371 226.40447 174.296981 229.996974 165.196067 229.996974 c
156.095152 229.996974 147.365763 226.40447 140.930444 220.01067 c
134.495126 213.61687 130.879294 204.943799 130.879294 195.9016 c
130.879294 186.859401 134.495126 178.18633 140.930444 171.79253 c
147.365763 165.398729 156.095152 161.806226 165.196067 161.806226 c
cl
stroke
grestore
gsave
279 277.2 45 39.6 clipbox
139.441115 206.870993 m
142.527568 206.870993 145.488024 208.089342 147.670477 210.257714 c
149.852929 212.426086 151.07919 215.367442 151.07919 218.433983 c
151.07919 221.500524 149.852929 224.44188 147.670477 226.610252 c
145.488024 228.778624 142.527568 229.996974 139.441115 229.996974 c
136.354661 229.996974 133.394205 228.778624 131.211753 226.610252 c
129.029301 224.44188 127.80304 221.500524 127.80304 218.433983 c
127.80304 215.367442 129.029301 212.426086 131.211753 210.257714 c
133.394205 208.089342 136.354661 206.870993 139.441115 206.870993 c
cl
stroke
grestore
gsave
279 277.2 45 39.6 clipbox
138.657188 223.72079 m
140.32545 223.72079 141.925609 224.379321 143.105248 225.55135 c
144.284887 226.723378 144.947694 228.313213 144.947694 229.970712 c
144.947694 231.628211 144.284887 233.218046 143.105248 234.390074 c
141.925609 235.562103 140.32545 236.220634 138.657188 236.220634 c
136.988927 236.220634 135.388768 235.562103 134.209129 234.390074 c
133.02949 233.218046 132.366682 231.628211 132.366682 229.970712 c
132.366682 228.313213 133.02949 226.723378 134.209129 225.55135 c
135.388768 224.379321 136.988927 223.72079 138.657188 223.72079 c
cl
stroke
grestore
gsave
279 277.2 45 39.6 clipbox
138.794903 229.832388 m
140.499687 229.832388 142.134876 230.505336 143.340341 231.703023 c
144.545805 232.900711 145.223123 234.525351 145.223123 236.219136 c
145.223123 237.912922 144.545805 239.537562 143.340341 240.735249 c
142.134876 241.932936 140.499687 242.605884 138.794903 242.605884 c
137.090119 242.605884 135.454929 241.932936 134.249464 240.735249 c
133.044 239.537562 132.366682 237.912922 132.366682 236.219136 c
132.366682 234.525351 133.044 232.900711 134.249464 231.703023 c
135.454929 230.505336 137.090119 229.832388 138.794903 229.832388 c
cl
stroke
grestore
gsave
279 277.2 45 39.6 clipbox
139.222633 235.780011 m
141.040853 235.780011 142.784847 236.497736 144.070522 237.775117 c
145.356198 239.052498 146.078584 240.785241 146.078584 242.59173 c
146.078584 244.398219 145.356198 246.130962 144.070522 247.408342 c
142.784847 248.685723 141.040853 249.403449 139.222633 249.403449 c
137.404414 249.403449 135.660419 248.685723 134.374744 247.408342 c
133.089069 246.130962 132.366682 244.398219 132.366682 242.59173 c
132.366682 240.785241 133.089069 239.052498 134.374744 237.775117 c
135.660419 236.497736 137.404414 235.780011 139.222633 235.780011 c
cl
stroke
grestore
gsave
279 277.2 45 39.6 clipbox
139.932103 241.850267 m
141.938475 241.850267 143.862943 242.642265 145.281663 244.051832 c
146.700382 245.461399 147.497523 247.37345 147.497523 249.366878 c
147.497523 251.360307 146.700382 253.272358 145.281663 254.681925 c
143.862943 256.091492 141.938475 256.88349 139.932103 256.88349 c
137.92573 256.88349 136.001263 256.091492 134.582543 254.681925 c
133.163823 253.272358 132.366682 251.360307 132.366682 249.366878 c
132.366682 247.37345 133.163823 245.461399 134.582543 244.051832 c
136.001263 242.642265 137.92573 241.850267 139.932103 241.850267 c
cl
stroke
grestore
gsave
279 277.2 45 39.6 clipbox
140.958819 248.277245 m
143.23748 248.277245 145.42312 249.176726 147.034377 250.777588 c
148.645634 252.378449 149.550956 254.549988 149.550956 256.813949 c
149.550956 259.077909 148.645634 261.249448 147.034377 262.85031 c
145.42312 264.451171 143.23748 265.350652 140.958819 265.350652 c
138.680158 265.350652 136.494518 264.451171 134.883261 262.85031 c
133.272004 261.249448 132.366682 259.077909 132.366682 256.813949 c
132.366682 254.549988 133.272004 252.378449 134.883261 250.777588 c
136.494518 249.176726 138.680158 248.277245 140.958819 248.277245 c
cl
stroke
grestore
gsave
279 277.2 45 39.6 clipbox
142.375578 255.289479 m
145.029968 255.289479 147.575999 256.337275 149.452936 258.202103 c
151.329874 260.066931 152.384474 262.596536 152.384474 265.233801 c
152.384474 267.871066 151.329874 270.400671 149.452936 272.265499 c
147.575999 274.130327 145.029968 275.178124 142.375578 275.178124 c
139.721188 275.178124 137.175157 274.130327 135.29822 272.265499 c
133.421283 270.400671 132.366682 267.871066 132.366682 265.233801 c
132.366682 262.596536 133.421283 260.066931 135.29822 258.202103 c
137.175157 256.337275 139.721188 255.289479 142.375578 255.289479 c
cl
stroke
grestore
gsave
279 277.2 45 39.6 clipbox
144.297455 263.139275 m
147.461533 263.139275 150.496445 264.388267 152.733786 266.611173 c
154.971127 268.83408 156.228228 271.849411 156.228228 274.993076 c
156.228228 278.13674 154.971127 281.152072 152.733786 283.374978 c
150.496445 285.597885 147.461533 286.846876 144.297455 286.846876 c
141.133377 286.846876 138.098466 285.597885 135.861125 283.374978 c
133.623784 281.152072 132.366682 278.13674 132.366682 274.993076 c
132.366682 271.849411 133.623784 268.83408 135.861125 266.611173 c
138.098466 264.388267 141.133377 263.139275 144.297455 263.139275 c
cl
stroke
grestore
gsave
279 277.2 45 39.6 clipbox
146.894996 266.70316 m
152.195961 266.70316 157.280525 268.795668 161.028874 272.519833 c
164.777222 276.243998 166.883318 281.295759 166.883318 286.562525 c
166.883318 291.82929 164.777222 296.881051 161.028874 300.605216 c
157.280525 304.329382 152.195961 306.42189 146.894996 306.42189 c
141.594031 306.42189 136.509466 304.329382 132.761118 300.605216 c
129.012769 296.881051 126.906674 291.82929 126.906674 286.562525 c
126.906674 281.295759 129.012769 276.243998 132.761118 272.519833 c
136.509466 268.795668 141.594031 266.70316 146.894996 266.70316 c
cl
stroke
grestore
0.800 setlinewidth
1 setlinejoin
[] 0 setdash
0.000 setgray
gsave
/o {
gsave
newpath
translate
0.8 setlinewidth
1 setlinejoin
0 setlinecap
0 0 m
0 -3.5 l

gsave
0.000 setgray
fill
grestore
stroke
grestore
} bind def
45 39.6 o
grestore
/DejaVuSans findfont
10.000 scalefont
setfont
gsave
37.632812 25.006250 translate
0.000000 rotate
0.000000 0.000000 m /minus glyphshow
8.378906 0.000000 m /six glyphshow
grestore
gsave
/o {
gsave
newpath
translate
0.8 setlinewidth
1 setlinejoin
0 setlinecap
0 0 m
0 -3.5 l

gsave
0.000 setgray
fill
grestore
stroke
grestore
} bind def
79.875 39.6 o
grestore
gsave
72.507812 25.006250 translate
0.000000 rotate
0.000000 0.000000 m /minus glyphshow
8.378906 0.000000 m /four glyphshow
grestore
gsave
/o {
gsave
newpath
translate
0.8 setlinewidth
1 setlinejoin
0 setlinecap
0 0 m
0 -3.5 l

gsave
0.000 setgray
fill
grestore
stroke
grestore
} bind def
114.75 39.6 o
grestore
gsave
107.382812 25.006250 translate
0.000000 rotate
0.000000 0.000000 m /minus glyphshow
8.378906 0.000000 m /two glyphshow
grestore
gsave
/o {
gsave
newpath
translate
0.8 setlinewidth
1 setlinejoin
0 setlinecap
0 0 m
0 -3.5 l

gsave
0.000 setgray
fill
grestore
stroke
grestore
} bind def
149.625 39.6 o
grestore
gsave
146.445312 25.006250 translate
0.000000 rotate
0.000000 0.000000 m /zero glyphshow
grestore
gsave
/o {
gsave
newpath
translate
0.8 setlinewidth
1 setlinejoin
0 setlinecap
0 0 m
0 -3.5 l

gsave
0.000 setgray
fill
grestore
stroke
grestore
} bind def
184.5 39.6 o
grestore
gsave
181.320312 25.006250 translate
0.000000 rotate
0.000000 0.000000 m /two glyphshow
grestore
gsave
/o {
gsave
newpath
translate
0.8 setlinewidth
1 setlinejoin
0 setlinecap
0 0 m
0 -3.5 l

gsave
0.000 setgray
fill
grestore
stroke
grestore
} bind def
219.375 39.6 o
grestore
gsave
216.195312 25.006250 translate
0.000000 rotate
0.000000 0.000000 m /four glyphshow
grestore
gsave
/o {
gsave
newpath
translate
0.8 setlinewidth
1 setlinejoin
0 setlinecap
0 0 m
0 -3.5 l

gsave
0.000 setgray
fill
grestore
stroke
grestore
} bind def
254.25 39.6 o
grestore
gsave
251.070312 25.006250 translate
0.000000 rotate
0.000000 0.000000 m /six glyphshow
grestore
gsave
/o {
gsave
newpath
translate
0.8 setlinewidth
1 setlinejoin
0 setlinecap
0 0 m
0 -3.5 l

gsave
0.000 setgray
fill
grestore
stroke
grestore
} bind def
289.125 39.6 o
grestore
gsave
285.945312 25.006250 translate
0.000000 rotate
0.000000 0.000000 m /eight glyphshow
grestore
gsave
/o {
gsave
newpath
translate
0.8 setlinewidth
1 setlinejoin
0 setlinecap
0 0 m
0 -3.5 l

gsave
0.000 setgray
fill
grestore
stroke
grestore
} bind def
324 39.6 o
grestore
gsave
317.640625 25.006250 translate
0.000000 rotate
0.000000 0.000000 m /one glyphshow
6.362305 0.000000 m /zero glyphshow
grestore
gsave
/o {
gsave
newpath
translate
0.8 setlinewidth
1 setlinejoin
0 setlinecap
0 0 m
-3.5 0 l

gsave
0.000 setgray
fill
grestore
stroke
grestore
} bind def
45 39.6 o
grestore
gsave
16.906250 35.803125 translate
0.000000 rotate
0.000000 0.000000 m /minus glyphshow
8.378906 0.000000 m /one glyphshow
14.741211 0.000000 m /zero glyphshow
grestore
gsave
/o {
gsave
newpath
translate
0.8 setlinewidth
1 setlinejoin
0 setlinecap
0 0 m
-3.5 0 l

gsave
0.000 setgray
fill
grestore
stroke
grestore
} bind def
45 74.25 o
grestore
gsave
23.265625 70.453125 translate
0.000000 rotate
0.000000 0.000000 m /minus glyphshow
8.378906 0.000000 m /eight glyphshow
grestore
gsave
/o {
gsave
newpath
translate
0.8 setlinewidth
1 setlinejoin
0 setlinecap
0 0 m
-3.5 0 l

gsave
0.000 setgray
fill
grestore
stroke
grestore
} bind def
45 108.9 o
grestore
gsave
23.265625 105.103125 translate
0.000000 rotate
0.000000 0.000000 m /minus glyphshow
8.378906 0.000000 m /six glyphshow
grestore
gsave
/o {
gsave
newpath
translate
0.8 setlinewidth
1 setlinejoin
0 setlinecap
0 0 m
-3.5 0 l

gsave
0.000 setgray
fill
grestore
stroke
grestore
} bind def
45 143.55 o
grestore
gsave
23.265625 139.753125 translate
0.000000 rotate
0.000000 0.000000 m /minus glyphshow
8.378906 0.000000 m /four glyphshow
grestore
gsave
/o {
gsave
newpath
translate
0.8 setlinewidth
1 setlinejoin
0 setlinecap
0 0 m
-3.5 0 l

gsave
0.000 setgray
fill
grestore
stroke
grestore
} bind def
45 178.2 o
grestore
gsave
23.265625 174.403125 translate
0.000000 rotate
0.000000 0.000000 m /minus glyphshow
8.378906 0.000000 m /two glyphshow
grestore
gsave
/o {
gsave
newpath
translate
0.8 setlinewidth
1 setlinejoin
0 setlinecap
0 0 m
-3.5 0 l

gsave
0.000 setgray
fill
grestore
stroke
grestore
} bind def
45 212.85 o
grestore
gsave
31.640625 209.053125 translate
0.000000 rotate
0.000000 0.000000 m /zero glyphshow
grestore
gsave
/o {
gsave
newpath
translate
0.8 setlinewidth
1 setlinejoin
0 setlinecap
0 0 m
-3.5 0 l

gsave
0.000 setgray
fill
grestore
stroke
grestore
} bind def
45 247.5 o
grestore
gsave
31.640625 243.703125 translate
0.000000 rotate
0.000000 0.000000 m /two glyphshow
grestore
gsave
/o {
gsave
newpath
translate
0.8 setlinewidth
1 setlinejoin
0 setlinecap
0 0 m
-3.5 0 l

gsave
0.000 setgray
fill
grestore
stroke
grestore
} bind def
45 282.15 o
grestore
gsave
31.640625 278.353125 translate
0.000000 rotate
0.000000 0.000000 m /four glyphshow
grestore
gsave
/o {
gsave
newpath
translate
0.8 setlinewidth
1 setlinejoin
0 setlinecap
0 0 m
-3.5 0 l

gsave
0.000 setgray
fill
grestore
stroke
grestore
} bind def
45 316.8 o
grestore
gsave
31.640625 313.003125 translate
0.000000 rotate
0.000000 0.000000 m /six glyphshow
grestore
1.500 setlinewidth
gsave
279 277.2 45 39.6 clipbox
84.857143 143.482777 m
90.55102 142.980623 l
96.244898 143.184853 l
101.938776 145.594024 l
102.853842 147.085714 l
103.787964 152.742857 l
103.929975 158.4 l
103.954287 164.057143 l
103.958531 169.714286 l
103.959274 175.371429 l
103.959404 181.028571 l
103.959427 186.685714 l
103.959438 192.342857 l
103.959469 198 l
103.959645 203.657143 l
103.960647 209.314286 l
103.966369 214.971429 l
103.999198 220.628571 l
104.192402 226.285714 l
105.528202 231.942857 l
107.632653 233.849784 l
113.326531 234.987269 l
119.020408 235.406434 l
124.714286 237.364774 l
124.950487 237.6 l
126.868115 243.257143 l
127.020138 248.914286 l
126.399415 254.571429 l
124.714286 257.46806 l
119.020408 259.463493 l
113.326531 259.713374 l
107.632653 259.755663 l
101.938776 259.766832 l
96.244898 259.789884 l
90.55102 259.89501 l
84.857143 260.184187 l
79.163265 259.790564 l
78.590328 254.571429 l
79.018085 248.914286 l
79.1214 243.257143 l
79.140544 237.6 l
79.143932 231.942857 l
79.144527 226.285714 l
79.144631 220.628571 l
79.144649 214.971429 l
79.144653 209.314286 l
79.144653 203.657143 l
79.144653 198 l
79.144653 192.342857 l
79.144658 186.685714 l
79.144683 181.028571 l
79.144821 175.371429 l
79.145613 169.714286 l
79.150134 164.057143 l
79.163265 161.827888 l
79.174775 158.4 l
79.311844 152.742857 l
80.246016 147.085714 l
84.857143 143.482777 l
stroke
grestore
gsave
279 277.2 45 39.6 clipbox
175.959184 259.523454 m
181.653061 258.418689 l
187.346939 258.254812 l
193.040816 258.226862 l
198.734694 258.221983 l
204.428571 258.221115 l
210.122449 258.221068 l
215.816327 258.221721 l
221.510204 258.225371 l
227.204082 258.246251 l
232.897959 258.367815 l
238.591837 259.151211 l
240.530309 260.228571 l
242.978844 265.885714 l
243.184155 271.542857 l
242.678716 277.2 l
238.591837 281.953876 l
232.897959 282.732291 l
227.204082 282.849519 l
224.348936 282.857143 l
221.510204 282.870926 l
215.816327 282.874816 l
210.122449 282.875511 l
204.428571 282.875461 l
198.734694 282.874536 l
193.040816 282.869339 l
191.260569 282.857143 l
187.346939 282.841294 l
181.653061 282.682966 l
175.959184 281.569906 l
172.788263 277.2 l
172.282188 271.542857 l
172.488828 265.885714 l
174.895069 260.228571 l
175.959184 259.523454 l
stroke
grestore
[5.55 2.4] 0 setdash
gsave
279 277.2 45 39.6 clipbox
79.163265 137.12287 m
84.857143 137.12287 l
90.55102 137.12287 l
96.244898 137.12287 l
101.938776 137.12287 l
107.632653 137.883559 l
109.714038 141.428571 l
109.714038 147.085714 l
109.714038 152.742857 l
109.714038 158.4 l
109.714038 164.057143 l
109.714038 169.714286 l
109.714038 175.371429 l
109.714038 181.028571 l
109.714038 186.685714 l
109.714038 192.342857 l
109.714038 198 l
109.714038 203.657143 l
109.714038 209.314286 l
109.714038 214.971429 l
109.714038 220.628571 l
109.795721 226.285714 l
113.326531 229.353033 l
119.020408 229.353033 l
124.714286 229.353033 l
130.408163 229.353033 l
133.014805 231.942857 l
133.014805 237.6 l
133.014805 243.257143 l
133.014805 248.914286 l
133.014805 254.571429 l
133.014805 260.228571 l
130.408163 264.886866 l
124.714286 265.254953 l
119.020408 265.254953 l
113.326531 265.254953 l
107.632653 265.254953 l
101.938776 265.254953 l
96.244898 265.254953 l
90.55102 265.254953 l
84.857143 265.254953 l
79.163265 265.254953 l
73.733361 260.228571 l
73.761247 254.571429 l
73.761247 248.914286 l
73.761247 243.257143 l
73.761247 237.6 l
73.761247 231.942857 l
73.761247 226.285714 l
73.761247 220.628571 l
73.761247 214.971429 l
73.761247 209.314286 l
73.761247 203.657143 l
73.761247 198 l
73.761247 192.342857 l
73.761247 186.685714 l
73.761247 181.028571 l
73.761247 175.371429 l
73.761247 169.714286 l
73.761247 164.057143 l
73.761247 158.4 l
73.761247 152.742857 l
73.761247 147.085714 l
73.804287 141.428571 l
79.163265 137.12287 l
stroke
grestore
gsave
279 277.2 45 39.6 clipbox
170.265306 252.503472 m
175.959184 252.503472 l
181.653061 252.503472 l
187.346939 252.503472 l
193.040816 252.503472 l
198.734694 252.503472 l
204.428571 252.503472 l
210.122449 252.503472 l
215.816327 252.503472 l
221.510204 252.503472 l
227.204082 252.503472 l
232.897959 252.503472 l
238.591837 252.503472 l
244.285714 252.503472 l
248.285971 254.571429 l
248.989764 260.228571 l
248.989764 265.885714 l
248.989764 271.542857 l
248.989764 277.2 l
248.989764 282.857143 l
244.285714 288.199323 l
238.591837 288.224309 l
232.897959 288.224309 l
227.204082 288.224309 l
221.510204 288.224309 l
215.816327 288.224309 l
210.122449 288.224309 l
204.428571 288.224309 l
198.734694 288.224309 l
193.040816 288.224309 l
187.346939 288.224309 l
181.653061 288.224309 l
175.959184 288.224309 l
170.265306 288.15832 l
166.321412 282.857143 l
166.321412 277.2 l
166.321412 271.542857 l
166.321412 265.885714 l
166.321412 260.228571 l
167.073474 254.571429 l
170.265306 252.503472 l
stroke
grestore
2 setlinecap
[] 0 setdash
0.898 0.000 0.000 setrgbcolor
gsave
279 277.2 45 39.6 clipbox
149.625 143.55 m
145.941773 140.686071 l
142.365306 138.034286 l
138.895599 135.594643 l
135.532653 133.367143 l
132.276467 131.351786 l
129.127041 129.548571 l
126.084375 127.9575 l
123.148469 126.578571 l
120.319324 125.411786 l
117.596939 124.457143 l
114.981314 123.714643 l
112.472449 123.184286 l
110.070344 122.866071 l
107.775 122.76 l
105.586416 122.866071 l
103.504592 123.184286 l
101.529528 123.714643 l
99.661224 124.457143 l
97.899681 125.411786 l
96.244898 126.578571 l
94.696875 127.9575 l
93.255612 129.548571 l
91.92111 131.351786 l
90.693367 133.367143 l
89.572385 135.594643 l
88.558163 138.034286 l
87.650702 140.686071 l
86.85 143.55 l
86.156059 146.626071 l
85.568878 149.914286 l
85.088457 153.414643 l
84.714796 157.127143 l
84.447895 161.051786 l
84.287755 165.188571 l
84.234375 169.5375 l
84.287755 174.098571 l
84.447895 178.871786 l
84.714796 183.857143 l
85.088457 189.054643 l
85.568878 194.464286 l
86.156059 200.086071 l
86.85 205.92 l
87.650702 211.966071 l
88.558163 218.224286 l
89.572385 224.694643 l
90.693367 231.377143 l
91.92111 238.271786 l
93.255612 245.378571 l
94.696875 252.6975 l
stroke
grestore
0.082 0.690 0.102 setrgbcolor
gsave
279 277.2 45 39.6 clipbox
201.9375 212.85 m
198.256052 210.463393 l
194.684923 208.253571 l
191.224114 206.220536 l
187.873622 204.364286 l
184.63345 202.684821 l
181.503597 201.182143 l
178.484062 199.85625 l
175.574847 198.707143 l
172.77595 197.734821 l
170.087372 196.939286 l
167.509114 196.320536 l
165.041173 195.878571 l
162.683552 195.613393 l
160.43625 195.525 l
158.299267 195.613393 l
156.272602 195.878571 l
154.356256 196.320536 l
152.55023 196.939286 l
150.854522 197.734821 l
149.269133 198.707143 l
147.794062 199.85625 l
146.429311 201.182143 l
145.174879 202.684821 l
144.030765 204.364286 l
142.996971 206.220536 l
142.073495 208.253571 l
141.260338 210.463393 l
140.5575 212.85 l
139.964981 215.413393 l
139.482781 218.153571 l
139.110899 221.070536 l
138.849337 224.164286 l
138.698093 227.434821 l
138.657168 230.882143 l
138.726562 234.50625 l
138.906276 238.307143 l
139.196307 242.284821 l
139.596658 246.439286 l
140.107328 250.770536 l
140.728316 255.278571 l
141.459624 259.963393 l
142.30125 264.825 l
143.253195 269.863393 l
144.315459 275.078571 l
145.488042 280.470536 l
146.770944 286.039286 l
148.164165 291.784821 l
149.667704 297.707143 l
151.281563 303.80625 l
stroke
grestore
0.800 setlinewidth
0 setlinejoin
[] 0 setdash
0.000 setgray
gsave
45 39.6 m
45 316.8 l
stroke
grestore
gsave
324 39.6 m
324 316.8 l
stroke
grestore
gsave
45 39.6 m
324 39.6 l
stroke
grestore
gsave
45 316.8 m
324 316.8 l
stroke
grestore
1.000 setlinewidth
0 setlinecap
0.800 setgray
gsave
178.415625 44.1 m
317.7 44.1 l
318.9 44.1 319.5 44.7 319.5 45.9 c
319.5 97.875 l
319.5 99.075 318.9 99.675 317.7 99.675 c
178.415625 99.675 l
177.215625 99.675 176.615625 99.075 176.615625 97.875 c
176.615625 45.9 l
176.615625 44.7 177.215625 44.1 178.415625 44.1 c
cl
gsave
1.000 setgray
fill
grestore
stroke
grestore
1.500 setlinewidth
1 setlinejoin
[] 0 setdash
0.000 setgray
gsave
180.215625 92.38125 m
198.215625 92.38125 l
stroke
grestore
/DejaVuSans findfont
9.000 scalefont
setfont
gsave
205.415625 89.231250 translate
0.000000 rotate
0.000000 0.000000 m /t glyphshow
3.528809 0.000000 m /r glyphshow
7.229004 0.000000 m /u glyphshow
12.933105 0.000000 m /e glyphshow
18.470215 0.000000 m /space glyphshow
21.331055 0.000000 m /b glyphshow
27.043945 0.000000 m /o glyphshow
32.550293 0.000000 m /u glyphshow
38.254395 0.000000 m /n glyphshow
43.958496 0.000000 m /d glyphshow
49.671387 0.000000 m /a glyphshow
55.186523 0.000000 m /r glyphshow
58.886719 0.000000 m /y glyphshow
grestore
[5.55 2.4] 0 setdash
gsave
180.215625 79.1625 m
198.215625 79.1625 l
stroke
grestore
gsave
205.415625 76.012500 translate
0.000000 rotate
0.000000 0.000000 m /u glyphshow
5.704102 0.000000 m /p glyphshow
11.416992 0.000000 m /p glyphshow
17.129883 0.000000 m /e glyphshow
22.666992 0.000000 m /r glyphshow
26.367188 0.000000 m /space glyphshow
29.228027 0.000000 m /b glyphshow
34.940918 0.000000 m /o glyphshow
40.447266 0.000000 m /u glyphshow
46.151367 0.000000 m /n glyphshow
51.855469 0.000000 m /d glyphshow
57.568359 0.000000 m /quotesingle glyphshow
60.042480 0.000000 m /s glyphshow
64.731445 0.000000 m /space glyphshow
67.592285 0.000000 m /b glyphshow
73.305176 0.000000 m /o glyphshow
78.811523 0.000000 m /u glyphshow
84.515625 0.000000 m /n glyphshow
90.219727 0.000000 m /d glyphshow
95.932617 0.000000 m /a glyphshow
101.447754 0.000000 m /r glyphshow
105.147949 0.000000 m /y glyphshow
grestore
0 setlinejoin
[] 0 setdash
0.898 0.000 0.000 setrgbcolor
gsave
180.215625 62.79375 m
198.215625 62.79375 l
198.215625 69.09375 l
180.215625 69.09375 l
cl
stroke
grestore
0.000 setgray
gsave
205.415625 62.793750 translate
0.000000 rotate
0.000000 0.000000 m /c glyphshow
4.948242 0.000000 m /h glyphshow
10.652344 0.000000 m /e glyphshow
16.189453 0.000000 m /c glyphshow
21.137695 0.000000 m /k glyphshow
26.349609 0.000000 m /i glyphshow
28.850098 0.000000 m /n glyphshow
34.554199 0.000000 m /g glyphshow
40.267090 0.000000 m /space glyphshow
43.127930 0.000000 m /c glyphshow
48.076172 0.000000 m /o glyphshow
53.582520 0.000000 m /l glyphshow
56.083008 0.000000 m /l glyphshow
58.583496 0.000000 m /i glyphshow
61.083984 0.000000 m /d glyphshow
66.796875 0.000000 m /i glyphshow
69.297363 0.000000 m /n glyphshow
75.001465 0.000000 m /g glyphshow
80.714355 0.000000 m /space glyphshow
83.575195 0.000000 m /c glyphshow
88.523438 0.000000 m /u glyphshow
94.227539 0.000000 m /r glyphshow
97.927734 0.000000 m /v glyphshow
103.253906 0.000000 m /e glyphshow
grestore
0.082 0.690 0.102 setrgbcolor
gsave
180.215625 49.575 m
198.215625 49.575 l
198.215625 55.875 l
180.215625 55.875 l
cl
stroke
grestore
0.000 setgray
gsave
205.415625 49.575000 translate
0.000000 rotate
0.000000 0.000000 m /c glyphshow
4.948242 0.000000 m /h glyphshow
10.652344 0.000000 m /e glyphshow
16.189453 0.000000 m /c glyphshow
21.137695 0.000000 m /k glyphshow
26.349609 0.000000 m /i glyphshow
28.850098 0.000000 m /n glyphshow
34.554199 0.000000 m /g glyphshow
40.267090 0.000000 m /space glyphshow
43.127930 0.000000 m /f glyphshow
46.296387 0.000000 m /r glyphshow
49.996582 0.000000 m /e glyphshow
55.533691 0.000000 m /e glyphshow
61.070801 0.000000 m /space glyphshow
63.931641 0.000000 m /c glyphshow
68.879883 0.000000 m /u glyphshow
74.583984 0.000000 m /r glyphshow
78.284180 0.000000 m /v glyphshow
83.610352 0.000000 m /e glyphshow
grestore

end
showpage
