%!PS-Adobe-3.0 EPSF-3.0
%%Title: /home/thaiduong/repo/papers/CoRL2019/figures/check_line_examples_green.eps
%%Creator: matplotlib version 3.0.2, http://matplotlib.org/
%%CreationDate: Mon Jun 17 23:06:49 2019
%%Orientation: portrait
%%BoundingBox: 126 216 486 576
%%EndComments
%%BeginProlog
/mpldict 9 dict def
mpldict begin
/m { moveto } bind def
/l { lineto } bind def
/r { rlineto } bind def
/c { curveto } bind def
/cl { closepath } bind def
/box {
m
1 index 0 r
0 exch r
neg 0 r
cl
} bind def
/clipbox {
box
clip
newpath
} bind def
%!PS-Adobe-3.0 Resource-Font
%%Title: DejaVu Sans
%%Copyright: Copyright (c) 2003 by Bitstream, Inc. All Rights Reserved. Copyright (c) 2006 by Tavmjong Bah. All Rights Reserved. DejaVu changes are in public domain 
%%Creator: Converted from TrueType to type 3 by PPR
25 dict begin
/_d{bind def}bind def
/_m{moveto}_d
/_l{lineto}_d
/_cl{closepath eofill}_d
/_c{curveto}_d
/_sc{7 -1 roll{setcachedevice}{pop pop pop pop pop pop}ifelse}_d
/_e{exec}_d
/FontName /DejaVuSans def
/PaintType 0 def
/FontMatrix[.001 0 0 .001 0 0]def
/FontBBox[-1021 -463 1793 1232]def
/FontType 3 def
/Encoding [ /space /quotesingle /zero /one /two /four /six /eight /A /B /a /b /c /d /e /g /i /l /m /n /o /p /r /s /t /u /y /minus ] def
/FontInfo 10 dict dup begin
/FamilyName (DejaVu Sans) def
/FullName (DejaVu Sans) def
/Notice (Copyright (c) 2003 by Bitstream, Inc. All Rights Reserved. Copyright (c) 2006 by Tavmjong Bah. All Rights Reserved. DejaVu changes are in public domain ) def
/Weight (Book) def
/Version (Version 2.35) def
/ItalicAngle 0.0 def
/isFixedPitch false def
/UnderlinePosition -130 def
/UnderlineThickness 90 def
end readonly def
/CharStrings 29 dict dup begin
/.notdef 0 def
/space{318 0 0 0 0 0 _sc
}_d
/quotesingle{275 0 96 458 179 729 _sc
179 729 _m
179 458 _l
96 458 _l
96 729 _l
179 729 _l
_cl}_d
/zero{636 0 66 -13 570 742 _sc
318 664 _m
267 664 229 639 203 589 _c
177 539 165 464 165 364 _c
165 264 177 189 203 139 _c
229 89 267 64 318 64 _c
369 64 407 89 433 139 _c
458 189 471 264 471 364 _c
471 464 458 539 433 589 _c
407 639 369 664 318 664 _c
318 742 _m
399 742 461 709 505 645 _c
548 580 570 486 570 364 _c
570 241 548 147 505 83 _c
461 19 399 -13 318 -13 _c
236 -13 173 19 130 83 _c
87 147 66 241 66 364 _c
66 486 87 580 130 645 _c
173 709 236 742 318 742 _c
_cl}_d
/one{636 0 110 0 544 729 _sc
124 83 _m
285 83 _l
285 639 _l
110 604 _l
110 694 _l
284 729 _l
383 729 _l
383 83 _l
544 83 _l
544 0 _l
124 0 _l
124 83 _l
_cl}_d
/two{{636 0 73 0 536 742 _sc
192 83 _m
536 83 _l
536 0 _l
73 0 _l
73 83 _l
110 121 161 173 226 239 _c
290 304 331 346 348 365 _c
380 400 402 430 414 455 _c
426 479 433 504 433 528 _c
433 566 419 598 392 622 _c
365 646 330 659 286 659 _c
255 659 222 653 188 643 _c
154 632 117 616 78 594 _c
78 694 _l
118 710 155 722 189 730 _c
223 738 255 742 284 742 _c
}_e{359 742 419 723 464 685 _c
509 647 532 597 532 534 _c
532 504 526 475 515 449 _c
504 422 484 390 454 354 _c
446 344 420 317 376 272 _c
332 227 271 164 192 83 _c
_cl}_e}_d
/four{636 0 49 0 580 729 _sc
378 643 _m
129 254 _l
378 254 _l
378 643 _l
352 729 _m
476 729 _l
476 254 _l
580 254 _l
580 172 _l
476 172 _l
476 0 _l
378 0 _l
378 172 _l
49 172 _l
49 267 _l
352 729 _l
_cl}_d
/six{{636 0 70 -13 573 742 _sc
330 404 _m
286 404 251 388 225 358 _c
199 328 186 286 186 234 _c
186 181 199 139 225 109 _c
251 79 286 64 330 64 _c
374 64 409 79 435 109 _c
461 139 474 181 474 234 _c
474 286 461 328 435 358 _c
409 388 374 404 330 404 _c
526 713 _m
526 623 _l
501 635 476 644 451 650 _c
425 656 400 659 376 659 _c
310 659 260 637 226 593 _c
}_e{192 549 172 482 168 394 _c
187 422 211 444 240 459 _c
269 474 301 482 336 482 _c
409 482 467 459 509 415 _c
551 371 573 310 573 234 _c
573 159 550 99 506 54 _c
462 9 403 -13 330 -13 _c
246 -13 181 19 137 83 _c
92 147 70 241 70 364 _c
70 479 97 571 152 639 _c
206 707 280 742 372 742 _c
396 742 421 739 447 735 _c
472 730 498 723 526 713 _c
_cl}_e}_d
/eight{{636 0 68 -13 568 742 _sc
318 346 _m
271 346 234 333 207 308 _c
180 283 167 249 167 205 _c
167 161 180 126 207 101 _c
234 76 271 64 318 64 _c
364 64 401 76 428 102 _c
455 127 469 161 469 205 _c
469 249 455 283 429 308 _c
402 333 365 346 318 346 _c
219 388 _m
177 398 144 418 120 447 _c
96 476 85 511 85 553 _c
85 611 105 657 147 691 _c
188 725 245 742 318 742 _c
}_e{390 742 447 725 489 691 _c
530 657 551 611 551 553 _c
551 511 539 476 515 447 _c
491 418 459 398 417 388 _c
464 377 501 355 528 323 _c
554 291 568 251 568 205 _c
568 134 546 80 503 43 _c
459 5 398 -13 318 -13 _c
237 -13 175 5 132 43 _c
89 80 68 134 68 205 _c
68 251 81 291 108 323 _c
134 355 171 377 219 388 _c
183 544 _m
183 506 194 476 218 455 _c
}_e{242 434 275 424 318 424 _c
360 424 393 434 417 455 _c
441 476 453 506 453 544 _c
453 582 441 611 417 632 _c
393 653 360 664 318 664 _c
275 664 242 653 218 632 _c
194 611 183 582 183 544 _c
_cl}_e}_d
/A{684 0 8 0 676 729 _sc
342 632 _m
208 269 _l
476 269 _l
342 632 _l
286 729 _m
398 729 _l
676 0 _l
573 0 _l
507 187 _l
178 187 _l
112 0 _l
8 0 _l
286 729 _l
_cl}_d
/B{{686 0 98 0 615 729 _sc
197 348 _m
197 81 _l
355 81 _l
408 81 447 92 473 114 _c
498 136 511 169 511 215 _c
511 260 498 293 473 315 _c
447 337 408 348 355 348 _c
197 348 _l
197 648 _m
197 428 _l
343 428 _l
391 428 426 437 450 455 _c
474 473 486 500 486 538 _c
486 574 474 602 450 620 _c
426 638 391 648 343 648 _c
197 648 _l
98 729 _m
350 729 _l
}_e{425 729 483 713 524 682 _c
564 650 585 606 585 549 _c
585 504 574 468 553 442 _c
532 416 502 399 462 393 _c
510 382 548 360 575 327 _c
601 294 615 253 615 204 _c
615 138 592 88 548 53 _c
504 17 441 0 360 0 _c
98 0 _l
98 729 _l
_cl}_e}_d
/a{{613 0 60 -13 522 560 _sc
343 275 _m
270 275 220 266 192 250 _c
164 233 150 205 150 165 _c
150 133 160 107 181 89 _c
202 70 231 61 267 61 _c
317 61 357 78 387 114 _c
417 149 432 196 432 255 _c
432 275 _l
343 275 _l
522 312 _m
522 0 _l
432 0 _l
432 83 _l
411 49 385 25 355 10 _c
325 -5 287 -13 243 -13 _c
187 -13 142 2 109 33 _c
76 64 60 106 60 159 _c
}_e{60 220 80 266 122 298 _c
163 329 224 345 306 345 _c
432 345 _l
432 354 _l
432 395 418 427 391 450 _c
364 472 326 484 277 484 _c
245 484 215 480 185 472 _c
155 464 127 453 100 439 _c
100 522 _l
132 534 164 544 195 550 _c
226 556 256 560 286 560 _c
365 560 424 539 463 498 _c
502 457 522 395 522 312 _c
_cl}_e}_d
/b{{635 0 91 -13 580 760 _sc
487 273 _m
487 339 473 390 446 428 _c
418 466 381 485 334 485 _c
286 485 249 466 222 428 _c
194 390 181 339 181 273 _c
181 207 194 155 222 117 _c
249 79 286 61 334 61 _c
381 61 418 79 446 117 _c
473 155 487 207 487 273 _c
181 464 _m
199 496 223 520 252 536 _c
281 552 316 560 356 560 _c
422 560 476 533 518 481 _c
559 428 580 359 580 273 _c
}_e{580 187 559 117 518 65 _c
476 13 422 -13 356 -13 _c
316 -13 281 -5 252 10 _c
223 25 199 49 181 82 _c
181 0 _l
91 0 _l
91 760 _l
181 760 _l
181 464 _l
_cl}_e}_d
/c{{550 0 55 -13 488 560 _sc
488 526 _m
488 442 _l
462 456 437 466 411 473 _c
385 480 360 484 334 484 _c
276 484 230 465 198 428 _c
166 391 150 339 150 273 _c
150 206 166 154 198 117 _c
230 80 276 62 334 62 _c
360 62 385 65 411 72 _c
437 79 462 90 488 104 _c
488 21 _l
462 9 436 0 410 -5 _c
383 -10 354 -13 324 -13 _c
242 -13 176 12 128 64 _c
}_e{79 115 55 185 55 273 _c
55 362 79 432 128 483 _c
177 534 244 560 330 560 _c
358 560 385 557 411 551 _c
437 545 463 537 488 526 _c
_cl}_e}_d
/d{{635 0 55 -13 544 760 _sc
454 464 _m
454 760 _l
544 760 _l
544 0 _l
454 0 _l
454 82 _l
435 49 411 25 382 10 _c
353 -5 319 -13 279 -13 _c
213 -13 159 13 117 65 _c
75 117 55 187 55 273 _c
55 359 75 428 117 481 _c
159 533 213 560 279 560 _c
319 560 353 552 382 536 _c
411 520 435 496 454 464 _c
148 273 _m
148 207 161 155 188 117 _c
215 79 253 61 301 61 _c
}_e{348 61 385 79 413 117 _c
440 155 454 207 454 273 _c
454 339 440 390 413 428 _c
385 466 348 485 301 485 _c
253 485 215 466 188 428 _c
161 390 148 339 148 273 _c
_cl}_e}_d
/e{{615 0 55 -13 562 560 _sc
562 296 _m
562 252 _l
149 252 _l
153 190 171 142 205 110 _c
238 78 284 62 344 62 _c
378 62 412 66 444 74 _c
476 82 509 95 541 113 _c
541 28 _l
509 14 476 3 442 -3 _c
408 -9 373 -13 339 -13 _c
251 -13 182 12 131 62 _c
80 112 55 181 55 268 _c
55 357 79 428 127 481 _c
175 533 241 560 323 560 _c
397 560 455 536 498 489 _c
}_e{540 441 562 377 562 296 _c
472 322 _m
471 371 457 410 431 440 _c
404 469 368 484 324 484 _c
274 484 234 469 204 441 _c
174 413 156 373 152 322 _c
472 322 _l
_cl}_e}_d
/g{{635 0 55 -207 544 560 _sc
454 280 _m
454 344 440 395 414 431 _c
387 467 349 485 301 485 _c
253 485 215 467 188 431 _c
161 395 148 344 148 280 _c
148 215 161 165 188 129 _c
215 93 253 75 301 75 _c
349 75 387 93 414 129 _c
440 165 454 215 454 280 _c
544 68 _m
544 -24 523 -93 482 -139 _c
440 -184 377 -207 292 -207 _c
260 -207 231 -204 203 -200 _c
175 -195 147 -188 121 -178 _c
}_e{121 -91 _l
147 -105 173 -115 199 -122 _c
225 -129 251 -133 278 -133 _c
336 -133 380 -117 410 -87 _c
439 -56 454 -10 454 52 _c
454 96 _l
435 64 411 40 382 24 _c
353 8 319 0 279 0 _c
211 0 157 25 116 76 _c
75 127 55 195 55 280 _c
55 364 75 432 116 483 _c
157 534 211 560 279 560 _c
319 560 353 552 382 536 _c
411 520 435 496 454 464 _c
454 547 _l
544 547 _l
}_e{544 68 _l
_cl}_e}_d
/i{278 0 94 0 184 760 _sc
94 547 _m
184 547 _l
184 0 _l
94 0 _l
94 547 _l
94 760 _m
184 760 _l
184 646 _l
94 646 _l
94 760 _l
_cl}_d
/l{278 0 94 0 184 760 _sc
94 760 _m
184 760 _l
184 0 _l
94 0 _l
94 760 _l
_cl}_d
/m{{974 0 91 0 889 560 _sc
520 442 _m
542 482 569 511 600 531 _c
631 550 668 560 711 560 _c
767 560 811 540 842 500 _c
873 460 889 403 889 330 _c
889 0 _l
799 0 _l
799 327 _l
799 379 789 418 771 444 _c
752 469 724 482 686 482 _c
639 482 602 466 575 435 _c
548 404 535 362 535 309 _c
535 0 _l
445 0 _l
445 327 _l
445 379 435 418 417 444 _c
398 469 369 482 331 482 _c
}_e{285 482 248 466 221 435 _c
194 404 181 362 181 309 _c
181 0 _l
91 0 _l
91 547 _l
181 547 _l
181 462 _l
201 495 226 520 255 536 _c
283 552 317 560 357 560 _c
397 560 430 550 458 530 _c
486 510 506 480 520 442 _c
_cl}_e}_d
/n{634 0 91 0 549 560 _sc
549 330 _m
549 0 _l
459 0 _l
459 327 _l
459 379 448 417 428 443 _c
408 469 378 482 338 482 _c
289 482 251 466 223 435 _c
195 404 181 362 181 309 _c
181 0 _l
91 0 _l
91 547 _l
181 547 _l
181 462 _l
202 494 227 519 257 535 _c
286 551 320 560 358 560 _c
420 560 468 540 500 501 _c
532 462 549 405 549 330 _c
_cl}_d
/o{612 0 55 -13 557 560 _sc
306 484 _m
258 484 220 465 192 427 _c
164 389 150 338 150 273 _c
150 207 163 156 191 118 _c
219 80 257 62 306 62 _c
354 62 392 80 420 118 _c
448 156 462 207 462 273 _c
462 337 448 389 420 427 _c
392 465 354 484 306 484 _c
306 560 _m
384 560 445 534 490 484 _c
534 433 557 363 557 273 _c
557 183 534 113 490 63 _c
445 12 384 -13 306 -13 _c
227 -13 165 12 121 63 _c
77 113 55 183 55 273 _c
55 363 77 433 121 484 _c
165 534 227 560 306 560 _c
_cl}_d
/p{{635 0 91 -207 580 560 _sc
181 82 _m
181 -207 _l
91 -207 _l
91 547 _l
181 547 _l
181 464 _l
199 496 223 520 252 536 _c
281 552 316 560 356 560 _c
422 560 476 533 518 481 _c
559 428 580 359 580 273 _c
580 187 559 117 518 65 _c
476 13 422 -13 356 -13 _c
316 -13 281 -5 252 10 _c
223 25 199 49 181 82 _c
487 273 _m
487 339 473 390 446 428 _c
418 466 381 485 334 485 _c
}_e{286 485 249 466 222 428 _c
194 390 181 339 181 273 _c
181 207 194 155 222 117 _c
249 79 286 61 334 61 _c
381 61 418 79 446 117 _c
473 155 487 207 487 273 _c
_cl}_e}_d
/r{411 0 91 0 411 560 _sc
411 463 _m
401 469 390 473 378 476 _c
366 478 353 480 339 480 _c
288 480 249 463 222 430 _c
194 397 181 350 181 288 _c
181 0 _l
91 0 _l
91 547 _l
181 547 _l
181 462 _l
199 495 224 520 254 536 _c
284 552 321 560 365 560 _c
371 560 378 559 386 559 _c
393 558 401 557 411 555 _c
411 463 _l
_cl}_d
/s{{521 0 54 -13 472 560 _sc
443 531 _m
443 446 _l
417 458 391 468 364 475 _c
336 481 308 485 279 485 _c
234 485 200 478 178 464 _c
156 450 145 430 145 403 _c
145 382 153 366 169 354 _c
185 342 217 330 265 320 _c
296 313 _l
360 299 405 279 432 255 _c
458 230 472 195 472 151 _c
472 100 452 60 412 31 _c
372 1 316 -13 246 -13 _c
216 -13 186 -10 154 -5 _c
}_e{122 0 89 8 54 20 _c
54 113 _l
87 95 120 82 152 74 _c
184 65 216 61 248 61 _c
290 61 323 68 346 82 _c
368 96 380 117 380 144 _c
380 168 371 187 355 200 _c
339 213 303 226 247 238 _c
216 245 _l
160 257 119 275 95 299 _c
70 323 58 356 58 399 _c
58 450 76 490 112 518 _c
148 546 200 560 268 560 _c
301 560 332 557 362 552 _c
391 547 418 540 443 531 _c
}_e{_cl}_e}_d
/t{392 0 27 0 368 702 _sc
183 702 _m
183 547 _l
368 547 _l
368 477 _l
183 477 _l
183 180 _l
183 135 189 106 201 94 _c
213 81 238 75 276 75 _c
368 75 _l
368 0 _l
276 0 _l
206 0 158 13 132 39 _c
106 65 93 112 93 180 _c
93 477 _l
27 477 _l
27 547 _l
93 547 _l
93 702 _l
183 702 _l
_cl}_d
/u{634 0 85 -13 543 560 _sc
85 216 _m
85 547 _l
175 547 _l
175 219 _l
175 167 185 129 205 103 _c
225 77 255 64 296 64 _c
344 64 383 79 411 110 _c
439 141 453 183 453 237 _c
453 547 _l
543 547 _l
543 0 _l
453 0 _l
453 84 _l
431 50 405 26 377 10 _c
348 -5 315 -13 277 -13 _c
214 -13 166 6 134 45 _c
101 83 85 140 85 216 _c
311 560 _m
311 560 _l
_cl}_d
/y{592 0 30 -207 562 547 _sc
322 -50 _m
296 -114 271 -157 247 -177 _c
223 -197 191 -207 151 -207 _c
79 -207 _l
79 -132 _l
132 -132 _l
156 -132 175 -126 189 -114 _c
203 -102 218 -75 235 -31 _c
251 9 _l
30 547 _l
125 547 _l
296 119 _l
467 547 _l
562 547 _l
322 -50 _l
_cl}_d
/minus{838 0 106 272 732 355 _sc
106 355 _m
732 355 _l
732 272 _l
106 272 _l
106 355 _l
_cl}_d
end readonly def

/BuildGlyph
 {exch begin
 CharStrings exch
 2 copy known not{pop /.notdef}if
 true 3 1 roll get exec
 end}_d

/BuildChar {
 1 index /Encoding get exch get
 1 index /BuildGlyph get exec
}_d

FontName currentdict end definefont pop
%!PS-Adobe-3.0 Resource-Font
%%Title: DejaVu Sans Oblique
%%Copyright: Copyright (c) 2003 by Bitstream, Inc. All Rights Reserved. Copyright (c) 2006 by Tavmjong Bah. All Rights Reserved. DejaVu changes are in public domain 
%%Creator: Converted from TrueType to type 3 by PPR
25 dict begin
/_d{bind def}bind def
/_m{moveto}_d
/_l{lineto}_d
/_cl{closepath eofill}_d
/_c{curveto}_d
/_sc{7 -1 roll{setcachedevice}{pop pop pop pop pop pop}ifelse}_d
/_e{exec}_d
/FontName /DejaVuSans-Oblique def
/PaintType 0 def
/FontMatrix[.001 0 0 .001 0 0]def
/FontBBox[-1016 -350 1659 1068]def
/FontType 3 def
/Encoding [ /A /B /t /u ] def
/FontInfo 10 dict dup begin
/FamilyName (DejaVu Sans) def
/FullName (DejaVu Sans Oblique) def
/Notice (Copyright (c) 2003 by Bitstream, Inc. All Rights Reserved. Copyright (c) 2006 by Tavmjong Bah. All Rights Reserved. DejaVu changes are in public domain ) def
/Weight (Oblique) def
/Version (Version 2.35) def
/ItalicAngle -11.0 def
/isFixedPitch false def
/UnderlinePosition -130 def
/UnderlineThickness 90 def
end readonly def
/CharStrings 5 dict dup begin
/.notdef 0 def
/A{684 0 -52 0 615 729 _sc
368 729 _m
480 729 _l
615 0 _l
512 0 _l
482 187 _l
154 187 _l
51 0 _l
-52 0 _l
368 729 _l
404 632 _m
199 269 _l
467 269 _l
404 632 _l
_cl}_d
/B{{686 0 27 0 625 729 _sc
169 729 _m
421 729 _l
489 729 540 716 574 691 _c
608 665 625 627 625 576 _c
625 529 610 489 581 455 _c
552 421 514 400 467 393 _c
507 383 537 366 557 340 _c
577 314 588 280 588 238 _c
588 164 560 106 506 64 _c
452 21 378 0 284 0 _c
27 0 _l
169 729 _l
193 348 _m
141 81 _l
300 81 _l
359 81 405 94 437 122 _c
469 149 486 188 486 238 _c
}_e{486 276 475 303 454 321 _c
432 339 398 348 351 348 _c
193 348 _l
251 648 _m
208 428 _l
355 428 _l
407 428 448 439 478 462 _c
507 485 522 517 522 557 _c
522 588 512 611 492 626 _c
472 640 440 648 397 648 _c
251 648 _l
_cl}_e}_d
/t{{392 0 64 0 423 702 _sc
423 547 _m
409 477 _l
230 477 _l
172 180 _l
170 169 168 160 167 152 _c
166 144 166 139 166 135 _c
166 114 172 99 185 89 _c
197 79 217 75 245 75 _c
336 75 _l
321 0 _l
235 0 _l
181 0 141 10 115 31 _c
89 52 76 84 76 126 _c
76 133 76 141 77 150 _c
78 159 80 169 82 180 _c
140 477 _l
64 477 _l
78 547 _l
153 547 _l
183 702 _l
}_e{273 702 _l
243 547 _l
423 547 _l
_cl}_e}_d
/u{{634 0 57 -13 589 547 _sc
67 217 _m
131 547 _l
221 547 _l
157 220 _l
153 204 151 190 150 179 _c
148 167 148 158 148 151 _c
148 123 156 101 173 86 _c
190 71 214 64 245 64 _c
293 64 334 80 370 113 _c
405 145 428 189 439 244 _c
499 547 _l
589 547 _l
483 0 _l
393 0 _l
411 86 _l
385 54 355 29 320 12 _c
285 -4 248 -13 209 -13 _c
161 -13 123 0 97 25 _c
}_e{70 51 57 87 57 135 _c
57 144 57 156 59 171 _c
61 185 63 201 67 217 _c
_cl}_e}_d
end readonly def

/BuildGlyph
 {exch begin
 CharStrings exch
 2 copy known not{pop /.notdef}if
 true 3 1 roll get exec
 end}_d

/BuildChar {
 1 index /Encoding get exch get
 1 index /BuildGlyph get exec
}_d

FontName currentdict end definefont pop
end
%%EndProlog
mpldict begin
126 216 translate
360 360 0 0 clipbox
gsave
0 0 m
360 0 l
360 360 l
0 360 l
cl
1.000 setgray
fill
grestore
gsave
45 39.6 m
324 39.6 l
324 316.8 l
45 316.8 l
cl
1.000 setgray
fill
grestore
1.000 setlinewidth
1 setlinejoin
0 setlinecap
[] 0 setdash
0.898 0.000 0.000 setrgbcolor
gsave
279 277.2 45 39.6 clipbox
/o {
gsave
newpath
translate
1.0 setlinewidth
1 setlinejoin
0 setlinecap
0 -3.872983 m
1.027127 -3.872983 2.012324 -3.464901 2.738613 -2.738613 c
3.464901 -2.012324 3.872983 -1.027127 3.872983 0 c
3.872983 1.027127 3.464901 2.012324 2.738613 2.738613 c
2.012324 3.464901 1.027127 3.872983 0 3.872983 c
-1.027127 3.872983 -2.012324 3.464901 -2.738613 2.738613 c
-3.464901 2.012324 -3.872983 1.027127 -3.872983 0 c
-3.872983 -1.027127 -3.464901 -2.012324 -2.738613 -2.738613 c
-2.012324 -3.464901 -1.027127 -3.872983 0 -3.872983 c
cl

gsave
0.898 0.000 0.000 setrgbcolor
fill
grestore
stroke
grestore
} bind def
278.32 255.027 o
grestore
gsave
279 277.2 45 39.6 clipbox
/o {
gsave
newpath
translate
1.0 setlinewidth
1 setlinejoin
0 setlinecap
0 -3.872983 m
1.027127 -3.872983 2.012324 -3.464901 2.738613 -2.738613 c
3.464901 -2.012324 3.872983 -1.027127 3.872983 0 c
3.872983 1.027127 3.464901 2.012324 2.738613 2.738613 c
2.012324 3.464901 1.027127 3.872983 0 3.872983 c
-1.027127 3.872983 -2.012324 3.464901 -2.738613 2.738613 c
-3.464901 2.012324 -3.872983 1.027127 -3.872983 0 c
-3.872983 -1.027127 -3.464901 -2.012324 -2.738613 -2.738613 c
-2.012324 -3.464901 -1.027127 -3.872983 0 -3.872983 c
cl

gsave
0.898 0.000 0.000 setrgbcolor
fill
grestore
stroke
grestore
} bind def
253.185 255.027 o
grestore
gsave
279 277.2 45 39.6 clipbox
/o {
gsave
newpath
translate
1.0 setlinewidth
1 setlinejoin
0 setlinecap
0 -3.872983 m
1.027127 -3.872983 2.012324 -3.464901 2.738613 -2.738613 c
3.464901 -2.012324 3.872983 -1.027127 3.872983 0 c
3.872983 1.027127 3.464901 2.012324 2.738613 2.738613 c
2.012324 3.464901 1.027127 3.872983 0 3.872983 c
-1.027127 3.872983 -2.012324 3.464901 -2.738613 2.738613 c
-3.464901 2.012324 -3.872983 1.027127 -3.872983 0 c
-3.872983 -1.027127 -3.464901 -2.012324 -2.738613 -2.738613 c
-2.012324 -3.464901 -1.027127 -3.872983 0 -3.872983 c
cl

gsave
0.898 0.000 0.000 setrgbcolor
fill
grestore
stroke
grestore
} bind def
236.125 255.027 o
grestore
1.500 setlinewidth
gsave
279 277.2 45 39.6 clipbox
/o {
gsave
newpath
translate
1.5 setlinewidth
1 setlinejoin
0 setlinecap
-3.872983 -3.872983 m
3.872983 3.872983 l
-3.872983 3.872983 m
3.872983 -3.872983 l

gsave
0.898 0.000 0.000 setrgbcolor
fill
grestore
stroke
grestore
} bind def
255.851 288.973 o
grestore
1.000 setlinewidth
gsave
279 277.2 45 39.6 clipbox
/o {
gsave
newpath
translate
1.0 setlinewidth
1 setlinejoin
0 setlinecap
0 -3.872983 m
1.027127 -3.872983 2.012324 -3.464901 2.738613 -2.738613 c
3.464901 -2.012324 3.872983 -1.027127 3.872983 0 c
3.872983 1.027127 3.464901 2.012324 2.738613 2.738613 c
2.012324 3.464901 1.027127 3.872983 0 3.872983 c
-1.027127 3.872983 -2.012324 3.464901 -2.738613 2.738613 c
-3.464901 2.012324 -3.872983 1.027127 -3.872983 0 c
-3.872983 -1.027127 -3.464901 -2.012324 -2.738613 -2.738613 c
-2.012324 -3.464901 -1.027127 -3.872983 0 -3.872983 c
cl

gsave
0.898 0.000 0.000 setrgbcolor
fill
grestore
stroke
grestore
} bind def
222.795 255.027 o
grestore
1.500 setlinewidth
gsave
279 277.2 45 39.6 clipbox
/o {
gsave
newpath
translate
1.5 setlinewidth
1 setlinejoin
0 setlinecap
-3.872983 -3.872983 m
3.872983 3.872983 l
-3.872983 3.872983 m
3.872983 -3.872983 l

gsave
0.898 0.000 0.000 setrgbcolor
fill
grestore
stroke
grestore
} bind def
233.896 288.973 o
grestore
1.000 setlinewidth
gsave
279 277.2 45 39.6 clipbox
/o {
gsave
newpath
translate
1.0 setlinewidth
1 setlinejoin
0 setlinecap
0 -3.872983 m
1.027127 -3.872983 2.012324 -3.464901 2.738613 -2.738613 c
3.464901 -2.012324 3.872983 -1.027127 3.872983 0 c
3.872983 1.027127 3.464901 2.012324 2.738613 2.738613 c
2.012324 3.464901 1.027127 3.872983 0 3.872983 c
-1.027127 3.872983 -2.012324 3.464901 -2.738613 2.738613 c
-3.464901 2.012324 -3.872983 1.027127 -3.872983 0 c
-3.872983 -1.027127 -3.464901 -2.012324 -2.738613 -2.738613 c
-2.012324 -3.464901 -1.027127 -3.872983 0 -3.872983 c
cl

gsave
0.898 0.000 0.000 setrgbcolor
fill
grestore
stroke
grestore
} bind def
188.901 253.734 o
grestore
1.500 setlinewidth
gsave
279 277.2 45 39.6 clipbox
/o {
gsave
newpath
translate
1.5 setlinewidth
1 setlinejoin
0 setlinecap
-3.872983 -3.872983 m
3.872983 3.872983 l
-3.872983 3.872983 m
3.872983 -3.872983 l

gsave
0.898 0.000 0.000 setrgbcolor
fill
grestore
stroke
grestore
} bind def
184.702 266.573 o
grestore
1.000 setlinewidth
gsave
279 277.2 45 39.6 clipbox
/o {
gsave
newpath
translate
1.0 setlinewidth
1 setlinejoin
0 setlinecap
0 -3.872983 m
1.027127 -3.872983 2.012324 -3.464901 2.738613 -2.738613 c
3.464901 -2.012324 3.872983 -1.027127 3.872983 0 c
3.872983 1.027127 3.464901 2.012324 2.738613 2.738613 c
2.012324 3.464901 1.027127 3.872983 0 3.872983 c
-1.027127 3.872983 -2.012324 3.464901 -2.738613 2.738613 c
-3.464901 2.012324 -3.872983 1.027127 -3.872983 0 c
-3.872983 -1.027127 -3.464901 -2.012324 -2.738613 -2.738613 c
-2.012324 -3.464901 -1.027127 -3.872983 0 -3.872983 c
cl

gsave
0.898 0.000 0.000 setrgbcolor
fill
grestore
stroke
grestore
} bind def
188.164 232.627 o
grestore
1.500 setlinewidth
gsave
279 277.2 45 39.6 clipbox
/o {
gsave
newpath
translate
1.5 setlinewidth
1 setlinejoin
0 setlinecap
-3.872983 -3.872983 m
3.872983 3.872983 l
-3.872983 3.872983 m
3.872983 -3.872983 l

gsave
0.898 0.000 0.000 setrgbcolor
fill
grestore
stroke
grestore
} bind def
168.439 266.573 o
grestore
1.000 setlinewidth
gsave
279 277.2 45 39.6 clipbox
/o {
gsave
newpath
translate
1.0 setlinewidth
1 setlinejoin
0 setlinecap
0 -3.872983 m
1.027127 -3.872983 2.012324 -3.464901 2.738613 -2.738613 c
3.464901 -2.012324 3.872983 -1.027127 3.872983 0 c
3.872983 1.027127 3.464901 2.012324 2.738613 2.738613 c
2.012324 3.464901 1.027127 3.872983 0 3.872983 c
-1.027127 3.872983 -2.012324 3.464901 -2.738613 2.738613 c
-3.464901 2.012324 -3.872983 1.027127 -3.872983 0 c
-3.872983 -1.027127 -3.464901 -2.012324 -2.738613 -2.738613 c
-2.012324 -3.464901 -1.027127 -3.872983 0 -3.872983 c
cl

gsave
0.898 0.000 0.000 setrgbcolor
fill
grestore
stroke
grestore
} bind def
178.388 232.627 o
grestore
1.500 setlinewidth
gsave
279 277.2 45 39.6 clipbox
/o {
gsave
newpath
translate
1.5 setlinewidth
1 setlinejoin
0 setlinecap
-3.872983 -3.872983 m
3.872983 3.872983 l
-3.872983 3.872983 m
3.872983 -3.872983 l

gsave
0.898 0.000 0.000 setrgbcolor
fill
grestore
stroke
grestore
} bind def
147.625 266.573 o
grestore
1.000 setlinewidth
gsave
279 277.2 45 39.6 clipbox
/o {
gsave
newpath
translate
1.0 setlinewidth
1 setlinejoin
0 setlinecap
0 -3.872983 m
1.027127 -3.872983 2.012324 -3.464901 2.738613 -2.738613 c
3.464901 -2.012324 3.872983 -1.027127 3.872983 0 c
3.872983 1.027127 3.464901 2.012324 2.738613 2.738613 c
2.012324 3.464901 1.027127 3.872983 0 3.872983 c
-1.027127 3.872983 -2.012324 3.464901 -2.738613 2.738613 c
-3.464901 2.012324 -3.872983 1.027127 -3.872983 0 c
-3.872983 -1.027127 -3.464901 -2.012324 -2.738613 -2.738613 c
-2.012324 -3.464901 -1.027127 -3.872983 0 -3.872983 c
cl

gsave
0.898 0.000 0.000 setrgbcolor
fill
grestore
stroke
grestore
} bind def
166.356 230.915 o
grestore
1.500 setlinewidth
gsave
279 277.2 45 39.6 clipbox
/o {
gsave
newpath
translate
1.5 setlinewidth
1 setlinejoin
0 setlinecap
-3.872983 -3.872983 m
3.872983 3.872983 l
-3.872983 3.872983 m
3.872983 -3.872983 l

gsave
0.898 0.000 0.000 setrgbcolor
fill
grestore
stroke
grestore
} bind def
132.19 255.578 o
grestore
1.000 setlinewidth
gsave
279 277.2 45 39.6 clipbox
/o {
gsave
newpath
translate
1.0 setlinewidth
1 setlinejoin
0 setlinecap
0 -3.872983 m
1.027127 -3.872983 2.012324 -3.464901 2.738613 -2.738613 c
3.464901 -2.012324 3.872983 -1.027127 3.872983 0 c
3.872983 1.027127 3.464901 2.012324 2.738613 2.738613 c
2.012324 3.464901 1.027127 3.872983 0 3.872983 c
-1.027127 3.872983 -2.012324 3.464901 -2.738613 2.738613 c
-3.464901 2.012324 -3.872983 1.027127 -3.872983 0 c
-3.872983 -1.027127 -3.464901 -2.012324 -2.738613 -2.738613 c
-2.012324 -3.464901 -1.027127 -3.872983 0 -3.872983 c
cl

gsave
0.898 0.000 0.000 setrgbcolor
fill
grestore
stroke
grestore
} bind def
166.356 219.936 o
grestore
1.500 setlinewidth
gsave
279 277.2 45 39.6 clipbox
/o {
gsave
newpath
translate
1.5 setlinewidth
1 setlinejoin
0 setlinecap
-3.872983 -3.872983 m
3.872983 3.872983 l
-3.872983 3.872983 m
3.872983 -3.872983 l

gsave
0.898 0.000 0.000 setrgbcolor
fill
grestore
stroke
grestore
} bind def
132.19 235.05 o
grestore
1.000 setlinewidth
gsave
279 277.2 45 39.6 clipbox
/o {
gsave
newpath
translate
1.0 setlinewidth
1 setlinejoin
0 setlinecap
0 -3.872983 m
1.027127 -3.872983 2.012324 -3.464901 2.738613 -2.738613 c
3.464901 -2.012324 3.872983 -1.027127 3.872983 0 c
3.872983 1.027127 3.464901 2.012324 2.738613 2.738613 c
2.012324 3.464901 1.027127 3.872983 0 3.872983 c
-1.027127 3.872983 -2.012324 3.464901 -2.738613 2.738613 c
-3.464901 2.012324 -3.872983 1.027127 -3.872983 0 c
-3.872983 -1.027127 -3.464901 -2.012324 -2.738613 -2.738613 c
-2.012324 -3.464901 -1.027127 -3.872983 0 -3.872983 c
cl

gsave
0.898 0.000 0.000 setrgbcolor
fill
grestore
stroke
grestore
} bind def
166.356 210.856 o
grestore
1.500 setlinewidth
gsave
279 277.2 45 39.6 clipbox
/o {
gsave
newpath
translate
1.5 setlinewidth
1 setlinejoin
0 setlinecap
-3.872983 -3.872983 m
3.872983 3.872983 l
-3.872983 3.872983 m
3.872983 -3.872983 l

gsave
0.898 0.000 0.000 setrgbcolor
fill
grestore
stroke
grestore
} bind def
132.19 218.071 o
grestore
1.000 setlinewidth
gsave
279 277.2 45 39.6 clipbox
/o {
gsave
newpath
translate
1.0 setlinewidth
1 setlinejoin
0 setlinecap
0 -3.872983 m
1.027127 -3.872983 2.012324 -3.464901 2.738613 -2.738613 c
3.464901 -2.012324 3.872983 -1.027127 3.872983 0 c
3.872983 1.027127 3.464901 2.012324 2.738613 2.738613 c
2.012324 3.464901 1.027127 3.872983 0 3.872983 c
-1.027127 3.872983 -2.012324 3.464901 -2.738613 2.738613 c
-3.464901 2.012324 -3.872983 1.027127 -3.872983 0 c
-3.872983 -1.027127 -3.464901 -2.012324 -2.738613 -2.738613 c
-2.012324 -3.464901 -1.027127 -3.872983 0 -3.872983 c
cl

gsave
0.898 0.000 0.000 setrgbcolor
fill
grestore
stroke
grestore
} bind def
166.356 202.56 o
grestore
1.500 setlinewidth
gsave
279 277.2 45 39.6 clipbox
/o {
gsave
newpath
translate
1.5 setlinewidth
1 setlinejoin
0 setlinecap
-3.872983 -3.872983 m
3.872983 3.872983 l
-3.872983 3.872983 m
3.872983 -3.872983 l

gsave
0.898 0.000 0.000 setrgbcolor
fill
grestore
stroke
grestore
} bind def
132.19 202.56 o
grestore
1.000 setlinewidth
gsave
279 277.2 45 39.6 clipbox
/o {
gsave
newpath
translate
1.0 setlinewidth
1 setlinejoin
0 setlinecap
0 -3.872983 m
1.027127 -3.872983 2.012324 -3.464901 2.738613 -2.738613 c
3.464901 -2.012324 3.872983 -1.027127 3.872983 0 c
3.872983 1.027127 3.464901 2.012324 2.738613 2.738613 c
2.012324 3.464901 1.027127 3.872983 0 3.872983 c
-1.027127 3.872983 -2.012324 3.464901 -2.738613 2.738613 c
-3.464901 2.012324 -3.872983 1.027127 -3.872983 0 c
-3.872983 -1.027127 -3.464901 -2.012324 -2.738613 -2.738613 c
-2.012324 -3.464901 -1.027127 -3.872983 0 -3.872983 c
cl

gsave
0.898 0.000 0.000 setrgbcolor
fill
grestore
stroke
grestore
} bind def
166.356 194.264 o
grestore
1.500 setlinewidth
gsave
279 277.2 45 39.6 clipbox
/o {
gsave
newpath
translate
1.5 setlinewidth
1 setlinejoin
0 setlinecap
-3.872983 -3.872983 m
3.872983 3.872983 l
-3.872983 3.872983 m
3.872983 -3.872983 l

gsave
0.898 0.000 0.000 setrgbcolor
fill
grestore
stroke
grestore
} bind def
132.19 187.049 o
grestore
1.000 setlinewidth
gsave
279 277.2 45 39.6 clipbox
/o {
gsave
newpath
translate
1.0 setlinewidth
1 setlinejoin
0 setlinecap
0 -3.872983 m
1.027127 -3.872983 2.012324 -3.464901 2.738613 -2.738613 c
3.464901 -2.012324 3.872983 -1.027127 3.872983 0 c
3.872983 1.027127 3.464901 2.012324 2.738613 2.738613 c
2.012324 3.464901 1.027127 3.872983 0 3.872983 c
-1.027127 3.872983 -2.012324 3.464901 -2.738613 2.738613 c
-3.464901 2.012324 -3.872983 1.027127 -3.872983 0 c
-3.872983 -1.027127 -3.464901 -2.012324 -2.738613 -2.738613 c
-2.012324 -3.464901 -1.027127 -3.872983 0 -3.872983 c
cl

gsave
0.898 0.000 0.000 setrgbcolor
fill
grestore
stroke
grestore
} bind def
166.356 185.184 o
grestore
1.500 setlinewidth
gsave
279 277.2 45 39.6 clipbox
/o {
gsave
newpath
translate
1.5 setlinewidth
1 setlinejoin
0 setlinecap
-3.872983 -3.872983 m
3.872983 3.872983 l
-3.872983 3.872983 m
3.872983 -3.872983 l

gsave
0.898 0.000 0.000 setrgbcolor
fill
grestore
stroke
grestore
} bind def
132.19 170.07 o
grestore
1.000 setlinewidth
gsave
279 277.2 45 39.6 clipbox
/o {
gsave
newpath
translate
1.0 setlinewidth
1 setlinejoin
0 setlinecap
0 -3.872983 m
1.027127 -3.872983 2.012324 -3.464901 2.738613 -2.738613 c
3.464901 -2.012324 3.872983 -1.027127 3.872983 0 c
3.872983 1.027127 3.464901 2.012324 2.738613 2.738613 c
2.012324 3.464901 1.027127 3.872983 0 3.872983 c
-1.027127 3.872983 -2.012324 3.464901 -2.738613 2.738613 c
-3.464901 2.012324 -3.872983 1.027127 -3.872983 0 c
-3.872983 -1.027127 -3.464901 -2.012324 -2.738613 -2.738613 c
-2.012324 -3.464901 -1.027127 -3.872983 0 -3.872983 c
cl

gsave
0.898 0.000 0.000 setrgbcolor
fill
grestore
stroke
grestore
} bind def
166.356 174.205 o
grestore
1.500 setlinewidth
gsave
279 277.2 45 39.6 clipbox
/o {
gsave
newpath
translate
1.5 setlinewidth
1 setlinejoin
0 setlinecap
-3.872983 -3.872983 m
3.872983 3.872983 l
-3.872983 3.872983 m
3.872983 -3.872983 l

gsave
0.898 0.000 0.000 setrgbcolor
fill
grestore
stroke
grestore
} bind def
132.19 149.542 o
grestore
1.000 setlinewidth
gsave
279 277.2 45 39.6 clipbox
/o {
gsave
newpath
translate
1.0 setlinewidth
1 setlinejoin
0 setlinecap
0 -3.872983 m
1.027127 -3.872983 2.012324 -3.464901 2.738613 -2.738613 c
3.464901 -2.012324 3.872983 -1.027127 3.872983 0 c
3.872983 1.027127 3.464901 2.012324 2.738613 2.738613 c
2.012324 3.464901 1.027127 3.872983 0 3.872983 c
-1.027127 3.872983 -2.012324 3.464901 -2.738613 2.738613 c
-3.464901 2.012324 -3.872983 1.027127 -3.872983 0 c
-3.872983 -1.027127 -3.464901 -2.012324 -2.738613 -2.738613 c
-2.012324 -3.464901 -1.027127 -3.872983 0 -3.872983 c
cl

gsave
0.898 0.000 0.000 setrgbcolor
fill
grestore
stroke
grestore
} bind def
166.356 159.216 o
grestore
1.500 setlinewidth
gsave
279 277.2 45 39.6 clipbox
/o {
gsave
newpath
translate
1.5 setlinewidth
1 setlinejoin
0 setlinecap
-3.872983 -3.872983 m
3.872983 3.872983 l
-3.872983 3.872983 m
3.872983 -3.872983 l

gsave
0.898 0.000 0.000 setrgbcolor
fill
grestore
stroke
grestore
} bind def
151.685 143.027 o
grestore
0 setlinejoin
[] 0 setdash
0.082 0.690 0.102 setrgbcolor
gsave
279 277.2 45 39.6 clipbox
315.545455 202.56 m
312.163636 200.88 l
312.163636 202.5516 l
205.636364 202.5516 l
205.636364 202.5684 l
312.163636 202.5684 l
312.163636 204.24 l
cl
gsave
fill
grestore
stroke
grestore
gsave
279 277.2 45 39.6 clipbox
313.143677 225.263957 m
310.18732 222.922085 l
309.837518 224.557157 l
205.638121 202.551784 l
205.634606 202.568216 l
309.834002 224.57359 l
309.4842 226.208661 l
cl
gsave
fill
grestore
stroke
grestore
gsave
279 277.2 45 39.6 clipbox
306.043314 246.975641 m
303.641624 244.07425 l
302.957309 245.601333 l
205.639802 202.552326 l
205.632925 202.567674 l
302.950431 245.61668 l
302.266115 247.143763 l
cl
gsave
fill
grestore
stroke
grestore
gsave
279 277.2 45 39.6 clipbox
294.554686 266.74615 m
292.812629 263.412043 l
291.823707 264.764395 l
205.641333 202.553204 l
205.631394 202.566796 l
291.813768 264.777987 l
290.824846 266.13034 l
cl
gsave
fill
grestore
stroke
grestore
gsave
279 277.2 45 39.6 clipbox
279.1799 283.711415 m
278.173613 280.090309 l
276.923305 281.208828 l
205.642647 202.554379 l
205.630081 202.565621 l
276.910739 281.220069 l
275.660432 282.338588 l
cl
gsave
fill
grestore
stroke
grestore
gsave
279 277.2 45 39.6 clipbox
260.590909 297.129974 m
260.36437 293.380129 l
258.907322 294.215929 l
205.643685 202.5558 l
205.629042 202.5642 l
258.892678 294.224329 l
257.43563 295.060129 l
cl
gsave
fill
grestore
stroke
grestore
gsave
279 277.2 45 39.6 clipbox
239.600141 306.415372 m
240.163251 302.700673 l
238.563142 303.217226 l
205.644404 202.557404 l
205.628323 202.562596 l
238.547061 303.222417 l
236.946951 303.73897 l
cl
gsave
fill
grestore
stroke
grestore
gsave
279 277.2 45 39.6 clipbox
217.124992 311.161791 m
218.453142 307.64459 l
216.779904 307.819319 l
205.644772 202.559122 l
205.627955 202.560878 l
216.763088 307.821075 l
215.08985 307.995805 l
cl
gsave
fill
grestore
stroke
grestore
gsave
279 277.2 45 39.6 clipbox
194.147735 311.161791 m
196.182878 307.995805 l
194.50964 307.821075 l
205.644772 202.560878 l
205.627955 202.559122 l
194.492823 307.819319 l
192.819585 307.64459 l
cl
gsave
fill
grestore
stroke
grestore
gsave
279 277.2 45 39.6 clipbox
171.672587 306.415372 m
174.325776 303.73897 l
172.725667 303.222417 l
205.644404 202.562596 l
205.628323 202.557404 l
172.709585 303.217226 l
171.109476 302.700673 l
cl
gsave
fill
grestore
stroke
grestore
gsave
279 277.2 45 39.6 clipbox
150.681818 297.129974 m
153.837098 295.060129 l
152.380049 294.224329 l
205.643685 202.5642 l
205.629042 202.5558 l
152.365405 294.215929 l
150.908357 293.380129 l
cl
gsave
fill
grestore
stroke
grestore
gsave
279 277.2 45 39.6 clipbox
132.092827 283.711415 m
135.612295 282.338588 l
134.361988 281.220069 l
205.642647 202.565621 l
205.630081 202.554379 l
134.349422 281.208828 l
133.099115 280.090309 l
cl
gsave
fill
grestore
stroke
grestore
gsave
279 277.2 45 39.6 clipbox
116.718041 266.74615 m
120.447881 266.13034 l
119.458959 264.777987 l
205.641333 202.566796 l
205.631394 202.553204 l
119.44902 264.764395 l
118.460098 263.412043 l
cl
gsave
fill
grestore
stroke
grestore
gsave
279 277.2 45 39.6 clipbox
105.229413 246.975641 m
109.006612 247.143763 l
108.322296 245.61668 l
205.639802 202.567674 l
205.632925 202.552326 l
108.315419 245.601333 l
107.631103 244.07425 l
cl
gsave
fill
grestore
stroke
grestore
gsave
279 277.2 45 39.6 clipbox
98.12905 225.263957 m
101.788527 226.208661 l
101.438725 224.57359 l
205.638121 202.568216 l
205.634606 202.551784 l
101.43521 224.557157 l
101.085408 222.922085 l
cl
gsave
fill
grestore
stroke
grestore
gsave
279 277.2 45 39.6 clipbox
95.727273 202.56 m
99.109091 204.24 l
99.109091 202.5684 l
205.636364 202.5684 l
205.636364 202.5516 l
99.109091 202.5516 l
99.109091 200.88 l
cl
gsave
fill
grestore
stroke
grestore
gsave
279 277.2 45 39.6 clipbox
98.12905 179.856043 m
101.085408 182.197915 l
101.43521 180.562843 l
205.634606 202.568216 l
205.638121 202.551784 l
101.438725 180.54641 l
101.788527 178.911339 l
cl
gsave
fill
grestore
stroke
grestore
gsave
279 277.2 45 39.6 clipbox
105.229413 158.144359 m
107.631103 161.04575 l
108.315419 159.518667 l
205.632925 202.567674 l
205.639802 202.552326 l
108.322296 159.50332 l
109.006612 157.976237 l
cl
gsave
fill
grestore
stroke
grestore
gsave
279 277.2 45 39.6 clipbox
116.718041 138.37385 m
118.460098 141.707957 l
119.44902 140.355605 l
205.631394 202.566796 l
205.641333 202.553204 l
119.458959 140.342013 l
120.447881 138.98966 l
cl
gsave
fill
grestore
stroke
grestore
gsave
279 277.2 45 39.6 clipbox
132.092827 121.408585 m
133.099115 125.029691 l
134.349422 123.911172 l
205.630081 202.565621 l
205.642647 202.554379 l
134.361988 123.899931 l
135.612295 122.781412 l
cl
gsave
fill
grestore
stroke
grestore
gsave
279 277.2 45 39.6 clipbox
150.681818 107.990026 m
150.908357 111.739871 l
152.365405 110.904071 l
205.629042 202.5642 l
205.643685 202.5558 l
152.380049 110.895671 l
153.837098 110.059871 l
cl
gsave
fill
grestore
stroke
grestore
gsave
279 277.2 45 39.6 clipbox
171.672587 98.704628 m
171.109476 102.419327 l
172.709585 101.902774 l
205.628323 202.562596 l
205.644404 202.557404 l
172.725667 101.897583 l
174.325776 101.38103 l
cl
gsave
fill
grestore
stroke
grestore
gsave
279 277.2 45 39.6 clipbox
194.147735 93.958209 m
192.819585 97.47541 l
194.492823 97.300681 l
205.627955 202.560878 l
205.644772 202.559122 l
194.50964 97.298925 l
196.182878 97.124195 l
cl
gsave
fill
grestore
stroke
grestore
gsave
279 277.2 45 39.6 clipbox
217.124992 93.958209 m
215.08985 97.124195 l
216.763088 97.298925 l
205.627955 202.559122 l
205.644772 202.560878 l
216.779904 97.300681 l
218.453142 97.47541 l
cl
gsave
fill
grestore
stroke
grestore
gsave
279 277.2 45 39.6 clipbox
239.600141 98.704628 m
236.946951 101.38103 l
238.547061 101.897583 l
205.628323 202.557404 l
205.644404 202.562596 l
238.563142 101.902774 l
240.163251 102.419327 l
cl
gsave
fill
grestore
stroke
grestore
gsave
279 277.2 45 39.6 clipbox
260.590909 107.990026 m
257.43563 110.059871 l
258.892678 110.895671 l
205.629042 202.5558 l
205.643685 202.5642 l
258.907322 110.904071 l
260.36437 111.739871 l
cl
gsave
fill
grestore
stroke
grestore
gsave
279 277.2 45 39.6 clipbox
279.1799 121.408585 m
275.660432 122.781412 l
276.910739 123.899931 l
205.630081 202.554379 l
205.642647 202.565621 l
276.923305 123.911172 l
278.173613 125.029691 l
cl
gsave
fill
grestore
stroke
grestore
gsave
279 277.2 45 39.6 clipbox
294.554686 138.37385 m
290.824846 138.98966 l
291.813768 140.342013 l
205.631394 202.553204 l
205.641333 202.566796 l
291.823707 140.355605 l
292.812629 141.707957 l
cl
gsave
fill
grestore
stroke
grestore
gsave
279 277.2 45 39.6 clipbox
306.043314 158.144359 m
302.266115 157.976237 l
302.950431 159.50332 l
205.632925 202.552326 l
205.639802 202.567674 l
302.957309 159.518667 l
303.641624 161.04575 l
cl
gsave
fill
grestore
stroke
grestore
gsave
279 277.2 45 39.6 clipbox
313.143677 179.856043 m
309.4842 178.911339 l
309.834002 180.54641 l
205.634606 202.551784 l
205.638121 202.568216 l
309.837518 180.562843 l
310.18732 182.197915 l
cl
gsave
fill
grestore
stroke
grestore
0.800 setlinewidth
1 setlinejoin
[] 0 setdash
0.000 setgray
gsave
/o {
gsave
newpath
translate
0.8 setlinewidth
1 setlinejoin
0 setlinecap
0 0 m
0 -3.5 l

gsave
0.000 setgray
fill
grestore
stroke
grestore
} bind def
70.3636 39.6 o
grestore
/DejaVuSans findfont
10.000 scalefont
setfont
gsave
62.996449 25.006250 translate
0.000000 rotate
0.000000 0.000000 m /minus glyphshow
8.378906 0.000000 m /eight glyphshow
grestore
gsave
/o {
gsave
newpath
translate
0.8 setlinewidth
1 setlinejoin
0 setlinecap
0 0 m
0 -3.5 l

gsave
0.000 setgray
fill
grestore
stroke
grestore
} bind def
104.182 39.6 o
grestore
gsave
96.814631 25.006250 translate
0.000000 rotate
0.000000 0.000000 m /minus glyphshow
8.378906 0.000000 m /six glyphshow
grestore
gsave
/o {
gsave
newpath
translate
0.8 setlinewidth
1 setlinejoin
0 setlinecap
0 0 m
0 -3.5 l

gsave
0.000 setgray
fill
grestore
stroke
grestore
} bind def
138 39.6 o
grestore
gsave
130.632812 25.006250 translate
0.000000 rotate
0.000000 0.000000 m /minus glyphshow
8.378906 0.000000 m /four glyphshow
grestore
gsave
/o {
gsave
newpath
translate
0.8 setlinewidth
1 setlinejoin
0 setlinecap
0 0 m
0 -3.5 l

gsave
0.000 setgray
fill
grestore
stroke
grestore
} bind def
171.818 39.6 o
grestore
gsave
164.450994 25.006250 translate
0.000000 rotate
0.000000 0.000000 m /minus glyphshow
8.378906 0.000000 m /two glyphshow
grestore
gsave
/o {
gsave
newpath
translate
0.8 setlinewidth
1 setlinejoin
0 setlinecap
0 0 m
0 -3.5 l

gsave
0.000 setgray
fill
grestore
stroke
grestore
} bind def
205.636 39.6 o
grestore
gsave
202.456676 25.006250 translate
0.000000 rotate
0.000000 0.000000 m /zero glyphshow
grestore
gsave
/o {
gsave
newpath
translate
0.8 setlinewidth
1 setlinejoin
0 setlinecap
0 0 m
0 -3.5 l

gsave
0.000 setgray
fill
grestore
stroke
grestore
} bind def
239.455 39.6 o
grestore
gsave
236.274858 25.006250 translate
0.000000 rotate
0.000000 0.000000 m /two glyphshow
grestore
gsave
/o {
gsave
newpath
translate
0.8 setlinewidth
1 setlinejoin
0 setlinecap
0 0 m
0 -3.5 l

gsave
0.000 setgray
fill
grestore
stroke
grestore
} bind def
273.273 39.6 o
grestore
gsave
270.093040 25.006250 translate
0.000000 rotate
0.000000 0.000000 m /four glyphshow
grestore
gsave
/o {
gsave
newpath
translate
0.8 setlinewidth
1 setlinejoin
0 setlinecap
0 0 m
0 -3.5 l

gsave
0.000 setgray
fill
grestore
stroke
grestore
} bind def
307.091 39.6 o
grestore
gsave
303.911222 25.006250 translate
0.000000 rotate
0.000000 0.000000 m /six glyphshow
grestore
gsave
/o {
gsave
newpath
translate
0.8 setlinewidth
1 setlinejoin
0 setlinecap
0 0 m
-3.5 0 l

gsave
0.000 setgray
fill
grestore
stroke
grestore
} bind def
45 48 o
grestore
gsave
16.906250 44.203125 translate
0.000000 rotate
0.000000 0.000000 m /minus glyphshow
8.378906 0.000000 m /one glyphshow
14.741211 0.000000 m /zero glyphshow
grestore
gsave
/o {
gsave
newpath
translate
0.8 setlinewidth
1 setlinejoin
0 setlinecap
0 0 m
-3.5 0 l

gsave
0.000 setgray
fill
grestore
stroke
grestore
} bind def
45 81.6 o
grestore
gsave
23.265625 77.803125 translate
0.000000 rotate
0.000000 0.000000 m /minus glyphshow
8.378906 0.000000 m /eight glyphshow
grestore
gsave
/o {
gsave
newpath
translate
0.8 setlinewidth
1 setlinejoin
0 setlinecap
0 0 m
-3.5 0 l

gsave
0.000 setgray
fill
grestore
stroke
grestore
} bind def
45 115.2 o
grestore
gsave
23.265625 111.403125 translate
0.000000 rotate
0.000000 0.000000 m /minus glyphshow
8.378906 0.000000 m /six glyphshow
grestore
gsave
/o {
gsave
newpath
translate
0.8 setlinewidth
1 setlinejoin
0 setlinecap
0 0 m
-3.5 0 l

gsave
0.000 setgray
fill
grestore
stroke
grestore
} bind def
45 148.8 o
grestore
gsave
23.265625 145.003125 translate
0.000000 rotate
0.000000 0.000000 m /minus glyphshow
8.378906 0.000000 m /four glyphshow
grestore
gsave
/o {
gsave
newpath
translate
0.8 setlinewidth
1 setlinejoin
0 setlinecap
0 0 m
-3.5 0 l

gsave
0.000 setgray
fill
grestore
stroke
grestore
} bind def
45 182.4 o
grestore
gsave
23.265625 178.603125 translate
0.000000 rotate
0.000000 0.000000 m /minus glyphshow
8.378906 0.000000 m /two glyphshow
grestore
gsave
/o {
gsave
newpath
translate
0.8 setlinewidth
1 setlinejoin
0 setlinecap
0 0 m
-3.5 0 l

gsave
0.000 setgray
fill
grestore
stroke
grestore
} bind def
45 216 o
grestore
gsave
31.640625 212.203125 translate
0.000000 rotate
0.000000 0.000000 m /zero glyphshow
grestore
gsave
/o {
gsave
newpath
translate
0.8 setlinewidth
1 setlinejoin
0 setlinecap
0 0 m
-3.5 0 l

gsave
0.000 setgray
fill
grestore
stroke
grestore
} bind def
45 249.6 o
grestore
gsave
31.640625 245.803125 translate
0.000000 rotate
0.000000 0.000000 m /two glyphshow
grestore
gsave
/o {
gsave
newpath
translate
0.8 setlinewidth
1 setlinejoin
0 setlinecap
0 0 m
-3.5 0 l

gsave
0.000 setgray
fill
grestore
stroke
grestore
} bind def
45 283.2 o
grestore
gsave
31.640625 279.403125 translate
0.000000 rotate
0.000000 0.000000 m /four glyphshow
grestore
gsave
/o {
gsave
newpath
translate
0.8 setlinewidth
1 setlinejoin
0 setlinecap
0 0 m
-3.5 0 l

gsave
0.000 setgray
fill
grestore
stroke
grestore
} bind def
45 316.8 o
grestore
gsave
31.640625 313.003125 translate
0.000000 rotate
0.000000 0.000000 m /six glyphshow
grestore
1.500 setlinewidth
gsave
279 277.2 45 39.6 clipbox
141.795918 149.034923 m
147.489796 148.28082 l
153.183673 148.394896 l
158.877551 150.258496 l
160.463182 152.742857 l
161.217709 158.4 l
161.328426 164.057143 l
161.346449 169.714286 l
161.349431 175.371429 l
161.349926 181.028571 l
161.350008 186.685714 l
161.350023 192.342857 l
161.350036 198 l
161.350094 203.657143 l
161.350441 209.314286 l
161.352532 214.971429 l
161.36516 220.628571 l
161.442205 226.285714 l
161.944126 231.942857 l
164.571429 236.118679 l
170.265306 237.546 l
171.003996 237.6 l
175.959184 237.962731 l
181.653061 240.135707 l
183.250902 243.257143 l
183.741379 248.914286 l
183.484134 254.571429 l
181.653061 259.09291 l
180.000818 260.228571 l
175.959184 261.303355 l
170.265306 261.56148 l
164.571429 261.603323 l
158.877551 261.614513 l
153.183673 261.641871 l
147.489796 261.788225 l
141.795918 262.34941 l
136.521973 260.228571 l
136.830216 254.571429 l
137.184071 248.914286 l
137.275025 243.257143 l
137.291476 237.6 l
137.294247 231.942857 l
137.294708 226.285714 l
137.294785 220.628571 l
137.294798 214.971429 l
137.2948 209.314286 l
137.2948 203.657143 l
137.2948 198 l
137.294802 192.342857 l
137.294816 186.685714 l
137.294896 181.028571 l
137.295376 175.371429 l
137.29827 169.714286 l
137.315769 164.057143 l
137.423533 158.4 l
138.170593 152.742857 l
141.795918 149.034923 l
stroke
grestore
gsave
279 277.2 45 39.6 clipbox
238.591837 260.189649 m
244.285714 260.096923 l
249.979592 260.081735 l
255.673469 260.079213 l
261.367347 260.078793 l
267.061224 260.079044 l
272.755102 260.080742 l
278.44898 260.090924 l
284.142857 260.152807 l
285.46808 260.228571 l
289.836735 260.524332 l
295.530612 264.523427 l
296.001987 265.885714 l
296.458927 271.542857 l
296.161238 277.2 l
295.530612 279.362308 l
292.149063 282.857143 l
289.836735 283.550197 l
284.142857 283.931642 l
278.44898 283.991371 l
272.755102 284.001193 l
267.061224 284.002831 l
261.367347 284.003073 l
255.673469 284.002668 l
249.979592 284.000235 l
244.285714 283.985583 l
238.591837 283.896062 l
232.897959 283.306986 l
231.706177 282.857143 l
227.922432 277.2 l
227.638979 271.542857 l
228.077519 265.885714 l
232.897959 260.763365 l
238.079515 260.228571 l
238.591837 260.189649 l
stroke
grestore
[5.55 2.4] 0 setdash
gsave
279 277.2 45 39.6 clipbox
136.102041 142.610184 m
141.795918 142.590192 l
147.489796 142.590192 l
153.183673 142.590192 l
158.877551 142.590192 l
164.571429 143.143109 l
167.013351 147.085714 l
167.013351 152.742857 l
167.013351 158.4 l
167.013351 164.057143 l
167.013351 169.714286 l
167.013351 175.371429 l
167.013351 181.028571 l
167.013351 186.685714 l
167.013351 192.342857 l
167.013351 198 l
167.013351 203.657143 l
167.013351 209.314286 l
167.013351 214.971429 l
167.013351 220.628571 l
167.013351 226.285714 l
168.736507 231.942857 l
170.265306 232.424842 l
175.959184 232.424842 l
181.653061 232.424842 l
187.346939 232.849217 l
189.531485 237.6 l
189.531485 243.257143 l
189.531485 248.914286 l
189.531485 254.571429 l
189.531485 260.228571 l
188.710096 265.885714 l
187.346939 266.965673 l
181.653061 266.965673 l
175.959184 266.965673 l
170.265306 266.965673 l
164.571429 266.965673 l
158.877551 266.965673 l
153.183673 266.965673 l
147.489796 266.965673 l
141.795918 266.965673 l
136.102041 266.965673 l
132.002996 265.885714 l
131.712019 260.228571 l
131.712019 254.571429 l
131.712019 248.914286 l
131.712019 243.257143 l
131.712019 237.6 l
131.712019 231.942857 l
131.712019 226.285714 l
131.712019 220.628571 l
131.712019 214.971429 l
131.712019 209.314286 l
131.712019 203.657143 l
131.712019 198 l
131.712019 192.342857 l
131.712019 186.685714 l
131.712019 181.028571 l
131.712019 175.371429 l
131.712019 169.714286 l
131.712019 164.057143 l
131.712019 158.4 l
131.712019 152.742857 l
131.712019 147.085714 l
136.102041 142.610184 l
stroke
grestore
gsave
279 277.2 45 39.6 clipbox
227.204082 254.900501 m
232.897959 254.890522 l
238.591837 254.890522 l
244.285714 254.890522 l
249.979592 254.890522 l
255.673469 254.890522 l
261.367347 254.890522 l
267.061224 254.890522 l
272.755102 254.890522 l
278.44898 254.890522 l
284.142857 254.890522 l
289.836735 254.890522 l
295.530612 254.890522 l
301.22449 256.199187 l
301.886678 260.228571 l
301.886678 265.885714 l
301.886678 271.542857 l
301.886678 277.2 l
301.886678 282.857143 l
301.886678 288.514286 l
301.22449 289.182634 l
295.530612 289.259437 l
289.836735 289.259437 l
284.142857 289.259437 l
278.44898 289.259437 l
272.755102 289.259437 l
267.061224 289.259437 l
261.367347 289.259437 l
255.673469 289.259437 l
249.979592 289.259437 l
244.285714 289.259437 l
238.591837 289.259437 l
232.897959 289.259437 l
227.204082 289.259437 l
223.840187 288.514286 l
222.11986 282.857143 l
222.11986 277.2 l
222.11986 271.542857 l
222.11986 265.885714 l
222.11986 260.228571 l
227.204082 254.900501 l
stroke
grestore
0.800 setlinewidth
0 setlinejoin
2 setlinecap
[] 0 setdash
gsave
45 39.6 m
45 316.8 l
stroke
grestore
gsave
324 39.6 m
324 316.8 l
stroke
grestore
gsave
45 39.6 m
324 39.6 l
stroke
grestore
gsave
45 316.8 m
324 316.8 l
stroke
grestore
1.000 setlinewidth
0 setlinecap
0.800 setgray
gsave
51.3 44.1 m
190.584375 44.1 l
191.784375 44.1 192.384375 44.7 192.384375 45.9 c
192.384375 84.65625 l
192.384375 85.85625 191.784375 86.45625 190.584375 86.45625 c
51.3 86.45625 l
50.1 86.45625 49.5 85.85625 49.5 84.65625 c
49.5 45.9 l
49.5 44.7 50.1 44.1 51.3 44.1 c
cl
gsave
1.000 setgray
fill
grestore
stroke
grestore
1.500 setlinewidth
1 setlinejoin
[] 0 setdash
0.000 setgray
gsave
53.1 79.1625 m
71.1 79.1625 l
stroke
grestore
/DejaVuSans findfont
9.000 scalefont
setfont
gsave
78.300000 76.012500 translate
0.000000 rotate
0.000000 0.000000 m /t glyphshow
3.528809 0.000000 m /r glyphshow
7.229004 0.000000 m /u glyphshow
12.933105 0.000000 m /e glyphshow
18.470215 0.000000 m /space glyphshow
21.331055 0.000000 m /b glyphshow
27.043945 0.000000 m /o glyphshow
32.550293 0.000000 m /u glyphshow
38.254395 0.000000 m /n glyphshow
43.958496 0.000000 m /d glyphshow
49.671387 0.000000 m /a glyphshow
55.186523 0.000000 m /r glyphshow
58.886719 0.000000 m /y glyphshow
grestore
[5.55 2.4] 0 setdash
gsave
53.1 65.94375 m
71.1 65.94375 l
stroke
grestore
gsave
78.300000 62.793750 translate
0.000000 rotate
0.000000 0.000000 m /u glyphshow
5.704102 0.000000 m /p glyphshow
11.416992 0.000000 m /p glyphshow
17.129883 0.000000 m /e glyphshow
22.666992 0.000000 m /r glyphshow
26.367188 0.000000 m /space glyphshow
29.228027 0.000000 m /b glyphshow
34.940918 0.000000 m /o glyphshow
40.447266 0.000000 m /u glyphshow
46.151367 0.000000 m /n glyphshow
51.855469 0.000000 m /d glyphshow
57.568359 0.000000 m /quotesingle glyphshow
60.042480 0.000000 m /s glyphshow
64.731445 0.000000 m /space glyphshow
67.592285 0.000000 m /b glyphshow
73.305176 0.000000 m /o glyphshow
78.811523 0.000000 m /u glyphshow
84.515625 0.000000 m /n glyphshow
90.219727 0.000000 m /d glyphshow
95.932617 0.000000 m /a glyphshow
101.447754 0.000000 m /r glyphshow
105.147949 0.000000 m /y glyphshow
grestore
0 setlinejoin
[] 0 setdash
0.082 0.690 0.102 setrgbcolor
gsave
53.1 49.575 m
71.1 49.575 l
71.1 55.875 l
53.1 55.875 l
cl
gsave
fill
grestore
stroke
grestore
0.000 setgray
gsave
78.300000 49.575000 translate
0.000000 rotate
0.000000 0.000000 m /l glyphshow
2.500488 0.000000 m /i glyphshow
5.000977 0.000000 m /n glyphshow
10.705078 0.000000 m /e glyphshow
16.242188 0.000000 m /space glyphshow
19.103027 0.000000 m /s glyphshow
23.791992 0.000000 m /e glyphshow
29.329102 0.000000 m /g glyphshow
35.041992 0.000000 m /m glyphshow
43.809082 0.000000 m /e glyphshow
49.346191 0.000000 m /n glyphshow
55.050293 0.000000 m /t glyphshow
58.579102 0.000000 m /space glyphshow
61.439941 0.000000 m /A glyphshow
67.596680 0.000000 m /B glyphshow
grestore
1.000 setlinewidth
0.800 setgray
gsave
207.9 44.1 m
317.7 44.1 l
318.9 44.1 319.5 44.7 319.5 45.9 c
319.5 72 l
319.5 73.2 318.9 73.8 317.7 73.8 c
207.9 73.8 l
206.7 73.8 206.1 73.2 206.1 72 c
206.1 45.9 l
206.1 44.7 206.7 44.1 207.9 44.1 c
cl
gsave
1.000 setgray
fill
grestore
stroke
grestore
1 setlinejoin
[] 0 setdash
0.898 0.000 0.000 setrgbcolor
gsave
/o {
gsave
newpath
translate
1.0 setlinewidth
1 setlinejoin
0 setlinecap
0 -3.872983 m
1.027127 -3.872983 2.012324 -3.464901 2.738613 -2.738613 c
3.464901 -2.012324 3.872983 -1.027127 3.872983 0 c
3.872983 1.027127 3.464901 2.012324 2.738613 2.738613 c
2.012324 3.464901 1.027127 3.872983 0 3.872983 c
-1.027127 3.872983 -2.012324 3.464901 -2.738613 2.738613 c
-3.464901 2.012324 -3.872983 1.027127 -3.872983 0 c
-3.872983 -1.027127 -3.464901 -2.012324 -2.738613 -2.738613 c
-2.012324 -3.464901 -1.027127 -3.872983 0 -3.872983 c
cl

gsave
0.898 0.000 0.000 setrgbcolor
fill
grestore
stroke
grestore
} bind def
218.7 65.5625 o
grestore
0.000 setgray
gsave
234.900000 63.200000 translate
0.000000 rotate
/DejaVuSans findfont
9.0 scalefont
setfont
0.000000 0.156250 moveto
/i glyphshow

2.500488 0.156250 moveto
/n glyphshow

8.204590 0.156250 moveto
/t glyphshow

11.733398 0.156250 moveto
/e glyphshow

17.270508 0.156250 moveto
/r glyphshow

20.970703 0.156250 moveto
/s glyphshow

25.659668 0.156250 moveto
/e glyphshow

31.196777 0.156250 moveto
/c glyphshow

36.145020 0.156250 moveto
/t glyphshow

39.673828 0.156250 moveto
/i glyphshow

42.174316 0.156250 moveto
/o glyphshow

47.680664 0.156250 moveto
/n glyphshow

53.384766 0.156250 moveto
/space glyphshow

56.245605 0.156250 moveto
/a glyphshow

61.760742 0.156250 moveto
/t glyphshow

65.289551 0.156250 moveto
/space glyphshow

/DejaVuSans-Oblique findfont
9.0 scalefont
setfont
68.150391 0.156250 moveto
/t glyphshow

/DejaVuSans-Oblique findfont
6.3 scalefont
setfont
71.679199 -1.320312 moveto
/u glyphshow

75.672070 -1.320312 moveto
/A glyphshow


grestore
1.500 setlinewidth
0.898 0.000 0.000 setrgbcolor
gsave
/o {
gsave
newpath
translate
1.5 setlinewidth
1 setlinejoin
0 setlinecap
-3.872983 -3.872983 m
3.872983 3.872983 l
-3.872983 3.872983 m
3.872983 -3.872983 l

gsave
0.898 0.000 0.000 setrgbcolor
fill
grestore
stroke
grestore
} bind def
218.7 52.0625 o
grestore
0.000 setgray
gsave
234.900000 49.700000 translate
0.000000 rotate
/DejaVuSans findfont
9.0 scalefont
setfont
0.000000 0.156250 moveto
/i glyphshow

2.500488 0.156250 moveto
/n glyphshow

8.204590 0.156250 moveto
/t glyphshow

11.733398 0.156250 moveto
/e glyphshow

17.270508 0.156250 moveto
/r glyphshow

20.970703 0.156250 moveto
/s glyphshow

25.659668 0.156250 moveto
/e glyphshow

31.196777 0.156250 moveto
/c glyphshow

36.145020 0.156250 moveto
/t glyphshow

39.673828 0.156250 moveto
/i glyphshow

42.174316 0.156250 moveto
/o glyphshow

47.680664 0.156250 moveto
/n glyphshow

53.384766 0.156250 moveto
/space glyphshow

56.245605 0.156250 moveto
/a glyphshow

61.760742 0.156250 moveto
/t glyphshow

65.289551 0.156250 moveto
/space glyphshow

/DejaVuSans-Oblique findfont
9.0 scalefont
setfont
68.150391 0.156250 moveto
/t glyphshow

/DejaVuSans-Oblique findfont
6.3 scalefont
setfont
71.679199 -1.320312 moveto
/u glyphshow

75.672070 -1.320312 moveto
/B glyphshow


grestore

end
showpage
