%!PS-Adobe-3.0 EPSF-3.0
%%Title: /home/thaiduong/repo/papers/fastron_mapping_iros2019/ieeeconf/figures/fastron_lineardata_rbfkrnl.eps
%%Creator: matplotlib version 3.0.2, http://matplotlib.org/
%%CreationDate: Sun Jan 13 20:10:10 2019
%%Orientation: portrait
%%BoundingBox: 75 223 536 568
%%EndComments
%%BeginProlog
/mpldict 8 dict def
mpldict begin
/m { moveto } bind def
/l { lineto } bind def
/r { rlineto } bind def
/c { curveto } bind def
/cl { closepath } bind def
/box {
m
1 index 0 r
0 exch r
neg 0 r
cl
} bind def
/clipbox {
box
clip
newpath
} bind def
%!PS-Adobe-3.0 Resource-Font
%%Title: DejaVu Sans
%%Copyright: Copyright (c) 2003 by Bitstream, Inc. All Rights Reserved. Copyright (c) 2006 by Tavmjong Bah. All Rights Reserved. DejaVu changes are in public domain 
%%Creator: Converted from TrueType to type 3 by PPR
25 dict begin
/_d{bind def}bind def
/_m{moveto}_d
/_l{lineto}_d
/_cl{closepath eofill}_d
/_c{curveto}_d
/_sc{7 -1 roll{setcachedevice}{pop pop pop pop pop pop}ifelse}_d
/_e{exec}_d
/FontName /DejaVuSans def
/PaintType 0 def
/FontMatrix[.001 0 0 .001 0 0]def
/FontBBox[-1021 -463 1793 1232]def
/FontType 3 def
/Encoding [ /period /zero /two /four /six /c /d /e /f /i /o /p /r /u /minus ] def
/FontInfo 10 dict dup begin
/FamilyName (DejaVu Sans) def
/FullName (DejaVu Sans) def
/Notice (Copyright (c) 2003 by Bitstream, Inc. All Rights Reserved. Copyright (c) 2006 by Tavmjong Bah. All Rights Reserved. DejaVu changes are in public domain ) def
/Weight (Book) def
/Version (Version 2.35) def
/ItalicAngle 0.0 def
/isFixedPitch false def
/UnderlinePosition -130 def
/UnderlineThickness 90 def
end readonly def
/CharStrings 16 dict dup begin
/.notdef 0 def
/period{318 0 107 0 210 124 _sc
107 124 _m
210 124 _l
210 0 _l
107 0 _l
107 124 _l
_cl}_d
/zero{636 0 66 -13 570 742 _sc
318 664 _m
267 664 229 639 203 589 _c
177 539 165 464 165 364 _c
165 264 177 189 203 139 _c
229 89 267 64 318 64 _c
369 64 407 89 433 139 _c
458 189 471 264 471 364 _c
471 464 458 539 433 589 _c
407 639 369 664 318 664 _c
318 742 _m
399 742 461 709 505 645 _c
548 580 570 486 570 364 _c
570 241 548 147 505 83 _c
461 19 399 -13 318 -13 _c
236 -13 173 19 130 83 _c
87 147 66 241 66 364 _c
66 486 87 580 130 645 _c
173 709 236 742 318 742 _c
_cl}_d
/two{{636 0 73 0 536 742 _sc
192 83 _m
536 83 _l
536 0 _l
73 0 _l
73 83 _l
110 121 161 173 226 239 _c
290 304 331 346 348 365 _c
380 400 402 430 414 455 _c
426 479 433 504 433 528 _c
433 566 419 598 392 622 _c
365 646 330 659 286 659 _c
255 659 222 653 188 643 _c
154 632 117 616 78 594 _c
78 694 _l
118 710 155 722 189 730 _c
223 738 255 742 284 742 _c
}_e{359 742 419 723 464 685 _c
509 647 532 597 532 534 _c
532 504 526 475 515 449 _c
504 422 484 390 454 354 _c
446 344 420 317 376 272 _c
332 227 271 164 192 83 _c
_cl}_e}_d
/four{636 0 49 0 580 729 _sc
378 643 _m
129 254 _l
378 254 _l
378 643 _l
352 729 _m
476 729 _l
476 254 _l
580 254 _l
580 172 _l
476 172 _l
476 0 _l
378 0 _l
378 172 _l
49 172 _l
49 267 _l
352 729 _l
_cl}_d
/six{{636 0 70 -13 573 742 _sc
330 404 _m
286 404 251 388 225 358 _c
199 328 186 286 186 234 _c
186 181 199 139 225 109 _c
251 79 286 64 330 64 _c
374 64 409 79 435 109 _c
461 139 474 181 474 234 _c
474 286 461 328 435 358 _c
409 388 374 404 330 404 _c
526 713 _m
526 623 _l
501 635 476 644 451 650 _c
425 656 400 659 376 659 _c
310 659 260 637 226 593 _c
}_e{192 549 172 482 168 394 _c
187 422 211 444 240 459 _c
269 474 301 482 336 482 _c
409 482 467 459 509 415 _c
551 371 573 310 573 234 _c
573 159 550 99 506 54 _c
462 9 403 -13 330 -13 _c
246 -13 181 19 137 83 _c
92 147 70 241 70 364 _c
70 479 97 571 152 639 _c
206 707 280 742 372 742 _c
396 742 421 739 447 735 _c
472 730 498 723 526 713 _c
_cl}_e}_d
/c{{550 0 55 -13 488 560 _sc
488 526 _m
488 442 _l
462 456 437 466 411 473 _c
385 480 360 484 334 484 _c
276 484 230 465 198 428 _c
166 391 150 339 150 273 _c
150 206 166 154 198 117 _c
230 80 276 62 334 62 _c
360 62 385 65 411 72 _c
437 79 462 90 488 104 _c
488 21 _l
462 9 436 0 410 -5 _c
383 -10 354 -13 324 -13 _c
242 -13 176 12 128 64 _c
}_e{79 115 55 185 55 273 _c
55 362 79 432 128 483 _c
177 534 244 560 330 560 _c
358 560 385 557 411 551 _c
437 545 463 537 488 526 _c
_cl}_e}_d
/d{{635 0 55 -13 544 760 _sc
454 464 _m
454 760 _l
544 760 _l
544 0 _l
454 0 _l
454 82 _l
435 49 411 25 382 10 _c
353 -5 319 -13 279 -13 _c
213 -13 159 13 117 65 _c
75 117 55 187 55 273 _c
55 359 75 428 117 481 _c
159 533 213 560 279 560 _c
319 560 353 552 382 536 _c
411 520 435 496 454 464 _c
148 273 _m
148 207 161 155 188 117 _c
215 79 253 61 301 61 _c
}_e{348 61 385 79 413 117 _c
440 155 454 207 454 273 _c
454 339 440 390 413 428 _c
385 466 348 485 301 485 _c
253 485 215 466 188 428 _c
161 390 148 339 148 273 _c
_cl}_e}_d
/e{{615 0 55 -13 562 560 _sc
562 296 _m
562 252 _l
149 252 _l
153 190 171 142 205 110 _c
238 78 284 62 344 62 _c
378 62 412 66 444 74 _c
476 82 509 95 541 113 _c
541 28 _l
509 14 476 3 442 -3 _c
408 -9 373 -13 339 -13 _c
251 -13 182 12 131 62 _c
80 112 55 181 55 268 _c
55 357 79 428 127 481 _c
175 533 241 560 323 560 _c
397 560 455 536 498 489 _c
}_e{540 441 562 377 562 296 _c
472 322 _m
471 371 457 410 431 440 _c
404 469 368 484 324 484 _c
274 484 234 469 204 441 _c
174 413 156 373 152 322 _c
472 322 _l
_cl}_e}_d
/f{352 0 23 0 371 760 _sc
371 760 _m
371 685 _l
285 685 _l
253 685 230 678 218 665 _c
205 652 199 629 199 595 _c
199 547 _l
347 547 _l
347 477 _l
199 477 _l
199 0 _l
109 0 _l
109 477 _l
23 477 _l
23 547 _l
109 547 _l
109 585 _l
109 645 123 690 151 718 _c
179 746 224 760 286 760 _c
371 760 _l
_cl}_d
/i{278 0 94 0 184 760 _sc
94 547 _m
184 547 _l
184 0 _l
94 0 _l
94 547 _l
94 760 _m
184 760 _l
184 646 _l
94 646 _l
94 760 _l
_cl}_d
/o{612 0 55 -13 557 560 _sc
306 484 _m
258 484 220 465 192 427 _c
164 389 150 338 150 273 _c
150 207 163 156 191 118 _c
219 80 257 62 306 62 _c
354 62 392 80 420 118 _c
448 156 462 207 462 273 _c
462 337 448 389 420 427 _c
392 465 354 484 306 484 _c
306 560 _m
384 560 445 534 490 484 _c
534 433 557 363 557 273 _c
557 183 534 113 490 63 _c
445 12 384 -13 306 -13 _c
227 -13 165 12 121 63 _c
77 113 55 183 55 273 _c
55 363 77 433 121 484 _c
165 534 227 560 306 560 _c
_cl}_d
/p{{635 0 91 -207 580 560 _sc
181 82 _m
181 -207 _l
91 -207 _l
91 547 _l
181 547 _l
181 464 _l
199 496 223 520 252 536 _c
281 552 316 560 356 560 _c
422 560 476 533 518 481 _c
559 428 580 359 580 273 _c
580 187 559 117 518 65 _c
476 13 422 -13 356 -13 _c
316 -13 281 -5 252 10 _c
223 25 199 49 181 82 _c
487 273 _m
487 339 473 390 446 428 _c
418 466 381 485 334 485 _c
}_e{286 485 249 466 222 428 _c
194 390 181 339 181 273 _c
181 207 194 155 222 117 _c
249 79 286 61 334 61 _c
381 61 418 79 446 117 _c
473 155 487 207 487 273 _c
_cl}_e}_d
/r{411 0 91 0 411 560 _sc
411 463 _m
401 469 390 473 378 476 _c
366 478 353 480 339 480 _c
288 480 249 463 222 430 _c
194 397 181 350 181 288 _c
181 0 _l
91 0 _l
91 547 _l
181 547 _l
181 462 _l
199 495 224 520 254 536 _c
284 552 321 560 365 560 _c
371 560 378 559 386 559 _c
393 558 401 557 411 555 _c
411 463 _l
_cl}_d
/u{634 0 85 -13 543 560 _sc
85 216 _m
85 547 _l
175 547 _l
175 219 _l
175 167 185 129 205 103 _c
225 77 255 64 296 64 _c
344 64 383 79 411 110 _c
439 141 453 183 453 237 _c
453 547 _l
543 547 _l
543 0 _l
453 0 _l
453 84 _l
431 50 405 26 377 10 _c
348 -5 315 -13 277 -13 _c
214 -13 166 6 134 45 _c
101 83 85 140 85 216 _c
311 560 _m
311 560 _l
_cl}_d
/minus{838 0 106 272 732 355 _sc
106 355 _m
732 355 _l
732 272 _l
106 272 _l
106 355 _l
_cl}_d
end readonly def

/BuildGlyph
 {exch begin
 CharStrings exch
 2 copy known not{pop /.notdef}if
 true 3 1 roll get exec
 end}_d

/BuildChar {
 1 index /Encoding get exch get
 1 index /BuildGlyph get exec
}_d

FontName currentdict end definefont pop
end
%%EndProlog
mpldict begin
75.6 223.2 translate
460.8 345.6 0 0 clipbox
gsave
0 0 m
460.8 0 l
460.8 345.6 l
0 345.6 l
cl
1.000 setgray
fill
grestore
gsave
57.6 38.016 m
414.72 38.016 l
414.72 304.128 l
57.6 304.128 l
cl
1.000 setgray
fill
grestore
1.000 setlinewidth
1 setlinejoin
0 setlinecap
[] 0 setdash
0.000 0.000 1.000 setrgbcolor
gsave
357.1 266.1 57.6 38.02 clipbox
75.442623 47.830456 m
76.46975 47.830456 77.454947 48.238538 78.181236 48.964826 c
78.907524 49.691115 79.315606 50.676312 79.315606 51.703439 c
79.315606 52.730566 78.907524 53.715763 78.181236 54.442052 c
77.454947 55.16834 76.46975 55.576422 75.442623 55.576422 c
74.415496 55.576422 73.430299 55.16834 72.70401 54.442052 c
71.977722 53.715763 71.56964 52.730566 71.56964 51.703439 c
71.56964 50.676312 71.977722 49.691115 72.70401 48.964826 c
73.430299 48.238538 74.415496 47.830456 75.442623 47.830456 c
cl
gsave
fill
grestore
stroke
grestore
gsave
357.1 266.1 57.6 38.02 clipbox
111.159238 51.703439 m
111.159238 51.703439 111.159238 51.703439 111.159238 51.703439 c
111.159238 51.703439 111.159238 51.703439 111.159238 51.703439 c
111.159238 51.703439 111.159238 51.703439 111.159238 51.703439 c
111.159238 51.703439 111.159238 51.703439 111.159238 51.703439 c
111.159238 51.703439 111.159238 51.703439 111.159238 51.703439 c
111.159238 51.703439 111.159238 51.703439 111.159238 51.703439 c
111.159238 51.703439 111.159238 51.703439 111.159238 51.703439 c
111.159238 51.703439 111.159238 51.703439 111.159238 51.703439 c
cl
gsave
fill
grestore
stroke
grestore
gsave
357.1 266.1 57.6 38.02 clipbox
146.875853 51.703439 m
146.875853 51.703439 146.875853 51.703439 146.875853 51.703439 c
146.875853 51.703439 146.875853 51.703439 146.875853 51.703439 c
146.875853 51.703439 146.875853 51.703439 146.875853 51.703439 c
146.875853 51.703439 146.875853 51.703439 146.875853 51.703439 c
146.875853 51.703439 146.875853 51.703439 146.875853 51.703439 c
146.875853 51.703439 146.875853 51.703439 146.875853 51.703439 c
146.875853 51.703439 146.875853 51.703439 146.875853 51.703439 c
146.875853 51.703439 146.875853 51.703439 146.875853 51.703439 c
cl
gsave
fill
grestore
stroke
grestore
gsave
357.1 266.1 57.6 38.02 clipbox
182.592469 51.703439 m
182.592469 51.703439 182.592469 51.703439 182.592469 51.703439 c
182.592469 51.703439 182.592469 51.703439 182.592469 51.703439 c
182.592469 51.703439 182.592469 51.703439 182.592469 51.703439 c
182.592469 51.703439 182.592469 51.703439 182.592469 51.703439 c
182.592469 51.703439 182.592469 51.703439 182.592469 51.703439 c
182.592469 51.703439 182.592469 51.703439 182.592469 51.703439 c
182.592469 51.703439 182.592469 51.703439 182.592469 51.703439 c
182.592469 51.703439 182.592469 51.703439 182.592469 51.703439 c
cl
gsave
fill
grestore
stroke
grestore
gsave
357.1 266.1 57.6 38.02 clipbox
218.309084 51.703439 m
218.309084 51.703439 218.309084 51.703439 218.309084 51.703439 c
218.309084 51.703439 218.309084 51.703439 218.309084 51.703439 c
218.309084 51.703439 218.309084 51.703439 218.309084 51.703439 c
218.309084 51.703439 218.309084 51.703439 218.309084 51.703439 c
218.309084 51.703439 218.309084 51.703439 218.309084 51.703439 c
218.309084 51.703439 218.309084 51.703439 218.309084 51.703439 c
218.309084 51.703439 218.309084 51.703439 218.309084 51.703439 c
218.309084 51.703439 218.309084 51.703439 218.309084 51.703439 c
cl
gsave
fill
grestore
stroke
grestore
gsave
357.1 266.1 57.6 38.02 clipbox
254.025699 51.703439 m
254.025699 51.703439 254.025699 51.703439 254.025699 51.703439 c
254.025699 51.703439 254.025699 51.703439 254.025699 51.703439 c
254.025699 51.703439 254.025699 51.703439 254.025699 51.703439 c
254.025699 51.703439 254.025699 51.703439 254.025699 51.703439 c
254.025699 51.703439 254.025699 51.703439 254.025699 51.703439 c
254.025699 51.703439 254.025699 51.703439 254.025699 51.703439 c
254.025699 51.703439 254.025699 51.703439 254.025699 51.703439 c
254.025699 51.703439 254.025699 51.703439 254.025699 51.703439 c
cl
gsave
fill
grestore
stroke
grestore
gsave
357.1 266.1 57.6 38.02 clipbox
289.742314 51.703439 m
289.742314 51.703439 289.742314 51.703439 289.742314 51.703439 c
289.742314 51.703439 289.742314 51.703439 289.742314 51.703439 c
289.742314 51.703439 289.742314 51.703439 289.742314 51.703439 c
289.742314 51.703439 289.742314 51.703439 289.742314 51.703439 c
289.742314 51.703439 289.742314 51.703439 289.742314 51.703439 c
289.742314 51.703439 289.742314 51.703439 289.742314 51.703439 c
289.742314 51.703439 289.742314 51.703439 289.742314 51.703439 c
289.742314 51.703439 289.742314 51.703439 289.742314 51.703439 c
cl
gsave
fill
grestore
stroke
grestore
gsave
357.1 266.1 57.6 38.02 clipbox
325.45893 51.703439 m
325.45893 51.703439 325.45893 51.703439 325.45893 51.703439 c
325.45893 51.703439 325.45893 51.703439 325.45893 51.703439 c
325.45893 51.703439 325.45893 51.703439 325.45893 51.703439 c
325.45893 51.703439 325.45893 51.703439 325.45893 51.703439 c
325.45893 51.703439 325.45893 51.703439 325.45893 51.703439 c
325.45893 51.703439 325.45893 51.703439 325.45893 51.703439 c
325.45893 51.703439 325.45893 51.703439 325.45893 51.703439 c
325.45893 51.703439 325.45893 51.703439 325.45893 51.703439 c
cl
gsave
fill
grestore
stroke
grestore
gsave
357.1 266.1 57.6 38.02 clipbox
361.175545 51.703439 m
361.175545 51.703439 361.175545 51.703439 361.175545 51.703439 c
361.175545 51.703439 361.175545 51.703439 361.175545 51.703439 c
361.175545 51.703439 361.175545 51.703439 361.175545 51.703439 c
361.175545 51.703439 361.175545 51.703439 361.175545 51.703439 c
361.175545 51.703439 361.175545 51.703439 361.175545 51.703439 c
361.175545 51.703439 361.175545 51.703439 361.175545 51.703439 c
361.175545 51.703439 361.175545 51.703439 361.175545 51.703439 c
361.175545 51.703439 361.175545 51.703439 361.175545 51.703439 c
cl
gsave
fill
grestore
stroke
grestore
gsave
357.1 266.1 57.6 38.02 clipbox
396.89216 51.703439 m
396.89216 51.703439 396.89216 51.703439 396.89216 51.703439 c
396.89216 51.703439 396.89216 51.703439 396.89216 51.703439 c
396.89216 51.703439 396.89216 51.703439 396.89216 51.703439 c
396.89216 51.703439 396.89216 51.703439 396.89216 51.703439 c
396.89216 51.703439 396.89216 51.703439 396.89216 51.703439 c
396.89216 51.703439 396.89216 51.703439 396.89216 51.703439 c
396.89216 51.703439 396.89216 51.703439 396.89216 51.703439 c
396.89216 51.703439 396.89216 51.703439 396.89216 51.703439 c
cl
gsave
fill
grestore
stroke
grestore
gsave
357.1 266.1 57.6 38.02 clipbox
75.442623 78.227741 m
75.442623 78.227741 75.442623 78.227741 75.442623 78.227741 c
75.442623 78.227741 75.442623 78.227741 75.442623 78.227741 c
75.442623 78.227741 75.442623 78.227741 75.442623 78.227741 c
75.442623 78.227741 75.442623 78.227741 75.442623 78.227741 c
75.442623 78.227741 75.442623 78.227741 75.442623 78.227741 c
75.442623 78.227741 75.442623 78.227741 75.442623 78.227741 c
75.442623 78.227741 75.442623 78.227741 75.442623 78.227741 c
75.442623 78.227741 75.442623 78.227741 75.442623 78.227741 c
cl
gsave
fill
grestore
stroke
grestore
gsave
357.1 266.1 57.6 38.02 clipbox
111.159238 78.227741 m
111.159238 78.227741 111.159238 78.227741 111.159238 78.227741 c
111.159238 78.227741 111.159238 78.227741 111.159238 78.227741 c
111.159238 78.227741 111.159238 78.227741 111.159238 78.227741 c
111.159238 78.227741 111.159238 78.227741 111.159238 78.227741 c
111.159238 78.227741 111.159238 78.227741 111.159238 78.227741 c
111.159238 78.227741 111.159238 78.227741 111.159238 78.227741 c
111.159238 78.227741 111.159238 78.227741 111.159238 78.227741 c
111.159238 78.227741 111.159238 78.227741 111.159238 78.227741 c
cl
gsave
fill
grestore
stroke
grestore
gsave
357.1 266.1 57.6 38.02 clipbox
146.875853 78.227741 m
146.875853 78.227741 146.875853 78.227741 146.875853 78.227741 c
146.875853 78.227741 146.875853 78.227741 146.875853 78.227741 c
146.875853 78.227741 146.875853 78.227741 146.875853 78.227741 c
146.875853 78.227741 146.875853 78.227741 146.875853 78.227741 c
146.875853 78.227741 146.875853 78.227741 146.875853 78.227741 c
146.875853 78.227741 146.875853 78.227741 146.875853 78.227741 c
146.875853 78.227741 146.875853 78.227741 146.875853 78.227741 c
146.875853 78.227741 146.875853 78.227741 146.875853 78.227741 c
cl
gsave
fill
grestore
stroke
grestore
gsave
357.1 266.1 57.6 38.02 clipbox
182.592469 78.227741 m
182.592469 78.227741 182.592469 78.227741 182.592469 78.227741 c
182.592469 78.227741 182.592469 78.227741 182.592469 78.227741 c
182.592469 78.227741 182.592469 78.227741 182.592469 78.227741 c
182.592469 78.227741 182.592469 78.227741 182.592469 78.227741 c
182.592469 78.227741 182.592469 78.227741 182.592469 78.227741 c
182.592469 78.227741 182.592469 78.227741 182.592469 78.227741 c
182.592469 78.227741 182.592469 78.227741 182.592469 78.227741 c
182.592469 78.227741 182.592469 78.227741 182.592469 78.227741 c
cl
gsave
fill
grestore
stroke
grestore
gsave
357.1 266.1 57.6 38.02 clipbox
218.309084 78.227741 m
218.309084 78.227741 218.309084 78.227741 218.309084 78.227741 c
218.309084 78.227741 218.309084 78.227741 218.309084 78.227741 c
218.309084 78.227741 218.309084 78.227741 218.309084 78.227741 c
218.309084 78.227741 218.309084 78.227741 218.309084 78.227741 c
218.309084 78.227741 218.309084 78.227741 218.309084 78.227741 c
218.309084 78.227741 218.309084 78.227741 218.309084 78.227741 c
218.309084 78.227741 218.309084 78.227741 218.309084 78.227741 c
218.309084 78.227741 218.309084 78.227741 218.309084 78.227741 c
cl
gsave
fill
grestore
stroke
grestore
gsave
357.1 266.1 57.6 38.02 clipbox
254.025699 78.227741 m
254.025699 78.227741 254.025699 78.227741 254.025699 78.227741 c
254.025699 78.227741 254.025699 78.227741 254.025699 78.227741 c
254.025699 78.227741 254.025699 78.227741 254.025699 78.227741 c
254.025699 78.227741 254.025699 78.227741 254.025699 78.227741 c
254.025699 78.227741 254.025699 78.227741 254.025699 78.227741 c
254.025699 78.227741 254.025699 78.227741 254.025699 78.227741 c
254.025699 78.227741 254.025699 78.227741 254.025699 78.227741 c
254.025699 78.227741 254.025699 78.227741 254.025699 78.227741 c
cl
gsave
fill
grestore
stroke
grestore
gsave
357.1 266.1 57.6 38.02 clipbox
289.742314 78.227741 m
289.742314 78.227741 289.742314 78.227741 289.742314 78.227741 c
289.742314 78.227741 289.742314 78.227741 289.742314 78.227741 c
289.742314 78.227741 289.742314 78.227741 289.742314 78.227741 c
289.742314 78.227741 289.742314 78.227741 289.742314 78.227741 c
289.742314 78.227741 289.742314 78.227741 289.742314 78.227741 c
289.742314 78.227741 289.742314 78.227741 289.742314 78.227741 c
289.742314 78.227741 289.742314 78.227741 289.742314 78.227741 c
289.742314 78.227741 289.742314 78.227741 289.742314 78.227741 c
cl
gsave
fill
grestore
stroke
grestore
gsave
357.1 266.1 57.6 38.02 clipbox
325.45893 78.227741 m
325.45893 78.227741 325.45893 78.227741 325.45893 78.227741 c
325.45893 78.227741 325.45893 78.227741 325.45893 78.227741 c
325.45893 78.227741 325.45893 78.227741 325.45893 78.227741 c
325.45893 78.227741 325.45893 78.227741 325.45893 78.227741 c
325.45893 78.227741 325.45893 78.227741 325.45893 78.227741 c
325.45893 78.227741 325.45893 78.227741 325.45893 78.227741 c
325.45893 78.227741 325.45893 78.227741 325.45893 78.227741 c
325.45893 78.227741 325.45893 78.227741 325.45893 78.227741 c
cl
gsave
fill
grestore
stroke
grestore
gsave
357.1 266.1 57.6 38.02 clipbox
361.175545 78.227741 m
361.175545 78.227741 361.175545 78.227741 361.175545 78.227741 c
361.175545 78.227741 361.175545 78.227741 361.175545 78.227741 c
361.175545 78.227741 361.175545 78.227741 361.175545 78.227741 c
361.175545 78.227741 361.175545 78.227741 361.175545 78.227741 c
361.175545 78.227741 361.175545 78.227741 361.175545 78.227741 c
361.175545 78.227741 361.175545 78.227741 361.175545 78.227741 c
361.175545 78.227741 361.175545 78.227741 361.175545 78.227741 c
361.175545 78.227741 361.175545 78.227741 361.175545 78.227741 c
cl
gsave
fill
grestore
stroke
grestore
gsave
357.1 266.1 57.6 38.02 clipbox
396.89216 78.227741 m
396.89216 78.227741 396.89216 78.227741 396.89216 78.227741 c
396.89216 78.227741 396.89216 78.227741 396.89216 78.227741 c
396.89216 78.227741 396.89216 78.227741 396.89216 78.227741 c
396.89216 78.227741 396.89216 78.227741 396.89216 78.227741 c
396.89216 78.227741 396.89216 78.227741 396.89216 78.227741 c
396.89216 78.227741 396.89216 78.227741 396.89216 78.227741 c
396.89216 78.227741 396.89216 78.227741 396.89216 78.227741 c
396.89216 78.227741 396.89216 78.227741 396.89216 78.227741 c
cl
gsave
fill
grestore
stroke
grestore
gsave
357.1 266.1 57.6 38.02 clipbox
75.442623 100.879059 m
76.46975 100.879059 77.454947 101.287141 78.181236 102.013429 c
78.907524 102.739718 79.315606 103.724915 79.315606 104.752042 c
79.315606 105.779169 78.907524 106.764366 78.181236 107.490655 c
77.454947 108.216944 76.46975 108.625026 75.442623 108.625026 c
74.415496 108.625026 73.430299 108.216944 72.70401 107.490655 c
71.977722 106.764366 71.56964 105.779169 71.56964 104.752042 c
71.56964 103.724915 71.977722 102.739718 72.70401 102.013429 c
73.430299 101.287141 74.415496 100.879059 75.442623 100.879059 c
cl
gsave
fill
grestore
stroke
grestore
gsave
357.1 266.1 57.6 38.02 clipbox
111.159238 100.879059 m
112.186365 100.879059 113.171562 101.287141 113.897851 102.013429 c
114.62414 102.739718 115.032222 103.724915 115.032222 104.752042 c
115.032222 105.779169 114.62414 106.764366 113.897851 107.490655 c
113.171562 108.216944 112.186365 108.625026 111.159238 108.625026 c
110.132111 108.625026 109.146914 108.216944 108.420625 107.490655 c
107.694337 106.764366 107.286255 105.779169 107.286255 104.752042 c
107.286255 103.724915 107.694337 102.739718 108.420625 102.013429 c
109.146914 101.287141 110.132111 100.879059 111.159238 100.879059 c
cl
gsave
fill
grestore
stroke
grestore
gsave
357.1 266.1 57.6 38.02 clipbox
146.875853 104.752042 m
146.875853 104.752042 146.875853 104.752042 146.875853 104.752042 c
146.875853 104.752042 146.875853 104.752042 146.875853 104.752042 c
146.875853 104.752042 146.875853 104.752042 146.875853 104.752042 c
146.875853 104.752042 146.875853 104.752042 146.875853 104.752042 c
146.875853 104.752042 146.875853 104.752042 146.875853 104.752042 c
146.875853 104.752042 146.875853 104.752042 146.875853 104.752042 c
146.875853 104.752042 146.875853 104.752042 146.875853 104.752042 c
146.875853 104.752042 146.875853 104.752042 146.875853 104.752042 c
cl
gsave
fill
grestore
stroke
grestore
gsave
357.1 266.1 57.6 38.02 clipbox
182.592469 104.752042 m
182.592469 104.752042 182.592469 104.752042 182.592469 104.752042 c
182.592469 104.752042 182.592469 104.752042 182.592469 104.752042 c
182.592469 104.752042 182.592469 104.752042 182.592469 104.752042 c
182.592469 104.752042 182.592469 104.752042 182.592469 104.752042 c
182.592469 104.752042 182.592469 104.752042 182.592469 104.752042 c
182.592469 104.752042 182.592469 104.752042 182.592469 104.752042 c
182.592469 104.752042 182.592469 104.752042 182.592469 104.752042 c
182.592469 104.752042 182.592469 104.752042 182.592469 104.752042 c
cl
gsave
fill
grestore
stroke
grestore
gsave
357.1 266.1 57.6 38.02 clipbox
218.309084 104.752042 m
218.309084 104.752042 218.309084 104.752042 218.309084 104.752042 c
218.309084 104.752042 218.309084 104.752042 218.309084 104.752042 c
218.309084 104.752042 218.309084 104.752042 218.309084 104.752042 c
218.309084 104.752042 218.309084 104.752042 218.309084 104.752042 c
218.309084 104.752042 218.309084 104.752042 218.309084 104.752042 c
218.309084 104.752042 218.309084 104.752042 218.309084 104.752042 c
218.309084 104.752042 218.309084 104.752042 218.309084 104.752042 c
218.309084 104.752042 218.309084 104.752042 218.309084 104.752042 c
cl
gsave
fill
grestore
stroke
grestore
gsave
357.1 266.1 57.6 38.02 clipbox
254.025699 104.752042 m
254.025699 104.752042 254.025699 104.752042 254.025699 104.752042 c
254.025699 104.752042 254.025699 104.752042 254.025699 104.752042 c
254.025699 104.752042 254.025699 104.752042 254.025699 104.752042 c
254.025699 104.752042 254.025699 104.752042 254.025699 104.752042 c
254.025699 104.752042 254.025699 104.752042 254.025699 104.752042 c
254.025699 104.752042 254.025699 104.752042 254.025699 104.752042 c
254.025699 104.752042 254.025699 104.752042 254.025699 104.752042 c
254.025699 104.752042 254.025699 104.752042 254.025699 104.752042 c
cl
gsave
fill
grestore
stroke
grestore
gsave
357.1 266.1 57.6 38.02 clipbox
289.742314 104.752042 m
289.742314 104.752042 289.742314 104.752042 289.742314 104.752042 c
289.742314 104.752042 289.742314 104.752042 289.742314 104.752042 c
289.742314 104.752042 289.742314 104.752042 289.742314 104.752042 c
289.742314 104.752042 289.742314 104.752042 289.742314 104.752042 c
289.742314 104.752042 289.742314 104.752042 289.742314 104.752042 c
289.742314 104.752042 289.742314 104.752042 289.742314 104.752042 c
289.742314 104.752042 289.742314 104.752042 289.742314 104.752042 c
289.742314 104.752042 289.742314 104.752042 289.742314 104.752042 c
cl
gsave
fill
grestore
stroke
grestore
gsave
357.1 266.1 57.6 38.02 clipbox
325.45893 104.752042 m
325.45893 104.752042 325.45893 104.752042 325.45893 104.752042 c
325.45893 104.752042 325.45893 104.752042 325.45893 104.752042 c
325.45893 104.752042 325.45893 104.752042 325.45893 104.752042 c
325.45893 104.752042 325.45893 104.752042 325.45893 104.752042 c
325.45893 104.752042 325.45893 104.752042 325.45893 104.752042 c
325.45893 104.752042 325.45893 104.752042 325.45893 104.752042 c
325.45893 104.752042 325.45893 104.752042 325.45893 104.752042 c
325.45893 104.752042 325.45893 104.752042 325.45893 104.752042 c
cl
gsave
fill
grestore
stroke
grestore
gsave
357.1 266.1 57.6 38.02 clipbox
361.175545 104.752042 m
361.175545 104.752042 361.175545 104.752042 361.175545 104.752042 c
361.175545 104.752042 361.175545 104.752042 361.175545 104.752042 c
361.175545 104.752042 361.175545 104.752042 361.175545 104.752042 c
361.175545 104.752042 361.175545 104.752042 361.175545 104.752042 c
361.175545 104.752042 361.175545 104.752042 361.175545 104.752042 c
361.175545 104.752042 361.175545 104.752042 361.175545 104.752042 c
361.175545 104.752042 361.175545 104.752042 361.175545 104.752042 c
361.175545 104.752042 361.175545 104.752042 361.175545 104.752042 c
cl
gsave
fill
grestore
stroke
grestore
gsave
357.1 266.1 57.6 38.02 clipbox
396.89216 104.752042 m
396.89216 104.752042 396.89216 104.752042 396.89216 104.752042 c
396.89216 104.752042 396.89216 104.752042 396.89216 104.752042 c
396.89216 104.752042 396.89216 104.752042 396.89216 104.752042 c
396.89216 104.752042 396.89216 104.752042 396.89216 104.752042 c
396.89216 104.752042 396.89216 104.752042 396.89216 104.752042 c
396.89216 104.752042 396.89216 104.752042 396.89216 104.752042 c
396.89216 104.752042 396.89216 104.752042 396.89216 104.752042 c
396.89216 104.752042 396.89216 104.752042 396.89216 104.752042 c
cl
gsave
fill
grestore
stroke
grestore
gsave
357.1 266.1 57.6 38.02 clipbox
75.442623 131.276344 m
75.442623 131.276344 75.442623 131.276344 75.442623 131.276344 c
75.442623 131.276344 75.442623 131.276344 75.442623 131.276344 c
75.442623 131.276344 75.442623 131.276344 75.442623 131.276344 c
75.442623 131.276344 75.442623 131.276344 75.442623 131.276344 c
75.442623 131.276344 75.442623 131.276344 75.442623 131.276344 c
75.442623 131.276344 75.442623 131.276344 75.442623 131.276344 c
75.442623 131.276344 75.442623 131.276344 75.442623 131.276344 c
75.442623 131.276344 75.442623 131.276344 75.442623 131.276344 c
cl
gsave
fill
grestore
stroke
grestore
gsave
357.1 266.1 57.6 38.02 clipbox
111.159238 127.403361 m
112.186365 127.403361 113.171562 127.811443 113.897851 128.537731 c
114.62414 129.26402 115.032222 130.249217 115.032222 131.276344 c
115.032222 132.303471 114.62414 133.288668 113.897851 134.014957 c
113.171562 134.741245 112.186365 135.149327 111.159238 135.149327 c
110.132111 135.149327 109.146914 134.741245 108.420625 134.014957 c
107.694337 133.288668 107.286255 132.303471 107.286255 131.276344 c
107.286255 130.249217 107.694337 129.26402 108.420625 128.537731 c
109.146914 127.811443 110.132111 127.403361 111.159238 127.403361 c
cl
gsave
fill
grestore
stroke
grestore
gsave
357.1 266.1 57.6 38.02 clipbox
146.875853 127.403361 m
147.902981 127.403361 148.888178 127.811443 149.614466 128.537731 c
150.340755 129.26402 150.748837 130.249217 150.748837 131.276344 c
150.748837 132.303471 150.340755 133.288668 149.614466 134.014957 c
148.888178 134.741245 147.902981 135.149327 146.875853 135.149327 c
145.848726 135.149327 144.863529 134.741245 144.137241 134.014957 c
143.410952 133.288668 143.00287 132.303471 143.00287 131.276344 c
143.00287 130.249217 143.410952 129.26402 144.137241 128.537731 c
144.863529 127.811443 145.848726 127.403361 146.875853 127.403361 c
cl
gsave
fill
grestore
stroke
grestore
gsave
357.1 266.1 57.6 38.02 clipbox
182.592469 131.276344 m
182.592469 131.276344 182.592469 131.276344 182.592469 131.276344 c
182.592469 131.276344 182.592469 131.276344 182.592469 131.276344 c
182.592469 131.276344 182.592469 131.276344 182.592469 131.276344 c
182.592469 131.276344 182.592469 131.276344 182.592469 131.276344 c
182.592469 131.276344 182.592469 131.276344 182.592469 131.276344 c
182.592469 131.276344 182.592469 131.276344 182.592469 131.276344 c
182.592469 131.276344 182.592469 131.276344 182.592469 131.276344 c
182.592469 131.276344 182.592469 131.276344 182.592469 131.276344 c
cl
gsave
fill
grestore
stroke
grestore
gsave
357.1 266.1 57.6 38.02 clipbox
218.309084 131.276344 m
218.309084 131.276344 218.309084 131.276344 218.309084 131.276344 c
218.309084 131.276344 218.309084 131.276344 218.309084 131.276344 c
218.309084 131.276344 218.309084 131.276344 218.309084 131.276344 c
218.309084 131.276344 218.309084 131.276344 218.309084 131.276344 c
218.309084 131.276344 218.309084 131.276344 218.309084 131.276344 c
218.309084 131.276344 218.309084 131.276344 218.309084 131.276344 c
218.309084 131.276344 218.309084 131.276344 218.309084 131.276344 c
218.309084 131.276344 218.309084 131.276344 218.309084 131.276344 c
cl
gsave
fill
grestore
stroke
grestore
gsave
357.1 266.1 57.6 38.02 clipbox
254.025699 131.276344 m
254.025699 131.276344 254.025699 131.276344 254.025699 131.276344 c
254.025699 131.276344 254.025699 131.276344 254.025699 131.276344 c
254.025699 131.276344 254.025699 131.276344 254.025699 131.276344 c
254.025699 131.276344 254.025699 131.276344 254.025699 131.276344 c
254.025699 131.276344 254.025699 131.276344 254.025699 131.276344 c
254.025699 131.276344 254.025699 131.276344 254.025699 131.276344 c
254.025699 131.276344 254.025699 131.276344 254.025699 131.276344 c
254.025699 131.276344 254.025699 131.276344 254.025699 131.276344 c
cl
gsave
fill
grestore
stroke
grestore
gsave
357.1 266.1 57.6 38.02 clipbox
289.742314 131.276344 m
289.742314 131.276344 289.742314 131.276344 289.742314 131.276344 c
289.742314 131.276344 289.742314 131.276344 289.742314 131.276344 c
289.742314 131.276344 289.742314 131.276344 289.742314 131.276344 c
289.742314 131.276344 289.742314 131.276344 289.742314 131.276344 c
289.742314 131.276344 289.742314 131.276344 289.742314 131.276344 c
289.742314 131.276344 289.742314 131.276344 289.742314 131.276344 c
289.742314 131.276344 289.742314 131.276344 289.742314 131.276344 c
289.742314 131.276344 289.742314 131.276344 289.742314 131.276344 c
cl
gsave
fill
grestore
stroke
grestore
gsave
357.1 266.1 57.6 38.02 clipbox
325.45893 131.276344 m
325.45893 131.276344 325.45893 131.276344 325.45893 131.276344 c
325.45893 131.276344 325.45893 131.276344 325.45893 131.276344 c
325.45893 131.276344 325.45893 131.276344 325.45893 131.276344 c
325.45893 131.276344 325.45893 131.276344 325.45893 131.276344 c
325.45893 131.276344 325.45893 131.276344 325.45893 131.276344 c
325.45893 131.276344 325.45893 131.276344 325.45893 131.276344 c
325.45893 131.276344 325.45893 131.276344 325.45893 131.276344 c
325.45893 131.276344 325.45893 131.276344 325.45893 131.276344 c
cl
gsave
fill
grestore
stroke
grestore
gsave
357.1 266.1 57.6 38.02 clipbox
361.175545 131.276344 m
361.175545 131.276344 361.175545 131.276344 361.175545 131.276344 c
361.175545 131.276344 361.175545 131.276344 361.175545 131.276344 c
361.175545 131.276344 361.175545 131.276344 361.175545 131.276344 c
361.175545 131.276344 361.175545 131.276344 361.175545 131.276344 c
361.175545 131.276344 361.175545 131.276344 361.175545 131.276344 c
361.175545 131.276344 361.175545 131.276344 361.175545 131.276344 c
361.175545 131.276344 361.175545 131.276344 361.175545 131.276344 c
361.175545 131.276344 361.175545 131.276344 361.175545 131.276344 c
cl
gsave
fill
grestore
stroke
grestore
gsave
357.1 266.1 57.6 38.02 clipbox
396.89216 131.276344 m
396.89216 131.276344 396.89216 131.276344 396.89216 131.276344 c
396.89216 131.276344 396.89216 131.276344 396.89216 131.276344 c
396.89216 131.276344 396.89216 131.276344 396.89216 131.276344 c
396.89216 131.276344 396.89216 131.276344 396.89216 131.276344 c
396.89216 131.276344 396.89216 131.276344 396.89216 131.276344 c
396.89216 131.276344 396.89216 131.276344 396.89216 131.276344 c
396.89216 131.276344 396.89216 131.276344 396.89216 131.276344 c
396.89216 131.276344 396.89216 131.276344 396.89216 131.276344 c
cl
gsave
fill
grestore
stroke
grestore
gsave
357.1 266.1 57.6 38.02 clipbox
75.442623 157.800646 m
75.442623 157.800646 75.442623 157.800646 75.442623 157.800646 c
75.442623 157.800646 75.442623 157.800646 75.442623 157.800646 c
75.442623 157.800646 75.442623 157.800646 75.442623 157.800646 c
75.442623 157.800646 75.442623 157.800646 75.442623 157.800646 c
75.442623 157.800646 75.442623 157.800646 75.442623 157.800646 c
75.442623 157.800646 75.442623 157.800646 75.442623 157.800646 c
75.442623 157.800646 75.442623 157.800646 75.442623 157.800646 c
75.442623 157.800646 75.442623 157.800646 75.442623 157.800646 c
cl
gsave
fill
grestore
stroke
grestore
gsave
357.1 266.1 57.6 38.02 clipbox
111.159238 157.800646 m
111.159238 157.800646 111.159238 157.800646 111.159238 157.800646 c
111.159238 157.800646 111.159238 157.800646 111.159238 157.800646 c
111.159238 157.800646 111.159238 157.800646 111.159238 157.800646 c
111.159238 157.800646 111.159238 157.800646 111.159238 157.800646 c
111.159238 157.800646 111.159238 157.800646 111.159238 157.800646 c
111.159238 157.800646 111.159238 157.800646 111.159238 157.800646 c
111.159238 157.800646 111.159238 157.800646 111.159238 157.800646 c
111.159238 157.800646 111.159238 157.800646 111.159238 157.800646 c
cl
gsave
fill
grestore
stroke
grestore
gsave
357.1 266.1 57.6 38.02 clipbox
146.875853 153.927662 m
147.902981 153.927662 148.888178 154.335744 149.614466 155.062033 c
150.340755 155.788321 150.748837 156.773518 150.748837 157.800646 c
150.748837 158.827773 150.340755 159.81297 149.614466 160.539258 c
148.888178 161.265547 147.902981 161.673629 146.875853 161.673629 c
145.848726 161.673629 144.863529 161.265547 144.137241 160.539258 c
143.410952 159.81297 143.00287 158.827773 143.00287 157.800646 c
143.00287 156.773518 143.410952 155.788321 144.137241 155.062033 c
144.863529 154.335744 145.848726 153.927662 146.875853 153.927662 c
cl
gsave
fill
grestore
stroke
grestore
gsave
357.1 266.1 57.6 38.02 clipbox
182.592469 153.927662 m
183.619596 153.927662 184.604793 154.335744 185.331081 155.062033 c
186.05737 155.788321 186.465452 156.773518 186.465452 157.800646 c
186.465452 158.827773 186.05737 159.81297 185.331081 160.539258 c
184.604793 161.265547 183.619596 161.673629 182.592469 161.673629 c
181.565341 161.673629 180.580144 161.265547 179.853856 160.539258 c
179.127567 159.81297 178.719485 158.827773 178.719485 157.800646 c
178.719485 156.773518 179.127567 155.788321 179.853856 155.062033 c
180.580144 154.335744 181.565341 153.927662 182.592469 153.927662 c
cl
gsave
fill
grestore
stroke
grestore
gsave
357.1 266.1 57.6 38.02 clipbox
218.309084 157.800646 m
218.309084 157.800646 218.309084 157.800646 218.309084 157.800646 c
218.309084 157.800646 218.309084 157.800646 218.309084 157.800646 c
218.309084 157.800646 218.309084 157.800646 218.309084 157.800646 c
218.309084 157.800646 218.309084 157.800646 218.309084 157.800646 c
218.309084 157.800646 218.309084 157.800646 218.309084 157.800646 c
218.309084 157.800646 218.309084 157.800646 218.309084 157.800646 c
218.309084 157.800646 218.309084 157.800646 218.309084 157.800646 c
218.309084 157.800646 218.309084 157.800646 218.309084 157.800646 c
cl
gsave
fill
grestore
stroke
grestore
gsave
357.1 266.1 57.6 38.02 clipbox
254.025699 157.800646 m
254.025699 157.800646 254.025699 157.800646 254.025699 157.800646 c
254.025699 157.800646 254.025699 157.800646 254.025699 157.800646 c
254.025699 157.800646 254.025699 157.800646 254.025699 157.800646 c
254.025699 157.800646 254.025699 157.800646 254.025699 157.800646 c
254.025699 157.800646 254.025699 157.800646 254.025699 157.800646 c
254.025699 157.800646 254.025699 157.800646 254.025699 157.800646 c
254.025699 157.800646 254.025699 157.800646 254.025699 157.800646 c
254.025699 157.800646 254.025699 157.800646 254.025699 157.800646 c
cl
gsave
fill
grestore
stroke
grestore
gsave
357.1 266.1 57.6 38.02 clipbox
289.742314 157.800646 m
289.742314 157.800646 289.742314 157.800646 289.742314 157.800646 c
289.742314 157.800646 289.742314 157.800646 289.742314 157.800646 c
289.742314 157.800646 289.742314 157.800646 289.742314 157.800646 c
289.742314 157.800646 289.742314 157.800646 289.742314 157.800646 c
289.742314 157.800646 289.742314 157.800646 289.742314 157.800646 c
289.742314 157.800646 289.742314 157.800646 289.742314 157.800646 c
289.742314 157.800646 289.742314 157.800646 289.742314 157.800646 c
289.742314 157.800646 289.742314 157.800646 289.742314 157.800646 c
cl
gsave
fill
grestore
stroke
grestore
gsave
357.1 266.1 57.6 38.02 clipbox
325.45893 157.800646 m
325.45893 157.800646 325.45893 157.800646 325.45893 157.800646 c
325.45893 157.800646 325.45893 157.800646 325.45893 157.800646 c
325.45893 157.800646 325.45893 157.800646 325.45893 157.800646 c
325.45893 157.800646 325.45893 157.800646 325.45893 157.800646 c
325.45893 157.800646 325.45893 157.800646 325.45893 157.800646 c
325.45893 157.800646 325.45893 157.800646 325.45893 157.800646 c
325.45893 157.800646 325.45893 157.800646 325.45893 157.800646 c
325.45893 157.800646 325.45893 157.800646 325.45893 157.800646 c
cl
gsave
fill
grestore
stroke
grestore
gsave
357.1 266.1 57.6 38.02 clipbox
361.175545 157.800646 m
361.175545 157.800646 361.175545 157.800646 361.175545 157.800646 c
361.175545 157.800646 361.175545 157.800646 361.175545 157.800646 c
361.175545 157.800646 361.175545 157.800646 361.175545 157.800646 c
361.175545 157.800646 361.175545 157.800646 361.175545 157.800646 c
361.175545 157.800646 361.175545 157.800646 361.175545 157.800646 c
361.175545 157.800646 361.175545 157.800646 361.175545 157.800646 c
361.175545 157.800646 361.175545 157.800646 361.175545 157.800646 c
361.175545 157.800646 361.175545 157.800646 361.175545 157.800646 c
cl
gsave
fill
grestore
stroke
grestore
gsave
357.1 266.1 57.6 38.02 clipbox
396.89216 157.800646 m
396.89216 157.800646 396.89216 157.800646 396.89216 157.800646 c
396.89216 157.800646 396.89216 157.800646 396.89216 157.800646 c
396.89216 157.800646 396.89216 157.800646 396.89216 157.800646 c
396.89216 157.800646 396.89216 157.800646 396.89216 157.800646 c
396.89216 157.800646 396.89216 157.800646 396.89216 157.800646 c
396.89216 157.800646 396.89216 157.800646 396.89216 157.800646 c
396.89216 157.800646 396.89216 157.800646 396.89216 157.800646 c
396.89216 157.800646 396.89216 157.800646 396.89216 157.800646 c
cl
gsave
fill
grestore
stroke
grestore
gsave
357.1 266.1 57.6 38.02 clipbox
75.442623 184.324947 m
75.442623 184.324947 75.442623 184.324947 75.442623 184.324947 c
75.442623 184.324947 75.442623 184.324947 75.442623 184.324947 c
75.442623 184.324947 75.442623 184.324947 75.442623 184.324947 c
75.442623 184.324947 75.442623 184.324947 75.442623 184.324947 c
75.442623 184.324947 75.442623 184.324947 75.442623 184.324947 c
75.442623 184.324947 75.442623 184.324947 75.442623 184.324947 c
75.442623 184.324947 75.442623 184.324947 75.442623 184.324947 c
75.442623 184.324947 75.442623 184.324947 75.442623 184.324947 c
cl
gsave
fill
grestore
stroke
grestore
gsave
357.1 266.1 57.6 38.02 clipbox
111.159238 184.324947 m
111.159238 184.324947 111.159238 184.324947 111.159238 184.324947 c
111.159238 184.324947 111.159238 184.324947 111.159238 184.324947 c
111.159238 184.324947 111.159238 184.324947 111.159238 184.324947 c
111.159238 184.324947 111.159238 184.324947 111.159238 184.324947 c
111.159238 184.324947 111.159238 184.324947 111.159238 184.324947 c
111.159238 184.324947 111.159238 184.324947 111.159238 184.324947 c
111.159238 184.324947 111.159238 184.324947 111.159238 184.324947 c
111.159238 184.324947 111.159238 184.324947 111.159238 184.324947 c
cl
gsave
fill
grestore
stroke
grestore
gsave
357.1 266.1 57.6 38.02 clipbox
146.875853 184.324947 m
146.875853 184.324947 146.875853 184.324947 146.875853 184.324947 c
146.875853 184.324947 146.875853 184.324947 146.875853 184.324947 c
146.875853 184.324947 146.875853 184.324947 146.875853 184.324947 c
146.875853 184.324947 146.875853 184.324947 146.875853 184.324947 c
146.875853 184.324947 146.875853 184.324947 146.875853 184.324947 c
146.875853 184.324947 146.875853 184.324947 146.875853 184.324947 c
146.875853 184.324947 146.875853 184.324947 146.875853 184.324947 c
146.875853 184.324947 146.875853 184.324947 146.875853 184.324947 c
cl
gsave
fill
grestore
stroke
grestore
gsave
357.1 266.1 57.6 38.02 clipbox
182.592469 180.451964 m
183.619596 180.451964 184.604793 180.860046 185.331081 181.586334 c
186.05737 182.312623 186.465452 183.29782 186.465452 184.324947 c
186.465452 185.352074 186.05737 186.337271 185.331081 187.06356 c
184.604793 187.789849 183.619596 188.19793 182.592469 188.19793 c
181.565341 188.19793 180.580144 187.789849 179.853856 187.06356 c
179.127567 186.337271 178.719485 185.352074 178.719485 184.324947 c
178.719485 183.29782 179.127567 182.312623 179.853856 181.586334 c
180.580144 180.860046 181.565341 180.451964 182.592469 180.451964 c
cl
gsave
fill
grestore
stroke
grestore
gsave
357.1 266.1 57.6 38.02 clipbox
218.309084 180.451964 m
219.336211 180.451964 220.321408 180.860046 221.047697 181.586334 c
221.773985 182.312623 222.182067 183.29782 222.182067 184.324947 c
222.182067 185.352074 221.773985 186.337271 221.047697 187.06356 c
220.321408 187.789849 219.336211 188.19793 218.309084 188.19793 c
217.281957 188.19793 216.29676 187.789849 215.570471 187.06356 c
214.844183 186.337271 214.436101 185.352074 214.436101 184.324947 c
214.436101 183.29782 214.844183 182.312623 215.570471 181.586334 c
216.29676 180.860046 217.281957 180.451964 218.309084 180.451964 c
cl
gsave
fill
grestore
stroke
grestore
gsave
357.1 266.1 57.6 38.02 clipbox
254.025699 184.324947 m
254.025699 184.324947 254.025699 184.324947 254.025699 184.324947 c
254.025699 184.324947 254.025699 184.324947 254.025699 184.324947 c
254.025699 184.324947 254.025699 184.324947 254.025699 184.324947 c
254.025699 184.324947 254.025699 184.324947 254.025699 184.324947 c
254.025699 184.324947 254.025699 184.324947 254.025699 184.324947 c
254.025699 184.324947 254.025699 184.324947 254.025699 184.324947 c
254.025699 184.324947 254.025699 184.324947 254.025699 184.324947 c
254.025699 184.324947 254.025699 184.324947 254.025699 184.324947 c
cl
gsave
fill
grestore
stroke
grestore
gsave
357.1 266.1 57.6 38.02 clipbox
289.742314 184.324947 m
289.742314 184.324947 289.742314 184.324947 289.742314 184.324947 c
289.742314 184.324947 289.742314 184.324947 289.742314 184.324947 c
289.742314 184.324947 289.742314 184.324947 289.742314 184.324947 c
289.742314 184.324947 289.742314 184.324947 289.742314 184.324947 c
289.742314 184.324947 289.742314 184.324947 289.742314 184.324947 c
289.742314 184.324947 289.742314 184.324947 289.742314 184.324947 c
289.742314 184.324947 289.742314 184.324947 289.742314 184.324947 c
289.742314 184.324947 289.742314 184.324947 289.742314 184.324947 c
cl
gsave
fill
grestore
stroke
grestore
gsave
357.1 266.1 57.6 38.02 clipbox
325.45893 184.324947 m
325.45893 184.324947 325.45893 184.324947 325.45893 184.324947 c
325.45893 184.324947 325.45893 184.324947 325.45893 184.324947 c
325.45893 184.324947 325.45893 184.324947 325.45893 184.324947 c
325.45893 184.324947 325.45893 184.324947 325.45893 184.324947 c
325.45893 184.324947 325.45893 184.324947 325.45893 184.324947 c
325.45893 184.324947 325.45893 184.324947 325.45893 184.324947 c
325.45893 184.324947 325.45893 184.324947 325.45893 184.324947 c
325.45893 184.324947 325.45893 184.324947 325.45893 184.324947 c
cl
gsave
fill
grestore
stroke
grestore
gsave
357.1 266.1 57.6 38.02 clipbox
361.175545 184.324947 m
361.175545 184.324947 361.175545 184.324947 361.175545 184.324947 c
361.175545 184.324947 361.175545 184.324947 361.175545 184.324947 c
361.175545 184.324947 361.175545 184.324947 361.175545 184.324947 c
361.175545 184.324947 361.175545 184.324947 361.175545 184.324947 c
361.175545 184.324947 361.175545 184.324947 361.175545 184.324947 c
361.175545 184.324947 361.175545 184.324947 361.175545 184.324947 c
361.175545 184.324947 361.175545 184.324947 361.175545 184.324947 c
361.175545 184.324947 361.175545 184.324947 361.175545 184.324947 c
cl
gsave
fill
grestore
stroke
grestore
gsave
357.1 266.1 57.6 38.02 clipbox
396.89216 184.324947 m
396.89216 184.324947 396.89216 184.324947 396.89216 184.324947 c
396.89216 184.324947 396.89216 184.324947 396.89216 184.324947 c
396.89216 184.324947 396.89216 184.324947 396.89216 184.324947 c
396.89216 184.324947 396.89216 184.324947 396.89216 184.324947 c
396.89216 184.324947 396.89216 184.324947 396.89216 184.324947 c
396.89216 184.324947 396.89216 184.324947 396.89216 184.324947 c
396.89216 184.324947 396.89216 184.324947 396.89216 184.324947 c
396.89216 184.324947 396.89216 184.324947 396.89216 184.324947 c
cl
gsave
fill
grestore
stroke
grestore
gsave
357.1 266.1 57.6 38.02 clipbox
75.442623 210.849249 m
75.442623 210.849249 75.442623 210.849249 75.442623 210.849249 c
75.442623 210.849249 75.442623 210.849249 75.442623 210.849249 c
75.442623 210.849249 75.442623 210.849249 75.442623 210.849249 c
75.442623 210.849249 75.442623 210.849249 75.442623 210.849249 c
75.442623 210.849249 75.442623 210.849249 75.442623 210.849249 c
75.442623 210.849249 75.442623 210.849249 75.442623 210.849249 c
75.442623 210.849249 75.442623 210.849249 75.442623 210.849249 c
75.442623 210.849249 75.442623 210.849249 75.442623 210.849249 c
cl
gsave
fill
grestore
stroke
grestore
gsave
357.1 266.1 57.6 38.02 clipbox
111.159238 210.849249 m
111.159238 210.849249 111.159238 210.849249 111.159238 210.849249 c
111.159238 210.849249 111.159238 210.849249 111.159238 210.849249 c
111.159238 210.849249 111.159238 210.849249 111.159238 210.849249 c
111.159238 210.849249 111.159238 210.849249 111.159238 210.849249 c
111.159238 210.849249 111.159238 210.849249 111.159238 210.849249 c
111.159238 210.849249 111.159238 210.849249 111.159238 210.849249 c
111.159238 210.849249 111.159238 210.849249 111.159238 210.849249 c
111.159238 210.849249 111.159238 210.849249 111.159238 210.849249 c
cl
gsave
fill
grestore
stroke
grestore
gsave
357.1 266.1 57.6 38.02 clipbox
146.875853 210.849249 m
146.875853 210.849249 146.875853 210.849249 146.875853 210.849249 c
146.875853 210.849249 146.875853 210.849249 146.875853 210.849249 c
146.875853 210.849249 146.875853 210.849249 146.875853 210.849249 c
146.875853 210.849249 146.875853 210.849249 146.875853 210.849249 c
146.875853 210.849249 146.875853 210.849249 146.875853 210.849249 c
146.875853 210.849249 146.875853 210.849249 146.875853 210.849249 c
146.875853 210.849249 146.875853 210.849249 146.875853 210.849249 c
146.875853 210.849249 146.875853 210.849249 146.875853 210.849249 c
cl
gsave
fill
grestore
stroke
grestore
gsave
357.1 266.1 57.6 38.02 clipbox
182.592469 210.849249 m
182.592469 210.849249 182.592469 210.849249 182.592469 210.849249 c
182.592469 210.849249 182.592469 210.849249 182.592469 210.849249 c
182.592469 210.849249 182.592469 210.849249 182.592469 210.849249 c
182.592469 210.849249 182.592469 210.849249 182.592469 210.849249 c
182.592469 210.849249 182.592469 210.849249 182.592469 210.849249 c
182.592469 210.849249 182.592469 210.849249 182.592469 210.849249 c
182.592469 210.849249 182.592469 210.849249 182.592469 210.849249 c
182.592469 210.849249 182.592469 210.849249 182.592469 210.849249 c
cl
gsave
fill
grestore
stroke
grestore
gsave
357.1 266.1 57.6 38.02 clipbox
218.309084 206.976265 m
219.336211 206.976265 220.321408 207.384347 221.047697 208.110636 c
221.773985 208.836925 222.182067 209.822122 222.182067 210.849249 c
222.182067 211.876376 221.773985 212.861573 221.047697 213.587862 c
220.321408 214.31415 219.336211 214.722232 218.309084 214.722232 c
217.281957 214.722232 216.29676 214.31415 215.570471 213.587862 c
214.844183 212.861573 214.436101 211.876376 214.436101 210.849249 c
214.436101 209.822122 214.844183 208.836925 215.570471 208.110636 c
216.29676 207.384347 217.281957 206.976265 218.309084 206.976265 c
cl
gsave
fill
grestore
stroke
grestore
gsave
357.1 266.1 57.6 38.02 clipbox
254.025699 206.976265 m
255.052826 206.976265 256.038023 207.384347 256.764312 208.110636 c
257.490601 208.836925 257.898683 209.822122 257.898683 210.849249 c
257.898683 211.876376 257.490601 212.861573 256.764312 213.587862 c
256.038023 214.31415 255.052826 214.722232 254.025699 214.722232 c
252.998572 214.722232 252.013375 214.31415 251.287086 213.587862 c
250.560798 212.861573 250.152716 211.876376 250.152716 210.849249 c
250.152716 209.822122 250.560798 208.836925 251.287086 208.110636 c
252.013375 207.384347 252.998572 206.976265 254.025699 206.976265 c
cl
gsave
fill
grestore
stroke
grestore
gsave
357.1 266.1 57.6 38.02 clipbox
289.742314 210.849249 m
289.742314 210.849249 289.742314 210.849249 289.742314 210.849249 c
289.742314 210.849249 289.742314 210.849249 289.742314 210.849249 c
289.742314 210.849249 289.742314 210.849249 289.742314 210.849249 c
289.742314 210.849249 289.742314 210.849249 289.742314 210.849249 c
289.742314 210.849249 289.742314 210.849249 289.742314 210.849249 c
289.742314 210.849249 289.742314 210.849249 289.742314 210.849249 c
289.742314 210.849249 289.742314 210.849249 289.742314 210.849249 c
289.742314 210.849249 289.742314 210.849249 289.742314 210.849249 c
cl
gsave
fill
grestore
stroke
grestore
gsave
357.1 266.1 57.6 38.02 clipbox
325.45893 210.849249 m
325.45893 210.849249 325.45893 210.849249 325.45893 210.849249 c
325.45893 210.849249 325.45893 210.849249 325.45893 210.849249 c
325.45893 210.849249 325.45893 210.849249 325.45893 210.849249 c
325.45893 210.849249 325.45893 210.849249 325.45893 210.849249 c
325.45893 210.849249 325.45893 210.849249 325.45893 210.849249 c
325.45893 210.849249 325.45893 210.849249 325.45893 210.849249 c
325.45893 210.849249 325.45893 210.849249 325.45893 210.849249 c
325.45893 210.849249 325.45893 210.849249 325.45893 210.849249 c
cl
gsave
fill
grestore
stroke
grestore
gsave
357.1 266.1 57.6 38.02 clipbox
361.175545 210.849249 m
361.175545 210.849249 361.175545 210.849249 361.175545 210.849249 c
361.175545 210.849249 361.175545 210.849249 361.175545 210.849249 c
361.175545 210.849249 361.175545 210.849249 361.175545 210.849249 c
361.175545 210.849249 361.175545 210.849249 361.175545 210.849249 c
361.175545 210.849249 361.175545 210.849249 361.175545 210.849249 c
361.175545 210.849249 361.175545 210.849249 361.175545 210.849249 c
361.175545 210.849249 361.175545 210.849249 361.175545 210.849249 c
361.175545 210.849249 361.175545 210.849249 361.175545 210.849249 c
cl
gsave
fill
grestore
stroke
grestore
gsave
357.1 266.1 57.6 38.02 clipbox
396.89216 210.849249 m
396.89216 210.849249 396.89216 210.849249 396.89216 210.849249 c
396.89216 210.849249 396.89216 210.849249 396.89216 210.849249 c
396.89216 210.849249 396.89216 210.849249 396.89216 210.849249 c
396.89216 210.849249 396.89216 210.849249 396.89216 210.849249 c
396.89216 210.849249 396.89216 210.849249 396.89216 210.849249 c
396.89216 210.849249 396.89216 210.849249 396.89216 210.849249 c
396.89216 210.849249 396.89216 210.849249 396.89216 210.849249 c
396.89216 210.849249 396.89216 210.849249 396.89216 210.849249 c
cl
gsave
fill
grestore
stroke
grestore
gsave
357.1 266.1 57.6 38.02 clipbox
75.442623 237.37355 m
75.442623 237.37355 75.442623 237.37355 75.442623 237.37355 c
75.442623 237.37355 75.442623 237.37355 75.442623 237.37355 c
75.442623 237.37355 75.442623 237.37355 75.442623 237.37355 c
75.442623 237.37355 75.442623 237.37355 75.442623 237.37355 c
75.442623 237.37355 75.442623 237.37355 75.442623 237.37355 c
75.442623 237.37355 75.442623 237.37355 75.442623 237.37355 c
75.442623 237.37355 75.442623 237.37355 75.442623 237.37355 c
75.442623 237.37355 75.442623 237.37355 75.442623 237.37355 c
cl
gsave
fill
grestore
stroke
grestore
gsave
357.1 266.1 57.6 38.02 clipbox
111.159238 237.37355 m
111.159238 237.37355 111.159238 237.37355 111.159238 237.37355 c
111.159238 237.37355 111.159238 237.37355 111.159238 237.37355 c
111.159238 237.37355 111.159238 237.37355 111.159238 237.37355 c
111.159238 237.37355 111.159238 237.37355 111.159238 237.37355 c
111.159238 237.37355 111.159238 237.37355 111.159238 237.37355 c
111.159238 237.37355 111.159238 237.37355 111.159238 237.37355 c
111.159238 237.37355 111.159238 237.37355 111.159238 237.37355 c
111.159238 237.37355 111.159238 237.37355 111.159238 237.37355 c
cl
gsave
fill
grestore
stroke
grestore
gsave
357.1 266.1 57.6 38.02 clipbox
146.875853 237.37355 m
146.875853 237.37355 146.875853 237.37355 146.875853 237.37355 c
146.875853 237.37355 146.875853 237.37355 146.875853 237.37355 c
146.875853 237.37355 146.875853 237.37355 146.875853 237.37355 c
146.875853 237.37355 146.875853 237.37355 146.875853 237.37355 c
146.875853 237.37355 146.875853 237.37355 146.875853 237.37355 c
146.875853 237.37355 146.875853 237.37355 146.875853 237.37355 c
146.875853 237.37355 146.875853 237.37355 146.875853 237.37355 c
146.875853 237.37355 146.875853 237.37355 146.875853 237.37355 c
cl
gsave
fill
grestore
stroke
grestore
gsave
357.1 266.1 57.6 38.02 clipbox
182.592469 237.37355 m
182.592469 237.37355 182.592469 237.37355 182.592469 237.37355 c
182.592469 237.37355 182.592469 237.37355 182.592469 237.37355 c
182.592469 237.37355 182.592469 237.37355 182.592469 237.37355 c
182.592469 237.37355 182.592469 237.37355 182.592469 237.37355 c
182.592469 237.37355 182.592469 237.37355 182.592469 237.37355 c
182.592469 237.37355 182.592469 237.37355 182.592469 237.37355 c
182.592469 237.37355 182.592469 237.37355 182.592469 237.37355 c
182.592469 237.37355 182.592469 237.37355 182.592469 237.37355 c
cl
gsave
fill
grestore
stroke
grestore
gsave
357.1 266.1 57.6 38.02 clipbox
218.309084 237.37355 m
218.309084 237.37355 218.309084 237.37355 218.309084 237.37355 c
218.309084 237.37355 218.309084 237.37355 218.309084 237.37355 c
218.309084 237.37355 218.309084 237.37355 218.309084 237.37355 c
218.309084 237.37355 218.309084 237.37355 218.309084 237.37355 c
218.309084 237.37355 218.309084 237.37355 218.309084 237.37355 c
218.309084 237.37355 218.309084 237.37355 218.309084 237.37355 c
218.309084 237.37355 218.309084 237.37355 218.309084 237.37355 c
218.309084 237.37355 218.309084 237.37355 218.309084 237.37355 c
cl
gsave
fill
grestore
stroke
grestore
gsave
357.1 266.1 57.6 38.02 clipbox
254.025699 233.500567 m
255.052826 233.500567 256.038023 233.908649 256.764312 234.634938 c
257.490601 235.361226 257.898683 236.346423 257.898683 237.37355 c
257.898683 238.400678 257.490601 239.385875 256.764312 240.112163 c
256.038023 240.838452 255.052826 241.246534 254.025699 241.246534 c
252.998572 241.246534 252.013375 240.838452 251.287086 240.112163 c
250.560798 239.385875 250.152716 238.400678 250.152716 237.37355 c
250.152716 236.346423 250.560798 235.361226 251.287086 234.634938 c
252.013375 233.908649 252.998572 233.500567 254.025699 233.500567 c
cl
gsave
fill
grestore
stroke
grestore
gsave
357.1 266.1 57.6 38.02 clipbox
289.742314 233.500567 m
290.769442 233.500567 291.754639 233.908649 292.480927 234.634938 c
293.207216 235.361226 293.615298 236.346423 293.615298 237.37355 c
293.615298 238.400678 293.207216 239.385875 292.480927 240.112163 c
291.754639 240.838452 290.769442 241.246534 289.742314 241.246534 c
288.715187 241.246534 287.72999 240.838452 287.003702 240.112163 c
286.277413 239.385875 285.869331 238.400678 285.869331 237.37355 c
285.869331 236.346423 286.277413 235.361226 287.003702 234.634938 c
287.72999 233.908649 288.715187 233.500567 289.742314 233.500567 c
cl
gsave
fill
grestore
stroke
grestore
gsave
357.1 266.1 57.6 38.02 clipbox
325.45893 237.37355 m
325.45893 237.37355 325.45893 237.37355 325.45893 237.37355 c
325.45893 237.37355 325.45893 237.37355 325.45893 237.37355 c
325.45893 237.37355 325.45893 237.37355 325.45893 237.37355 c
325.45893 237.37355 325.45893 237.37355 325.45893 237.37355 c
325.45893 237.37355 325.45893 237.37355 325.45893 237.37355 c
325.45893 237.37355 325.45893 237.37355 325.45893 237.37355 c
325.45893 237.37355 325.45893 237.37355 325.45893 237.37355 c
325.45893 237.37355 325.45893 237.37355 325.45893 237.37355 c
cl
gsave
fill
grestore
stroke
grestore
gsave
357.1 266.1 57.6 38.02 clipbox
361.175545 237.37355 m
361.175545 237.37355 361.175545 237.37355 361.175545 237.37355 c
361.175545 237.37355 361.175545 237.37355 361.175545 237.37355 c
361.175545 237.37355 361.175545 237.37355 361.175545 237.37355 c
361.175545 237.37355 361.175545 237.37355 361.175545 237.37355 c
361.175545 237.37355 361.175545 237.37355 361.175545 237.37355 c
361.175545 237.37355 361.175545 237.37355 361.175545 237.37355 c
361.175545 237.37355 361.175545 237.37355 361.175545 237.37355 c
361.175545 237.37355 361.175545 237.37355 361.175545 237.37355 c
cl
gsave
fill
grestore
stroke
grestore
gsave
357.1 266.1 57.6 38.02 clipbox
396.89216 237.37355 m
396.89216 237.37355 396.89216 237.37355 396.89216 237.37355 c
396.89216 237.37355 396.89216 237.37355 396.89216 237.37355 c
396.89216 237.37355 396.89216 237.37355 396.89216 237.37355 c
396.89216 237.37355 396.89216 237.37355 396.89216 237.37355 c
396.89216 237.37355 396.89216 237.37355 396.89216 237.37355 c
396.89216 237.37355 396.89216 237.37355 396.89216 237.37355 c
396.89216 237.37355 396.89216 237.37355 396.89216 237.37355 c
396.89216 237.37355 396.89216 237.37355 396.89216 237.37355 c
cl
gsave
fill
grestore
stroke
grestore
gsave
357.1 266.1 57.6 38.02 clipbox
75.442623 263.897852 m
75.442623 263.897852 75.442623 263.897852 75.442623 263.897852 c
75.442623 263.897852 75.442623 263.897852 75.442623 263.897852 c
75.442623 263.897852 75.442623 263.897852 75.442623 263.897852 c
75.442623 263.897852 75.442623 263.897852 75.442623 263.897852 c
75.442623 263.897852 75.442623 263.897852 75.442623 263.897852 c
75.442623 263.897852 75.442623 263.897852 75.442623 263.897852 c
75.442623 263.897852 75.442623 263.897852 75.442623 263.897852 c
75.442623 263.897852 75.442623 263.897852 75.442623 263.897852 c
cl
gsave
fill
grestore
stroke
grestore
gsave
357.1 266.1 57.6 38.02 clipbox
111.159238 263.897852 m
111.159238 263.897852 111.159238 263.897852 111.159238 263.897852 c
111.159238 263.897852 111.159238 263.897852 111.159238 263.897852 c
111.159238 263.897852 111.159238 263.897852 111.159238 263.897852 c
111.159238 263.897852 111.159238 263.897852 111.159238 263.897852 c
111.159238 263.897852 111.159238 263.897852 111.159238 263.897852 c
111.159238 263.897852 111.159238 263.897852 111.159238 263.897852 c
111.159238 263.897852 111.159238 263.897852 111.159238 263.897852 c
111.159238 263.897852 111.159238 263.897852 111.159238 263.897852 c
cl
gsave
fill
grestore
stroke
grestore
gsave
357.1 266.1 57.6 38.02 clipbox
146.875853 263.897852 m
146.875853 263.897852 146.875853 263.897852 146.875853 263.897852 c
146.875853 263.897852 146.875853 263.897852 146.875853 263.897852 c
146.875853 263.897852 146.875853 263.897852 146.875853 263.897852 c
146.875853 263.897852 146.875853 263.897852 146.875853 263.897852 c
146.875853 263.897852 146.875853 263.897852 146.875853 263.897852 c
146.875853 263.897852 146.875853 263.897852 146.875853 263.897852 c
146.875853 263.897852 146.875853 263.897852 146.875853 263.897852 c
146.875853 263.897852 146.875853 263.897852 146.875853 263.897852 c
cl
gsave
fill
grestore
stroke
grestore
gsave
357.1 266.1 57.6 38.02 clipbox
182.592469 263.897852 m
182.592469 263.897852 182.592469 263.897852 182.592469 263.897852 c
182.592469 263.897852 182.592469 263.897852 182.592469 263.897852 c
182.592469 263.897852 182.592469 263.897852 182.592469 263.897852 c
182.592469 263.897852 182.592469 263.897852 182.592469 263.897852 c
182.592469 263.897852 182.592469 263.897852 182.592469 263.897852 c
182.592469 263.897852 182.592469 263.897852 182.592469 263.897852 c
182.592469 263.897852 182.592469 263.897852 182.592469 263.897852 c
182.592469 263.897852 182.592469 263.897852 182.592469 263.897852 c
cl
gsave
fill
grestore
stroke
grestore
gsave
357.1 266.1 57.6 38.02 clipbox
218.309084 263.897852 m
218.309084 263.897852 218.309084 263.897852 218.309084 263.897852 c
218.309084 263.897852 218.309084 263.897852 218.309084 263.897852 c
218.309084 263.897852 218.309084 263.897852 218.309084 263.897852 c
218.309084 263.897852 218.309084 263.897852 218.309084 263.897852 c
218.309084 263.897852 218.309084 263.897852 218.309084 263.897852 c
218.309084 263.897852 218.309084 263.897852 218.309084 263.897852 c
218.309084 263.897852 218.309084 263.897852 218.309084 263.897852 c
218.309084 263.897852 218.309084 263.897852 218.309084 263.897852 c
cl
gsave
fill
grestore
stroke
grestore
gsave
357.1 266.1 57.6 38.02 clipbox
254.025699 263.897852 m
254.025699 263.897852 254.025699 263.897852 254.025699 263.897852 c
254.025699 263.897852 254.025699 263.897852 254.025699 263.897852 c
254.025699 263.897852 254.025699 263.897852 254.025699 263.897852 c
254.025699 263.897852 254.025699 263.897852 254.025699 263.897852 c
254.025699 263.897852 254.025699 263.897852 254.025699 263.897852 c
254.025699 263.897852 254.025699 263.897852 254.025699 263.897852 c
254.025699 263.897852 254.025699 263.897852 254.025699 263.897852 c
254.025699 263.897852 254.025699 263.897852 254.025699 263.897852 c
cl
gsave
fill
grestore
stroke
grestore
gsave
357.1 266.1 57.6 38.02 clipbox
289.742314 260.024869 m
290.769442 260.024869 291.754639 260.432951 292.480927 261.159239 c
293.207216 261.885528 293.615298 262.870725 293.615298 263.897852 c
293.615298 264.924979 293.207216 265.910176 292.480927 266.636465 c
291.754639 267.362753 290.769442 267.770835 289.742314 267.770835 c
288.715187 267.770835 287.72999 267.362753 287.003702 266.636465 c
286.277413 265.910176 285.869331 264.924979 285.869331 263.897852 c
285.869331 262.870725 286.277413 261.885528 287.003702 261.159239 c
287.72999 260.432951 288.715187 260.024869 289.742314 260.024869 c
cl
gsave
fill
grestore
stroke
grestore
gsave
357.1 266.1 57.6 38.02 clipbox
325.45893 260.024869 m
326.486057 260.024869 327.471254 260.432951 328.197542 261.159239 c
328.923831 261.885528 329.331913 262.870725 329.331913 263.897852 c
329.331913 264.924979 328.923831 265.910176 328.197542 266.636465 c
327.471254 267.362753 326.486057 267.770835 325.45893 267.770835 c
324.431803 267.770835 323.446606 267.362753 322.720317 266.636465 c
321.994028 265.910176 321.585946 264.924979 321.585946 263.897852 c
321.585946 262.870725 321.994028 261.885528 322.720317 261.159239 c
323.446606 260.432951 324.431803 260.024869 325.45893 260.024869 c
cl
gsave
fill
grestore
stroke
grestore
gsave
357.1 266.1 57.6 38.02 clipbox
361.175545 263.897852 m
361.175545 263.897852 361.175545 263.897852 361.175545 263.897852 c
361.175545 263.897852 361.175545 263.897852 361.175545 263.897852 c
361.175545 263.897852 361.175545 263.897852 361.175545 263.897852 c
361.175545 263.897852 361.175545 263.897852 361.175545 263.897852 c
361.175545 263.897852 361.175545 263.897852 361.175545 263.897852 c
361.175545 263.897852 361.175545 263.897852 361.175545 263.897852 c
361.175545 263.897852 361.175545 263.897852 361.175545 263.897852 c
361.175545 263.897852 361.175545 263.897852 361.175545 263.897852 c
cl
gsave
fill
grestore
stroke
grestore
gsave
357.1 266.1 57.6 38.02 clipbox
396.89216 263.897852 m
396.89216 263.897852 396.89216 263.897852 396.89216 263.897852 c
396.89216 263.897852 396.89216 263.897852 396.89216 263.897852 c
396.89216 263.897852 396.89216 263.897852 396.89216 263.897852 c
396.89216 263.897852 396.89216 263.897852 396.89216 263.897852 c
396.89216 263.897852 396.89216 263.897852 396.89216 263.897852 c
396.89216 263.897852 396.89216 263.897852 396.89216 263.897852 c
396.89216 263.897852 396.89216 263.897852 396.89216 263.897852 c
396.89216 263.897852 396.89216 263.897852 396.89216 263.897852 c
cl
gsave
fill
grestore
stroke
grestore
gsave
357.1 266.1 57.6 38.02 clipbox
75.442623 290.422154 m
75.442623 290.422154 75.442623 290.422154 75.442623 290.422154 c
75.442623 290.422154 75.442623 290.422154 75.442623 290.422154 c
75.442623 290.422154 75.442623 290.422154 75.442623 290.422154 c
75.442623 290.422154 75.442623 290.422154 75.442623 290.422154 c
75.442623 290.422154 75.442623 290.422154 75.442623 290.422154 c
75.442623 290.422154 75.442623 290.422154 75.442623 290.422154 c
75.442623 290.422154 75.442623 290.422154 75.442623 290.422154 c
75.442623 290.422154 75.442623 290.422154 75.442623 290.422154 c
cl
gsave
fill
grestore
stroke
grestore
gsave
357.1 266.1 57.6 38.02 clipbox
111.159238 290.422154 m
111.159238 290.422154 111.159238 290.422154 111.159238 290.422154 c
111.159238 290.422154 111.159238 290.422154 111.159238 290.422154 c
111.159238 290.422154 111.159238 290.422154 111.159238 290.422154 c
111.159238 290.422154 111.159238 290.422154 111.159238 290.422154 c
111.159238 290.422154 111.159238 290.422154 111.159238 290.422154 c
111.159238 290.422154 111.159238 290.422154 111.159238 290.422154 c
111.159238 290.422154 111.159238 290.422154 111.159238 290.422154 c
111.159238 290.422154 111.159238 290.422154 111.159238 290.422154 c
cl
gsave
fill
grestore
stroke
grestore
gsave
357.1 266.1 57.6 38.02 clipbox
146.875853 290.422154 m
146.875853 290.422154 146.875853 290.422154 146.875853 290.422154 c
146.875853 290.422154 146.875853 290.422154 146.875853 290.422154 c
146.875853 290.422154 146.875853 290.422154 146.875853 290.422154 c
146.875853 290.422154 146.875853 290.422154 146.875853 290.422154 c
146.875853 290.422154 146.875853 290.422154 146.875853 290.422154 c
146.875853 290.422154 146.875853 290.422154 146.875853 290.422154 c
146.875853 290.422154 146.875853 290.422154 146.875853 290.422154 c
146.875853 290.422154 146.875853 290.422154 146.875853 290.422154 c
cl
gsave
fill
grestore
stroke
grestore
gsave
357.1 266.1 57.6 38.02 clipbox
182.592469 290.422154 m
182.592469 290.422154 182.592469 290.422154 182.592469 290.422154 c
182.592469 290.422154 182.592469 290.422154 182.592469 290.422154 c
182.592469 290.422154 182.592469 290.422154 182.592469 290.422154 c
182.592469 290.422154 182.592469 290.422154 182.592469 290.422154 c
182.592469 290.422154 182.592469 290.422154 182.592469 290.422154 c
182.592469 290.422154 182.592469 290.422154 182.592469 290.422154 c
182.592469 290.422154 182.592469 290.422154 182.592469 290.422154 c
182.592469 290.422154 182.592469 290.422154 182.592469 290.422154 c
cl
gsave
fill
grestore
stroke
grestore
gsave
357.1 266.1 57.6 38.02 clipbox
218.309084 290.422154 m
218.309084 290.422154 218.309084 290.422154 218.309084 290.422154 c
218.309084 290.422154 218.309084 290.422154 218.309084 290.422154 c
218.309084 290.422154 218.309084 290.422154 218.309084 290.422154 c
218.309084 290.422154 218.309084 290.422154 218.309084 290.422154 c
218.309084 290.422154 218.309084 290.422154 218.309084 290.422154 c
218.309084 290.422154 218.309084 290.422154 218.309084 290.422154 c
218.309084 290.422154 218.309084 290.422154 218.309084 290.422154 c
218.309084 290.422154 218.309084 290.422154 218.309084 290.422154 c
cl
gsave
fill
grestore
stroke
grestore
gsave
357.1 266.1 57.6 38.02 clipbox
254.025699 290.422154 m
254.025699 290.422154 254.025699 290.422154 254.025699 290.422154 c
254.025699 290.422154 254.025699 290.422154 254.025699 290.422154 c
254.025699 290.422154 254.025699 290.422154 254.025699 290.422154 c
254.025699 290.422154 254.025699 290.422154 254.025699 290.422154 c
254.025699 290.422154 254.025699 290.422154 254.025699 290.422154 c
254.025699 290.422154 254.025699 290.422154 254.025699 290.422154 c
254.025699 290.422154 254.025699 290.422154 254.025699 290.422154 c
254.025699 290.422154 254.025699 290.422154 254.025699 290.422154 c
cl
gsave
fill
grestore
stroke
grestore
gsave
357.1 266.1 57.6 38.02 clipbox
289.742314 290.422154 m
289.742314 290.422154 289.742314 290.422154 289.742314 290.422154 c
289.742314 290.422154 289.742314 290.422154 289.742314 290.422154 c
289.742314 290.422154 289.742314 290.422154 289.742314 290.422154 c
289.742314 290.422154 289.742314 290.422154 289.742314 290.422154 c
289.742314 290.422154 289.742314 290.422154 289.742314 290.422154 c
289.742314 290.422154 289.742314 290.422154 289.742314 290.422154 c
289.742314 290.422154 289.742314 290.422154 289.742314 290.422154 c
289.742314 290.422154 289.742314 290.422154 289.742314 290.422154 c
cl
gsave
fill
grestore
stroke
grestore
gsave
357.1 266.1 57.6 38.02 clipbox
325.45893 286.54917 m
326.486057 286.54917 327.471254 286.957252 328.197542 287.683541 c
328.923831 288.409829 329.331913 289.395026 329.331913 290.422154 c
329.331913 291.449281 328.923831 292.434478 328.197542 293.160766 c
327.471254 293.887055 326.486057 294.295137 325.45893 294.295137 c
324.431803 294.295137 323.446606 293.887055 322.720317 293.160766 c
321.994028 292.434478 321.585946 291.449281 321.585946 290.422154 c
321.585946 289.395026 321.994028 288.409829 322.720317 287.683541 c
323.446606 286.957252 324.431803 286.54917 325.45893 286.54917 c
cl
gsave
fill
grestore
stroke
grestore
gsave
357.1 266.1 57.6 38.02 clipbox
361.175545 286.54917 m
362.202672 286.54917 363.187869 286.957252 363.914158 287.683541 c
364.640446 288.409829 365.048528 289.395026 365.048528 290.422154 c
365.048528 291.449281 364.640446 292.434478 363.914158 293.160766 c
363.187869 293.887055 362.202672 294.295137 361.175545 294.295137 c
360.148418 294.295137 359.163221 293.887055 358.436932 293.160766 c
357.710644 292.434478 357.302562 291.449281 357.302562 290.422154 c
357.302562 289.395026 357.710644 288.409829 358.436932 287.683541 c
359.163221 286.957252 360.148418 286.54917 361.175545 286.54917 c
cl
gsave
fill
grestore
stroke
grestore
gsave
357.1 266.1 57.6 38.02 clipbox
396.89216 290.422154 m
396.89216 290.422154 396.89216 290.422154 396.89216 290.422154 c
396.89216 290.422154 396.89216 290.422154 396.89216 290.422154 c
396.89216 290.422154 396.89216 290.422154 396.89216 290.422154 c
396.89216 290.422154 396.89216 290.422154 396.89216 290.422154 c
396.89216 290.422154 396.89216 290.422154 396.89216 290.422154 c
396.89216 290.422154 396.89216 290.422154 396.89216 290.422154 c
396.89216 290.422154 396.89216 290.422154 396.89216 290.422154 c
396.89216 290.422154 396.89216 290.422154 396.89216 290.422154 c
cl
gsave
fill
grestore
stroke
grestore
1.000 0.000 0.000 setrgbcolor
gsave
357.1 266.1 57.6 38.02 clipbox
/o {
gsave
newpath
translate
1.0 setlinewidth
1 setlinejoin
0 setlinecap
0 -2.236068 m
0.593012 -2.236068 1.161816 -2.000462 1.581139 -1.581139 c
2.000462 -1.161816 2.236068 -0.593012 2.236068 0 c
2.236068 0.593012 2.000462 1.161816 1.581139 1.581139 c
1.161816 2.000462 0.593012 2.236068 0 2.236068 c
-0.593012 2.236068 -1.161816 2.000462 -1.581139 1.581139 c
-2.000462 1.161816 -2.236068 0.593012 -2.236068 0 c
-2.236068 -0.593012 -2.000462 -1.161816 -1.581139 -1.581139 c
-1.161816 -2.000462 -0.593012 -2.236068 0 -2.236068 c
cl

gsave
1.000 0.000 0.000 setrgbcolor
fill
grestore
stroke
grestore
} bind def
75.4426 51.7034 o
111.159 51.7034 o
146.876 51.7034 o
182.592 51.7034 o
218.309 51.7034 o
254.026 51.7034 o
289.742 51.7034 o
325.459 51.7034 o
361.176 51.7034 o
396.892 51.7034 o
75.4426 78.2277 o
111.159 78.2277 o
146.876 78.2277 o
182.592 78.2277 o
218.309 78.2277 o
254.026 78.2277 o
289.742 78.2277 o
325.459 78.2277 o
361.176 78.2277 o
396.892 78.2277 o
111.159 104.752 o
146.876 104.752 o
182.592 104.752 o
218.309 104.752 o
254.026 104.752 o
289.742 104.752 o
325.459 104.752 o
361.176 104.752 o
396.892 104.752 o
146.876 131.276 o
182.592 131.276 o
218.309 131.276 o
254.026 131.276 o
289.742 131.276 o
325.459 131.276 o
361.176 131.276 o
396.892 131.276 o
182.592 157.801 o
218.309 157.801 o
254.026 157.801 o
289.742 157.801 o
325.459 157.801 o
361.176 157.801 o
396.892 157.801 o
218.309 184.325 o
254.026 184.325 o
289.742 184.325 o
325.459 184.325 o
361.176 184.325 o
396.892 184.325 o
254.026 210.849 o
289.742 210.849 o
325.459 210.849 o
361.176 210.849 o
396.892 210.849 o
289.742 237.374 o
325.459 237.374 o
361.176 237.374 o
396.892 237.374 o
325.459 263.898 o
361.176 263.898 o
396.892 263.898 o
361.176 290.422 o
396.892 290.422 o
grestore
0.000 0.502 0.000 setrgbcolor
gsave
357.1 266.1 57.6 38.02 clipbox
/o {
gsave
newpath
translate
1.0 setlinewidth
1 setlinejoin
0 setlinecap
0 -2.236068 m
0.593012 -2.236068 1.161816 -2.000462 1.581139 -1.581139 c
2.000462 -1.161816 2.236068 -0.593012 2.236068 0 c
2.236068 0.593012 2.000462 1.161816 1.581139 1.581139 c
1.161816 2.000462 0.593012 2.236068 0 2.236068 c
-0.593012 2.236068 -1.161816 2.000462 -1.581139 1.581139 c
-2.000462 1.161816 -2.236068 0.593012 -2.236068 0 c
-2.236068 -0.593012 -2.000462 -1.161816 -1.581139 -1.581139 c
-1.161816 -2.000462 -0.593012 -2.236068 0 -2.236068 c
cl

gsave
0.000 0.502 0.000 setrgbcolor
fill
grestore
stroke
grestore
} bind def
75.4426 104.752 o
75.4426 131.276 o
111.159 131.276 o
75.4426 157.801 o
111.159 157.801 o
146.876 157.801 o
75.4426 184.325 o
111.159 184.325 o
146.876 184.325 o
182.592 184.325 o
75.4426 210.849 o
111.159 210.849 o
146.876 210.849 o
182.592 210.849 o
218.309 210.849 o
75.4426 237.374 o
111.159 237.374 o
146.876 237.374 o
182.592 237.374 o
218.309 237.374 o
254.026 237.374 o
75.4426 263.898 o
111.159 263.898 o
146.876 263.898 o
182.592 263.898 o
218.309 263.898 o
254.026 263.898 o
289.742 263.898 o
75.4426 290.422 o
111.159 290.422 o
146.876 290.422 o
182.592 290.422 o
218.309 290.422 o
254.026 290.422 o
289.742 290.422 o
325.459 290.422 o
grestore
0.800 setlinewidth
0.000 setgray
gsave
/o {
gsave
newpath
translate
0.8 setlinewidth
1 setlinejoin
0 setlinecap
0 0 m
0 -3.5 l

gsave
0.000 setgray
fill
grestore
stroke
grestore
} bind def
75.4426 38.016 o
grestore
/DejaVuSans findfont
10.000 scalefont
setfont
gsave
68.075435 23.422250 translate
0.000000 rotate
0.000000 0.000000 m /minus glyphshow
8.378906 0.000000 m /six glyphshow
grestore
gsave
/o {
gsave
newpath
translate
0.8 setlinewidth
1 setlinejoin
0 setlinecap
0 0 m
0 -3.5 l

gsave
0.000 setgray
fill
grestore
stroke
grestore
} bind def
129.018 38.016 o
grestore
gsave
121.650358 23.422250 translate
0.000000 rotate
0.000000 0.000000 m /minus glyphshow
8.378906 0.000000 m /four glyphshow
grestore
gsave
/o {
gsave
newpath
translate
0.8 setlinewidth
1 setlinejoin
0 setlinecap
0 0 m
0 -3.5 l

gsave
0.000 setgray
fill
grestore
stroke
grestore
} bind def
182.592 38.016 o
grestore
gsave
175.225281 23.422250 translate
0.000000 rotate
0.000000 0.000000 m /minus glyphshow
8.378906 0.000000 m /two glyphshow
grestore
gsave
/o {
gsave
newpath
translate
0.8 setlinewidth
1 setlinejoin
0 setlinecap
0 0 m
0 -3.5 l

gsave
0.000 setgray
fill
grestore
stroke
grestore
} bind def
236.167 38.016 o
grestore
gsave
232.987704 23.422250 translate
0.000000 rotate
0.000000 0.000000 m /zero glyphshow
grestore
gsave
/o {
gsave
newpath
translate
0.8 setlinewidth
1 setlinejoin
0 setlinecap
0 0 m
0 -3.5 l

gsave
0.000 setgray
fill
grestore
stroke
grestore
} bind def
289.742 38.016 o
grestore
gsave
286.562627 23.422250 translate
0.000000 rotate
0.000000 0.000000 m /two glyphshow
grestore
gsave
/o {
gsave
newpath
translate
0.8 setlinewidth
1 setlinejoin
0 setlinecap
0 0 m
0 -3.5 l

gsave
0.000 setgray
fill
grestore
stroke
grestore
} bind def
343.317 38.016 o
grestore
gsave
340.137550 23.422250 translate
0.000000 rotate
0.000000 0.000000 m /four glyphshow
grestore
gsave
/o {
gsave
newpath
translate
0.8 setlinewidth
1 setlinejoin
0 setlinecap
0 0 m
0 -3.5 l

gsave
0.000 setgray
fill
grestore
stroke
grestore
} bind def
396.892 38.016 o
grestore
gsave
393.712473 23.422250 translate
0.000000 rotate
0.000000 0.000000 m /six glyphshow
grestore
gsave
/o {
gsave
newpath
translate
0.8 setlinewidth
1 setlinejoin
0 setlinecap
0 0 m
-3.5 0 l

gsave
0.000 setgray
fill
grestore
stroke
grestore
} bind def
57.6 51.7034 o
grestore
gsave
35.865625 47.906564 translate
0.000000 rotate
0.000000 0.000000 m /minus glyphshow
8.378906 0.000000 m /six glyphshow
grestore
gsave
/o {
gsave
newpath
translate
0.8 setlinewidth
1 setlinejoin
0 setlinecap
0 0 m
-3.5 0 l

gsave
0.000 setgray
fill
grestore
stroke
grestore
} bind def
57.6 91.4899 o
grestore
gsave
35.865625 87.693016 translate
0.000000 rotate
0.000000 0.000000 m /minus glyphshow
8.378906 0.000000 m /four glyphshow
grestore
gsave
/o {
gsave
newpath
translate
0.8 setlinewidth
1 setlinejoin
0 setlinecap
0 0 m
-3.5 0 l

gsave
0.000 setgray
fill
grestore
stroke
grestore
} bind def
57.6 131.276 o
grestore
gsave
35.865625 127.479469 translate
0.000000 rotate
0.000000 0.000000 m /minus glyphshow
8.378906 0.000000 m /two glyphshow
grestore
gsave
/o {
gsave
newpath
translate
0.8 setlinewidth
1 setlinejoin
0 setlinecap
0 0 m
-3.5 0 l

gsave
0.000 setgray
fill
grestore
stroke
grestore
} bind def
57.6 171.063 o
grestore
gsave
44.240625 167.265921 translate
0.000000 rotate
0.000000 0.000000 m /zero glyphshow
grestore
gsave
/o {
gsave
newpath
translate
0.8 setlinewidth
1 setlinejoin
0 setlinecap
0 0 m
-3.5 0 l

gsave
0.000 setgray
fill
grestore
stroke
grestore
} bind def
57.6 210.849 o
grestore
gsave
44.240625 207.052374 translate
0.000000 rotate
0.000000 0.000000 m /two glyphshow
grestore
gsave
/o {
gsave
newpath
translate
0.8 setlinewidth
1 setlinejoin
0 setlinecap
0 0 m
-3.5 0 l

gsave
0.000 setgray
fill
grestore
stroke
grestore
} bind def
57.6 250.636 o
grestore
gsave
44.240625 246.838826 translate
0.000000 rotate
0.000000 0.000000 m /four glyphshow
grestore
gsave
/o {
gsave
newpath
translate
0.8 setlinewidth
1 setlinejoin
0 setlinecap
0 0 m
-3.5 0 l

gsave
0.000 setgray
fill
grestore
stroke
grestore
} bind def
57.6 290.422 o
grestore
gsave
44.240625 286.625279 translate
0.000000 rotate
0.000000 0.000000 m /six glyphshow
grestore
1.500 setlinewidth
gsave
357.1 266.1 57.6 38.02 clipbox
338.749506 290.422154 m
337.850408 288.487749 l
335.989516 285.550343 l
331.290214 281.908006 l
328.570147 280.678533 l
324.730019 279.355116 l
318.169825 277.313896 l
314.718742 275.806722 l
311.60963 273.888735 l
308.59728 270.934912 l
305.618766 266.063101 l
305.049435 265.023736 l
302.715941 261.191291 l
298.489241 256.79401 l
297.767428 256.31948 l
291.929046 253.733397 l
288.059618 252.529483 l
stroke
grestore
gsave
357.1 266.1 57.6 38.02 clipbox
260.733752 229.353601 m
259.128073 228.323446 l
255.924118 227.088617 l
252.567878 226.022317 l
246.007684 223.971758 l
242.286722 222.216807 l
239.447489 220.237995 l
236.746725 217.344996 l
233.892682 212.473186 l
232.887294 210.669786 l
230.90052 207.601375 l
226.3271 203.272409 l
225.3963 202.729565 l
219.766905 200.43438 l
213.20671 198.435413 l
211.540109 197.857754 l
206.646516 195.752011 l
202.921834 192.985944 l
200.086321 189.351805 l
199.308468 188.114133 l
196.616734 183.242323 l
193.526126 179.061754 l
192.795153 178.370512 l
186.965932 174.974143 l
182.834127 173.498702 l
180.405737 172.752068 l
173.845542 170.632564 l
169.94994 168.626891 l
167.285348 166.518385 l
164.922197 163.755081 l
162.160992 158.88327 l
160.725153 156.390819 l
159.062379 154.01146 l
154.164959 149.801565 l
152.891019 149.139649 l
147.604764 147.142879 l
141.044569 145.163663 l
138.629793 144.267839 l
134.484375 142.270428 l
130.956713 139.396028 l
127.92418 135.079952 l
127.594955 134.524218 l
124.847311 129.652407 l
121.363985 125.311004 l
120.733096 124.780597 l
114.803791 121.62262 l
109.770442 119.908786 l
108.243596 119.435823 l
101.683401 117.102899 l
98.231829 115.036976 l
95.123207 111.64787 l
94.180808 110.165165 l
92.531455 105.293355 l
91.744941 100.421544 l
91.281085 95.549734 l
90.757441 90.677923 l
89.338571 85.806113 l
88.563012 84.723092 l
82.002818 80.991458 l
81.723441 80.934302 l
75.442623 79.97778 l
stroke
grestore
0.800 setlinewidth
0 setlinejoin
2 setlinecap
[] 0 setdash
gsave
57.6 38.016 m
57.6 304.128 l
stroke
grestore
gsave
414.72 38.016 m
414.72 304.128 l
stroke
grestore
gsave
57.6 38.016 m
414.72 38.016 l
stroke
grestore
gsave
57.6 304.128 m
414.72 304.128 l
stroke
grestore
gsave
263.870390 231.570016 translate
44.008364 rotate
0.000000 0.000000 m /zero glyphshow
6.362305 0.000000 m /period glyphshow
9.541016 0.000000 m /zero glyphshow
15.903320 0.000000 m /zero glyphshow
22.265625 0.000000 m /zero glyphshow
grestore
1.000 setlinewidth
0 setlinecap
0.800 setgray
gsave
330.62625 43.016 m
407.72 43.016 l
409.053333 43.016 409.72 43.682667 409.72 45.016 c
409.72 73.35975 l
409.72 74.693083 409.053333 75.35975 407.72 75.35975 c
330.62625 75.35975 l
329.292917 75.35975 328.62625 74.693083 328.62625 73.35975 c
328.62625 45.016 l
328.62625 43.682667 329.292917 43.016 330.62625 43.016 c
cl
gsave
1.000 setgray
fill
grestore
stroke
grestore
1 setlinejoin
[] 0 setdash
1.000 0.000 0.000 setrgbcolor
gsave
/o {
gsave
newpath
translate
1.0 setlinewidth
1 setlinejoin
0 setlinecap
0 -2.236068 m
0.593012 -2.236068 1.161816 -2.000462 1.581139 -1.581139 c
2.000462 -1.161816 2.236068 -0.593012 2.236068 0 c
2.236068 0.593012 2.000462 1.161816 1.581139 1.581139 c
1.161816 2.000462 0.593012 2.236068 0 2.236068 c
-0.593012 2.236068 -1.161816 2.000462 -1.581139 1.581139 c
-2.000462 1.161816 -2.236068 0.593012 -2.236068 0 c
-2.236068 -0.593012 -2.000462 -1.161816 -1.581139 -1.581139 c
-1.161816 -2.000462 -0.593012 -2.236068 0 -2.236068 c
cl

gsave
1.000 0.000 0.000 setrgbcolor
fill
grestore
stroke
grestore
} bind def
342.626 66.391 o
grestore
0.000 setgray
gsave
360.626250 63.766000 translate
0.000000 rotate
0.000000 0.000000 m /o glyphshow
6.118164 0.000000 m /c glyphshow
11.616211 0.000000 m /c glyphshow
17.114258 0.000000 m /u glyphshow
23.452148 0.000000 m /p glyphshow
29.799805 0.000000 m /i glyphshow
32.578125 0.000000 m /e glyphshow
38.730469 0.000000 m /d glyphshow
grestore
0.000 0.502 0.000 setrgbcolor
gsave
/o {
gsave
newpath
translate
1.0 setlinewidth
1 setlinejoin
0 setlinecap
0 -2.236068 m
0.593012 -2.236068 1.161816 -2.000462 1.581139 -1.581139 c
2.000462 -1.161816 2.236068 -0.593012 2.236068 0 c
2.236068 0.593012 2.000462 1.161816 1.581139 1.581139 c
1.161816 2.000462 0.593012 2.236068 0 2.236068 c
-0.593012 2.236068 -1.161816 2.000462 -1.581139 1.581139 c
-2.000462 1.161816 -2.236068 0.593012 -2.236068 0 c
-2.236068 -0.593012 -2.000462 -1.161816 -1.581139 -1.581139 c
-1.161816 -2.000462 -0.593012 -2.236068 0 -2.236068 c
cl

gsave
0.000 0.502 0.000 setrgbcolor
fill
grestore
stroke
grestore
} bind def
342.626 51.7191 o
grestore
0.000 setgray
gsave
360.626250 49.094125 translate
0.000000 rotate
0.000000 0.000000 m /f glyphshow
3.520508 0.000000 m /r glyphshow
7.631836 0.000000 m /e glyphshow
13.784180 0.000000 m /e glyphshow
grestore

end
showpage
