%!PS-Adobe-3.0 EPSF-3.0
%%Title: /home/thaiduong/repo/papers/fastron_mapping_iros2019/ieeeconf/figures/fastron_obsdata_rbfkrnl2.eps
%%Creator: matplotlib version 3.0.2, http://matplotlib.org/
%%CreationDate: Fri Mar 29 13:24:40 2019
%%Orientation: portrait
%%BoundingBox: 126 216 486 576
%%EndComments
%%BeginProlog
/mpldict 8 dict def
mpldict begin
/m { moveto } bind def
/l { lineto } bind def
/r { rlineto } bind def
/c { curveto } bind def
/cl { closepath } bind def
/box {
m
1 index 0 r
0 exch r
neg 0 r
cl
} bind def
/clipbox {
box
clip
newpath
} bind def
%!PS-Adobe-3.0 Resource-Font
%%Title: DejaVu Sans
%%Copyright: Copyright (c) 2003 by Bitstream, Inc. All Rights Reserved. Copyright (c) 2006 by Tavmjong Bah. All Rights Reserved. DejaVu changes are in public domain 
%%Creator: Converted from TrueType to type 3 by PPR
25 dict begin
/_d{bind def}bind def
/_m{moveto}_d
/_l{lineto}_d
/_cl{closepath eofill}_d
/_c{curveto}_d
/_sc{7 -1 roll{setcachedevice}{pop pop pop pop pop pop}ifelse}_d
/_e{exec}_d
/FontName /DejaVuSans def
/PaintType 0 def
/FontMatrix[.001 0 0 .001 0 0]def
/FontBBox[-1021 -463 1793 1232]def
/FontType 3 def
/Encoding [ /period /zero /two /four /six /c /d /e /f /i /o /p /r /u /minus ] def
/FontInfo 10 dict dup begin
/FamilyName (DejaVu Sans) def
/FullName (DejaVu Sans) def
/Notice (Copyright (c) 2003 by Bitstream, Inc. All Rights Reserved. Copyright (c) 2006 by Tavmjong Bah. All Rights Reserved. DejaVu changes are in public domain ) def
/Weight (Book) def
/Version (Version 2.35) def
/ItalicAngle 0.0 def
/isFixedPitch false def
/UnderlinePosition -130 def
/UnderlineThickness 90 def
end readonly def
/CharStrings 16 dict dup begin
/.notdef 0 def
/period{318 0 107 0 210 124 _sc
107 124 _m
210 124 _l
210 0 _l
107 0 _l
107 124 _l
_cl}_d
/zero{636 0 66 -13 570 742 _sc
318 664 _m
267 664 229 639 203 589 _c
177 539 165 464 165 364 _c
165 264 177 189 203 139 _c
229 89 267 64 318 64 _c
369 64 407 89 433 139 _c
458 189 471 264 471 364 _c
471 464 458 539 433 589 _c
407 639 369 664 318 664 _c
318 742 _m
399 742 461 709 505 645 _c
548 580 570 486 570 364 _c
570 241 548 147 505 83 _c
461 19 399 -13 318 -13 _c
236 -13 173 19 130 83 _c
87 147 66 241 66 364 _c
66 486 87 580 130 645 _c
173 709 236 742 318 742 _c
_cl}_d
/two{{636 0 73 0 536 742 _sc
192 83 _m
536 83 _l
536 0 _l
73 0 _l
73 83 _l
110 121 161 173 226 239 _c
290 304 331 346 348 365 _c
380 400 402 430 414 455 _c
426 479 433 504 433 528 _c
433 566 419 598 392 622 _c
365 646 330 659 286 659 _c
255 659 222 653 188 643 _c
154 632 117 616 78 594 _c
78 694 _l
118 710 155 722 189 730 _c
223 738 255 742 284 742 _c
}_e{359 742 419 723 464 685 _c
509 647 532 597 532 534 _c
532 504 526 475 515 449 _c
504 422 484 390 454 354 _c
446 344 420 317 376 272 _c
332 227 271 164 192 83 _c
_cl}_e}_d
/four{636 0 49 0 580 729 _sc
378 643 _m
129 254 _l
378 254 _l
378 643 _l
352 729 _m
476 729 _l
476 254 _l
580 254 _l
580 172 _l
476 172 _l
476 0 _l
378 0 _l
378 172 _l
49 172 _l
49 267 _l
352 729 _l
_cl}_d
/six{{636 0 70 -13 573 742 _sc
330 404 _m
286 404 251 388 225 358 _c
199 328 186 286 186 234 _c
186 181 199 139 225 109 _c
251 79 286 64 330 64 _c
374 64 409 79 435 109 _c
461 139 474 181 474 234 _c
474 286 461 328 435 358 _c
409 388 374 404 330 404 _c
526 713 _m
526 623 _l
501 635 476 644 451 650 _c
425 656 400 659 376 659 _c
310 659 260 637 226 593 _c
}_e{192 549 172 482 168 394 _c
187 422 211 444 240 459 _c
269 474 301 482 336 482 _c
409 482 467 459 509 415 _c
551 371 573 310 573 234 _c
573 159 550 99 506 54 _c
462 9 403 -13 330 -13 _c
246 -13 181 19 137 83 _c
92 147 70 241 70 364 _c
70 479 97 571 152 639 _c
206 707 280 742 372 742 _c
396 742 421 739 447 735 _c
472 730 498 723 526 713 _c
_cl}_e}_d
/c{{550 0 55 -13 488 560 _sc
488 526 _m
488 442 _l
462 456 437 466 411 473 _c
385 480 360 484 334 484 _c
276 484 230 465 198 428 _c
166 391 150 339 150 273 _c
150 206 166 154 198 117 _c
230 80 276 62 334 62 _c
360 62 385 65 411 72 _c
437 79 462 90 488 104 _c
488 21 _l
462 9 436 0 410 -5 _c
383 -10 354 -13 324 -13 _c
242 -13 176 12 128 64 _c
}_e{79 115 55 185 55 273 _c
55 362 79 432 128 483 _c
177 534 244 560 330 560 _c
358 560 385 557 411 551 _c
437 545 463 537 488 526 _c
_cl}_e}_d
/d{{635 0 55 -13 544 760 _sc
454 464 _m
454 760 _l
544 760 _l
544 0 _l
454 0 _l
454 82 _l
435 49 411 25 382 10 _c
353 -5 319 -13 279 -13 _c
213 -13 159 13 117 65 _c
75 117 55 187 55 273 _c
55 359 75 428 117 481 _c
159 533 213 560 279 560 _c
319 560 353 552 382 536 _c
411 520 435 496 454 464 _c
148 273 _m
148 207 161 155 188 117 _c
215 79 253 61 301 61 _c
}_e{348 61 385 79 413 117 _c
440 155 454 207 454 273 _c
454 339 440 390 413 428 _c
385 466 348 485 301 485 _c
253 485 215 466 188 428 _c
161 390 148 339 148 273 _c
_cl}_e}_d
/e{{615 0 55 -13 562 560 _sc
562 296 _m
562 252 _l
149 252 _l
153 190 171 142 205 110 _c
238 78 284 62 344 62 _c
378 62 412 66 444 74 _c
476 82 509 95 541 113 _c
541 28 _l
509 14 476 3 442 -3 _c
408 -9 373 -13 339 -13 _c
251 -13 182 12 131 62 _c
80 112 55 181 55 268 _c
55 357 79 428 127 481 _c
175 533 241 560 323 560 _c
397 560 455 536 498 489 _c
}_e{540 441 562 377 562 296 _c
472 322 _m
471 371 457 410 431 440 _c
404 469 368 484 324 484 _c
274 484 234 469 204 441 _c
174 413 156 373 152 322 _c
472 322 _l
_cl}_e}_d
/f{352 0 23 0 371 760 _sc
371 760 _m
371 685 _l
285 685 _l
253 685 230 678 218 665 _c
205 652 199 629 199 595 _c
199 547 _l
347 547 _l
347 477 _l
199 477 _l
199 0 _l
109 0 _l
109 477 _l
23 477 _l
23 547 _l
109 547 _l
109 585 _l
109 645 123 690 151 718 _c
179 746 224 760 286 760 _c
371 760 _l
_cl}_d
/i{278 0 94 0 184 760 _sc
94 547 _m
184 547 _l
184 0 _l
94 0 _l
94 547 _l
94 760 _m
184 760 _l
184 646 _l
94 646 _l
94 760 _l
_cl}_d
/o{612 0 55 -13 557 560 _sc
306 484 _m
258 484 220 465 192 427 _c
164 389 150 338 150 273 _c
150 207 163 156 191 118 _c
219 80 257 62 306 62 _c
354 62 392 80 420 118 _c
448 156 462 207 462 273 _c
462 337 448 389 420 427 _c
392 465 354 484 306 484 _c
306 560 _m
384 560 445 534 490 484 _c
534 433 557 363 557 273 _c
557 183 534 113 490 63 _c
445 12 384 -13 306 -13 _c
227 -13 165 12 121 63 _c
77 113 55 183 55 273 _c
55 363 77 433 121 484 _c
165 534 227 560 306 560 _c
_cl}_d
/p{{635 0 91 -207 580 560 _sc
181 82 _m
181 -207 _l
91 -207 _l
91 547 _l
181 547 _l
181 464 _l
199 496 223 520 252 536 _c
281 552 316 560 356 560 _c
422 560 476 533 518 481 _c
559 428 580 359 580 273 _c
580 187 559 117 518 65 _c
476 13 422 -13 356 -13 _c
316 -13 281 -5 252 10 _c
223 25 199 49 181 82 _c
487 273 _m
487 339 473 390 446 428 _c
418 466 381 485 334 485 _c
}_e{286 485 249 466 222 428 _c
194 390 181 339 181 273 _c
181 207 194 155 222 117 _c
249 79 286 61 334 61 _c
381 61 418 79 446 117 _c
473 155 487 207 487 273 _c
_cl}_e}_d
/r{411 0 91 0 411 560 _sc
411 463 _m
401 469 390 473 378 476 _c
366 478 353 480 339 480 _c
288 480 249 463 222 430 _c
194 397 181 350 181 288 _c
181 0 _l
91 0 _l
91 547 _l
181 547 _l
181 462 _l
199 495 224 520 254 536 _c
284 552 321 560 365 560 _c
371 560 378 559 386 559 _c
393 558 401 557 411 555 _c
411 463 _l
_cl}_d
/u{634 0 85 -13 543 560 _sc
85 216 _m
85 547 _l
175 547 _l
175 219 _l
175 167 185 129 205 103 _c
225 77 255 64 296 64 _c
344 64 383 79 411 110 _c
439 141 453 183 453 237 _c
453 547 _l
543 547 _l
543 0 _l
453 0 _l
453 84 _l
431 50 405 26 377 10 _c
348 -5 315 -13 277 -13 _c
214 -13 166 6 134 45 _c
101 83 85 140 85 216 _c
311 560 _m
311 560 _l
_cl}_d
/minus{838 0 106 272 732 355 _sc
106 355 _m
732 355 _l
732 272 _l
106 272 _l
106 355 _l
_cl}_d
end readonly def

/BuildGlyph
 {exch begin
 CharStrings exch
 2 copy known not{pop /.notdef}if
 true 3 1 roll get exec
 end}_d

/BuildChar {
 1 index /Encoding get exch get
 1 index /BuildGlyph get exec
}_d

FontName currentdict end definefont pop
end
%%EndProlog
mpldict begin
126 216 translate
360 360 0 0 clipbox
gsave
0 0 m
360 0 l
360 360 l
0 360 l
cl
1.000 setgray
fill
grestore
gsave
45 39.6 m
324 39.6 l
324 316.8 l
45 316.8 l
cl
1.000 setgray
fill
grestore
1.000 setlinewidth
1 setlinejoin
0 setlinecap
[] 0 setdash
0.000 0.000 1.000 setrgbcolor
gsave
279 277.2 45 39.6 clipbox
59.272912 53.790973 m
59.272912 53.790973 59.272912 53.790973 59.272912 53.790973 c
59.272912 53.790973 59.272912 53.790973 59.272912 53.790973 c
59.272912 53.790973 59.272912 53.790973 59.272912 53.790973 c
59.272912 53.790973 59.272912 53.790973 59.272912 53.790973 c
59.272912 53.790973 59.272912 53.790973 59.272912 53.790973 c
59.272912 53.790973 59.272912 53.790973 59.272912 53.790973 c
59.272912 53.790973 59.272912 53.790973 59.272912 53.790973 c
59.272912 53.790973 59.272912 53.790973 59.272912 53.790973 c
cl
gsave
fill
grestore
stroke
grestore
gsave
279 277.2 45 39.6 clipbox
87.101154 53.790973 m
87.101154 53.790973 87.101154 53.790973 87.101154 53.790973 c
87.101154 53.790973 87.101154 53.790973 87.101154 53.790973 c
87.101154 53.790973 87.101154 53.790973 87.101154 53.790973 c
87.101154 53.790973 87.101154 53.790973 87.101154 53.790973 c
87.101154 53.790973 87.101154 53.790973 87.101154 53.790973 c
87.101154 53.790973 87.101154 53.790973 87.101154 53.790973 c
87.101154 53.790973 87.101154 53.790973 87.101154 53.790973 c
87.101154 53.790973 87.101154 53.790973 87.101154 53.790973 c
cl
gsave
fill
grestore
stroke
grestore
gsave
279 277.2 45 39.6 clipbox
114.929396 49.91799 m
115.956523 49.91799 116.94172 50.326071 117.668008 51.05236 c
118.394297 51.778649 118.802379 52.763846 118.802379 53.790973 c
118.802379 54.8181 118.394297 55.803297 117.668008 56.529586 c
116.94172 57.255874 115.956523 57.663956 114.929396 57.663956 c
113.902268 57.663956 112.917071 57.255874 112.190783 56.529586 c
111.464494 55.803297 111.056412 54.8181 111.056412 53.790973 c
111.056412 52.763846 111.464494 51.778649 112.190783 51.05236 c
112.917071 50.326071 113.902268 49.91799 114.929396 49.91799 c
cl
gsave
fill
grestore
stroke
grestore
gsave
279 277.2 45 39.6 clipbox
142.757637 53.790973 m
142.757637 53.790973 142.757637 53.790973 142.757637 53.790973 c
142.757637 53.790973 142.757637 53.790973 142.757637 53.790973 c
142.757637 53.790973 142.757637 53.790973 142.757637 53.790973 c
142.757637 53.790973 142.757637 53.790973 142.757637 53.790973 c
142.757637 53.790973 142.757637 53.790973 142.757637 53.790973 c
142.757637 53.790973 142.757637 53.790973 142.757637 53.790973 c
142.757637 53.790973 142.757637 53.790973 142.757637 53.790973 c
142.757637 53.790973 142.757637 53.790973 142.757637 53.790973 c
cl
gsave
fill
grestore
stroke
grestore
gsave
279 277.2 45 39.6 clipbox
170.585879 53.790973 m
170.585879 53.790973 170.585879 53.790973 170.585879 53.790973 c
170.585879 53.790973 170.585879 53.790973 170.585879 53.790973 c
170.585879 53.790973 170.585879 53.790973 170.585879 53.790973 c
170.585879 53.790973 170.585879 53.790973 170.585879 53.790973 c
170.585879 53.790973 170.585879 53.790973 170.585879 53.790973 c
170.585879 53.790973 170.585879 53.790973 170.585879 53.790973 c
170.585879 53.790973 170.585879 53.790973 170.585879 53.790973 c
170.585879 53.790973 170.585879 53.790973 170.585879 53.790973 c
cl
gsave
fill
grestore
stroke
grestore
gsave
279 277.2 45 39.6 clipbox
198.414121 53.790973 m
198.414121 53.790973 198.414121 53.790973 198.414121 53.790973 c
198.414121 53.790973 198.414121 53.790973 198.414121 53.790973 c
198.414121 53.790973 198.414121 53.790973 198.414121 53.790973 c
198.414121 53.790973 198.414121 53.790973 198.414121 53.790973 c
198.414121 53.790973 198.414121 53.790973 198.414121 53.790973 c
198.414121 53.790973 198.414121 53.790973 198.414121 53.790973 c
198.414121 53.790973 198.414121 53.790973 198.414121 53.790973 c
198.414121 53.790973 198.414121 53.790973 198.414121 53.790973 c
cl
gsave
fill
grestore
stroke
grestore
gsave
279 277.2 45 39.6 clipbox
226.242363 53.790973 m
226.242363 53.790973 226.242363 53.790973 226.242363 53.790973 c
226.242363 53.790973 226.242363 53.790973 226.242363 53.790973 c
226.242363 53.790973 226.242363 53.790973 226.242363 53.790973 c
226.242363 53.790973 226.242363 53.790973 226.242363 53.790973 c
226.242363 53.790973 226.242363 53.790973 226.242363 53.790973 c
226.242363 53.790973 226.242363 53.790973 226.242363 53.790973 c
226.242363 53.790973 226.242363 53.790973 226.242363 53.790973 c
226.242363 53.790973 226.242363 53.790973 226.242363 53.790973 c
cl
gsave
fill
grestore
stroke
grestore
gsave
279 277.2 45 39.6 clipbox
254.070604 53.790973 m
254.070604 53.790973 254.070604 53.790973 254.070604 53.790973 c
254.070604 53.790973 254.070604 53.790973 254.070604 53.790973 c
254.070604 53.790973 254.070604 53.790973 254.070604 53.790973 c
254.070604 53.790973 254.070604 53.790973 254.070604 53.790973 c
254.070604 53.790973 254.070604 53.790973 254.070604 53.790973 c
254.070604 53.790973 254.070604 53.790973 254.070604 53.790973 c
254.070604 53.790973 254.070604 53.790973 254.070604 53.790973 c
254.070604 53.790973 254.070604 53.790973 254.070604 53.790973 c
cl
gsave
fill
grestore
stroke
grestore
gsave
279 277.2 45 39.6 clipbox
281.898846 53.790973 m
281.898846 53.790973 281.898846 53.790973 281.898846 53.790973 c
281.898846 53.790973 281.898846 53.790973 281.898846 53.790973 c
281.898846 53.790973 281.898846 53.790973 281.898846 53.790973 c
281.898846 53.790973 281.898846 53.790973 281.898846 53.790973 c
281.898846 53.790973 281.898846 53.790973 281.898846 53.790973 c
281.898846 53.790973 281.898846 53.790973 281.898846 53.790973 c
281.898846 53.790973 281.898846 53.790973 281.898846 53.790973 c
281.898846 53.790973 281.898846 53.790973 281.898846 53.790973 c
cl
gsave
fill
grestore
stroke
grestore
gsave
279 277.2 45 39.6 clipbox
309.727088 49.91799 m
310.754215 49.91799 311.739412 50.326071 312.465701 51.05236 c
313.191989 51.778649 313.600071 52.763846 313.600071 53.790973 c
313.600071 54.8181 313.191989 55.803297 312.465701 56.529586 c
311.739412 57.255874 310.754215 57.663956 309.727088 57.663956 c
308.699961 57.663956 307.714764 57.255874 306.988475 56.529586 c
306.262186 55.803297 305.854104 54.8181 305.854104 53.790973 c
305.854104 52.763846 306.262186 51.778649 306.988475 51.05236 c
307.714764 50.326071 308.699961 49.91799 309.727088 49.91799 c
cl
gsave
fill
grestore
stroke
grestore
gsave
279 277.2 45 39.6 clipbox
59.272912 81.437423 m
59.272912 81.437423 59.272912 81.437423 59.272912 81.437423 c
59.272912 81.437423 59.272912 81.437423 59.272912 81.437423 c
59.272912 81.437423 59.272912 81.437423 59.272912 81.437423 c
59.272912 81.437423 59.272912 81.437423 59.272912 81.437423 c
59.272912 81.437423 59.272912 81.437423 59.272912 81.437423 c
59.272912 81.437423 59.272912 81.437423 59.272912 81.437423 c
59.272912 81.437423 59.272912 81.437423 59.272912 81.437423 c
59.272912 81.437423 59.272912 81.437423 59.272912 81.437423 c
cl
gsave
fill
grestore
stroke
grestore
gsave
279 277.2 45 39.6 clipbox
87.101154 81.437423 m
87.101154 81.437423 87.101154 81.437423 87.101154 81.437423 c
87.101154 81.437423 87.101154 81.437423 87.101154 81.437423 c
87.101154 81.437423 87.101154 81.437423 87.101154 81.437423 c
87.101154 81.437423 87.101154 81.437423 87.101154 81.437423 c
87.101154 81.437423 87.101154 81.437423 87.101154 81.437423 c
87.101154 81.437423 87.101154 81.437423 87.101154 81.437423 c
87.101154 81.437423 87.101154 81.437423 87.101154 81.437423 c
87.101154 81.437423 87.101154 81.437423 87.101154 81.437423 c
cl
gsave
fill
grestore
stroke
grestore
gsave
279 277.2 45 39.6 clipbox
114.929396 81.437423 m
114.929396 81.437423 114.929396 81.437423 114.929396 81.437423 c
114.929396 81.437423 114.929396 81.437423 114.929396 81.437423 c
114.929396 81.437423 114.929396 81.437423 114.929396 81.437423 c
114.929396 81.437423 114.929396 81.437423 114.929396 81.437423 c
114.929396 81.437423 114.929396 81.437423 114.929396 81.437423 c
114.929396 81.437423 114.929396 81.437423 114.929396 81.437423 c
114.929396 81.437423 114.929396 81.437423 114.929396 81.437423 c
114.929396 81.437423 114.929396 81.437423 114.929396 81.437423 c
cl
gsave
fill
grestore
stroke
grestore
gsave
279 277.2 45 39.6 clipbox
142.757637 81.437423 m
142.757637 81.437423 142.757637 81.437423 142.757637 81.437423 c
142.757637 81.437423 142.757637 81.437423 142.757637 81.437423 c
142.757637 81.437423 142.757637 81.437423 142.757637 81.437423 c
142.757637 81.437423 142.757637 81.437423 142.757637 81.437423 c
142.757637 81.437423 142.757637 81.437423 142.757637 81.437423 c
142.757637 81.437423 142.757637 81.437423 142.757637 81.437423 c
142.757637 81.437423 142.757637 81.437423 142.757637 81.437423 c
142.757637 81.437423 142.757637 81.437423 142.757637 81.437423 c
cl
gsave
fill
grestore
stroke
grestore
gsave
279 277.2 45 39.6 clipbox
170.585879 81.437423 m
170.585879 81.437423 170.585879 81.437423 170.585879 81.437423 c
170.585879 81.437423 170.585879 81.437423 170.585879 81.437423 c
170.585879 81.437423 170.585879 81.437423 170.585879 81.437423 c
170.585879 81.437423 170.585879 81.437423 170.585879 81.437423 c
170.585879 81.437423 170.585879 81.437423 170.585879 81.437423 c
170.585879 81.437423 170.585879 81.437423 170.585879 81.437423 c
170.585879 81.437423 170.585879 81.437423 170.585879 81.437423 c
170.585879 81.437423 170.585879 81.437423 170.585879 81.437423 c
cl
gsave
fill
grestore
stroke
grestore
gsave
279 277.2 45 39.6 clipbox
198.414121 81.437423 m
198.414121 81.437423 198.414121 81.437423 198.414121 81.437423 c
198.414121 81.437423 198.414121 81.437423 198.414121 81.437423 c
198.414121 81.437423 198.414121 81.437423 198.414121 81.437423 c
198.414121 81.437423 198.414121 81.437423 198.414121 81.437423 c
198.414121 81.437423 198.414121 81.437423 198.414121 81.437423 c
198.414121 81.437423 198.414121 81.437423 198.414121 81.437423 c
198.414121 81.437423 198.414121 81.437423 198.414121 81.437423 c
198.414121 81.437423 198.414121 81.437423 198.414121 81.437423 c
cl
gsave
fill
grestore
stroke
grestore
gsave
279 277.2 45 39.6 clipbox
226.242363 81.437423 m
226.242363 81.437423 226.242363 81.437423 226.242363 81.437423 c
226.242363 81.437423 226.242363 81.437423 226.242363 81.437423 c
226.242363 81.437423 226.242363 81.437423 226.242363 81.437423 c
226.242363 81.437423 226.242363 81.437423 226.242363 81.437423 c
226.242363 81.437423 226.242363 81.437423 226.242363 81.437423 c
226.242363 81.437423 226.242363 81.437423 226.242363 81.437423 c
226.242363 81.437423 226.242363 81.437423 226.242363 81.437423 c
226.242363 81.437423 226.242363 81.437423 226.242363 81.437423 c
cl
gsave
fill
grestore
stroke
grestore
gsave
279 277.2 45 39.6 clipbox
254.070604 81.437423 m
254.070604 81.437423 254.070604 81.437423 254.070604 81.437423 c
254.070604 81.437423 254.070604 81.437423 254.070604 81.437423 c
254.070604 81.437423 254.070604 81.437423 254.070604 81.437423 c
254.070604 81.437423 254.070604 81.437423 254.070604 81.437423 c
254.070604 81.437423 254.070604 81.437423 254.070604 81.437423 c
254.070604 81.437423 254.070604 81.437423 254.070604 81.437423 c
254.070604 81.437423 254.070604 81.437423 254.070604 81.437423 c
254.070604 81.437423 254.070604 81.437423 254.070604 81.437423 c
cl
gsave
fill
grestore
stroke
grestore
gsave
279 277.2 45 39.6 clipbox
281.898846 81.437423 m
281.898846 81.437423 281.898846 81.437423 281.898846 81.437423 c
281.898846 81.437423 281.898846 81.437423 281.898846 81.437423 c
281.898846 81.437423 281.898846 81.437423 281.898846 81.437423 c
281.898846 81.437423 281.898846 81.437423 281.898846 81.437423 c
281.898846 81.437423 281.898846 81.437423 281.898846 81.437423 c
281.898846 81.437423 281.898846 81.437423 281.898846 81.437423 c
281.898846 81.437423 281.898846 81.437423 281.898846 81.437423 c
281.898846 81.437423 281.898846 81.437423 281.898846 81.437423 c
cl
gsave
fill
grestore
stroke
grestore
gsave
279 277.2 45 39.6 clipbox
309.727088 81.437423 m
309.727088 81.437423 309.727088 81.437423 309.727088 81.437423 c
309.727088 81.437423 309.727088 81.437423 309.727088 81.437423 c
309.727088 81.437423 309.727088 81.437423 309.727088 81.437423 c
309.727088 81.437423 309.727088 81.437423 309.727088 81.437423 c
309.727088 81.437423 309.727088 81.437423 309.727088 81.437423 c
309.727088 81.437423 309.727088 81.437423 309.727088 81.437423 c
309.727088 81.437423 309.727088 81.437423 309.727088 81.437423 c
309.727088 81.437423 309.727088 81.437423 309.727088 81.437423 c
cl
gsave
fill
grestore
stroke
grestore
gsave
279 277.2 45 39.6 clipbox
59.272912 109.083874 m
59.272912 109.083874 59.272912 109.083874 59.272912 109.083874 c
59.272912 109.083874 59.272912 109.083874 59.272912 109.083874 c
59.272912 109.083874 59.272912 109.083874 59.272912 109.083874 c
59.272912 109.083874 59.272912 109.083874 59.272912 109.083874 c
59.272912 109.083874 59.272912 109.083874 59.272912 109.083874 c
59.272912 109.083874 59.272912 109.083874 59.272912 109.083874 c
59.272912 109.083874 59.272912 109.083874 59.272912 109.083874 c
59.272912 109.083874 59.272912 109.083874 59.272912 109.083874 c
cl
gsave
fill
grestore
stroke
grestore
gsave
279 277.2 45 39.6 clipbox
87.101154 105.21089 m
88.128281 105.21089 89.113478 105.618972 89.839767 106.345261 c
90.566055 107.07155 90.974137 108.056747 90.974137 109.083874 c
90.974137 110.111001 90.566055 111.096198 89.839767 111.822487 c
89.113478 112.548775 88.128281 112.956857 87.101154 112.956857 c
86.074027 112.956857 85.08883 112.548775 84.362541 111.822487 c
83.636253 111.096198 83.228171 110.111001 83.228171 109.083874 c
83.228171 108.056747 83.636253 107.07155 84.362541 106.345261 c
85.08883 105.618972 86.074027 105.21089 87.101154 105.21089 c
cl
gsave
fill
grestore
stroke
grestore
gsave
279 277.2 45 39.6 clipbox
114.929396 105.21089 m
115.956523 105.21089 116.94172 105.618972 117.668008 106.345261 c
118.394297 107.07155 118.802379 108.056747 118.802379 109.083874 c
118.802379 110.111001 118.394297 111.096198 117.668008 111.822487 c
116.94172 112.548775 115.956523 112.956857 114.929396 112.956857 c
113.902268 112.956857 112.917071 112.548775 112.190783 111.822487 c
111.464494 111.096198 111.056412 110.111001 111.056412 109.083874 c
111.056412 108.056747 111.464494 107.07155 112.190783 106.345261 c
112.917071 105.618972 113.902268 105.21089 114.929396 105.21089 c
cl
gsave
fill
grestore
stroke
grestore
gsave
279 277.2 45 39.6 clipbox
142.757637 105.21089 m
143.784765 105.21089 144.769962 105.618972 145.49625 106.345261 c
146.222539 107.07155 146.630621 108.056747 146.630621 109.083874 c
146.630621 110.111001 146.222539 111.096198 145.49625 111.822487 c
144.769962 112.548775 143.784765 112.956857 142.757637 112.956857 c
141.73051 112.956857 140.745313 112.548775 140.019025 111.822487 c
139.292736 111.096198 138.884654 110.111001 138.884654 109.083874 c
138.884654 108.056747 139.292736 107.07155 140.019025 106.345261 c
140.745313 105.618972 141.73051 105.21089 142.757637 105.21089 c
cl
gsave
fill
grestore
stroke
grestore
gsave
279 277.2 45 39.6 clipbox
170.585879 109.083874 m
170.585879 109.083874 170.585879 109.083874 170.585879 109.083874 c
170.585879 109.083874 170.585879 109.083874 170.585879 109.083874 c
170.585879 109.083874 170.585879 109.083874 170.585879 109.083874 c
170.585879 109.083874 170.585879 109.083874 170.585879 109.083874 c
170.585879 109.083874 170.585879 109.083874 170.585879 109.083874 c
170.585879 109.083874 170.585879 109.083874 170.585879 109.083874 c
170.585879 109.083874 170.585879 109.083874 170.585879 109.083874 c
170.585879 109.083874 170.585879 109.083874 170.585879 109.083874 c
cl
gsave
fill
grestore
stroke
grestore
gsave
279 277.2 45 39.6 clipbox
198.414121 109.083874 m
198.414121 109.083874 198.414121 109.083874 198.414121 109.083874 c
198.414121 109.083874 198.414121 109.083874 198.414121 109.083874 c
198.414121 109.083874 198.414121 109.083874 198.414121 109.083874 c
198.414121 109.083874 198.414121 109.083874 198.414121 109.083874 c
198.414121 109.083874 198.414121 109.083874 198.414121 109.083874 c
198.414121 109.083874 198.414121 109.083874 198.414121 109.083874 c
198.414121 109.083874 198.414121 109.083874 198.414121 109.083874 c
198.414121 109.083874 198.414121 109.083874 198.414121 109.083874 c
cl
gsave
fill
grestore
stroke
grestore
gsave
279 277.2 45 39.6 clipbox
226.242363 109.083874 m
226.242363 109.083874 226.242363 109.083874 226.242363 109.083874 c
226.242363 109.083874 226.242363 109.083874 226.242363 109.083874 c
226.242363 109.083874 226.242363 109.083874 226.242363 109.083874 c
226.242363 109.083874 226.242363 109.083874 226.242363 109.083874 c
226.242363 109.083874 226.242363 109.083874 226.242363 109.083874 c
226.242363 109.083874 226.242363 109.083874 226.242363 109.083874 c
226.242363 109.083874 226.242363 109.083874 226.242363 109.083874 c
226.242363 109.083874 226.242363 109.083874 226.242363 109.083874 c
cl
gsave
fill
grestore
stroke
grestore
gsave
279 277.2 45 39.6 clipbox
254.070604 109.083874 m
254.070604 109.083874 254.070604 109.083874 254.070604 109.083874 c
254.070604 109.083874 254.070604 109.083874 254.070604 109.083874 c
254.070604 109.083874 254.070604 109.083874 254.070604 109.083874 c
254.070604 109.083874 254.070604 109.083874 254.070604 109.083874 c
254.070604 109.083874 254.070604 109.083874 254.070604 109.083874 c
254.070604 109.083874 254.070604 109.083874 254.070604 109.083874 c
254.070604 109.083874 254.070604 109.083874 254.070604 109.083874 c
254.070604 109.083874 254.070604 109.083874 254.070604 109.083874 c
cl
gsave
fill
grestore
stroke
grestore
gsave
279 277.2 45 39.6 clipbox
281.898846 109.083874 m
281.898846 109.083874 281.898846 109.083874 281.898846 109.083874 c
281.898846 109.083874 281.898846 109.083874 281.898846 109.083874 c
281.898846 109.083874 281.898846 109.083874 281.898846 109.083874 c
281.898846 109.083874 281.898846 109.083874 281.898846 109.083874 c
281.898846 109.083874 281.898846 109.083874 281.898846 109.083874 c
281.898846 109.083874 281.898846 109.083874 281.898846 109.083874 c
281.898846 109.083874 281.898846 109.083874 281.898846 109.083874 c
281.898846 109.083874 281.898846 109.083874 281.898846 109.083874 c
cl
gsave
fill
grestore
stroke
grestore
gsave
279 277.2 45 39.6 clipbox
309.727088 109.083874 m
309.727088 109.083874 309.727088 109.083874 309.727088 109.083874 c
309.727088 109.083874 309.727088 109.083874 309.727088 109.083874 c
309.727088 109.083874 309.727088 109.083874 309.727088 109.083874 c
309.727088 109.083874 309.727088 109.083874 309.727088 109.083874 c
309.727088 109.083874 309.727088 109.083874 309.727088 109.083874 c
309.727088 109.083874 309.727088 109.083874 309.727088 109.083874 c
309.727088 109.083874 309.727088 109.083874 309.727088 109.083874 c
309.727088 109.083874 309.727088 109.083874 309.727088 109.083874 c
cl
gsave
fill
grestore
stroke
grestore
gsave
279 277.2 45 39.6 clipbox
59.272912 136.730324 m
59.272912 136.730324 59.272912 136.730324 59.272912 136.730324 c
59.272912 136.730324 59.272912 136.730324 59.272912 136.730324 c
59.272912 136.730324 59.272912 136.730324 59.272912 136.730324 c
59.272912 136.730324 59.272912 136.730324 59.272912 136.730324 c
59.272912 136.730324 59.272912 136.730324 59.272912 136.730324 c
59.272912 136.730324 59.272912 136.730324 59.272912 136.730324 c
59.272912 136.730324 59.272912 136.730324 59.272912 136.730324 c
59.272912 136.730324 59.272912 136.730324 59.272912 136.730324 c
cl
gsave
fill
grestore
stroke
grestore
gsave
279 277.2 45 39.6 clipbox
87.101154 136.730324 m
87.101154 136.730324 87.101154 136.730324 87.101154 136.730324 c
87.101154 136.730324 87.101154 136.730324 87.101154 136.730324 c
87.101154 136.730324 87.101154 136.730324 87.101154 136.730324 c
87.101154 136.730324 87.101154 136.730324 87.101154 136.730324 c
87.101154 136.730324 87.101154 136.730324 87.101154 136.730324 c
87.101154 136.730324 87.101154 136.730324 87.101154 136.730324 c
87.101154 136.730324 87.101154 136.730324 87.101154 136.730324 c
87.101154 136.730324 87.101154 136.730324 87.101154 136.730324 c
cl
gsave
fill
grestore
stroke
grestore
gsave
279 277.2 45 39.6 clipbox
114.929396 136.730324 m
114.929396 136.730324 114.929396 136.730324 114.929396 136.730324 c
114.929396 136.730324 114.929396 136.730324 114.929396 136.730324 c
114.929396 136.730324 114.929396 136.730324 114.929396 136.730324 c
114.929396 136.730324 114.929396 136.730324 114.929396 136.730324 c
114.929396 136.730324 114.929396 136.730324 114.929396 136.730324 c
114.929396 136.730324 114.929396 136.730324 114.929396 136.730324 c
114.929396 136.730324 114.929396 136.730324 114.929396 136.730324 c
114.929396 136.730324 114.929396 136.730324 114.929396 136.730324 c
cl
gsave
fill
grestore
stroke
grestore
gsave
279 277.2 45 39.6 clipbox
142.757637 136.730324 m
142.757637 136.730324 142.757637 136.730324 142.757637 136.730324 c
142.757637 136.730324 142.757637 136.730324 142.757637 136.730324 c
142.757637 136.730324 142.757637 136.730324 142.757637 136.730324 c
142.757637 136.730324 142.757637 136.730324 142.757637 136.730324 c
142.757637 136.730324 142.757637 136.730324 142.757637 136.730324 c
142.757637 136.730324 142.757637 136.730324 142.757637 136.730324 c
142.757637 136.730324 142.757637 136.730324 142.757637 136.730324 c
142.757637 136.730324 142.757637 136.730324 142.757637 136.730324 c
cl
gsave
fill
grestore
stroke
grestore
gsave
279 277.2 45 39.6 clipbox
170.585879 136.730324 m
170.585879 136.730324 170.585879 136.730324 170.585879 136.730324 c
170.585879 136.730324 170.585879 136.730324 170.585879 136.730324 c
170.585879 136.730324 170.585879 136.730324 170.585879 136.730324 c
170.585879 136.730324 170.585879 136.730324 170.585879 136.730324 c
170.585879 136.730324 170.585879 136.730324 170.585879 136.730324 c
170.585879 136.730324 170.585879 136.730324 170.585879 136.730324 c
170.585879 136.730324 170.585879 136.730324 170.585879 136.730324 c
170.585879 136.730324 170.585879 136.730324 170.585879 136.730324 c
cl
gsave
fill
grestore
stroke
grestore
gsave
279 277.2 45 39.6 clipbox
198.414121 136.730324 m
198.414121 136.730324 198.414121 136.730324 198.414121 136.730324 c
198.414121 136.730324 198.414121 136.730324 198.414121 136.730324 c
198.414121 136.730324 198.414121 136.730324 198.414121 136.730324 c
198.414121 136.730324 198.414121 136.730324 198.414121 136.730324 c
198.414121 136.730324 198.414121 136.730324 198.414121 136.730324 c
198.414121 136.730324 198.414121 136.730324 198.414121 136.730324 c
198.414121 136.730324 198.414121 136.730324 198.414121 136.730324 c
198.414121 136.730324 198.414121 136.730324 198.414121 136.730324 c
cl
gsave
fill
grestore
stroke
grestore
gsave
279 277.2 45 39.6 clipbox
226.242363 136.730324 m
226.242363 136.730324 226.242363 136.730324 226.242363 136.730324 c
226.242363 136.730324 226.242363 136.730324 226.242363 136.730324 c
226.242363 136.730324 226.242363 136.730324 226.242363 136.730324 c
226.242363 136.730324 226.242363 136.730324 226.242363 136.730324 c
226.242363 136.730324 226.242363 136.730324 226.242363 136.730324 c
226.242363 136.730324 226.242363 136.730324 226.242363 136.730324 c
226.242363 136.730324 226.242363 136.730324 226.242363 136.730324 c
226.242363 136.730324 226.242363 136.730324 226.242363 136.730324 c
cl
gsave
fill
grestore
stroke
grestore
gsave
279 277.2 45 39.6 clipbox
254.070604 136.730324 m
254.070604 136.730324 254.070604 136.730324 254.070604 136.730324 c
254.070604 136.730324 254.070604 136.730324 254.070604 136.730324 c
254.070604 136.730324 254.070604 136.730324 254.070604 136.730324 c
254.070604 136.730324 254.070604 136.730324 254.070604 136.730324 c
254.070604 136.730324 254.070604 136.730324 254.070604 136.730324 c
254.070604 136.730324 254.070604 136.730324 254.070604 136.730324 c
254.070604 136.730324 254.070604 136.730324 254.070604 136.730324 c
254.070604 136.730324 254.070604 136.730324 254.070604 136.730324 c
cl
gsave
fill
grestore
stroke
grestore
gsave
279 277.2 45 39.6 clipbox
281.898846 136.730324 m
281.898846 136.730324 281.898846 136.730324 281.898846 136.730324 c
281.898846 136.730324 281.898846 136.730324 281.898846 136.730324 c
281.898846 136.730324 281.898846 136.730324 281.898846 136.730324 c
281.898846 136.730324 281.898846 136.730324 281.898846 136.730324 c
281.898846 136.730324 281.898846 136.730324 281.898846 136.730324 c
281.898846 136.730324 281.898846 136.730324 281.898846 136.730324 c
281.898846 136.730324 281.898846 136.730324 281.898846 136.730324 c
281.898846 136.730324 281.898846 136.730324 281.898846 136.730324 c
cl
gsave
fill
grestore
stroke
grestore
gsave
279 277.2 45 39.6 clipbox
309.727088 136.730324 m
309.727088 136.730324 309.727088 136.730324 309.727088 136.730324 c
309.727088 136.730324 309.727088 136.730324 309.727088 136.730324 c
309.727088 136.730324 309.727088 136.730324 309.727088 136.730324 c
309.727088 136.730324 309.727088 136.730324 309.727088 136.730324 c
309.727088 136.730324 309.727088 136.730324 309.727088 136.730324 c
309.727088 136.730324 309.727088 136.730324 309.727088 136.730324 c
309.727088 136.730324 309.727088 136.730324 309.727088 136.730324 c
309.727088 136.730324 309.727088 136.730324 309.727088 136.730324 c
cl
gsave
fill
grestore
stroke
grestore
gsave
279 277.2 45 39.6 clipbox
59.272912 164.376775 m
59.272912 164.376775 59.272912 164.376775 59.272912 164.376775 c
59.272912 164.376775 59.272912 164.376775 59.272912 164.376775 c
59.272912 164.376775 59.272912 164.376775 59.272912 164.376775 c
59.272912 164.376775 59.272912 164.376775 59.272912 164.376775 c
59.272912 164.376775 59.272912 164.376775 59.272912 164.376775 c
59.272912 164.376775 59.272912 164.376775 59.272912 164.376775 c
59.272912 164.376775 59.272912 164.376775 59.272912 164.376775 c
59.272912 164.376775 59.272912 164.376775 59.272912 164.376775 c
cl
gsave
fill
grestore
stroke
grestore
gsave
279 277.2 45 39.6 clipbox
87.101154 164.376775 m
87.101154 164.376775 87.101154 164.376775 87.101154 164.376775 c
87.101154 164.376775 87.101154 164.376775 87.101154 164.376775 c
87.101154 164.376775 87.101154 164.376775 87.101154 164.376775 c
87.101154 164.376775 87.101154 164.376775 87.101154 164.376775 c
87.101154 164.376775 87.101154 164.376775 87.101154 164.376775 c
87.101154 164.376775 87.101154 164.376775 87.101154 164.376775 c
87.101154 164.376775 87.101154 164.376775 87.101154 164.376775 c
87.101154 164.376775 87.101154 164.376775 87.101154 164.376775 c
cl
gsave
fill
grestore
stroke
grestore
gsave
279 277.2 45 39.6 clipbox
114.929396 164.376775 m
114.929396 164.376775 114.929396 164.376775 114.929396 164.376775 c
114.929396 164.376775 114.929396 164.376775 114.929396 164.376775 c
114.929396 164.376775 114.929396 164.376775 114.929396 164.376775 c
114.929396 164.376775 114.929396 164.376775 114.929396 164.376775 c
114.929396 164.376775 114.929396 164.376775 114.929396 164.376775 c
114.929396 164.376775 114.929396 164.376775 114.929396 164.376775 c
114.929396 164.376775 114.929396 164.376775 114.929396 164.376775 c
114.929396 164.376775 114.929396 164.376775 114.929396 164.376775 c
cl
gsave
fill
grestore
stroke
grestore
gsave
279 277.2 45 39.6 clipbox
142.757637 164.376775 m
142.757637 164.376775 142.757637 164.376775 142.757637 164.376775 c
142.757637 164.376775 142.757637 164.376775 142.757637 164.376775 c
142.757637 164.376775 142.757637 164.376775 142.757637 164.376775 c
142.757637 164.376775 142.757637 164.376775 142.757637 164.376775 c
142.757637 164.376775 142.757637 164.376775 142.757637 164.376775 c
142.757637 164.376775 142.757637 164.376775 142.757637 164.376775 c
142.757637 164.376775 142.757637 164.376775 142.757637 164.376775 c
142.757637 164.376775 142.757637 164.376775 142.757637 164.376775 c
cl
gsave
fill
grestore
stroke
grestore
gsave
279 277.2 45 39.6 clipbox
170.585879 164.376775 m
170.585879 164.376775 170.585879 164.376775 170.585879 164.376775 c
170.585879 164.376775 170.585879 164.376775 170.585879 164.376775 c
170.585879 164.376775 170.585879 164.376775 170.585879 164.376775 c
170.585879 164.376775 170.585879 164.376775 170.585879 164.376775 c
170.585879 164.376775 170.585879 164.376775 170.585879 164.376775 c
170.585879 164.376775 170.585879 164.376775 170.585879 164.376775 c
170.585879 164.376775 170.585879 164.376775 170.585879 164.376775 c
170.585879 164.376775 170.585879 164.376775 170.585879 164.376775 c
cl
gsave
fill
grestore
stroke
grestore
gsave
279 277.2 45 39.6 clipbox
198.414121 164.376775 m
198.414121 164.376775 198.414121 164.376775 198.414121 164.376775 c
198.414121 164.376775 198.414121 164.376775 198.414121 164.376775 c
198.414121 164.376775 198.414121 164.376775 198.414121 164.376775 c
198.414121 164.376775 198.414121 164.376775 198.414121 164.376775 c
198.414121 164.376775 198.414121 164.376775 198.414121 164.376775 c
198.414121 164.376775 198.414121 164.376775 198.414121 164.376775 c
198.414121 164.376775 198.414121 164.376775 198.414121 164.376775 c
198.414121 164.376775 198.414121 164.376775 198.414121 164.376775 c
cl
gsave
fill
grestore
stroke
grestore
gsave
279 277.2 45 39.6 clipbox
226.242363 164.376775 m
226.242363 164.376775 226.242363 164.376775 226.242363 164.376775 c
226.242363 164.376775 226.242363 164.376775 226.242363 164.376775 c
226.242363 164.376775 226.242363 164.376775 226.242363 164.376775 c
226.242363 164.376775 226.242363 164.376775 226.242363 164.376775 c
226.242363 164.376775 226.242363 164.376775 226.242363 164.376775 c
226.242363 164.376775 226.242363 164.376775 226.242363 164.376775 c
226.242363 164.376775 226.242363 164.376775 226.242363 164.376775 c
226.242363 164.376775 226.242363 164.376775 226.242363 164.376775 c
cl
gsave
fill
grestore
stroke
grestore
gsave
279 277.2 45 39.6 clipbox
254.070604 164.376775 m
254.070604 164.376775 254.070604 164.376775 254.070604 164.376775 c
254.070604 164.376775 254.070604 164.376775 254.070604 164.376775 c
254.070604 164.376775 254.070604 164.376775 254.070604 164.376775 c
254.070604 164.376775 254.070604 164.376775 254.070604 164.376775 c
254.070604 164.376775 254.070604 164.376775 254.070604 164.376775 c
254.070604 164.376775 254.070604 164.376775 254.070604 164.376775 c
254.070604 164.376775 254.070604 164.376775 254.070604 164.376775 c
254.070604 164.376775 254.070604 164.376775 254.070604 164.376775 c
cl
gsave
fill
grestore
stroke
grestore
gsave
279 277.2 45 39.6 clipbox
281.898846 164.376775 m
281.898846 164.376775 281.898846 164.376775 281.898846 164.376775 c
281.898846 164.376775 281.898846 164.376775 281.898846 164.376775 c
281.898846 164.376775 281.898846 164.376775 281.898846 164.376775 c
281.898846 164.376775 281.898846 164.376775 281.898846 164.376775 c
281.898846 164.376775 281.898846 164.376775 281.898846 164.376775 c
281.898846 164.376775 281.898846 164.376775 281.898846 164.376775 c
281.898846 164.376775 281.898846 164.376775 281.898846 164.376775 c
281.898846 164.376775 281.898846 164.376775 281.898846 164.376775 c
cl
gsave
fill
grestore
stroke
grestore
gsave
279 277.2 45 39.6 clipbox
309.727088 164.376775 m
309.727088 164.376775 309.727088 164.376775 309.727088 164.376775 c
309.727088 164.376775 309.727088 164.376775 309.727088 164.376775 c
309.727088 164.376775 309.727088 164.376775 309.727088 164.376775 c
309.727088 164.376775 309.727088 164.376775 309.727088 164.376775 c
309.727088 164.376775 309.727088 164.376775 309.727088 164.376775 c
309.727088 164.376775 309.727088 164.376775 309.727088 164.376775 c
309.727088 164.376775 309.727088 164.376775 309.727088 164.376775 c
309.727088 164.376775 309.727088 164.376775 309.727088 164.376775 c
cl
gsave
fill
grestore
stroke
grestore
gsave
279 277.2 45 39.6 clipbox
59.272912 192.023225 m
59.272912 192.023225 59.272912 192.023225 59.272912 192.023225 c
59.272912 192.023225 59.272912 192.023225 59.272912 192.023225 c
59.272912 192.023225 59.272912 192.023225 59.272912 192.023225 c
59.272912 192.023225 59.272912 192.023225 59.272912 192.023225 c
59.272912 192.023225 59.272912 192.023225 59.272912 192.023225 c
59.272912 192.023225 59.272912 192.023225 59.272912 192.023225 c
59.272912 192.023225 59.272912 192.023225 59.272912 192.023225 c
59.272912 192.023225 59.272912 192.023225 59.272912 192.023225 c
cl
gsave
fill
grestore
stroke
grestore
gsave
279 277.2 45 39.6 clipbox
87.101154 188.150242 m
88.128281 188.150242 89.113478 188.558324 89.839767 189.284612 c
90.566055 190.010901 90.974137 190.996098 90.974137 192.023225 c
90.974137 193.050352 90.566055 194.035549 89.839767 194.761838 c
89.113478 195.488127 88.128281 195.896209 87.101154 195.896209 c
86.074027 195.896209 85.08883 195.488127 84.362541 194.761838 c
83.636253 194.035549 83.228171 193.050352 83.228171 192.023225 c
83.228171 190.996098 83.636253 190.010901 84.362541 189.284612 c
85.08883 188.558324 86.074027 188.150242 87.101154 188.150242 c
cl
gsave
fill
grestore
stroke
grestore
gsave
279 277.2 45 39.6 clipbox
114.929396 188.150242 m
115.956523 188.150242 116.94172 188.558324 117.668008 189.284612 c
118.394297 190.010901 118.802379 190.996098 118.802379 192.023225 c
118.802379 193.050352 118.394297 194.035549 117.668008 194.761838 c
116.94172 195.488127 115.956523 195.896209 114.929396 195.896209 c
113.902268 195.896209 112.917071 195.488127 112.190783 194.761838 c
111.464494 194.035549 111.056412 193.050352 111.056412 192.023225 c
111.056412 190.996098 111.464494 190.010901 112.190783 189.284612 c
112.917071 188.558324 113.902268 188.150242 114.929396 188.150242 c
cl
gsave
fill
grestore
stroke
grestore
gsave
279 277.2 45 39.6 clipbox
142.757637 188.150242 m
143.784765 188.150242 144.769962 188.558324 145.49625 189.284612 c
146.222539 190.010901 146.630621 190.996098 146.630621 192.023225 c
146.630621 193.050352 146.222539 194.035549 145.49625 194.761838 c
144.769962 195.488127 143.784765 195.896209 142.757637 195.896209 c
141.73051 195.896209 140.745313 195.488127 140.019025 194.761838 c
139.292736 194.035549 138.884654 193.050352 138.884654 192.023225 c
138.884654 190.996098 139.292736 190.010901 140.019025 189.284612 c
140.745313 188.558324 141.73051 188.150242 142.757637 188.150242 c
cl
gsave
fill
grestore
stroke
grestore
gsave
279 277.2 45 39.6 clipbox
170.585879 192.023225 m
170.585879 192.023225 170.585879 192.023225 170.585879 192.023225 c
170.585879 192.023225 170.585879 192.023225 170.585879 192.023225 c
170.585879 192.023225 170.585879 192.023225 170.585879 192.023225 c
170.585879 192.023225 170.585879 192.023225 170.585879 192.023225 c
170.585879 192.023225 170.585879 192.023225 170.585879 192.023225 c
170.585879 192.023225 170.585879 192.023225 170.585879 192.023225 c
170.585879 192.023225 170.585879 192.023225 170.585879 192.023225 c
170.585879 192.023225 170.585879 192.023225 170.585879 192.023225 c
cl
gsave
fill
grestore
stroke
grestore
gsave
279 277.2 45 39.6 clipbox
198.414121 192.023225 m
198.414121 192.023225 198.414121 192.023225 198.414121 192.023225 c
198.414121 192.023225 198.414121 192.023225 198.414121 192.023225 c
198.414121 192.023225 198.414121 192.023225 198.414121 192.023225 c
198.414121 192.023225 198.414121 192.023225 198.414121 192.023225 c
198.414121 192.023225 198.414121 192.023225 198.414121 192.023225 c
198.414121 192.023225 198.414121 192.023225 198.414121 192.023225 c
198.414121 192.023225 198.414121 192.023225 198.414121 192.023225 c
198.414121 192.023225 198.414121 192.023225 198.414121 192.023225 c
cl
gsave
fill
grestore
stroke
grestore
gsave
279 277.2 45 39.6 clipbox
226.242363 192.023225 m
226.242363 192.023225 226.242363 192.023225 226.242363 192.023225 c
226.242363 192.023225 226.242363 192.023225 226.242363 192.023225 c
226.242363 192.023225 226.242363 192.023225 226.242363 192.023225 c
226.242363 192.023225 226.242363 192.023225 226.242363 192.023225 c
226.242363 192.023225 226.242363 192.023225 226.242363 192.023225 c
226.242363 192.023225 226.242363 192.023225 226.242363 192.023225 c
226.242363 192.023225 226.242363 192.023225 226.242363 192.023225 c
226.242363 192.023225 226.242363 192.023225 226.242363 192.023225 c
cl
gsave
fill
grestore
stroke
grestore
gsave
279 277.2 45 39.6 clipbox
254.070604 192.023225 m
254.070604 192.023225 254.070604 192.023225 254.070604 192.023225 c
254.070604 192.023225 254.070604 192.023225 254.070604 192.023225 c
254.070604 192.023225 254.070604 192.023225 254.070604 192.023225 c
254.070604 192.023225 254.070604 192.023225 254.070604 192.023225 c
254.070604 192.023225 254.070604 192.023225 254.070604 192.023225 c
254.070604 192.023225 254.070604 192.023225 254.070604 192.023225 c
254.070604 192.023225 254.070604 192.023225 254.070604 192.023225 c
254.070604 192.023225 254.070604 192.023225 254.070604 192.023225 c
cl
gsave
fill
grestore
stroke
grestore
gsave
279 277.2 45 39.6 clipbox
281.898846 192.023225 m
281.898846 192.023225 281.898846 192.023225 281.898846 192.023225 c
281.898846 192.023225 281.898846 192.023225 281.898846 192.023225 c
281.898846 192.023225 281.898846 192.023225 281.898846 192.023225 c
281.898846 192.023225 281.898846 192.023225 281.898846 192.023225 c
281.898846 192.023225 281.898846 192.023225 281.898846 192.023225 c
281.898846 192.023225 281.898846 192.023225 281.898846 192.023225 c
281.898846 192.023225 281.898846 192.023225 281.898846 192.023225 c
281.898846 192.023225 281.898846 192.023225 281.898846 192.023225 c
cl
gsave
fill
grestore
stroke
grestore
gsave
279 277.2 45 39.6 clipbox
309.727088 192.023225 m
309.727088 192.023225 309.727088 192.023225 309.727088 192.023225 c
309.727088 192.023225 309.727088 192.023225 309.727088 192.023225 c
309.727088 192.023225 309.727088 192.023225 309.727088 192.023225 c
309.727088 192.023225 309.727088 192.023225 309.727088 192.023225 c
309.727088 192.023225 309.727088 192.023225 309.727088 192.023225 c
309.727088 192.023225 309.727088 192.023225 309.727088 192.023225 c
309.727088 192.023225 309.727088 192.023225 309.727088 192.023225 c
309.727088 192.023225 309.727088 192.023225 309.727088 192.023225 c
cl
gsave
fill
grestore
stroke
grestore
gsave
279 277.2 45 39.6 clipbox
59.272912 219.669676 m
59.272912 219.669676 59.272912 219.669676 59.272912 219.669676 c
59.272912 219.669676 59.272912 219.669676 59.272912 219.669676 c
59.272912 219.669676 59.272912 219.669676 59.272912 219.669676 c
59.272912 219.669676 59.272912 219.669676 59.272912 219.669676 c
59.272912 219.669676 59.272912 219.669676 59.272912 219.669676 c
59.272912 219.669676 59.272912 219.669676 59.272912 219.669676 c
59.272912 219.669676 59.272912 219.669676 59.272912 219.669676 c
59.272912 219.669676 59.272912 219.669676 59.272912 219.669676 c
cl
gsave
fill
grestore
stroke
grestore
gsave
279 277.2 45 39.6 clipbox
87.101154 219.669676 m
87.101154 219.669676 87.101154 219.669676 87.101154 219.669676 c
87.101154 219.669676 87.101154 219.669676 87.101154 219.669676 c
87.101154 219.669676 87.101154 219.669676 87.101154 219.669676 c
87.101154 219.669676 87.101154 219.669676 87.101154 219.669676 c
87.101154 219.669676 87.101154 219.669676 87.101154 219.669676 c
87.101154 219.669676 87.101154 219.669676 87.101154 219.669676 c
87.101154 219.669676 87.101154 219.669676 87.101154 219.669676 c
87.101154 219.669676 87.101154 219.669676 87.101154 219.669676 c
cl
gsave
fill
grestore
stroke
grestore
gsave
279 277.2 45 39.6 clipbox
114.929396 219.669676 m
114.929396 219.669676 114.929396 219.669676 114.929396 219.669676 c
114.929396 219.669676 114.929396 219.669676 114.929396 219.669676 c
114.929396 219.669676 114.929396 219.669676 114.929396 219.669676 c
114.929396 219.669676 114.929396 219.669676 114.929396 219.669676 c
114.929396 219.669676 114.929396 219.669676 114.929396 219.669676 c
114.929396 219.669676 114.929396 219.669676 114.929396 219.669676 c
114.929396 219.669676 114.929396 219.669676 114.929396 219.669676 c
114.929396 219.669676 114.929396 219.669676 114.929396 219.669676 c
cl
gsave
fill
grestore
stroke
grestore
gsave
279 277.2 45 39.6 clipbox
142.757637 215.796692 m
143.784765 215.796692 144.769962 216.204774 145.49625 216.931063 c
146.222539 217.657352 146.630621 218.642549 146.630621 219.669676 c
146.630621 220.696803 146.222539 221.682 145.49625 222.408289 c
144.769962 223.134577 143.784765 223.542659 142.757637 223.542659 c
141.73051 223.542659 140.745313 223.134577 140.019025 222.408289 c
139.292736 221.682 138.884654 220.696803 138.884654 219.669676 c
138.884654 218.642549 139.292736 217.657352 140.019025 216.931063 c
140.745313 216.204774 141.73051 215.796692 142.757637 215.796692 c
cl
gsave
fill
grestore
stroke
grestore
gsave
279 277.2 45 39.6 clipbox
170.585879 215.796692 m
171.613006 215.796692 172.598203 216.204774 173.324492 216.931063 c
174.050781 217.657352 174.458862 218.642549 174.458862 219.669676 c
174.458862 220.696803 174.050781 221.682 173.324492 222.408289 c
172.598203 223.134577 171.613006 223.542659 170.585879 223.542659 c
169.558752 223.542659 168.573555 223.134577 167.847266 222.408289 c
167.120978 221.682 166.712896 220.696803 166.712896 219.669676 c
166.712896 218.642549 167.120978 217.657352 167.847266 216.931063 c
168.573555 216.204774 169.558752 215.796692 170.585879 215.796692 c
cl
gsave
fill
grestore
stroke
grestore
gsave
279 277.2 45 39.6 clipbox
198.414121 219.669676 m
198.414121 219.669676 198.414121 219.669676 198.414121 219.669676 c
198.414121 219.669676 198.414121 219.669676 198.414121 219.669676 c
198.414121 219.669676 198.414121 219.669676 198.414121 219.669676 c
198.414121 219.669676 198.414121 219.669676 198.414121 219.669676 c
198.414121 219.669676 198.414121 219.669676 198.414121 219.669676 c
198.414121 219.669676 198.414121 219.669676 198.414121 219.669676 c
198.414121 219.669676 198.414121 219.669676 198.414121 219.669676 c
198.414121 219.669676 198.414121 219.669676 198.414121 219.669676 c
cl
gsave
fill
grestore
stroke
grestore
gsave
279 277.2 45 39.6 clipbox
226.242363 215.796692 m
227.26949 215.796692 228.254687 216.204774 228.980975 216.931063 c
229.707264 217.657352 230.115346 218.642549 230.115346 219.669676 c
230.115346 220.696803 229.707264 221.682 228.980975 222.408289 c
228.254687 223.134577 227.26949 223.542659 226.242363 223.542659 c
225.215235 223.542659 224.230038 223.134577 223.50375 222.408289 c
222.777461 221.682 222.369379 220.696803 222.369379 219.669676 c
222.369379 218.642549 222.777461 217.657352 223.50375 216.931063 c
224.230038 216.204774 225.215235 215.796692 226.242363 215.796692 c
cl
gsave
fill
grestore
stroke
grestore
gsave
279 277.2 45 39.6 clipbox
254.070604 219.669676 m
254.070604 219.669676 254.070604 219.669676 254.070604 219.669676 c
254.070604 219.669676 254.070604 219.669676 254.070604 219.669676 c
254.070604 219.669676 254.070604 219.669676 254.070604 219.669676 c
254.070604 219.669676 254.070604 219.669676 254.070604 219.669676 c
254.070604 219.669676 254.070604 219.669676 254.070604 219.669676 c
254.070604 219.669676 254.070604 219.669676 254.070604 219.669676 c
254.070604 219.669676 254.070604 219.669676 254.070604 219.669676 c
254.070604 219.669676 254.070604 219.669676 254.070604 219.669676 c
cl
gsave
fill
grestore
stroke
grestore
gsave
279 277.2 45 39.6 clipbox
281.898846 215.796692 m
282.925973 215.796692 283.91117 216.204774 284.637459 216.931063 c
285.363747 217.657352 285.771829 218.642549 285.771829 219.669676 c
285.771829 220.696803 285.363747 221.682 284.637459 222.408289 c
283.91117 223.134577 282.925973 223.542659 281.898846 223.542659 c
280.871719 223.542659 279.886522 223.134577 279.160233 222.408289 c
278.433945 221.682 278.025863 220.696803 278.025863 219.669676 c
278.025863 218.642549 278.433945 217.657352 279.160233 216.931063 c
279.886522 216.204774 280.871719 215.796692 281.898846 215.796692 c
cl
gsave
fill
grestore
stroke
grestore
gsave
279 277.2 45 39.6 clipbox
309.727088 219.669676 m
309.727088 219.669676 309.727088 219.669676 309.727088 219.669676 c
309.727088 219.669676 309.727088 219.669676 309.727088 219.669676 c
309.727088 219.669676 309.727088 219.669676 309.727088 219.669676 c
309.727088 219.669676 309.727088 219.669676 309.727088 219.669676 c
309.727088 219.669676 309.727088 219.669676 309.727088 219.669676 c
309.727088 219.669676 309.727088 219.669676 309.727088 219.669676 c
309.727088 219.669676 309.727088 219.669676 309.727088 219.669676 c
309.727088 219.669676 309.727088 219.669676 309.727088 219.669676 c
cl
gsave
fill
grestore
stroke
grestore
gsave
279 277.2 45 39.6 clipbox
59.272912 247.316126 m
59.272912 247.316126 59.272912 247.316126 59.272912 247.316126 c
59.272912 247.316126 59.272912 247.316126 59.272912 247.316126 c
59.272912 247.316126 59.272912 247.316126 59.272912 247.316126 c
59.272912 247.316126 59.272912 247.316126 59.272912 247.316126 c
59.272912 247.316126 59.272912 247.316126 59.272912 247.316126 c
59.272912 247.316126 59.272912 247.316126 59.272912 247.316126 c
59.272912 247.316126 59.272912 247.316126 59.272912 247.316126 c
59.272912 247.316126 59.272912 247.316126 59.272912 247.316126 c
cl
gsave
fill
grestore
stroke
grestore
gsave
279 277.2 45 39.6 clipbox
87.101154 247.316126 m
87.101154 247.316126 87.101154 247.316126 87.101154 247.316126 c
87.101154 247.316126 87.101154 247.316126 87.101154 247.316126 c
87.101154 247.316126 87.101154 247.316126 87.101154 247.316126 c
87.101154 247.316126 87.101154 247.316126 87.101154 247.316126 c
87.101154 247.316126 87.101154 247.316126 87.101154 247.316126 c
87.101154 247.316126 87.101154 247.316126 87.101154 247.316126 c
87.101154 247.316126 87.101154 247.316126 87.101154 247.316126 c
87.101154 247.316126 87.101154 247.316126 87.101154 247.316126 c
cl
gsave
fill
grestore
stroke
grestore
gsave
279 277.2 45 39.6 clipbox
114.929396 247.316126 m
114.929396 247.316126 114.929396 247.316126 114.929396 247.316126 c
114.929396 247.316126 114.929396 247.316126 114.929396 247.316126 c
114.929396 247.316126 114.929396 247.316126 114.929396 247.316126 c
114.929396 247.316126 114.929396 247.316126 114.929396 247.316126 c
114.929396 247.316126 114.929396 247.316126 114.929396 247.316126 c
114.929396 247.316126 114.929396 247.316126 114.929396 247.316126 c
114.929396 247.316126 114.929396 247.316126 114.929396 247.316126 c
114.929396 247.316126 114.929396 247.316126 114.929396 247.316126 c
cl
gsave
fill
grestore
stroke
grestore
gsave
279 277.2 45 39.6 clipbox
142.757637 243.443143 m
143.784765 243.443143 144.769962 243.851225 145.49625 244.577513 c
146.222539 245.303802 146.630621 246.288999 146.630621 247.316126 c
146.630621 248.343253 146.222539 249.32845 145.49625 250.054739 c
144.769962 250.781028 143.784765 251.18911 142.757637 251.18911 c
141.73051 251.18911 140.745313 250.781028 140.019025 250.054739 c
139.292736 249.32845 138.884654 248.343253 138.884654 247.316126 c
138.884654 246.288999 139.292736 245.303802 140.019025 244.577513 c
140.745313 243.851225 141.73051 243.443143 142.757637 243.443143 c
cl
gsave
fill
grestore
stroke
grestore
gsave
279 277.2 45 39.6 clipbox
170.585879 247.316126 m
170.585879 247.316126 170.585879 247.316126 170.585879 247.316126 c
170.585879 247.316126 170.585879 247.316126 170.585879 247.316126 c
170.585879 247.316126 170.585879 247.316126 170.585879 247.316126 c
170.585879 247.316126 170.585879 247.316126 170.585879 247.316126 c
170.585879 247.316126 170.585879 247.316126 170.585879 247.316126 c
170.585879 247.316126 170.585879 247.316126 170.585879 247.316126 c
170.585879 247.316126 170.585879 247.316126 170.585879 247.316126 c
170.585879 247.316126 170.585879 247.316126 170.585879 247.316126 c
cl
gsave
fill
grestore
stroke
grestore
gsave
279 277.2 45 39.6 clipbox
198.414121 243.443143 m
199.441248 243.443143 200.426445 243.851225 201.152734 244.577513 c
201.879022 245.303802 202.287104 246.288999 202.287104 247.316126 c
202.287104 248.343253 201.879022 249.32845 201.152734 250.054739 c
200.426445 250.781028 199.441248 251.18911 198.414121 251.18911 c
197.386994 251.18911 196.401797 250.781028 195.675508 250.054739 c
194.949219 249.32845 194.541138 248.343253 194.541138 247.316126 c
194.541138 246.288999 194.949219 245.303802 195.675508 244.577513 c
196.401797 243.851225 197.386994 243.443143 198.414121 243.443143 c
cl
gsave
fill
grestore
stroke
grestore
gsave
279 277.2 45 39.6 clipbox
226.242363 243.443143 m
227.26949 243.443143 228.254687 243.851225 228.980975 244.577513 c
229.707264 245.303802 230.115346 246.288999 230.115346 247.316126 c
230.115346 248.343253 229.707264 249.32845 228.980975 250.054739 c
228.254687 250.781028 227.26949 251.18911 226.242363 251.18911 c
225.215235 251.18911 224.230038 250.781028 223.50375 250.054739 c
222.777461 249.32845 222.369379 248.343253 222.369379 247.316126 c
222.369379 246.288999 222.777461 245.303802 223.50375 244.577513 c
224.230038 243.851225 225.215235 243.443143 226.242363 243.443143 c
cl
gsave
fill
grestore
stroke
grestore
gsave
279 277.2 45 39.6 clipbox
254.070604 247.316126 m
254.070604 247.316126 254.070604 247.316126 254.070604 247.316126 c
254.070604 247.316126 254.070604 247.316126 254.070604 247.316126 c
254.070604 247.316126 254.070604 247.316126 254.070604 247.316126 c
254.070604 247.316126 254.070604 247.316126 254.070604 247.316126 c
254.070604 247.316126 254.070604 247.316126 254.070604 247.316126 c
254.070604 247.316126 254.070604 247.316126 254.070604 247.316126 c
254.070604 247.316126 254.070604 247.316126 254.070604 247.316126 c
254.070604 247.316126 254.070604 247.316126 254.070604 247.316126 c
cl
gsave
fill
grestore
stroke
grestore
gsave
279 277.2 45 39.6 clipbox
281.898846 243.443143 m
282.925973 243.443143 283.91117 243.851225 284.637459 244.577513 c
285.363747 245.303802 285.771829 246.288999 285.771829 247.316126 c
285.771829 248.343253 285.363747 249.32845 284.637459 250.054739 c
283.91117 250.781028 282.925973 251.18911 281.898846 251.18911 c
280.871719 251.18911 279.886522 250.781028 279.160233 250.054739 c
278.433945 249.32845 278.025863 248.343253 278.025863 247.316126 c
278.025863 246.288999 278.433945 245.303802 279.160233 244.577513 c
279.886522 243.851225 280.871719 243.443143 281.898846 243.443143 c
cl
gsave
fill
grestore
stroke
grestore
gsave
279 277.2 45 39.6 clipbox
309.727088 243.443143 m
310.754215 243.443143 311.739412 243.851225 312.465701 244.577513 c
313.191989 245.303802 313.600071 246.288999 313.600071 247.316126 c
313.600071 248.343253 313.191989 249.32845 312.465701 250.054739 c
311.739412 250.781028 310.754215 251.18911 309.727088 251.18911 c
308.699961 251.18911 307.714764 250.781028 306.988475 250.054739 c
306.262186 249.32845 305.854104 248.343253 305.854104 247.316126 c
305.854104 246.288999 306.262186 245.303802 306.988475 244.577513 c
307.714764 243.851225 308.699961 243.443143 309.727088 243.443143 c
cl
gsave
fill
grestore
stroke
grestore
gsave
279 277.2 45 39.6 clipbox
59.272912 274.962577 m
59.272912 274.962577 59.272912 274.962577 59.272912 274.962577 c
59.272912 274.962577 59.272912 274.962577 59.272912 274.962577 c
59.272912 274.962577 59.272912 274.962577 59.272912 274.962577 c
59.272912 274.962577 59.272912 274.962577 59.272912 274.962577 c
59.272912 274.962577 59.272912 274.962577 59.272912 274.962577 c
59.272912 274.962577 59.272912 274.962577 59.272912 274.962577 c
59.272912 274.962577 59.272912 274.962577 59.272912 274.962577 c
59.272912 274.962577 59.272912 274.962577 59.272912 274.962577 c
cl
gsave
fill
grestore
stroke
grestore
gsave
279 277.2 45 39.6 clipbox
87.101154 274.962577 m
87.101154 274.962577 87.101154 274.962577 87.101154 274.962577 c
87.101154 274.962577 87.101154 274.962577 87.101154 274.962577 c
87.101154 274.962577 87.101154 274.962577 87.101154 274.962577 c
87.101154 274.962577 87.101154 274.962577 87.101154 274.962577 c
87.101154 274.962577 87.101154 274.962577 87.101154 274.962577 c
87.101154 274.962577 87.101154 274.962577 87.101154 274.962577 c
87.101154 274.962577 87.101154 274.962577 87.101154 274.962577 c
87.101154 274.962577 87.101154 274.962577 87.101154 274.962577 c
cl
gsave
fill
grestore
stroke
grestore
gsave
279 277.2 45 39.6 clipbox
114.929396 274.962577 m
114.929396 274.962577 114.929396 274.962577 114.929396 274.962577 c
114.929396 274.962577 114.929396 274.962577 114.929396 274.962577 c
114.929396 274.962577 114.929396 274.962577 114.929396 274.962577 c
114.929396 274.962577 114.929396 274.962577 114.929396 274.962577 c
114.929396 274.962577 114.929396 274.962577 114.929396 274.962577 c
114.929396 274.962577 114.929396 274.962577 114.929396 274.962577 c
114.929396 274.962577 114.929396 274.962577 114.929396 274.962577 c
114.929396 274.962577 114.929396 274.962577 114.929396 274.962577 c
cl
gsave
fill
grestore
stroke
grestore
gsave
279 277.2 45 39.6 clipbox
142.757637 274.962577 m
142.757637 274.962577 142.757637 274.962577 142.757637 274.962577 c
142.757637 274.962577 142.757637 274.962577 142.757637 274.962577 c
142.757637 274.962577 142.757637 274.962577 142.757637 274.962577 c
142.757637 274.962577 142.757637 274.962577 142.757637 274.962577 c
142.757637 274.962577 142.757637 274.962577 142.757637 274.962577 c
142.757637 274.962577 142.757637 274.962577 142.757637 274.962577 c
142.757637 274.962577 142.757637 274.962577 142.757637 274.962577 c
142.757637 274.962577 142.757637 274.962577 142.757637 274.962577 c
cl
gsave
fill
grestore
stroke
grestore
gsave
279 277.2 45 39.6 clipbox
170.585879 274.962577 m
170.585879 274.962577 170.585879 274.962577 170.585879 274.962577 c
170.585879 274.962577 170.585879 274.962577 170.585879 274.962577 c
170.585879 274.962577 170.585879 274.962577 170.585879 274.962577 c
170.585879 274.962577 170.585879 274.962577 170.585879 274.962577 c
170.585879 274.962577 170.585879 274.962577 170.585879 274.962577 c
170.585879 274.962577 170.585879 274.962577 170.585879 274.962577 c
170.585879 274.962577 170.585879 274.962577 170.585879 274.962577 c
170.585879 274.962577 170.585879 274.962577 170.585879 274.962577 c
cl
gsave
fill
grestore
stroke
grestore
gsave
279 277.2 45 39.6 clipbox
198.414121 274.962577 m
198.414121 274.962577 198.414121 274.962577 198.414121 274.962577 c
198.414121 274.962577 198.414121 274.962577 198.414121 274.962577 c
198.414121 274.962577 198.414121 274.962577 198.414121 274.962577 c
198.414121 274.962577 198.414121 274.962577 198.414121 274.962577 c
198.414121 274.962577 198.414121 274.962577 198.414121 274.962577 c
198.414121 274.962577 198.414121 274.962577 198.414121 274.962577 c
198.414121 274.962577 198.414121 274.962577 198.414121 274.962577 c
198.414121 274.962577 198.414121 274.962577 198.414121 274.962577 c
cl
gsave
fill
grestore
stroke
grestore
gsave
279 277.2 45 39.6 clipbox
226.242363 271.089593 m
227.26949 271.089593 228.254687 271.497675 228.980975 272.223964 c
229.707264 272.950252 230.115346 273.935449 230.115346 274.962577 c
230.115346 275.989704 229.707264 276.974901 228.980975 277.701189 c
228.254687 278.427478 227.26949 278.83556 226.242363 278.83556 c
225.215235 278.83556 224.230038 278.427478 223.50375 277.701189 c
222.777461 276.974901 222.369379 275.989704 222.369379 274.962577 c
222.369379 273.935449 222.777461 272.950252 223.50375 272.223964 c
224.230038 271.497675 225.215235 271.089593 226.242363 271.089593 c
cl
gsave
fill
grestore
stroke
grestore
gsave
279 277.2 45 39.6 clipbox
254.070604 274.962577 m
254.070604 274.962577 254.070604 274.962577 254.070604 274.962577 c
254.070604 274.962577 254.070604 274.962577 254.070604 274.962577 c
254.070604 274.962577 254.070604 274.962577 254.070604 274.962577 c
254.070604 274.962577 254.070604 274.962577 254.070604 274.962577 c
254.070604 274.962577 254.070604 274.962577 254.070604 274.962577 c
254.070604 274.962577 254.070604 274.962577 254.070604 274.962577 c
254.070604 274.962577 254.070604 274.962577 254.070604 274.962577 c
254.070604 274.962577 254.070604 274.962577 254.070604 274.962577 c
cl
gsave
fill
grestore
stroke
grestore
gsave
279 277.2 45 39.6 clipbox
281.898846 271.089593 m
282.925973 271.089593 283.91117 271.497675 284.637459 272.223964 c
285.363747 272.950252 285.771829 273.935449 285.771829 274.962577 c
285.771829 275.989704 285.363747 276.974901 284.637459 277.701189 c
283.91117 278.427478 282.925973 278.83556 281.898846 278.83556 c
280.871719 278.83556 279.886522 278.427478 279.160233 277.701189 c
278.433945 276.974901 278.025863 275.989704 278.025863 274.962577 c
278.025863 273.935449 278.433945 272.950252 279.160233 272.223964 c
279.886522 271.497675 280.871719 271.089593 281.898846 271.089593 c
cl
gsave
fill
grestore
stroke
grestore
gsave
279 277.2 45 39.6 clipbox
309.727088 274.962577 m
309.727088 274.962577 309.727088 274.962577 309.727088 274.962577 c
309.727088 274.962577 309.727088 274.962577 309.727088 274.962577 c
309.727088 274.962577 309.727088 274.962577 309.727088 274.962577 c
309.727088 274.962577 309.727088 274.962577 309.727088 274.962577 c
309.727088 274.962577 309.727088 274.962577 309.727088 274.962577 c
309.727088 274.962577 309.727088 274.962577 309.727088 274.962577 c
309.727088 274.962577 309.727088 274.962577 309.727088 274.962577 c
309.727088 274.962577 309.727088 274.962577 309.727088 274.962577 c
cl
gsave
fill
grestore
stroke
grestore
gsave
279 277.2 45 39.6 clipbox
59.272912 302.609027 m
59.272912 302.609027 59.272912 302.609027 59.272912 302.609027 c
59.272912 302.609027 59.272912 302.609027 59.272912 302.609027 c
59.272912 302.609027 59.272912 302.609027 59.272912 302.609027 c
59.272912 302.609027 59.272912 302.609027 59.272912 302.609027 c
59.272912 302.609027 59.272912 302.609027 59.272912 302.609027 c
59.272912 302.609027 59.272912 302.609027 59.272912 302.609027 c
59.272912 302.609027 59.272912 302.609027 59.272912 302.609027 c
59.272912 302.609027 59.272912 302.609027 59.272912 302.609027 c
cl
gsave
fill
grestore
stroke
grestore
gsave
279 277.2 45 39.6 clipbox
87.101154 302.609027 m
87.101154 302.609027 87.101154 302.609027 87.101154 302.609027 c
87.101154 302.609027 87.101154 302.609027 87.101154 302.609027 c
87.101154 302.609027 87.101154 302.609027 87.101154 302.609027 c
87.101154 302.609027 87.101154 302.609027 87.101154 302.609027 c
87.101154 302.609027 87.101154 302.609027 87.101154 302.609027 c
87.101154 302.609027 87.101154 302.609027 87.101154 302.609027 c
87.101154 302.609027 87.101154 302.609027 87.101154 302.609027 c
87.101154 302.609027 87.101154 302.609027 87.101154 302.609027 c
cl
gsave
fill
grestore
stroke
grestore
gsave
279 277.2 45 39.6 clipbox
114.929396 302.609027 m
114.929396 302.609027 114.929396 302.609027 114.929396 302.609027 c
114.929396 302.609027 114.929396 302.609027 114.929396 302.609027 c
114.929396 302.609027 114.929396 302.609027 114.929396 302.609027 c
114.929396 302.609027 114.929396 302.609027 114.929396 302.609027 c
114.929396 302.609027 114.929396 302.609027 114.929396 302.609027 c
114.929396 302.609027 114.929396 302.609027 114.929396 302.609027 c
114.929396 302.609027 114.929396 302.609027 114.929396 302.609027 c
114.929396 302.609027 114.929396 302.609027 114.929396 302.609027 c
cl
gsave
fill
grestore
stroke
grestore
gsave
279 277.2 45 39.6 clipbox
142.757637 302.609027 m
142.757637 302.609027 142.757637 302.609027 142.757637 302.609027 c
142.757637 302.609027 142.757637 302.609027 142.757637 302.609027 c
142.757637 302.609027 142.757637 302.609027 142.757637 302.609027 c
142.757637 302.609027 142.757637 302.609027 142.757637 302.609027 c
142.757637 302.609027 142.757637 302.609027 142.757637 302.609027 c
142.757637 302.609027 142.757637 302.609027 142.757637 302.609027 c
142.757637 302.609027 142.757637 302.609027 142.757637 302.609027 c
142.757637 302.609027 142.757637 302.609027 142.757637 302.609027 c
cl
gsave
fill
grestore
stroke
grestore
gsave
279 277.2 45 39.6 clipbox
170.585879 302.609027 m
170.585879 302.609027 170.585879 302.609027 170.585879 302.609027 c
170.585879 302.609027 170.585879 302.609027 170.585879 302.609027 c
170.585879 302.609027 170.585879 302.609027 170.585879 302.609027 c
170.585879 302.609027 170.585879 302.609027 170.585879 302.609027 c
170.585879 302.609027 170.585879 302.609027 170.585879 302.609027 c
170.585879 302.609027 170.585879 302.609027 170.585879 302.609027 c
170.585879 302.609027 170.585879 302.609027 170.585879 302.609027 c
170.585879 302.609027 170.585879 302.609027 170.585879 302.609027 c
cl
gsave
fill
grestore
stroke
grestore
gsave
279 277.2 45 39.6 clipbox
198.414121 302.609027 m
198.414121 302.609027 198.414121 302.609027 198.414121 302.609027 c
198.414121 302.609027 198.414121 302.609027 198.414121 302.609027 c
198.414121 302.609027 198.414121 302.609027 198.414121 302.609027 c
198.414121 302.609027 198.414121 302.609027 198.414121 302.609027 c
198.414121 302.609027 198.414121 302.609027 198.414121 302.609027 c
198.414121 302.609027 198.414121 302.609027 198.414121 302.609027 c
198.414121 302.609027 198.414121 302.609027 198.414121 302.609027 c
198.414121 302.609027 198.414121 302.609027 198.414121 302.609027 c
cl
gsave
fill
grestore
stroke
grestore
gsave
279 277.2 45 39.6 clipbox
226.242363 302.609027 m
226.242363 302.609027 226.242363 302.609027 226.242363 302.609027 c
226.242363 302.609027 226.242363 302.609027 226.242363 302.609027 c
226.242363 302.609027 226.242363 302.609027 226.242363 302.609027 c
226.242363 302.609027 226.242363 302.609027 226.242363 302.609027 c
226.242363 302.609027 226.242363 302.609027 226.242363 302.609027 c
226.242363 302.609027 226.242363 302.609027 226.242363 302.609027 c
226.242363 302.609027 226.242363 302.609027 226.242363 302.609027 c
226.242363 302.609027 226.242363 302.609027 226.242363 302.609027 c
cl
gsave
fill
grestore
stroke
grestore
gsave
279 277.2 45 39.6 clipbox
254.070604 302.609027 m
254.070604 302.609027 254.070604 302.609027 254.070604 302.609027 c
254.070604 302.609027 254.070604 302.609027 254.070604 302.609027 c
254.070604 302.609027 254.070604 302.609027 254.070604 302.609027 c
254.070604 302.609027 254.070604 302.609027 254.070604 302.609027 c
254.070604 302.609027 254.070604 302.609027 254.070604 302.609027 c
254.070604 302.609027 254.070604 302.609027 254.070604 302.609027 c
254.070604 302.609027 254.070604 302.609027 254.070604 302.609027 c
254.070604 302.609027 254.070604 302.609027 254.070604 302.609027 c
cl
gsave
fill
grestore
stroke
grestore
gsave
279 277.2 45 39.6 clipbox
281.898846 302.609027 m
281.898846 302.609027 281.898846 302.609027 281.898846 302.609027 c
281.898846 302.609027 281.898846 302.609027 281.898846 302.609027 c
281.898846 302.609027 281.898846 302.609027 281.898846 302.609027 c
281.898846 302.609027 281.898846 302.609027 281.898846 302.609027 c
281.898846 302.609027 281.898846 302.609027 281.898846 302.609027 c
281.898846 302.609027 281.898846 302.609027 281.898846 302.609027 c
281.898846 302.609027 281.898846 302.609027 281.898846 302.609027 c
281.898846 302.609027 281.898846 302.609027 281.898846 302.609027 c
cl
gsave
fill
grestore
stroke
grestore
gsave
279 277.2 45 39.6 clipbox
309.727088 302.609027 m
309.727088 302.609027 309.727088 302.609027 309.727088 302.609027 c
309.727088 302.609027 309.727088 302.609027 309.727088 302.609027 c
309.727088 302.609027 309.727088 302.609027 309.727088 302.609027 c
309.727088 302.609027 309.727088 302.609027 309.727088 302.609027 c
309.727088 302.609027 309.727088 302.609027 309.727088 302.609027 c
309.727088 302.609027 309.727088 302.609027 309.727088 302.609027 c
309.727088 302.609027 309.727088 302.609027 309.727088 302.609027 c
309.727088 302.609027 309.727088 302.609027 309.727088 302.609027 c
cl
gsave
fill
grestore
stroke
grestore
1.000 0.000 0.000 setrgbcolor
gsave
279 277.2 45 39.6 clipbox
/o {
gsave
newpath
translate
1.0 setlinewidth
1 setlinejoin
0 setlinecap
0 -2.236068 m
0.593012 -2.236068 1.161816 -2.000462 1.581139 -1.581139 c
2.000462 -1.161816 2.236068 -0.593012 2.236068 0 c
2.236068 0.593012 2.000462 1.161816 1.581139 1.581139 c
1.161816 2.000462 0.593012 2.236068 0 2.236068 c
-0.593012 2.236068 -1.161816 2.000462 -1.581139 1.581139 c
-2.000462 1.161816 -2.236068 0.593012 -2.236068 0 c
-2.236068 -0.593012 -2.000462 -1.161816 -1.581139 -1.581139 c
-1.161816 -2.000462 -0.593012 -2.236068 0 -2.236068 c
cl

gsave
1.000 0.000 0.000 setrgbcolor
fill
grestore
stroke
grestore
} bind def
114.929 109.084 o
114.929 136.73 o
114.929 164.377 o
114.929 192.023 o
114.929 219.67 o
142.758 219.67 o
226.242 247.316 o
254.071 247.316 o
281.899 247.316 o
grestore
0.000 0.502 0.000 setrgbcolor
gsave
279 277.2 45 39.6 clipbox
/o {
gsave
newpath
translate
1.0 setlinewidth
1 setlinejoin
0 setlinecap
0 -2.236068 m
0.593012 -2.236068 1.161816 -2.000462 1.581139 -1.581139 c
2.000462 -1.161816 2.236068 -0.593012 2.236068 0 c
2.236068 0.593012 2.000462 1.161816 1.581139 1.581139 c
1.161816 2.000462 0.593012 2.236068 0 2.236068 c
-0.593012 2.236068 -1.161816 2.000462 -1.581139 1.581139 c
-2.000462 1.161816 -2.236068 0.593012 -2.236068 0 c
-2.236068 -0.593012 -2.000462 -1.161816 -1.581139 -1.581139 c
-1.161816 -2.000462 -0.593012 -2.236068 0 -2.236068 c
cl

gsave
0.000 0.502 0.000 setrgbcolor
fill
grestore
stroke
grestore
} bind def
59.2729 53.791 o
87.1012 53.791 o
114.929 53.791 o
142.758 53.791 o
170.586 53.791 o
198.414 53.791 o
226.242 53.791 o
254.071 53.791 o
281.899 53.791 o
309.727 53.791 o
59.2729 81.4374 o
87.1012 81.4374 o
114.929 81.4374 o
142.758 81.4374 o
170.586 81.4374 o
198.414 81.4374 o
226.242 81.4374 o
254.071 81.4374 o
281.899 81.4374 o
309.727 81.4374 o
59.2729 109.084 o
87.1012 109.084 o
142.758 109.084 o
170.586 109.084 o
198.414 109.084 o
226.242 109.084 o
254.071 109.084 o
281.899 109.084 o
309.727 109.084 o
59.2729 136.73 o
87.1012 136.73 o
142.758 136.73 o
170.586 136.73 o
198.414 136.73 o
226.242 136.73 o
254.071 136.73 o
281.899 136.73 o
309.727 136.73 o
59.2729 164.377 o
87.1012 164.377 o
142.758 164.377 o
170.586 164.377 o
198.414 164.377 o
226.242 164.377 o
254.071 164.377 o
281.899 164.377 o
309.727 164.377 o
59.2729 192.023 o
87.1012 192.023 o
142.758 192.023 o
170.586 192.023 o
198.414 192.023 o
226.242 192.023 o
254.071 192.023 o
281.899 192.023 o
309.727 192.023 o
59.2729 219.67 o
87.1012 219.67 o
170.586 219.67 o
198.414 219.67 o
226.242 219.67 o
254.071 219.67 o
281.899 219.67 o
309.727 219.67 o
59.2729 247.316 o
87.1012 247.316 o
114.929 247.316 o
142.758 247.316 o
170.586 247.316 o
198.414 247.316 o
309.727 247.316 o
59.2729 274.963 o
87.1012 274.963 o
114.929 274.963 o
142.758 274.963 o
170.586 274.963 o
198.414 274.963 o
226.242 274.963 o
254.071 274.963 o
281.899 274.963 o
309.727 274.963 o
59.2729 302.609 o
87.1012 302.609 o
114.929 302.609 o
142.758 302.609 o
170.586 302.609 o
198.414 302.609 o
226.242 302.609 o
254.071 302.609 o
281.899 302.609 o
309.727 302.609 o
grestore
0.800 setlinewidth
0.000 setgray
gsave
/o {
gsave
newpath
translate
0.8 setlinewidth
1 setlinejoin
0 setlinecap
0 0 m
0 -3.5 l

gsave
0.000 setgray
fill
grestore
stroke
grestore
} bind def
59.2729 39.6 o
grestore
/DejaVuSans findfont
10.000 scalefont
setfont
gsave
51.905725 25.006250 translate
0.000000 rotate
0.000000 0.000000 m /minus glyphshow
8.378906 0.000000 m /six glyphshow
grestore
gsave
/o {
gsave
newpath
translate
0.8 setlinewidth
1 setlinejoin
0 setlinecap
0 0 m
0 -3.5 l

gsave
0.000 setgray
fill
grestore
stroke
grestore
} bind def
101.015 39.6 o
grestore
gsave
93.648087 25.006250 translate
0.000000 rotate
0.000000 0.000000 m /minus glyphshow
8.378906 0.000000 m /four glyphshow
grestore
gsave
/o {
gsave
newpath
translate
0.8 setlinewidth
1 setlinejoin
0 setlinecap
0 0 m
0 -3.5 l

gsave
0.000 setgray
fill
grestore
stroke
grestore
} bind def
142.758 39.6 o
grestore
gsave
135.390450 25.006250 translate
0.000000 rotate
0.000000 0.000000 m /minus glyphshow
8.378906 0.000000 m /two glyphshow
grestore
gsave
/o {
gsave
newpath
translate
0.8 setlinewidth
1 setlinejoin
0 setlinecap
0 0 m
0 -3.5 l

gsave
0.000 setgray
fill
grestore
stroke
grestore
} bind def
184.5 39.6 o
grestore
gsave
181.320312 25.006250 translate
0.000000 rotate
0.000000 0.000000 m /zero glyphshow
grestore
gsave
/o {
gsave
newpath
translate
0.8 setlinewidth
1 setlinejoin
0 setlinecap
0 0 m
0 -3.5 l

gsave
0.000 setgray
fill
grestore
stroke
grestore
} bind def
226.242 39.6 o
grestore
gsave
223.062675 25.006250 translate
0.000000 rotate
0.000000 0.000000 m /two glyphshow
grestore
gsave
/o {
gsave
newpath
translate
0.8 setlinewidth
1 setlinejoin
0 setlinecap
0 0 m
0 -3.5 l

gsave
0.000 setgray
fill
grestore
stroke
grestore
} bind def
267.985 39.6 o
grestore
gsave
264.805038 25.006250 translate
0.000000 rotate
0.000000 0.000000 m /four glyphshow
grestore
gsave
/o {
gsave
newpath
translate
0.8 setlinewidth
1 setlinejoin
0 setlinecap
0 0 m
0 -3.5 l

gsave
0.000 setgray
fill
grestore
stroke
grestore
} bind def
309.727 39.6 o
grestore
gsave
306.547400 25.006250 translate
0.000000 rotate
0.000000 0.000000 m /six glyphshow
grestore
gsave
/o {
gsave
newpath
translate
0.8 setlinewidth
1 setlinejoin
0 setlinecap
0 0 m
-3.5 0 l

gsave
0.000 setgray
fill
grestore
stroke
grestore
} bind def
45 53.791 o
grestore
gsave
23.265625 49.994098 translate
0.000000 rotate
0.000000 0.000000 m /minus glyphshow
8.378906 0.000000 m /six glyphshow
grestore
gsave
/o {
gsave
newpath
translate
0.8 setlinewidth
1 setlinejoin
0 setlinecap
0 0 m
-3.5 0 l

gsave
0.000 setgray
fill
grestore
stroke
grestore
} bind def
45 95.2606 o
grestore
gsave
23.265625 91.463774 translate
0.000000 rotate
0.000000 0.000000 m /minus glyphshow
8.378906 0.000000 m /four glyphshow
grestore
gsave
/o {
gsave
newpath
translate
0.8 setlinewidth
1 setlinejoin
0 setlinecap
0 0 m
-3.5 0 l

gsave
0.000 setgray
fill
grestore
stroke
grestore
} bind def
45 136.73 o
grestore
gsave
23.265625 132.933449 translate
0.000000 rotate
0.000000 0.000000 m /minus glyphshow
8.378906 0.000000 m /two glyphshow
grestore
gsave
/o {
gsave
newpath
translate
0.8 setlinewidth
1 setlinejoin
0 setlinecap
0 0 m
-3.5 0 l

gsave
0.000 setgray
fill
grestore
stroke
grestore
} bind def
45 178.2 o
grestore
gsave
31.640625 174.403125 translate
0.000000 rotate
0.000000 0.000000 m /zero glyphshow
grestore
gsave
/o {
gsave
newpath
translate
0.8 setlinewidth
1 setlinejoin
0 setlinecap
0 0 m
-3.5 0 l

gsave
0.000 setgray
fill
grestore
stroke
grestore
} bind def
45 219.67 o
grestore
gsave
31.640625 215.872801 translate
0.000000 rotate
0.000000 0.000000 m /two glyphshow
grestore
gsave
/o {
gsave
newpath
translate
0.8 setlinewidth
1 setlinejoin
0 setlinecap
0 0 m
-3.5 0 l

gsave
0.000 setgray
fill
grestore
stroke
grestore
} bind def
45 261.139 o
grestore
gsave
31.640625 257.342476 translate
0.000000 rotate
0.000000 0.000000 m /four glyphshow
grestore
gsave
/o {
gsave
newpath
translate
0.8 setlinewidth
1 setlinejoin
0 setlinecap
0 0 m
-3.5 0 l

gsave
0.000 setgray
fill
grestore
stroke
grestore
} bind def
45 302.609 o
grestore
gsave
31.640625 298.812152 translate
0.000000 rotate
0.000000 0.000000 m /six glyphshow
grestore
1.500 setlinewidth
gsave
279 277.2 45 39.6 clipbox
130.526071 168.87117 m
130.54332 170.583121 l
130.642195 175.66104 l
130.831248 180.602784 l
130.835303 180.73896 l
131.241167 185.816879 l
132.058285 190.894799 l
133.781617 195.972718 l
135.942558 199.064332 l
138.207056 201.050638 l
141.053867 202.734821 l
146.165177 204.973743 l
148.464271 206.128557 l
151.276487 208.052404 l
153.995614 211.206477 l
155.711264 216.284396 l
155.861901 221.362316 l
154.57233 226.440235 l
151.276487 230.685208 l
150.01969 231.518154 l
146.165177 233.17549 l
141.053867 234.195506 l
135.942558 234.704659 l
130.831248 235.008927 l
125.719938 235.254812 l
120.608629 235.530253 l
115.497319 235.884783 l
110.386009 236.29867 l
105.2747 236.594904 l
100.16339 235.822003 l
97.74558 231.518154 l
97.835847 226.440235 l
98.307249 221.362316 l
98.724252 216.284396 l
99.006665 211.206477 l
99.175623 206.128557 l
99.270297 201.050638 l
99.321524 195.972718 l
99.348734 190.894799 l
99.363047 185.816879 l
99.370538 180.73896 l
99.374448 175.66104 l
99.376487 170.583121 l
99.377551 165.505201 l
99.378113 160.427282 l
99.37843 155.349362 l
99.378623 150.271443 l
99.378691 145.193523 l
99.378701 140.115604 l
99.378707 135.037684 l
99.378726 129.959765 l
99.378795 124.881846 l
99.379052 119.803926 l
99.380001 114.726007 l
99.383504 109.648087 l
99.396453 104.570168 l
99.444458 99.492248 l
99.624466 94.414329 l
100.16339 90.167639 l
100.328187 89.336409 l
103.605106 84.25849 l
105.2747 83.331634 l
110.386009 82.073613 l
115.497319 81.810726 l
120.608629 82.238521 l
125.719938 83.881937 l
126.314429 84.25849 l
129.514589 89.336409 l
130.198567 94.414329 l
130.373377 99.492248 l
130.420006 104.570168 l
130.432584 109.648087 l
130.435987 114.726007 l
130.436909 119.803926 l
130.437158 124.881846 l
130.437226 129.959765 l
130.437233 131.671444 l
stroke
grestore
gsave
279 277.2 45 39.6 clipbox
293.593613 253.828861 m
291.961745 256.907752 l
289.281849 259.108273 l
284.170539 261.064784 l
279.05923 261.925791 l
278.25767 261.985671 l
273.94792 262.341963 l
268.83661 262.551505 l
263.7253 262.660428 l
258.613991 262.716296 l
253.502681 262.732261 l
248.391371 262.707368 l
243.280062 262.641854 l
238.168752 262.516169 l
233.057442 262.272791 l
230.130568 261.985671 l
227.946133 261.786148 l
222.834823 260.762732 l
217.723513 258.361502 l
216.151143 256.907752 l
213.632442 251.829832 l
213.118058 246.751913 l
214.016819 241.673993 l
217.315552 236.596074 l
217.723513 236.258443 l
222.834823 233.875958 l
227.946133 232.865352 l
233.057442 232.38885 l
238.168752 232.151767 l
243.280062 232.029495 l
248.391371 231.965805 l
253.502681 231.941611 l
258.613991 231.957115 l
263.7253 232.011378 l
268.83661 232.117155 l
273.023813 232.283806 l
stroke
grestore
0.800 setlinewidth
0 setlinejoin
2 setlinecap
[] 0 setdash
gsave
45 39.6 m
45 316.8 l
stroke
grestore
gsave
324 39.6 m
324 316.8 l
stroke
grestore
gsave
45 39.6 m
324 39.6 l
stroke
grestore
gsave
45 316.8 m
324 316.8 l
stroke
grestore
gsave
133.173115 135.954032 translate
89.897497 rotate
0.000000 0.000000 m /zero glyphshow
6.362305 0.000000 m /period glyphshow
9.541016 0.000000 m /zero glyphshow
15.903320 0.000000 m /zero glyphshow
22.265625 0.000000 m /zero glyphshow
grestore
gsave
282.605693 224.562623 translate
44.740819 rotate
0.000000 0.000000 m /zero glyphshow
6.362305 0.000000 m /period glyphshow
9.541016 0.000000 m /zero glyphshow
15.903320 0.000000 m /zero glyphshow
22.265625 0.000000 m /zero glyphshow
grestore
1.000 setlinewidth
0 setlinecap
0.800 setgray
gsave
239.90625 44.6 m
317 44.6 l
318.333333 44.6 319 45.266667 319 46.6 c
319 74.94375 l
319 76.277083 318.333333 76.94375 317 76.94375 c
239.90625 76.94375 l
238.572917 76.94375 237.90625 76.277083 237.90625 74.94375 c
237.90625 46.6 l
237.90625 45.266667 238.572917 44.6 239.90625 44.6 c
cl
gsave
1.000 setgray
fill
grestore
stroke
grestore
1 setlinejoin
[] 0 setdash
1.000 0.000 0.000 setrgbcolor
gsave
/o {
gsave
newpath
translate
1.0 setlinewidth
1 setlinejoin
0 setlinecap
0 -2.236068 m
0.593012 -2.236068 1.161816 -2.000462 1.581139 -1.581139 c
2.000462 -1.161816 2.236068 -0.593012 2.236068 0 c
2.236068 0.593012 2.000462 1.161816 1.581139 1.581139 c
1.161816 2.000462 0.593012 2.236068 0 2.236068 c
-0.593012 2.236068 -1.161816 2.000462 -1.581139 1.581139 c
-2.000462 1.161816 -2.236068 0.593012 -2.236068 0 c
-2.236068 -0.593012 -2.000462 -1.161816 -1.581139 -1.581139 c
-1.161816 -2.000462 -0.593012 -2.236068 0 -2.236068 c
cl

gsave
1.000 0.000 0.000 setrgbcolor
fill
grestore
stroke
grestore
} bind def
251.906 67.975 o
grestore
0.000 setgray
gsave
269.906250 65.350000 translate
0.000000 rotate
0.000000 0.000000 m /o glyphshow
6.118164 0.000000 m /c glyphshow
11.616211 0.000000 m /c glyphshow
17.114258 0.000000 m /u glyphshow
23.452148 0.000000 m /p glyphshow
29.799805 0.000000 m /i glyphshow
32.578125 0.000000 m /e glyphshow
38.730469 0.000000 m /d glyphshow
grestore
0.000 0.502 0.000 setrgbcolor
gsave
/o {
gsave
newpath
translate
1.0 setlinewidth
1 setlinejoin
0 setlinecap
0 -2.236068 m
0.593012 -2.236068 1.161816 -2.000462 1.581139 -1.581139 c
2.000462 -1.161816 2.236068 -0.593012 2.236068 0 c
2.236068 0.593012 2.000462 1.161816 1.581139 1.581139 c
1.161816 2.000462 0.593012 2.236068 0 2.236068 c
-0.593012 2.236068 -1.161816 2.000462 -1.581139 1.581139 c
-2.000462 1.161816 -2.236068 0.593012 -2.236068 0 c
-2.236068 -0.593012 -2.000462 -1.161816 -1.581139 -1.581139 c
-1.161816 -2.000462 -0.593012 -2.236068 0 -2.236068 c
cl

gsave
0.000 0.502 0.000 setrgbcolor
fill
grestore
stroke
grestore
} bind def
251.906 53.3031 o
grestore
0.000 setgray
gsave
269.906250 50.678125 translate
0.000000 rotate
0.000000 0.000000 m /f glyphshow
3.520508 0.000000 m /r glyphshow
7.631836 0.000000 m /e glyphshow
13.784180 0.000000 m /e glyphshow
grestore

end
showpage
