%!PS-Adobe-3.0 EPSF-3.0
%%Title: /home/thaiduong/repo/papers/CoRL2019/fig/lidar_cspace_example.eps
%%Creator: matplotlib version 3.0.2, http://matplotlib.org/
%%CreationDate: Mon Jun 24 17:24:03 2019
%%Orientation: portrait
%%BoundingBox: 126 216 486 576
%%EndComments
%%BeginProlog
/mpldict 8 dict def
mpldict begin
/m { moveto } bind def
/l { lineto } bind def
/r { rlineto } bind def
/c { curveto } bind def
/cl { closepath } bind def
/box {
m
1 index 0 r
0 exch r
neg 0 r
cl
} bind def
/clipbox {
box
clip
newpath
} bind def
%!PS-Adobe-3.0 Resource-Font
%%Title: DejaVu Sans
%%Copyright: Copyright (c) 2003 by Bitstream, Inc. All Rights Reserved. Copyright (c) 2006 by Tavmjong Bah. All Rights Reserved. DejaVu changes are in public domain 
%%Creator: Converted from TrueType to type 3 by PPR
25 dict begin
/_d{bind def}bind def
/_m{moveto}_d
/_l{lineto}_d
/_cl{closepath eofill}_d
/_c{curveto}_d
/_sc{7 -1 roll{setcachedevice}{pop pop pop pop pop pop}ifelse}_d
/_e{exec}_d
/FontName /DejaVuSans def
/PaintType 0 def
/FontMatrix[.001 0 0 .001 0 0]def
/FontBBox[-1021 -463 1793 1232]def
/FontType 3 def
/Encoding [ /space /period /zero /one /two /five /seven /a /b /c /e /l /n /o /r /s /t /minus ] def
/FontInfo 10 dict dup begin
/FamilyName (DejaVu Sans) def
/FullName (DejaVu Sans) def
/Notice (Copyright (c) 2003 by Bitstream, Inc. All Rights Reserved. Copyright (c) 2006 by Tavmjong Bah. All Rights Reserved. DejaVu changes are in public domain ) def
/Weight (Book) def
/Version (Version 2.35) def
/ItalicAngle 0.0 def
/isFixedPitch false def
/UnderlinePosition -130 def
/UnderlineThickness 90 def
end readonly def
/CharStrings 19 dict dup begin
/.notdef 0 def
/space{318 0 0 0 0 0 _sc
}_d
/period{318 0 107 0 210 124 _sc
107 124 _m
210 124 _l
210 0 _l
107 0 _l
107 124 _l
_cl}_d
/zero{636 0 66 -13 570 742 _sc
318 664 _m
267 664 229 639 203 589 _c
177 539 165 464 165 364 _c
165 264 177 189 203 139 _c
229 89 267 64 318 64 _c
369 64 407 89 433 139 _c
458 189 471 264 471 364 _c
471 464 458 539 433 589 _c
407 639 369 664 318 664 _c
318 742 _m
399 742 461 709 505 645 _c
548 580 570 486 570 364 _c
570 241 548 147 505 83 _c
461 19 399 -13 318 -13 _c
236 -13 173 19 130 83 _c
87 147 66 241 66 364 _c
66 486 87 580 130 645 _c
173 709 236 742 318 742 _c
_cl}_d
/one{636 0 110 0 544 729 _sc
124 83 _m
285 83 _l
285 639 _l
110 604 _l
110 694 _l
284 729 _l
383 729 _l
383 83 _l
544 83 _l
544 0 _l
124 0 _l
124 83 _l
_cl}_d
/two{{636 0 73 0 536 742 _sc
192 83 _m
536 83 _l
536 0 _l
73 0 _l
73 83 _l
110 121 161 173 226 239 _c
290 304 331 346 348 365 _c
380 400 402 430 414 455 _c
426 479 433 504 433 528 _c
433 566 419 598 392 622 _c
365 646 330 659 286 659 _c
255 659 222 653 188 643 _c
154 632 117 616 78 594 _c
78 694 _l
118 710 155 722 189 730 _c
223 738 255 742 284 742 _c
}_e{359 742 419 723 464 685 _c
509 647 532 597 532 534 _c
532 504 526 475 515 449 _c
504 422 484 390 454 354 _c
446 344 420 317 376 272 _c
332 227 271 164 192 83 _c
_cl}_e}_d
/five{{636 0 77 -13 549 729 _sc
108 729 _m
495 729 _l
495 646 _l
198 646 _l
198 467 _l
212 472 227 476 241 478 _c
255 480 270 482 284 482 _c
365 482 429 459 477 415 _c
525 370 549 310 549 234 _c
549 155 524 94 475 51 _c
426 8 357 -13 269 -13 _c
238 -13 207 -10 175 -6 _c
143 -1 111 6 77 17 _c
77 116 _l
106 100 136 88 168 80 _c
199 72 232 69 267 69 _c
}_e{323 69 368 83 401 113 _c
433 143 450 183 450 234 _c
450 284 433 324 401 354 _c
368 384 323 399 267 399 _c
241 399 214 396 188 390 _c
162 384 135 375 108 363 _c
108 729 _l
_cl}_e}_d
/seven{636 0 82 0 551 729 _sc
82 729 _m
551 729 _l
551 687 _l
286 0 _l
183 0 _l
432 646 _l
82 646 _l
82 729 _l
_cl}_d
/a{{613 0 60 -13 522 560 _sc
343 275 _m
270 275 220 266 192 250 _c
164 233 150 205 150 165 _c
150 133 160 107 181 89 _c
202 70 231 61 267 61 _c
317 61 357 78 387 114 _c
417 149 432 196 432 255 _c
432 275 _l
343 275 _l
522 312 _m
522 0 _l
432 0 _l
432 83 _l
411 49 385 25 355 10 _c
325 -5 287 -13 243 -13 _c
187 -13 142 2 109 33 _c
76 64 60 106 60 159 _c
}_e{60 220 80 266 122 298 _c
163 329 224 345 306 345 _c
432 345 _l
432 354 _l
432 395 418 427 391 450 _c
364 472 326 484 277 484 _c
245 484 215 480 185 472 _c
155 464 127 453 100 439 _c
100 522 _l
132 534 164 544 195 550 _c
226 556 256 560 286 560 _c
365 560 424 539 463 498 _c
502 457 522 395 522 312 _c
_cl}_e}_d
/b{{635 0 91 -13 580 760 _sc
487 273 _m
487 339 473 390 446 428 _c
418 466 381 485 334 485 _c
286 485 249 466 222 428 _c
194 390 181 339 181 273 _c
181 207 194 155 222 117 _c
249 79 286 61 334 61 _c
381 61 418 79 446 117 _c
473 155 487 207 487 273 _c
181 464 _m
199 496 223 520 252 536 _c
281 552 316 560 356 560 _c
422 560 476 533 518 481 _c
559 428 580 359 580 273 _c
}_e{580 187 559 117 518 65 _c
476 13 422 -13 356 -13 _c
316 -13 281 -5 252 10 _c
223 25 199 49 181 82 _c
181 0 _l
91 0 _l
91 760 _l
181 760 _l
181 464 _l
_cl}_e}_d
/c{{550 0 55 -13 488 560 _sc
488 526 _m
488 442 _l
462 456 437 466 411 473 _c
385 480 360 484 334 484 _c
276 484 230 465 198 428 _c
166 391 150 339 150 273 _c
150 206 166 154 198 117 _c
230 80 276 62 334 62 _c
360 62 385 65 411 72 _c
437 79 462 90 488 104 _c
488 21 _l
462 9 436 0 410 -5 _c
383 -10 354 -13 324 -13 _c
242 -13 176 12 128 64 _c
}_e{79 115 55 185 55 273 _c
55 362 79 432 128 483 _c
177 534 244 560 330 560 _c
358 560 385 557 411 551 _c
437 545 463 537 488 526 _c
_cl}_e}_d
/e{{615 0 55 -13 562 560 _sc
562 296 _m
562 252 _l
149 252 _l
153 190 171 142 205 110 _c
238 78 284 62 344 62 _c
378 62 412 66 444 74 _c
476 82 509 95 541 113 _c
541 28 _l
509 14 476 3 442 -3 _c
408 -9 373 -13 339 -13 _c
251 -13 182 12 131 62 _c
80 112 55 181 55 268 _c
55 357 79 428 127 481 _c
175 533 241 560 323 560 _c
397 560 455 536 498 489 _c
}_e{540 441 562 377 562 296 _c
472 322 _m
471 371 457 410 431 440 _c
404 469 368 484 324 484 _c
274 484 234 469 204 441 _c
174 413 156 373 152 322 _c
472 322 _l
_cl}_e}_d
/l{278 0 94 0 184 760 _sc
94 760 _m
184 760 _l
184 0 _l
94 0 _l
94 760 _l
_cl}_d
/n{634 0 91 0 549 560 _sc
549 330 _m
549 0 _l
459 0 _l
459 327 _l
459 379 448 417 428 443 _c
408 469 378 482 338 482 _c
289 482 251 466 223 435 _c
195 404 181 362 181 309 _c
181 0 _l
91 0 _l
91 547 _l
181 547 _l
181 462 _l
202 494 227 519 257 535 _c
286 551 320 560 358 560 _c
420 560 468 540 500 501 _c
532 462 549 405 549 330 _c
_cl}_d
/o{612 0 55 -13 557 560 _sc
306 484 _m
258 484 220 465 192 427 _c
164 389 150 338 150 273 _c
150 207 163 156 191 118 _c
219 80 257 62 306 62 _c
354 62 392 80 420 118 _c
448 156 462 207 462 273 _c
462 337 448 389 420 427 _c
392 465 354 484 306 484 _c
306 560 _m
384 560 445 534 490 484 _c
534 433 557 363 557 273 _c
557 183 534 113 490 63 _c
445 12 384 -13 306 -13 _c
227 -13 165 12 121 63 _c
77 113 55 183 55 273 _c
55 363 77 433 121 484 _c
165 534 227 560 306 560 _c
_cl}_d
/r{411 0 91 0 411 560 _sc
411 463 _m
401 469 390 473 378 476 _c
366 478 353 480 339 480 _c
288 480 249 463 222 430 _c
194 397 181 350 181 288 _c
181 0 _l
91 0 _l
91 547 _l
181 547 _l
181 462 _l
199 495 224 520 254 536 _c
284 552 321 560 365 560 _c
371 560 378 559 386 559 _c
393 558 401 557 411 555 _c
411 463 _l
_cl}_d
/s{{521 0 54 -13 472 560 _sc
443 531 _m
443 446 _l
417 458 391 468 364 475 _c
336 481 308 485 279 485 _c
234 485 200 478 178 464 _c
156 450 145 430 145 403 _c
145 382 153 366 169 354 _c
185 342 217 330 265 320 _c
296 313 _l
360 299 405 279 432 255 _c
458 230 472 195 472 151 _c
472 100 452 60 412 31 _c
372 1 316 -13 246 -13 _c
216 -13 186 -10 154 -5 _c
}_e{122 0 89 8 54 20 _c
54 113 _l
87 95 120 82 152 74 _c
184 65 216 61 248 61 _c
290 61 323 68 346 82 _c
368 96 380 117 380 144 _c
380 168 371 187 355 200 _c
339 213 303 226 247 238 _c
216 245 _l
160 257 119 275 95 299 _c
70 323 58 356 58 399 _c
58 450 76 490 112 518 _c
148 546 200 560 268 560 _c
301 560 332 557 362 552 _c
391 547 418 540 443 531 _c
}_e{_cl}_e}_d
/t{392 0 27 0 368 702 _sc
183 702 _m
183 547 _l
368 547 _l
368 477 _l
183 477 _l
183 180 _l
183 135 189 106 201 94 _c
213 81 238 75 276 75 _c
368 75 _l
368 0 _l
276 0 _l
206 0 158 13 132 39 _c
106 65 93 112 93 180 _c
93 477 _l
27 477 _l
27 547 _l
93 547 _l
93 702 _l
183 702 _l
_cl}_d
/minus{838 0 106 272 732 355 _sc
106 355 _m
732 355 _l
732 272 _l
106 272 _l
106 355 _l
_cl}_d
end readonly def

/BuildGlyph
 {exch begin
 CharStrings exch
 2 copy known not{pop /.notdef}if
 true 3 1 roll get exec
 end}_d

/BuildChar {
 1 index /Encoding get exch get
 1 index /BuildGlyph get exec
}_d

FontName currentdict end definefont pop
end
%%EndProlog
mpldict begin
126 216 translate
360 360 0 0 clipbox
gsave
0 0 m
360 0 l
360 360 l
0 360 l
cl
1.000 setgray
fill
grestore
gsave
45 39.6 m
324 39.6 l
324 316.8 l
45 316.8 l
cl
1.000 setgray
fill
grestore
1.000 setlinewidth
1 setlinejoin
0 setlinecap
[] 0 setdash
0.000 0.000 1.000 setrgbcolor
gsave
279 277.2 45 39.6 clipbox
/o {
gsave
newpath
translate
1.0 setlinewidth
1 setlinejoin
0 setlinecap
0 5.477226 m
-5.477226 -5.477226 l
5.477226 -5.477226 l
cl

gsave
0.000 0.000 1.000 setrgbcolor
fill
grestore
stroke
grestore
} bind def
240.3 125.532 o
grestore
0 setlinejoin
[] 0 setdash
1.000 0.506 0.753 setrgbcolor
gsave
279 277.2 45 39.6 clipbox
103.04504 113.94502 m
107.114581 113.94502 111.017993 115.551434 113.895593 118.41047 c
116.773194 121.269505 118.39004 125.147733 118.39004 129.19102 c
118.39004 133.234306 116.773194 137.112534 113.895593 139.97157 c
111.017993 142.830605 107.114581 144.43702 103.04504 144.43702 c
98.975498 144.43702 95.072086 142.830605 92.194486 139.97157 c
89.316886 137.112534 87.70004 133.234306 87.70004 129.19102 c
87.70004 125.147733 89.316886 121.269505 92.194486 118.41047 c
95.072086 115.551434 98.975498 113.94502 103.04504 113.94502 c
cl
gsave
fill
grestore
stroke
grestore
gsave
279 277.2 45 39.6 clipbox
103.13594 132.771844 m
107.205482 132.771844 111.108894 134.378259 113.986494 137.237294 c
116.864094 140.096329 118.48094 143.974557 118.48094 148.017844 c
118.48094 152.06113 116.864094 155.939359 113.986494 158.798394 c
111.108894 161.657429 107.205482 163.263844 103.13594 163.263844 c
99.066399 163.263844 95.162987 161.657429 92.285387 158.798394 c
89.407786 155.939359 87.79094 152.06113 87.79094 148.017844 c
87.79094 143.974557 89.407786 140.096329 92.285387 137.237294 c
95.162987 134.378259 99.066399 132.771844 103.13594 132.771844 c
cl
gsave
fill
grestore
stroke
grestore
gsave
279 277.2 45 39.6 clipbox
103.8818 152.338935 m
107.951342 152.338935 111.854753 153.94535 114.732354 156.804385 c
117.609954 159.66342 119.2268 163.541649 119.2268 167.584935 c
119.2268 171.628221 117.609954 175.50645 114.732354 178.365485 c
111.854753 181.22452 107.951342 182.830935 103.8818 182.830935 c
99.812259 182.830935 95.908847 181.22452 93.031247 178.365485 c
90.153646 175.50645 88.5368 171.628221 88.5368 167.584935 c
88.5368 163.541649 90.153646 159.66342 93.031247 156.804385 c
95.908847 153.94535 99.812259 152.338935 103.8818 152.338935 c
cl
gsave
fill
grestore
stroke
grestore
gsave
279 277.2 45 39.6 clipbox
102.497668 174.587126 m
106.56721 174.587126 110.470622 176.193541 113.348222 179.052576 c
116.225822 181.911611 117.842668 185.789839 117.842668 189.833126 c
117.842668 193.876412 116.225822 197.754641 113.348222 200.613676 c
110.470622 203.472711 106.56721 205.079126 102.497668 205.079126 c
98.428127 205.079126 94.524715 203.472711 91.647115 200.613676 c
88.769515 197.754641 87.152668 193.876412 87.152668 189.833126 c
87.152668 185.789839 88.769515 181.911611 91.647115 179.052576 c
94.524715 176.193541 98.428127 174.587126 102.497668 174.587126 c
cl
gsave
fill
grestore
stroke
grestore
gsave
279 277.2 45 39.6 clipbox
103.092744 199.118614 m
107.162286 199.118614 111.065697 200.725029 113.943298 203.584064 c
116.820898 206.4431 118.437744 210.321328 118.437744 214.364614 c
118.437744 218.407901 116.820898 222.286129 113.943298 225.145164 c
111.065697 228.0042 107.162286 229.610614 103.092744 229.610614 c
99.023203 229.610614 95.119791 228.0042 92.242191 225.145164 c
89.36459 222.286129 87.747744 218.407901 87.747744 214.364614 c
87.747744 210.321328 89.36459 206.4431 92.242191 203.584064 c
95.119791 200.725029 99.023203 199.118614 103.092744 199.118614 c
cl
gsave
fill
grestore
stroke
grestore
gsave
279 277.2 45 39.6 clipbox
133.019293 202.480955 m
137.088834 202.480955 140.992246 204.08737 143.869846 206.946405 c
146.747447 209.80544 148.364293 213.683669 148.364293 217.726955 c
148.364293 221.770241 146.747447 225.64847 143.869846 228.507505 c
140.992246 231.36654 137.088834 232.972955 133.019293 232.972955 c
128.949751 232.972955 125.04634 231.36654 122.168739 228.507505 c
119.291139 225.64847 117.674293 221.770241 117.674293 217.726955 c
117.674293 213.683669 119.291139 209.80544 122.168739 206.946405 c
125.04634 204.08737 128.949751 202.480955 133.019293 202.480955 c
cl
gsave
fill
grestore
stroke
grestore
gsave
279 277.2 45 39.6 clipbox
222.265014 216.936562 m
226.334555 216.936562 230.237967 218.542977 233.115567 221.402012 c
235.993168 224.261047 237.610014 228.139275 237.610014 232.182562 c
237.610014 236.225848 235.993168 240.104077 233.115567 242.963112 c
230.237967 245.822147 226.334555 247.428562 222.265014 247.428562 c
218.195472 247.428562 214.29206 245.822147 211.41446 242.963112 c
208.53686 240.104077 206.920014 236.225848 206.920014 232.182562 c
206.920014 228.139275 208.53686 224.261047 211.41446 221.402012 c
214.29206 218.542977 218.195472 216.936562 222.265014 216.936562 c
cl
gsave
fill
grestore
stroke
grestore
gsave
279 277.2 45 39.6 clipbox
237.415169 216.970479 m
241.484711 216.970479 245.388123 218.576894 248.265723 221.435929 c
251.143323 224.294964 252.760169 228.173193 252.760169 232.216479 c
252.760169 236.259766 251.143323 240.137994 248.265723 242.997029 c
245.388123 245.856064 241.484711 247.462479 237.415169 247.462479 c
233.345628 247.462479 229.442216 245.856064 226.564616 242.997029 c
223.687015 240.137994 222.070169 236.259766 222.070169 232.216479 c
222.070169 228.173193 223.687015 224.294964 226.564616 221.435929 c
229.442216 218.576894 233.345628 216.970479 237.415169 216.970479 c
cl
gsave
fill
grestore
stroke
grestore
gsave
279 277.2 45 39.6 clipbox
252.39327 216.346761 m
256.462811 216.346761 260.366223 217.953176 263.243823 220.812211 c
266.121424 223.671246 267.73827 227.549474 267.73827 231.592761 c
267.73827 235.636047 266.121424 239.514276 263.243823 242.373311 c
260.366223 245.232346 256.462811 246.838761 252.39327 246.838761 c
248.323728 246.838761 244.420317 245.232346 241.542716 242.373311 c
238.665116 239.514276 237.04827 235.636047 237.04827 231.592761 c
237.04827 227.549474 238.665116 223.671246 241.542716 220.812211 c
244.420317 217.953176 248.323728 216.346761 252.39327 216.346761 c
cl
gsave
fill
grestore
stroke
grestore
gsave
279 277.2 45 39.6 clipbox
267.827278 216.397652 m
271.89682 216.397652 275.800231 218.004066 278.677832 220.863102 c
281.555432 223.722137 283.172278 227.600365 283.172278 231.643652 c
283.172278 235.686938 281.555432 239.565166 278.677832 242.424202 c
275.800231 245.283237 271.89682 246.889652 267.827278 246.889652 c
263.757737 246.889652 259.854325 245.283237 256.976725 242.424202 c
254.099124 239.565166 252.482278 235.686938 252.482278 231.643652 c
252.482278 227.600365 254.099124 223.722137 256.976725 220.863102 c
259.854325 218.004066 263.757737 216.397652 267.827278 216.397652 c
cl
gsave
fill
grestore
stroke
grestore
0.800 setlinewidth
1 setlinejoin
[] 0 setdash
0.000 setgray
gsave
/o {
gsave
newpath
translate
0.8 setlinewidth
1 setlinejoin
0 setlinecap
0 0 m
0 -3.5 l

gsave
0.000 setgray
fill
grestore
stroke
grestore
} bind def
45 39.6 o
grestore
/DejaVuSans findfont
10.000 scalefont
setfont
gsave
29.679688 25.006250 translate
0.000000 rotate
0.000000 0.000000 m /minus glyphshow
8.378906 0.000000 m /one glyphshow
14.741211 0.000000 m /zero glyphshow
21.103516 0.000000 m /period glyphshow
24.282227 0.000000 m /zero glyphshow
grestore
gsave
/o {
gsave
newpath
translate
0.8 setlinewidth
1 setlinejoin
0 setlinecap
0 0 m
0 -3.5 l

gsave
0.000 setgray
fill
grestore
stroke
grestore
} bind def
79.875 39.6 o
grestore
gsave
67.734375 25.006250 translate
0.000000 rotate
0.000000 0.000000 m /minus glyphshow
8.378906 0.000000 m /seven glyphshow
14.741211 0.000000 m /period glyphshow
17.919922 0.000000 m /five glyphshow
grestore
gsave
/o {
gsave
newpath
translate
0.8 setlinewidth
1 setlinejoin
0 setlinecap
0 0 m
0 -3.5 l

gsave
0.000 setgray
fill
grestore
stroke
grestore
} bind def
114.75 39.6 o
grestore
gsave
102.609375 25.006250 translate
0.000000 rotate
0.000000 0.000000 m /minus glyphshow
8.378906 0.000000 m /five glyphshow
14.741211 0.000000 m /period glyphshow
17.919922 0.000000 m /zero glyphshow
grestore
gsave
/o {
gsave
newpath
translate
0.8 setlinewidth
1 setlinejoin
0 setlinecap
0 0 m
0 -3.5 l

gsave
0.000 setgray
fill
grestore
stroke
grestore
} bind def
149.625 39.6 o
grestore
gsave
137.484375 25.006250 translate
0.000000 rotate
0.000000 0.000000 m /minus glyphshow
8.378906 0.000000 m /two glyphshow
14.741211 0.000000 m /period glyphshow
17.919922 0.000000 m /five glyphshow
grestore
gsave
/o {
gsave
newpath
translate
0.8 setlinewidth
1 setlinejoin
0 setlinecap
0 0 m
0 -3.5 l

gsave
0.000 setgray
fill
grestore
stroke
grestore
} bind def
184.5 39.6 o
grestore
gsave
176.546875 25.006250 translate
0.000000 rotate
0.000000 0.000000 m /zero glyphshow
6.362305 0.000000 m /period glyphshow
9.541016 0.000000 m /zero glyphshow
grestore
gsave
/o {
gsave
newpath
translate
0.8 setlinewidth
1 setlinejoin
0 setlinecap
0 0 m
0 -3.5 l

gsave
0.000 setgray
fill
grestore
stroke
grestore
} bind def
219.375 39.6 o
grestore
gsave
211.421875 25.006250 translate
0.000000 rotate
0.000000 0.000000 m /two glyphshow
6.362305 0.000000 m /period glyphshow
9.541016 0.000000 m /five glyphshow
grestore
gsave
/o {
gsave
newpath
translate
0.8 setlinewidth
1 setlinejoin
0 setlinecap
0 0 m
0 -3.5 l

gsave
0.000 setgray
fill
grestore
stroke
grestore
} bind def
254.25 39.6 o
grestore
gsave
246.296875 25.006250 translate
0.000000 rotate
0.000000 0.000000 m /five glyphshow
6.362305 0.000000 m /period glyphshow
9.541016 0.000000 m /zero glyphshow
grestore
gsave
/o {
gsave
newpath
translate
0.8 setlinewidth
1 setlinejoin
0 setlinecap
0 0 m
0 -3.5 l

gsave
0.000 setgray
fill
grestore
stroke
grestore
} bind def
289.125 39.6 o
grestore
gsave
281.171875 25.006250 translate
0.000000 rotate
0.000000 0.000000 m /seven glyphshow
6.362305 0.000000 m /period glyphshow
9.541016 0.000000 m /five glyphshow
grestore
gsave
/o {
gsave
newpath
translate
0.8 setlinewidth
1 setlinejoin
0 setlinecap
0 0 m
0 -3.5 l

gsave
0.000 setgray
fill
grestore
stroke
grestore
} bind def
324 39.6 o
grestore
gsave
312.867188 25.006250 translate
0.000000 rotate
0.000000 0.000000 m /one glyphshow
6.362305 0.000000 m /zero glyphshow
12.724609 0.000000 m /period glyphshow
15.903320 0.000000 m /zero glyphshow
grestore
gsave
/o {
gsave
newpath
translate
0.8 setlinewidth
1 setlinejoin
0 setlinecap
0 0 m
-3.5 0 l

gsave
0.000 setgray
fill
grestore
stroke
grestore
} bind def
45 39.6 o
grestore
gsave
7.359375 35.803125 translate
0.000000 rotate
0.000000 0.000000 m /minus glyphshow
8.378906 0.000000 m /one glyphshow
14.741211 0.000000 m /zero glyphshow
21.103516 0.000000 m /period glyphshow
24.282227 0.000000 m /zero glyphshow
grestore
gsave
/o {
gsave
newpath
translate
0.8 setlinewidth
1 setlinejoin
0 setlinecap
0 0 m
-3.5 0 l

gsave
0.000 setgray
fill
grestore
stroke
grestore
} bind def
45 74.25 o
grestore
gsave
13.718750 70.453125 translate
0.000000 rotate
0.000000 0.000000 m /minus glyphshow
8.378906 0.000000 m /seven glyphshow
14.741211 0.000000 m /period glyphshow
17.919922 0.000000 m /five glyphshow
grestore
gsave
/o {
gsave
newpath
translate
0.8 setlinewidth
1 setlinejoin
0 setlinecap
0 0 m
-3.5 0 l

gsave
0.000 setgray
fill
grestore
stroke
grestore
} bind def
45 108.9 o
grestore
gsave
13.718750 105.103125 translate
0.000000 rotate
0.000000 0.000000 m /minus glyphshow
8.378906 0.000000 m /five glyphshow
14.741211 0.000000 m /period glyphshow
17.919922 0.000000 m /zero glyphshow
grestore
gsave
/o {
gsave
newpath
translate
0.8 setlinewidth
1 setlinejoin
0 setlinecap
0 0 m
-3.5 0 l

gsave
0.000 setgray
fill
grestore
stroke
grestore
} bind def
45 143.55 o
grestore
gsave
13.718750 139.753125 translate
0.000000 rotate
0.000000 0.000000 m /minus glyphshow
8.378906 0.000000 m /two glyphshow
14.741211 0.000000 m /period glyphshow
17.919922 0.000000 m /five glyphshow
grestore
gsave
/o {
gsave
newpath
translate
0.8 setlinewidth
1 setlinejoin
0 setlinecap
0 0 m
-3.5 0 l

gsave
0.000 setgray
fill
grestore
stroke
grestore
} bind def
45 178.2 o
grestore
gsave
22.093750 174.403125 translate
0.000000 rotate
0.000000 0.000000 m /zero glyphshow
6.362305 0.000000 m /period glyphshow
9.541016 0.000000 m /zero glyphshow
grestore
gsave
/o {
gsave
newpath
translate
0.8 setlinewidth
1 setlinejoin
0 setlinecap
0 0 m
-3.5 0 l

gsave
0.000 setgray
fill
grestore
stroke
grestore
} bind def
45 212.85 o
grestore
gsave
22.093750 209.053125 translate
0.000000 rotate
0.000000 0.000000 m /two glyphshow
6.362305 0.000000 m /period glyphshow
9.541016 0.000000 m /five glyphshow
grestore
gsave
/o {
gsave
newpath
translate
0.8 setlinewidth
1 setlinejoin
0 setlinecap
0 0 m
-3.5 0 l

gsave
0.000 setgray
fill
grestore
stroke
grestore
} bind def
45 247.5 o
grestore
gsave
22.093750 243.703125 translate
0.000000 rotate
0.000000 0.000000 m /five glyphshow
6.362305 0.000000 m /period glyphshow
9.541016 0.000000 m /zero glyphshow
grestore
gsave
/o {
gsave
newpath
translate
0.8 setlinewidth
1 setlinejoin
0 setlinecap
0 0 m
-3.5 0 l

gsave
0.000 setgray
fill
grestore
stroke
grestore
} bind def
45 282.15 o
grestore
gsave
22.093750 278.353125 translate
0.000000 rotate
0.000000 0.000000 m /seven glyphshow
6.362305 0.000000 m /period glyphshow
9.541016 0.000000 m /five glyphshow
grestore
gsave
/o {
gsave
newpath
translate
0.8 setlinewidth
1 setlinejoin
0 setlinecap
0 0 m
-3.5 0 l

gsave
0.000 setgray
fill
grestore
stroke
grestore
} bind def
45 316.8 o
grestore
gsave
15.734375 313.003125 translate
0.000000 rotate
0.000000 0.000000 m /one glyphshow
6.362305 0.000000 m /zero glyphshow
12.724609 0.000000 m /period glyphshow
15.903320 0.000000 m /zero glyphshow
grestore
1.500 setlinewidth
[1.5 2.475] 0 setdash
0.000 0.000 1.000 setrgbcolor
gsave
279 277.2 45 39.6 clipbox
240.3 122.76 m
238.62598 122.131522 l
236.951961 121.503043 l
235.277941 120.874565 l
233.603922 120.246087 l
231.929902 119.617609 l
230.255882 118.98913 l
228.581863 118.360652 l
226.907843 117.732174 l
225.233823 117.103696 l
223.559804 116.475217 l
221.885784 115.846739 l
220.211765 115.218261 l
218.537745 114.589782 l
216.863725 113.961304 l
215.189706 113.332826 l
213.515686 112.704348 l
211.841667 112.075869 l
210.167647 111.447391 l
208.493627 110.818913 l
206.819608 110.190435 l
205.145588 109.561956 l
203.471569 108.933478 l
201.797549 108.305 l
200.123529 107.676521 l
198.44951 107.048043 l
196.77549 106.419565 l
195.10147 105.791087 l
193.427451 105.162608 l
191.753431 104.53413 l
190.079412 103.905652 l
188.405392 103.277174 l
186.731372 102.648695 l
185.057353 102.020217 l
183.383333 101.391739 l
181.709314 100.76326 l
180.035294 100.134782 l
178.361274 99.506304 l
176.687255 98.877826 l
175.013235 98.249347 l
173.339215 97.620869 l
171.665196 96.992391 l
169.991176 96.363913 l
168.317157 95.735434 l
166.643137 95.106956 l
164.969117 94.478478 l
163.295098 93.849999 l
161.621078 93.221521 l
159.947059 92.593043 l
158.273039 91.964565 l
156.599019 91.336086 l
154.925 90.707608 l
153.25098 90.07913 l
151.57696 89.450652 l
149.902941 88.822173 l
148.228921 88.193695 l
146.554902 87.565217 l
144.880882 86.936738 l
143.206862 86.30826 l
141.532843 85.679782 l
139.858823 85.051304 l
138.184804 84.422825 l
136.510784 83.794347 l
134.836764 83.165869 l
133.162745 82.537391 l
131.488725 81.908912 l
129.814706 81.280434 l
128.140686 80.651956 l
126.466666 80.023477 l
124.792647 79.394999 l
123.118627 78.766521 l
121.444607 78.138043 l
119.770588 77.509564 l
118.096568 76.881086 l
116.422549 76.252608 l
114.748529 75.62413 l
113.074509 74.995651 l
111.40049 74.367173 l
109.72647 73.738695 l
108.052451 73.110216 l
106.378431 72.481738 l
104.704411 71.85326 l
103.030392 71.224782 l
101.356372 70.596303 l
99.682352 69.967825 l
98.008333 69.339347 l
96.334313 68.710869 l
94.660294 68.08239 l
92.986274 67.453912 l
91.312254 66.825434 l
89.638235 66.196955 l
87.964215 65.568477 l
86.290196 64.939999 l
84.616176 64.311521 l
82.942156 63.683042 l
81.268137 63.054564 l
79.594117 62.426086 l
77.920098 61.797608 l
76.246078 61.169129 l
74.572058 60.540651 l
stroke
grestore
gsave
279 277.2 45 39.6 clipbox
240.3 122.76 m
238.555621 122.363061 l
236.811241 121.966123 l
235.066862 121.569184 l
233.322482 121.172245 l
231.578103 120.775306 l
229.833723 120.378368 l
228.089344 119.981429 l
226.344964 119.58449 l
224.600585 119.187552 l
222.856205 118.790613 l
221.111826 118.393674 l
219.367446 117.996736 l
217.623067 117.599797 l
215.878687 117.202858 l
214.134308 116.805919 l
212.389929 116.408981 l
210.645549 116.012042 l
208.90117 115.615103 l
207.15679 115.218165 l
205.412411 114.821226 l
203.668031 114.424287 l
201.923652 114.027348 l
200.179272 113.63041 l
198.434893 113.233471 l
196.690513 112.836532 l
194.946134 112.439594 l
193.201754 112.042655 l
191.457375 111.645716 l
189.712996 111.248778 l
187.968616 110.851839 l
186.224237 110.4549 l
184.479857 110.057961 l
182.735478 109.661023 l
180.991098 109.264084 l
179.246719 108.867145 l
177.502339 108.470207 l
175.75796 108.073268 l
174.01358 107.676329 l
172.269201 107.27939 l
170.524821 106.882452 l
168.780442 106.485513 l
167.036062 106.088574 l
165.291683 105.691636 l
163.547304 105.294697 l
161.802924 104.897758 l
160.058545 104.50082 l
158.314165 104.103881 l
156.569786 103.706942 l
154.825406 103.310003 l
153.081027 102.913065 l
151.336647 102.516126 l
149.592268 102.119187 l
147.847888 101.722249 l
146.103509 101.32531 l
144.359129 100.928371 l
142.61475 100.531432 l
140.870371 100.134494 l
139.125991 99.737555 l
137.381612 99.340616 l
135.637232 98.943678 l
133.892853 98.546739 l
132.148473 98.1498 l
130.404094 97.752862 l
128.659714 97.355923 l
126.915335 96.958984 l
125.170955 96.562045 l
123.426576 96.165107 l
121.682196 95.768168 l
119.937817 95.371229 l
118.193437 94.974291 l
116.449058 94.577352 l
114.704679 94.180413 l
112.960299 93.783474 l
111.21592 93.386536 l
109.47154 92.989597 l
107.727161 92.592658 l
105.982781 92.19572 l
104.238402 91.798781 l
102.494022 91.401842 l
100.749643 91.004903 l
99.005263 90.607965 l
97.260884 90.211026 l
95.516504 89.814087 l
93.772125 89.417149 l
92.027746 89.02021 l
90.283366 88.623271 l
88.538987 88.226333 l
86.794607 87.829394 l
85.050228 87.432455 l
83.305848 87.035516 l
81.561469 86.638578 l
79.817089 86.241639 l
78.07271 85.8447 l
76.32833 85.447762 l
74.583951 85.050823 l
72.839571 84.653884 l
71.095192 84.256945 l
69.350812 83.860007 l
67.606433 83.463068 l
stroke
grestore
gsave
279 277.2 45 39.6 clipbox
240.3 122.76 m
238.517539 122.601946 l
236.735078 122.443892 l
234.952618 122.285838 l
233.170157 122.127784 l
231.387696 121.96973 l
229.605235 121.811676 l
227.822775 121.653622 l
226.040314 121.495568 l
224.257853 121.337513 l
222.475392 121.179459 l
220.692932 121.021405 l
218.910471 120.863351 l
217.12801 120.705297 l
215.345549 120.547243 l
213.563089 120.389189 l
211.780628 120.231135 l
209.998167 120.073081 l
208.215706 119.915027 l
206.433246 119.756973 l
204.650785 119.598919 l
202.868324 119.440865 l
201.085863 119.282811 l
199.303402 119.124757 l
197.520942 118.966703 l
195.738481 118.808649 l
193.95602 118.650594 l
192.173559 118.49254 l
190.391099 118.334486 l
188.608638 118.176432 l
186.826177 118.018378 l
185.043716 117.860324 l
183.261256 117.70227 l
181.478795 117.544216 l
179.696334 117.386162 l
177.913873 117.228108 l
176.131413 117.070054 l
174.348952 116.912 l
172.566491 116.753946 l
170.78403 116.595892 l
169.00157 116.437838 l
167.219109 116.279784 l
165.436648 116.121729 l
163.654187 115.963675 l
161.871727 115.805621 l
160.089266 115.647567 l
158.306805 115.489513 l
156.524344 115.331459 l
154.741883 115.173405 l
152.959423 115.015351 l
151.176962 114.857297 l
149.394501 114.699243 l
147.61204 114.541189 l
145.82958 114.383135 l
144.047119 114.225081 l
142.264658 114.067027 l
140.482197 113.908973 l
138.699737 113.750919 l
136.917276 113.592865 l
135.134815 113.43481 l
133.352354 113.276756 l
131.569894 113.118702 l
129.787433 112.960648 l
128.004972 112.802594 l
126.222511 112.64454 l
124.440051 112.486486 l
122.65759 112.328432 l
120.875129 112.170378 l
119.092668 112.012324 l
117.310207 111.85427 l
115.527747 111.696216 l
113.745286 111.538162 l
111.962825 111.380108 l
110.180364 111.222054 l
108.397904 111.064 l
106.615443 110.905946 l
104.832982 110.747891 l
103.050521 110.589837 l
101.268061 110.431783 l
99.4856 110.273729 l
97.703139 110.115675 l
95.920678 109.957621 l
94.138218 109.799567 l
92.355757 109.641513 l
90.573296 109.483459 l
88.790835 109.325405 l
87.008375 109.167351 l
85.225914 109.009297 l
83.443453 108.851243 l
81.660992 108.693189 l
79.878531 108.535135 l
78.096071 108.377081 l
76.31361 108.219026 l
74.531149 108.060972 l
72.748688 107.902918 l
70.966228 107.744864 l
69.183767 107.58681 l
67.401306 107.428756 l
65.618845 107.270702 l
63.836385 107.112648 l
stroke
grestore
gsave
279 277.2 45 39.6 clipbox
240.3 122.76 m
238.913586 122.82496 l
237.527173 122.88992 l
236.140759 122.954879 l
234.754345 123.019839 l
233.367931 123.084799 l
231.981518 123.149759 l
230.595104 123.214719 l
229.20869 123.279678 l
227.822276 123.344638 l
226.435863 123.409598 l
225.049449 123.474558 l
223.663035 123.539518 l
222.276621 123.604477 l
220.890208 123.669437 l
219.503794 123.734397 l
218.11738 123.799357 l
216.730966 123.864317 l
215.344553 123.929276 l
213.958139 123.994236 l
212.571725 124.059196 l
211.185311 124.124156 l
209.798898 124.189116 l
208.412484 124.254075 l
207.02607 124.319035 l
205.639656 124.383995 l
204.253243 124.448955 l
202.866829 124.513914 l
201.480415 124.578874 l
200.094001 124.643834 l
198.707588 124.708794 l
197.321174 124.773754 l
195.93476 124.838713 l
194.548347 124.903673 l
193.161933 124.968633 l
191.775519 125.033593 l
190.389105 125.098553 l
189.002692 125.163512 l
187.616278 125.228472 l
186.229864 125.293432 l
184.84345 125.358392 l
183.457037 125.423352 l
182.070623 125.488311 l
180.684209 125.553271 l
179.297795 125.618231 l
177.911382 125.683191 l
176.524968 125.748151 l
175.138554 125.81311 l
173.75214 125.87807 l
172.365727 125.94303 l
170.979313 126.00799 l
169.592899 126.07295 l
168.206485 126.137909 l
166.820072 126.202869 l
165.433658 126.267829 l
164.047244 126.332789 l
162.66083 126.397749 l
161.274417 126.462708 l
159.888003 126.527668 l
158.501589 126.592628 l
157.115175 126.657588 l
155.728762 126.722548 l
154.342348 126.787507 l
152.955934 126.852467 l
151.56952 126.917427 l
150.183107 126.982387 l
148.796693 127.047347 l
147.410279 127.112306 l
146.023866 127.177266 l
144.637452 127.242226 l
143.251038 127.307186 l
141.864624 127.372145 l
140.478211 127.437105 l
139.091797 127.502065 l
137.705383 127.567025 l
136.318969 127.631985 l
134.932556 127.696944 l
133.546142 127.761904 l
132.159728 127.826864 l
130.773314 127.891824 l
129.386901 127.956784 l
128.000487 128.021743 l
126.614073 128.086703 l
125.227659 128.151663 l
123.841246 128.216623 l
122.454832 128.281583 l
121.068418 128.346542 l
119.682004 128.411502 l
118.295591 128.476462 l
116.909177 128.541422 l
115.522763 128.606382 l
114.136349 128.671341 l
112.749936 128.736301 l
111.363522 128.801261 l
109.977108 128.866221 l
108.590694 128.931181 l
107.204281 128.99614 l
105.817867 129.0611 l
104.431453 129.12606 l
103.04504 129.19102 l
stroke
grestore
gsave
279 277.2 45 39.6 clipbox
240.3 122.76 m
238.914504 123.01513 l
237.529009 123.270259 l
236.143513 123.525389 l
234.758018 123.780519 l
233.372522 124.035649 l
231.987027 124.290778 l
230.601531 124.545908 l
229.216036 124.801038 l
227.83054 125.056168 l
226.445044 125.311297 l
225.059549 125.566427 l
223.674053 125.821557 l
222.288558 126.076687 l
220.903062 126.331816 l
219.517567 126.586946 l
218.132071 126.842076 l
216.746576 127.097206 l
215.36108 127.352335 l
213.975585 127.607465 l
212.590089 127.862595 l
211.204593 128.117724 l
209.819098 128.372854 l
208.433602 128.627984 l
207.048107 128.883114 l
205.662611 129.138243 l
204.277116 129.393373 l
202.89162 129.648503 l
201.506125 129.903633 l
200.120629 130.158762 l
198.735133 130.413892 l
197.349638 130.669022 l
195.964142 130.924152 l
194.578647 131.179281 l
193.193151 131.434411 l
191.807656 131.689541 l
190.42216 131.94467 l
189.036665 132.1998 l
187.651169 132.45493 l
186.265673 132.71006 l
184.880178 132.965189 l
183.494682 133.220319 l
182.109187 133.475449 l
180.723691 133.730579 l
179.338196 133.985708 l
177.9527 134.240838 l
176.567205 134.495968 l
175.181709 134.751098 l
173.796214 135.006227 l
172.410718 135.261357 l
171.025222 135.516487 l
169.639727 135.771617 l
168.254231 136.026746 l
166.868736 136.281876 l
165.48324 136.537006 l
164.097745 136.792135 l
162.712249 137.047265 l
161.326754 137.302395 l
159.941258 137.557525 l
158.555762 137.812654 l
157.170267 138.067784 l
155.784771 138.322914 l
154.399276 138.578044 l
153.01378 138.833173 l
151.628285 139.088303 l
150.242789 139.343433 l
148.857294 139.598563 l
147.471798 139.853692 l
146.086302 140.108822 l
144.700807 140.363952 l
143.315311 140.619081 l
141.929816 140.874211 l
140.54432 141.129341 l
139.158825 141.384471 l
137.773329 141.6396 l
136.387834 141.89473 l
135.002338 142.14986 l
133.616843 142.40499 l
132.231347 142.660119 l
130.845851 142.915249 l
129.460356 143.170379 l
128.07486 143.425509 l
126.689365 143.680638 l
125.303869 143.935768 l
123.918374 144.190898 l
122.532878 144.446028 l
121.147383 144.701157 l
119.761887 144.956287 l
118.376391 145.211417 l
116.990896 145.466546 l
115.6054 145.721676 l
114.219905 145.976806 l
112.834409 146.231936 l
111.448914 146.487065 l
110.063418 146.742195 l
108.677923 146.997325 l
107.292427 147.252455 l
105.906931 147.507584 l
104.521436 147.762714 l
103.13594 148.017844 l
stroke
grestore
gsave
279 277.2 45 39.6 clipbox
240.3 122.76 m
238.922038 123.212777 l
237.544077 123.665554 l
236.166115 124.118331 l
234.788154 124.571108 l
233.410192 125.023886 l
232.03223 125.476663 l
230.654269 125.92944 l
229.276307 126.382217 l
227.898345 126.834994 l
226.520384 127.287771 l
225.142422 127.740548 l
223.764461 128.193325 l
222.386499 128.646103 l
221.008537 129.09888 l
219.630576 129.551657 l
218.252614 130.004434 l
216.874653 130.457211 l
215.496691 130.909988 l
214.118729 131.362765 l
212.740768 131.815542 l
211.362806 132.26832 l
209.984844 132.721097 l
208.606883 133.173874 l
207.228921 133.626651 l
205.85096 134.079428 l
204.472998 134.532205 l
203.095036 134.984982 l
201.717075 135.437759 l
200.339113 135.890537 l
198.961152 136.343314 l
197.58319 136.796091 l
196.205228 137.248868 l
194.827267 137.701645 l
193.449305 138.154422 l
192.071344 138.607199 l
190.693382 139.059976 l
189.31542 139.512753 l
187.937459 139.965531 l
186.559497 140.418308 l
185.181535 140.871085 l
183.803574 141.323862 l
182.425612 141.776639 l
181.047651 142.229416 l
179.669689 142.682193 l
178.291727 143.13497 l
176.913766 143.587748 l
175.535804 144.040525 l
174.157843 144.493302 l
172.779881 144.946079 l
171.401919 145.398856 l
170.023958 145.851633 l
168.645996 146.30441 l
167.268034 146.757187 l
165.890073 147.209965 l
164.512111 147.662742 l
163.13415 148.115519 l
161.756188 148.568296 l
160.378226 149.021073 l
159.000265 149.47385 l
157.622303 149.926627 l
156.244342 150.379404 l
154.86638 150.832182 l
153.488418 151.284959 l
152.110457 151.737736 l
150.732495 152.190513 l
149.354533 152.64329 l
147.976572 153.096067 l
146.59861 153.548844 l
145.220649 154.001621 l
143.842687 154.454399 l
142.464725 154.907176 l
141.086764 155.359953 l
139.708802 155.81273 l
138.330841 156.265507 l
136.952879 156.718284 l
135.574917 157.171061 l
134.196956 157.623838 l
132.818994 158.076615 l
131.441033 158.529393 l
130.063071 158.98217 l
128.685109 159.434947 l
127.307148 159.887724 l
125.929186 160.340501 l
124.551224 160.793278 l
123.173263 161.246055 l
121.795301 161.698832 l
120.41734 162.15161 l
119.039378 162.604387 l
117.661416 163.057164 l
116.283455 163.509941 l
114.905493 163.962718 l
113.527532 164.415495 l
112.14957 164.868272 l
110.771608 165.321049 l
109.393647 165.773827 l
108.015685 166.226604 l
106.637723 166.679381 l
105.259762 167.132158 l
103.8818 167.584935 l
stroke
grestore
gsave
279 277.2 45 39.6 clipbox
240.3 122.76 m
238.908057 123.437506 l
237.516115 124.115013 l
236.124172 124.792519 l
234.732229 125.470025 l
233.340286 126.147532 l
231.948344 126.825038 l
230.556401 127.502544 l
229.164458 128.180051 l
227.772515 128.857557 l
226.380573 129.535063 l
224.98863 130.21257 l
223.596687 130.890076 l
222.204744 131.567582 l
220.812802 132.245089 l
219.420859 132.922595 l
218.028916 133.600101 l
216.636973 134.277607 l
215.245031 134.955114 l
213.853088 135.63262 l
212.461145 136.310126 l
211.069202 136.987633 l
209.67726 137.665139 l
208.285317 138.342645 l
206.893374 139.020152 l
205.501431 139.697658 l
204.109489 140.375164 l
202.717546 141.052671 l
201.325603 141.730177 l
199.93366 142.407683 l
198.541718 143.08519 l
197.149775 143.762696 l
195.757832 144.440202 l
194.365889 145.117709 l
192.973947 145.795215 l
191.582004 146.472721 l
190.190061 147.150228 l
188.798119 147.827734 l
187.406176 148.50524 l
186.014233 149.182747 l
184.62229 149.860253 l
183.230348 150.537759 l
181.838405 151.215266 l
180.446462 151.892772 l
179.054519 152.570278 l
177.662577 153.247784 l
176.270634 153.925291 l
174.878691 154.602797 l
173.486748 155.280303 l
172.094806 155.95781 l
170.702863 156.635316 l
169.31092 157.312822 l
167.918977 157.990329 l
166.527035 158.667835 l
165.135092 159.345341 l
163.743149 160.022848 l
162.351206 160.700354 l
160.959264 161.37786 l
159.567321 162.055367 l
158.175378 162.732873 l
156.783435 163.410379 l
155.391493 164.087886 l
153.99955 164.765392 l
152.607607 165.442898 l
151.215664 166.120405 l
149.823722 166.797911 l
148.431779 167.475417 l
147.039836 168.152924 l
145.647894 168.83043 l
144.255951 169.507936 l
142.864008 170.185443 l
141.472065 170.862949 l
140.080123 171.540455 l
138.68818 172.217961 l
137.296237 172.895468 l
135.904294 173.572974 l
134.512352 174.25048 l
133.120409 174.927987 l
131.728466 175.605493 l
130.336523 176.282999 l
128.944581 176.960506 l
127.552638 177.638012 l
126.160695 178.315518 l
124.768752 178.993025 l
123.37681 179.670531 l
121.984867 180.348037 l
120.592924 181.025544 l
119.200981 181.70305 l
117.809039 182.380556 l
116.417096 183.058063 l
115.025153 183.735569 l
113.63321 184.413075 l
112.241268 185.090582 l
110.849325 185.768088 l
109.457382 186.445594 l
108.065439 187.123101 l
106.673497 187.800607 l
105.281554 188.478113 l
103.889611 189.15562 l
102.497668 189.833126 l
stroke
grestore
gsave
279 277.2 45 39.6 clipbox
240.3 122.76 m
238.914068 123.685299 l
237.528136 124.610598 l
236.142204 125.535897 l
234.756272 126.461197 l
233.370341 127.386496 l
231.984409 128.311795 l
230.598477 129.237094 l
229.212545 130.162393 l
227.826613 131.087692 l
226.440681 132.012991 l
225.054749 132.93829 l
223.668817 133.86359 l
222.282886 134.788889 l
220.896954 135.714188 l
219.511022 136.639487 l
218.12509 137.564786 l
216.739158 138.490085 l
215.353226 139.415384 l
213.967294 140.340684 l
212.581362 141.265983 l
211.195431 142.191282 l
209.809499 143.116581 l
208.423567 144.04188 l
207.037635 144.967179 l
205.651703 145.892478 l
204.265771 146.817778 l
202.879839 147.743077 l
201.493907 148.668376 l
200.107976 149.593675 l
198.722044 150.518974 l
197.336112 151.444273 l
195.95018 152.369572 l
194.564248 153.294871 l
193.178316 154.220171 l
191.792384 155.14547 l
190.406452 156.070769 l
189.020521 156.996068 l
187.634589 157.921367 l
186.248657 158.846666 l
184.862725 159.771965 l
183.476793 160.697265 l
182.090861 161.622564 l
180.704929 162.547863 l
179.318997 163.473162 l
177.933066 164.398461 l
176.547134 165.32376 l
175.161202 166.249059 l
173.77527 167.174359 l
172.389338 168.099658 l
171.003406 169.024957 l
169.617474 169.950256 l
168.231542 170.875555 l
166.845611 171.800854 l
165.459679 172.726153 l
164.073747 173.651452 l
162.687815 174.576752 l
161.301883 175.502051 l
159.915951 176.42735 l
158.530019 177.352649 l
157.144087 178.277948 l
155.758156 179.203247 l
154.372224 180.128546 l
152.986292 181.053846 l
151.60036 181.979145 l
150.214428 182.904444 l
148.828496 183.829743 l
147.442564 184.755042 l
146.056632 185.680341 l
144.6707 186.60564 l
143.284769 187.53094 l
141.898837 188.456239 l
140.512905 189.381538 l
139.126973 190.306837 l
137.741041 191.232136 l
136.355109 192.157435 l
134.969177 193.082734 l
133.583245 194.008033 l
132.197314 194.933333 l
130.811382 195.858632 l
129.42545 196.783931 l
128.039518 197.70923 l
126.653586 198.634529 l
125.267654 199.559828 l
123.881722 200.485127 l
122.49579 201.410427 l
121.109859 202.335726 l
119.723927 203.261025 l
118.337995 204.186324 l
116.952063 205.111623 l
115.566131 206.036922 l
114.180199 206.962221 l
112.794267 207.88752 l
111.408335 208.81282 l
110.022404 209.738119 l
108.636472 210.663418 l
107.25054 211.588717 l
105.864608 212.514016 l
104.478676 213.439315 l
103.092744 214.364614 l
stroke
grestore
gsave
279 277.2 45 39.6 clipbox
240.3 122.76 m
239.216356 123.719262 l
238.132713 124.678524 l
237.049069 125.637787 l
235.965426 126.597049 l
234.881782 127.556311 l
233.798139 128.515573 l
232.714495 129.474835 l
231.630852 130.434097 l
230.547208 131.39336 l
229.463565 132.352622 l
228.379921 133.311884 l
227.296278 134.271146 l
226.212634 135.230408 l
225.128991 136.18967 l
224.045347 137.148933 l
222.961704 138.108195 l
221.87806 139.067457 l
220.794417 140.026719 l
219.710773 140.985981 l
218.62713 141.945243 l
217.543486 142.904506 l
216.459843 143.863768 l
215.376199 144.82303 l
214.292556 145.782292 l
213.208912 146.741554 l
212.125269 147.700816 l
211.041625 148.660079 l
209.957982 149.619341 l
208.874338 150.578603 l
207.790695 151.537865 l
206.707051 152.497127 l
205.623408 153.456389 l
204.539764 154.415652 l
203.456121 155.374914 l
202.372477 156.334176 l
201.288834 157.293438 l
200.20519 158.2527 l
199.121547 159.211963 l
198.037903 160.171225 l
196.95426 161.130487 l
195.870616 162.089749 l
194.786973 163.049011 l
193.703329 164.008273 l
192.619686 164.967536 l
191.536042 165.926798 l
190.452399 166.88606 l
189.368755 167.845322 l
188.285112 168.804584 l
187.201468 169.763846 l
186.117825 170.723109 l
185.034181 171.682371 l
183.950538 172.641633 l
182.866894 173.600895 l
181.783251 174.560157 l
180.699607 175.519419 l
179.615964 176.478682 l
178.53232 177.437944 l
177.448677 178.397206 l
176.365033 179.356468 l
175.28139 180.31573 l
174.197746 181.274992 l
173.114103 182.234255 l
172.030459 183.193517 l
170.946816 184.152779 l
169.863172 185.112041 l
168.779529 186.071303 l
167.695885 187.030565 l
166.612242 187.989828 l
165.528598 188.94909 l
164.444954 189.908352 l
163.361311 190.867614 l
162.277667 191.826876 l
161.194024 192.786139 l
160.11038 193.745401 l
159.026737 194.704663 l
157.943093 195.663925 l
156.85945 196.623187 l
155.775806 197.582449 l
154.692163 198.541712 l
153.608519 199.500974 l
152.524876 200.460236 l
151.441232 201.419498 l
150.357589 202.37876 l
149.273945 203.338022 l
148.190302 204.297285 l
147.106658 205.256547 l
146.023015 206.215809 l
144.939371 207.175071 l
143.855728 208.134333 l
142.772084 209.093595 l
141.688441 210.052858 l
140.604797 211.01212 l
139.521154 211.971382 l
138.43751 212.930644 l
137.353867 213.889906 l
136.270223 214.849168 l
135.18658 215.808431 l
134.102936 216.767693 l
133.019293 217.726955 l
stroke
grestore
gsave
279 277.2 45 39.6 clipbox
240.3 122.76 m
239.137783 124.112002 l
237.975566 125.464004 l
236.81335 126.816005 l
235.651133 128.168007 l
234.488916 129.520009 l
233.326699 130.872011 l
232.164482 132.224013 l
231.002266 133.576014 l
229.840049 134.928016 l
228.677832 136.280018 l
227.515615 137.63202 l
226.353398 138.984022 l
225.191182 140.336023 l
224.028965 141.688025 l
222.866748 143.040027 l
221.704531 144.392029 l
220.542314 145.744031 l
219.380098 147.096033 l
218.217881 148.448034 l
217.055664 149.800036 l
215.893447 151.152038 l
214.73123 152.50404 l
213.569014 153.856042 l
212.406797 155.208043 l
211.24458 156.560045 l
210.082363 157.912047 l
208.920146 159.264049 l
207.75793 160.616051 l
206.595713 161.968052 l
205.433496 163.320054 l
204.271279 164.672056 l
203.109062 166.024058 l
201.946846 167.37606 l
200.784629 168.728061 l
199.622412 170.080063 l
198.460195 171.432065 l
197.297978 172.784067 l
196.135761 174.136069 l
194.973545 175.48807 l
193.811328 176.840072 l
192.649111 178.192074 l
191.486894 179.544076 l
190.324677 180.896078 l
189.162461 182.24808 l
188.000244 183.600081 l
186.838027 184.952083 l
185.67581 186.304085 l
184.513593 187.656087 l
183.351377 189.008089 l
182.18916 190.36009 l
181.026943 191.712092 l
179.864726 193.064094 l
178.702509 194.416096 l
177.540293 195.768098 l
176.378076 197.120099 l
175.215859 198.472101 l
174.053642 199.824103 l
172.891425 201.176105 l
171.729209 202.528107 l
170.566992 203.880108 l
169.404775 205.23211 l
168.242558 206.584112 l
167.080341 207.936114 l
165.918125 209.288116 l
164.755908 210.640117 l
163.593691 211.992119 l
162.431474 213.344121 l
161.269257 214.696123 l
160.107041 216.048125 l
158.944824 217.400126 l
157.782607 218.752128 l
156.62039 220.10413 l
155.458173 221.456132 l
154.295957 222.808134 l
153.13374 224.160136 l
151.971523 225.512137 l
150.809306 226.864139 l
149.647089 228.216141 l
148.484873 229.568143 l
147.322656 230.920145 l
146.160439 232.272146 l
144.998222 233.624148 l
143.836005 234.97615 l
142.673789 236.328152 l
141.511572 237.680154 l
140.349355 239.032155 l
139.187138 240.384157 l
138.024921 241.736159 l
136.862705 243.088161 l
135.700488 244.440163 l
134.538271 245.792164 l
133.376054 247.144166 l
132.213837 248.496168 l
131.051621 249.84817 l
129.889404 251.200172 l
128.727187 252.552173 l
127.56497 253.904175 l
126.402753 255.256177 l
125.240537 256.608179 l
stroke
grestore
gsave
279 277.2 45 39.6 clipbox
240.3 122.76 m
239.333215 124.256206 l
238.366431 125.752412 l
237.399646 127.248619 l
236.432862 128.744825 l
235.466077 130.241031 l
234.499292 131.737237 l
233.532508 133.233443 l
232.565723 134.729649 l
231.598939 136.225856 l
230.632154 137.722062 l
229.665369 139.218268 l
228.698585 140.714474 l
227.7318 142.21068 l
226.765015 143.706886 l
225.798231 145.203093 l
224.831446 146.699299 l
223.864662 148.195505 l
222.897877 149.691711 l
221.931092 151.187917 l
220.964308 152.684123 l
219.997523 154.18033 l
219.030739 155.676536 l
218.063954 157.172742 l
217.097169 158.668948 l
216.130385 160.165154 l
215.1636 161.66136 l
214.196816 163.157567 l
213.230031 164.653773 l
212.263246 166.149979 l
211.296462 167.646185 l
210.329677 169.142391 l
209.362892 170.638597 l
208.396108 172.134804 l
207.429323 173.63101 l
206.462539 175.127216 l
205.495754 176.623422 l
204.528969 178.119628 l
203.562185 179.615834 l
202.5954 181.112041 l
201.628616 182.608247 l
200.661831 184.104453 l
199.695046 185.600659 l
198.728262 187.096865 l
197.761477 188.593071 l
196.794693 190.089278 l
195.827908 191.585484 l
194.861123 193.08169 l
193.894339 194.577896 l
192.927554 196.074102 l
191.96077 197.570309 l
190.993985 199.066515 l
190.0272 200.562721 l
189.060416 202.058927 l
188.093631 203.555133 l
187.126846 205.051339 l
186.160062 206.547546 l
185.193277 208.043752 l
184.226493 209.539958 l
183.259708 211.036164 l
182.292923 212.53237 l
181.326139 214.028576 l
180.359354 215.524783 l
179.39257 217.020989 l
178.425785 218.517195 l
177.459 220.013401 l
176.492216 221.509607 l
175.525431 223.005813 l
174.558647 224.50202 l
173.591862 225.998226 l
172.625077 227.494432 l
171.658293 228.990638 l
170.691508 230.486844 l
169.724723 231.98305 l
168.757939 233.479257 l
167.791154 234.975463 l
166.82437 236.471669 l
165.857585 237.967875 l
164.8908 239.464081 l
163.924016 240.960287 l
162.957231 242.456494 l
161.990447 243.9527 l
161.023662 245.448906 l
160.056877 246.945112 l
159.090093 248.441318 l
158.123308 249.937524 l
157.156524 251.433731 l
156.189739 252.929937 l
155.222954 254.426143 l
154.25617 255.922349 l
153.289385 257.418555 l
152.322601 258.914761 l
151.355816 260.410968 l
150.389031 261.907174 l
149.422247 263.40338 l
148.455462 264.899586 l
147.488677 266.395792 l
146.521893 267.891999 l
145.555108 269.388205 l
144.588324 270.884411 l
stroke
grestore
gsave
279 277.2 45 39.6 clipbox
240.3 122.76 m
239.546537 124.372724 l
238.793075 125.985449 l
238.039612 127.598173 l
237.286149 129.210897 l
236.532686 130.823621 l
235.779224 132.436346 l
235.025761 134.04907 l
234.272298 135.661794 l
233.518835 137.274518 l
232.765373 138.887243 l
232.01191 140.499967 l
231.258447 142.112691 l
230.504985 143.725415 l
229.751522 145.33814 l
228.998059 146.950864 l
228.244596 148.563588 l
227.491134 150.176312 l
226.737671 151.789037 l
225.984208 153.401761 l
225.230745 155.014485 l
224.477283 156.627209 l
223.72382 158.239934 l
222.970357 159.852658 l
222.216895 161.465382 l
221.463432 163.078106 l
220.709969 164.690831 l
219.956506 166.303555 l
219.203044 167.916279 l
218.449581 169.529003 l
217.696118 171.141728 l
216.942655 172.754452 l
216.189193 174.367176 l
215.43573 175.9799 l
214.682267 177.592625 l
213.928805 179.205349 l
213.175342 180.818073 l
212.421879 182.430798 l
211.668416 184.043522 l
210.914954 185.656246 l
210.161491 187.26897 l
209.408028 188.881695 l
208.654566 190.494419 l
207.901103 192.107143 l
207.14764 193.719867 l
206.394177 195.332592 l
205.640715 196.945316 l
204.887252 198.55804 l
204.133789 200.170764 l
203.380326 201.783489 l
202.626864 203.396213 l
201.873401 205.008937 l
201.119938 206.621661 l
200.366476 208.234386 l
199.613013 209.84711 l
198.85955 211.459834 l
198.106087 213.072558 l
197.352625 214.685283 l
196.599162 216.298007 l
195.845699 217.910731 l
195.092236 219.523455 l
194.338774 221.13618 l
193.585311 222.748904 l
192.831848 224.361628 l
192.078386 225.974352 l
191.324923 227.587077 l
190.57146 229.199801 l
189.817997 230.812525 l
189.064535 232.42525 l
188.311072 234.037974 l
187.557609 235.650698 l
186.804146 237.263422 l
186.050684 238.876147 l
185.297221 240.488871 l
184.543758 242.101595 l
183.790296 243.714319 l
183.036833 245.327044 l
182.28337 246.939768 l
181.529907 248.552492 l
180.776445 250.165216 l
180.022982 251.777941 l
179.269519 253.390665 l
178.516056 255.003389 l
177.762594 256.616113 l
177.009131 258.228838 l
176.255668 259.841562 l
175.502206 261.454286 l
174.748743 263.06701 l
173.99528 264.679735 l
173.241817 266.292459 l
172.488355 267.905183 l
171.734892 269.517907 l
170.981429 271.130632 l
170.227966 272.743356 l
169.474504 274.35608 l
168.721041 275.968804 l
167.967578 277.581529 l
167.214116 279.194253 l
166.460653 280.806977 l
165.70719 282.419701 l
stroke
grestore
gsave
279 277.2 45 39.6 clipbox
240.3 122.76 m
239.773801 124.4594 l
239.247603 126.1588 l
238.721404 127.8582 l
238.195206 129.5576 l
237.669007 131.257 l
237.142809 132.9564 l
236.61661 134.6558 l
236.090412 136.3552 l
235.564213 138.0546 l
235.038015 139.754 l
234.511816 141.4534 l
233.985618 143.1528 l
233.459419 144.8522 l
232.933221 146.5516 l
232.407022 148.251 l
231.880824 149.9504 l
231.354625 151.6498 l
230.828427 153.3492 l
230.302228 155.0486 l
229.776029 156.748 l
229.249831 158.4474 l
228.723632 160.1468 l
228.197434 161.8462 l
227.671235 163.5456 l
227.145037 165.245 l
226.618838 166.944399 l
226.09264 168.643799 l
225.566441 170.343199 l
225.040243 172.042599 l
224.514044 173.741999 l
223.987846 175.441399 l
223.461647 177.140799 l
222.935449 178.840199 l
222.40925 180.539599 l
221.883052 182.238999 l
221.356853 183.938399 l
220.830654 185.637799 l
220.304456 187.337199 l
219.778257 189.036599 l
219.252059 190.735999 l
218.72586 192.435399 l
218.199662 194.134799 l
217.673463 195.834199 l
217.147265 197.533599 l
216.621066 199.232999 l
216.094868 200.932399 l
215.568669 202.631799 l
215.042471 204.331199 l
214.516272 206.030599 l
213.990074 207.729999 l
213.463875 209.429399 l
212.937677 211.128799 l
212.411478 212.828199 l
211.88528 214.527599 l
211.359081 216.226999 l
210.832882 217.926399 l
210.306684 219.625799 l
209.780485 221.325199 l
209.254287 223.024599 l
208.728088 224.723999 l
208.20189 226.423399 l
207.675691 228.122799 l
207.149493 229.822199 l
206.623294 231.521599 l
206.097096 233.220999 l
205.570897 234.920399 l
205.044699 236.619799 l
204.5185 238.319199 l
203.992302 240.018599 l
203.466103 241.717999 l
202.939905 243.417399 l
202.413706 245.116799 l
201.887507 246.816199 l
201.361309 248.515599 l
200.83511 250.214999 l
200.308912 251.914399 l
199.782713 253.613798 l
199.256515 255.313198 l
198.730316 257.012598 l
198.204118 258.711998 l
197.677919 260.411398 l
197.151721 262.110798 l
196.625522 263.810198 l
196.099324 265.509598 l
195.573125 267.208998 l
195.046927 268.908398 l
194.520728 270.607798 l
193.99453 272.307198 l
193.468331 274.006598 l
192.942133 275.705998 l
192.415934 277.405398 l
191.889735 279.104798 l
191.363537 280.804198 l
190.837338 282.503598 l
190.31114 284.202998 l
189.784941 285.902398 l
189.258743 287.601798 l
188.732544 289.301198 l
188.206346 291.000598 l
stroke
grestore
gsave
279 277.2 45 39.6 clipbox
240.3 122.76 m
240.117828 123.865278 l
239.935657 124.970557 l
239.753485 126.075835 l
239.571314 127.181114 l
239.389142 128.286392 l
239.206971 129.39167 l
239.024799 130.496949 l
238.842627 131.602227 l
238.660456 132.707506 l
238.478284 133.812784 l
238.296113 134.918062 l
238.113941 136.023341 l
237.931769 137.128619 l
237.749598 138.233898 l
237.567426 139.339176 l
237.385255 140.444454 l
237.203083 141.549733 l
237.020912 142.655011 l
236.83874 143.76029 l
236.656568 144.865568 l
236.474397 145.970846 l
236.292225 147.076125 l
236.110054 148.181403 l
235.927882 149.286682 l
235.74571 150.39196 l
235.563539 151.497238 l
235.381367 152.602517 l
235.199196 153.707795 l
235.017024 154.813074 l
234.834853 155.918352 l
234.652681 157.02363 l
234.470509 158.128909 l
234.288338 159.234187 l
234.106166 160.339466 l
233.923995 161.444744 l
233.741823 162.550022 l
233.559652 163.655301 l
233.37748 164.760579 l
233.195308 165.865858 l
233.013137 166.971136 l
232.830965 168.076414 l
232.648794 169.181693 l
232.466622 170.286971 l
232.28445 171.39225 l
232.102279 172.497528 l
231.920107 173.602807 l
231.737936 174.708085 l
231.555764 175.813363 l
231.373593 176.918642 l
231.191421 178.02392 l
231.009249 179.129199 l
230.827078 180.234477 l
230.644906 181.339755 l
230.462735 182.445034 l
230.280563 183.550312 l
230.098392 184.655591 l
229.91622 185.760869 l
229.734048 186.866147 l
229.551877 187.971426 l
229.369705 189.076704 l
229.187534 190.181983 l
229.005362 191.287261 l
228.82319 192.392539 l
228.641019 193.497818 l
228.458847 194.603096 l
228.276676 195.708375 l
228.094504 196.813653 l
227.912333 197.918931 l
227.730161 199.02421 l
227.547989 200.129488 l
227.365818 201.234767 l
227.183646 202.340045 l
227.001475 203.445323 l
226.819303 204.550602 l
226.637131 205.65588 l
226.45496 206.761159 l
226.272788 207.866437 l
226.090617 208.971715 l
225.908445 210.076994 l
225.726274 211.182272 l
225.544102 212.287551 l
225.36193 213.392829 l
225.179759 214.498107 l
224.997587 215.603386 l
224.815416 216.708664 l
224.633244 217.813943 l
224.451073 218.919221 l
224.268901 220.024499 l
224.086729 221.129778 l
223.904558 222.235056 l
223.722386 223.340335 l
223.540215 224.445613 l
223.358043 225.550891 l
223.175871 226.65617 l
222.9937 227.761448 l
222.811528 228.866727 l
222.629357 229.972005 l
222.447185 231.077283 l
222.265014 232.182562 l
stroke
grestore
gsave
279 277.2 45 39.6 clipbox
240.3 122.76 m
240.27086 123.865621 l
240.241721 124.971242 l
240.212581 126.076863 l
240.183441 127.182484 l
240.154301 128.288105 l
240.125162 129.393726 l
240.096022 130.499347 l
240.066882 131.604968 l
240.037743 132.710589 l
240.008603 133.81621 l
239.979463 134.921831 l
239.950324 136.027452 l
239.921184 137.133073 l
239.892044 138.238694 l
239.862904 139.344315 l
239.833765 140.449936 l
239.804625 141.555557 l
239.775485 142.661178 l
239.746346 143.766799 l
239.717206 144.87242 l
239.688066 145.978041 l
239.658927 147.083662 l
239.629787 148.189283 l
239.600647 149.294904 l
239.571507 150.400525 l
239.542368 151.506146 l
239.513228 152.611767 l
239.484088 153.717388 l
239.454949 154.823009 l
239.425809 155.92863 l
239.396669 157.034251 l
239.36753 158.139872 l
239.33839 159.245493 l
239.30925 160.351114 l
239.28011 161.456735 l
239.250971 162.562356 l
239.221831 163.667977 l
239.192691 164.773598 l
239.163552 165.879219 l
239.134412 166.98484 l
239.105272 168.090461 l
239.076132 169.196082 l
239.046993 170.301703 l
239.017853 171.407324 l
238.988713 172.512945 l
238.959574 173.618566 l
238.930434 174.724187 l
238.901294 175.829808 l
238.872155 176.935429 l
238.843015 178.04105 l
238.813875 179.146671 l
238.784735 180.252292 l
238.755596 181.357913 l
238.726456 182.463534 l
238.697316 183.569155 l
238.668177 184.674776 l
238.639037 185.780397 l
238.609897 186.886018 l
238.580758 187.991639 l
238.551618 189.09726 l
238.522478 190.202881 l
238.493338 191.308502 l
238.464199 192.414123 l
238.435059 193.519744 l
238.405919 194.625365 l
238.37678 195.730986 l
238.34764 196.836607 l
238.3185 197.942228 l
238.28936 199.047849 l
238.260221 200.15347 l
238.231081 201.259091 l
238.201941 202.364712 l
238.172802 203.470333 l
238.143662 204.575954 l
238.114522 205.681575 l
238.085383 206.787196 l
238.056243 207.892817 l
238.027103 208.998438 l
237.997963 210.104059 l
237.968824 211.20968 l
237.939684 212.315301 l
237.910544 213.420922 l
237.881405 214.526543 l
237.852265 215.632164 l
237.823125 216.737785 l
237.793986 217.843406 l
237.764846 218.949027 l
237.735706 220.054648 l
237.706566 221.160269 l
237.677427 222.26589 l
237.648287 223.371511 l
237.619147 224.477132 l
237.590008 225.582753 l
237.560868 226.688374 l
237.531728 227.793995 l
237.502589 228.899616 l
237.473449 230.005237 l
237.444309 231.110858 l
237.415169 232.216479 l
stroke
grestore
gsave
279 277.2 45 39.6 clipbox
240.3 122.76 m
240.422154 123.859321 l
240.544308 124.958642 l
240.666463 126.057962 l
240.788617 127.157283 l
240.910771 128.256604 l
241.032925 129.355925 l
241.15508 130.455246 l
241.277234 131.554567 l
241.399388 132.653887 l
241.521542 133.753208 l
241.643697 134.852529 l
241.765851 135.95185 l
241.888005 137.051171 l
242.010159 138.150491 l
242.132314 139.249812 l
242.254468 140.349133 l
242.376622 141.448454 l
242.498776 142.547775 l
242.620931 143.647096 l
242.743085 144.746416 l
242.865239 145.845737 l
242.987393 146.945058 l
243.109548 148.044379 l
243.231702 149.1437 l
243.353856 150.24302 l
243.47601 151.342341 l
243.598164 152.441662 l
243.720319 153.540983 l
243.842473 154.640304 l
243.964627 155.739625 l
244.086781 156.838945 l
244.208936 157.938266 l
244.33109 159.037587 l
244.453244 160.136908 l
244.575398 161.236229 l
244.697553 162.335549 l
244.819707 163.43487 l
244.941861 164.534191 l
245.064015 165.633512 l
245.18617 166.732833 l
245.308324 167.832153 l
245.430478 168.931474 l
245.552632 170.030795 l
245.674787 171.130116 l
245.796941 172.229437 l
245.919095 173.328758 l
246.041249 174.428078 l
246.163404 175.527399 l
246.285558 176.62672 l
246.407712 177.726041 l
246.529866 178.825362 l
246.65202 179.924682 l
246.774175 181.024003 l
246.896329 182.123324 l
247.018483 183.222645 l
247.140637 184.321966 l
247.262792 185.421287 l
247.384946 186.520607 l
247.5071 187.619928 l
247.629254 188.719249 l
247.751409 189.81857 l
247.873563 190.917891 l
247.995717 192.017211 l
248.117871 193.116532 l
248.240026 194.215853 l
248.36218 195.315174 l
248.484334 196.414495 l
248.606488 197.513816 l
248.728643 198.613136 l
248.850797 199.712457 l
248.972951 200.811778 l
249.095105 201.911099 l
249.21726 203.01042 l
249.339414 204.10974 l
249.461568 205.209061 l
249.583722 206.308382 l
249.705876 207.407703 l
249.828031 208.507024 l
249.950185 209.606345 l
250.072339 210.705665 l
250.194493 211.804986 l
250.316648 212.904307 l
250.438802 214.003628 l
250.560956 215.102949 l
250.68311 216.202269 l
250.805265 217.30159 l
250.927419 218.400911 l
251.049573 219.500232 l
251.171727 220.599553 l
251.293882 221.698874 l
251.416036 222.798194 l
251.53819 223.897515 l
251.660344 224.996836 l
251.782499 226.096157 l
251.904653 227.195478 l
252.026807 228.294798 l
252.148961 229.394119 l
252.271116 230.49344 l
252.39327 231.592761 l
stroke
grestore
gsave
279 277.2 45 39.6 clipbox
240.3 122.76 m
240.578053 123.859835 l
240.856107 124.95967 l
241.13416 126.059505 l
241.412213 127.159339 l
241.690267 128.259174 l
241.96832 129.359009 l
242.246373 130.458844 l
242.524427 131.558679 l
242.80248 132.658514 l
243.080533 133.758349 l
243.358586 134.858184 l
243.63664 135.958018 l
243.914693 137.057853 l
244.192746 138.157688 l
244.4708 139.257523 l
244.748853 140.357358 l
245.026906 141.457193 l
245.30496 142.557028 l
245.583013 143.656862 l
245.861066 144.756697 l
246.13912 145.856532 l
246.417173 146.956367 l
246.695226 148.056202 l
246.97328 149.156037 l
247.251333 150.255872 l
247.529386 151.355706 l
247.80744 152.455541 l
248.085493 153.555376 l
248.363546 154.655211 l
248.641599 155.755046 l
248.919653 156.854881 l
249.197706 157.954716 l
249.475759 159.054551 l
249.753813 160.154385 l
250.031866 161.25422 l
250.309919 162.354055 l
250.587973 163.45389 l
250.866026 164.553725 l
251.144079 165.65356 l
251.422133 166.753395 l
251.700186 167.853229 l
251.978239 168.953064 l
252.256293 170.052899 l
252.534346 171.152734 l
252.812399 172.252569 l
253.090453 173.352404 l
253.368506 174.452239 l
253.646559 175.552074 l
253.924612 176.651908 l
254.202666 177.751743 l
254.480719 178.851578 l
254.758772 179.951413 l
255.036826 181.051248 l
255.314879 182.151083 l
255.592932 183.250918 l
255.870986 184.350752 l
256.149039 185.450587 l
256.427092 186.550422 l
256.705146 187.650257 l
256.983199 188.750092 l
257.261252 189.849927 l
257.539306 190.949762 l
257.817359 192.049597 l
258.095412 193.149431 l
258.373466 194.249266 l
258.651519 195.349101 l
258.929572 196.448936 l
259.207625 197.548771 l
259.485679 198.648606 l
259.763732 199.748441 l
260.041785 200.848275 l
260.319839 201.94811 l
260.597892 203.047945 l
260.875945 204.14778 l
261.153999 205.247615 l
261.432052 206.34745 l
261.710105 207.447285 l
261.988159 208.547119 l
262.266212 209.646954 l
262.544265 210.746789 l
262.822319 211.846624 l
263.100372 212.946459 l
263.378425 214.046294 l
263.656479 215.146129 l
263.934532 216.245964 l
264.212585 217.345798 l
264.490638 218.445633 l
264.768692 219.545468 l
265.046745 220.645303 l
265.324798 221.745138 l
265.602852 222.844973 l
265.880905 223.944808 l
266.158958 225.044642 l
266.437012 226.144477 l
266.715065 227.244312 l
266.993118 228.344147 l
267.271172 229.443982 l
267.549225 230.543817 l
267.827278 231.643652 l
stroke
grestore
gsave
279 277.2 45 39.6 clipbox
240.3 122.76 m
240.967479 124.409693 l
241.634957 126.059386 l
242.302436 127.709079 l
242.969914 129.358771 l
243.637393 131.008464 l
244.304872 132.658157 l
244.97235 134.30785 l
245.639829 135.957543 l
246.307307 137.607236 l
246.974786 139.256929 l
247.642265 140.906621 l
248.309743 142.556314 l
248.977222 144.206007 l
249.6447 145.8557 l
250.312179 147.505393 l
250.979657 149.155086 l
251.647136 150.804779 l
252.314615 152.454471 l
252.982093 154.104164 l
253.649572 155.753857 l
254.31705 157.40355 l
254.984529 159.053243 l
255.652008 160.702936 l
256.319486 162.352629 l
256.986965 164.002321 l
257.654443 165.652014 l
258.321922 167.301707 l
258.989401 168.9514 l
259.656879 170.601093 l
260.324358 172.250786 l
260.991836 173.900479 l
261.659315 175.550172 l
262.326794 177.199864 l
262.994272 178.849557 l
263.661751 180.49925 l
264.329229 182.148943 l
264.996708 183.798636 l
265.664186 185.448329 l
266.331665 187.098022 l
266.999144 188.747714 l
267.666622 190.397407 l
268.334101 192.0471 l
269.001579 193.696793 l
269.669058 195.346486 l
270.336537 196.996179 l
271.004015 198.645872 l
271.671494 200.295564 l
272.338972 201.945257 l
273.006451 203.59495 l
273.67393 205.244643 l
274.341408 206.894336 l
275.008887 208.544029 l
275.676365 210.193722 l
276.343844 211.843414 l
277.011323 213.493107 l
277.678801 215.1428 l
278.34628 216.792493 l
279.013758 218.442186 l
279.681237 220.091879 l
280.348715 221.741572 l
281.016194 223.391264 l
281.683673 225.040957 l
282.351151 226.69065 l
283.01863 228.340343 l
283.686108 229.990036 l
284.353587 231.639729 l
285.021066 233.289422 l
285.688544 234.939114 l
286.356023 236.588807 l
287.023501 238.2385 l
287.69098 239.888193 l
288.358459 241.537886 l
289.025937 243.187579 l
289.693416 244.837272 l
290.360894 246.486964 l
291.028373 248.136657 l
291.695852 249.78635 l
292.36333 251.436043 l
293.030809 253.085736 l
293.698287 254.735429 l
294.365766 256.385122 l
295.033244 258.034814 l
295.700723 259.684507 l
296.368202 261.3342 l
297.03568 262.983893 l
297.703159 264.633586 l
298.370637 266.283279 l
299.038116 267.932972 l
299.705595 269.582664 l
300.373073 271.232357 l
301.040552 272.88205 l
301.70803 274.531743 l
302.375509 276.181436 l
303.042988 277.831129 l
303.710466 279.480822 l
304.377945 281.130515 l
305.045423 282.780207 l
305.712902 284.4299 l
306.380381 286.079593 l
stroke
grestore
gsave
279 277.2 45 39.6 clipbox
240.3 122.76 m
241.186646 124.304427 l
242.073292 125.848854 l
242.959937 127.39328 l
243.846583 128.937707 l
244.733229 130.482134 l
245.619875 132.026561 l
246.506521 133.570988 l
247.393166 135.115415 l
248.279812 136.659841 l
249.166458 138.204268 l
250.053104 139.748695 l
250.93975 141.293122 l
251.826396 142.837549 l
252.713041 144.381976 l
253.599687 145.926402 l
254.486333 147.470829 l
255.372979 149.015256 l
256.259625 150.559683 l
257.14627 152.10411 l
258.032916 153.648537 l
258.919562 155.192963 l
259.806208 156.73739 l
260.692854 158.281817 l
261.579499 159.826244 l
262.466145 161.370671 l
263.352791 162.915098 l
264.239437 164.459524 l
265.126083 166.003951 l
266.012728 167.548378 l
266.899374 169.092805 l
267.78602 170.637232 l
268.672666 172.181659 l
269.559312 173.726085 l
270.445957 175.270512 l
271.332603 176.814939 l
272.219249 178.359366 l
273.105895 179.903793 l
273.992541 181.44822 l
274.879187 182.992646 l
275.765832 184.537073 l
276.652478 186.0815 l
277.539124 187.625927 l
278.42577 189.170354 l
279.312416 190.714781 l
280.199061 192.259207 l
281.085707 193.803634 l
281.972353 195.348061 l
282.858999 196.892488 l
283.745645 198.436915 l
284.63229 199.981342 l
285.518936 201.525768 l
286.405582 203.070195 l
287.292228 204.614622 l
288.178874 206.159049 l
289.065519 207.703476 l
289.952165 209.247903 l
290.838811 210.792329 l
291.725457 212.336756 l
292.612103 213.881183 l
293.498748 215.42561 l
294.385394 216.970037 l
295.27204 218.514464 l
296.158686 220.05889 l
297.045332 221.603317 l
297.931978 223.147744 l
298.818623 224.692171 l
299.705269 226.236598 l
300.591915 227.781025 l
301.478561 229.325451 l
302.365207 230.869878 l
303.251852 232.414305 l
304.138498 233.958732 l
305.025144 235.503159 l
305.91179 237.047586 l
306.798436 238.592012 l
307.685081 240.136439 l
308.571727 241.680866 l
309.458373 243.225293 l
310.345019 244.76972 l
311.231665 246.314147 l
312.11831 247.858573 l
313.004956 249.403 l
313.891602 250.947427 l
314.778248 252.491854 l
315.664894 254.036281 l
316.551539 255.580708 l
317.438185 257.125134 l
318.324831 258.669561 l
319.211477 260.213988 l
320.098123 261.758415 l
320.984769 263.302842 l
321.871414 264.847269 l
322.75806 266.391695 l
323.644706 267.936122 l
324.531352 269.480549 l
325.417998 271.024976 l
326.304643 272.569403 l
327.191289 274.11383 l
328.077935 275.658256 l
stroke
grestore
8.000 setlinewidth
2 setlinecap
[] 0 setdash
0.000 setgray
gsave
279 277.2 45 39.6 clipbox
100.8 122.76 m
100.8 123.74 l
100.8 124.72 l
100.8 125.7 l
100.8 126.68 l
100.8 127.66 l
100.8 128.64 l
100.8 129.62 l
100.8 130.6 l
100.8 131.58 l
100.8 132.56 l
100.8 133.54 l
100.8 134.52 l
100.8 135.5 l
100.8 136.48 l
100.8 137.46 l
100.8 138.44 l
100.8 139.42 l
100.8 140.4 l
100.8 141.38 l
100.8 142.36 l
100.8 143.34 l
100.8 144.32 l
100.8 145.3 l
100.8 146.28 l
100.8 147.26 l
100.8 148.24 l
100.8 149.22 l
100.8 150.2 l
100.8 151.18 l
100.8 152.16 l
100.8 153.14 l
100.8 154.12 l
100.8 155.1 l
100.8 156.08 l
100.8 157.06 l
100.8 158.04 l
100.8 159.02 l
100.8 160 l
100.8 160.98 l
100.8 161.96 l
100.8 162.94 l
100.8 163.92 l
100.8 164.9 l
100.8 165.88 l
100.8 166.86 l
100.8 167.84 l
100.8 168.82 l
100.8 169.8 l
100.8 170.78 l
100.8 171.76 l
100.8 172.74 l
100.8 173.72 l
100.8 174.7 l
100.8 175.68 l
100.8 176.66 l
100.8 177.64 l
100.8 178.62 l
100.8 179.6 l
100.8 180.58 l
100.8 181.56 l
100.8 182.54 l
100.8 183.52 l
100.8 184.5 l
100.8 185.48 l
100.8 186.46 l
100.8 187.44 l
100.8 188.42 l
100.8 189.4 l
100.8 190.38 l
100.8 191.36 l
100.8 192.34 l
100.8 193.32 l
100.8 194.3 l
100.8 195.28 l
100.8 196.26 l
100.8 197.24 l
100.8 198.22 l
100.8 199.2 l
100.8 200.18 l
100.8 201.16 l
100.8 202.14 l
100.8 203.12 l
100.8 204.1 l
100.8 205.08 l
100.8 206.06 l
100.8 207.04 l
100.8 208.02 l
100.8 209 l
100.8 209.98 l
100.8 210.96 l
100.8 211.94 l
100.8 212.92 l
100.8 213.9 l
100.8 214.88 l
100.8 215.86 l
100.8 216.84 l
100.8 217.82 l
100.8 218.8 l
100.8 219.78 l
stroke
grestore
gsave
279 277.2 45 39.6 clipbox
100.8 219.78 m
101.222727 219.78 l
101.645455 219.78 l
102.068182 219.78 l
102.490909 219.78 l
102.913636 219.78 l
103.336364 219.78 l
103.759091 219.78 l
104.181818 219.78 l
104.604545 219.78 l
105.027273 219.78 l
105.45 219.78 l
105.872727 219.78 l
106.295455 219.78 l
106.718182 219.78 l
107.140909 219.78 l
107.563636 219.78 l
107.986364 219.78 l
108.409091 219.78 l
108.831818 219.78 l
109.254545 219.78 l
109.677273 219.78 l
110.1 219.78 l
110.522727 219.78 l
110.945455 219.78 l
111.368182 219.78 l
111.790909 219.78 l
112.213636 219.78 l
112.636364 219.78 l
113.059091 219.78 l
113.481818 219.78 l
113.904545 219.78 l
114.327273 219.78 l
114.75 219.78 l
115.172727 219.78 l
115.595455 219.78 l
116.018182 219.78 l
116.440909 219.78 l
116.863636 219.78 l
117.286364 219.78 l
117.709091 219.78 l
118.131818 219.78 l
118.554545 219.78 l
118.977273 219.78 l
119.4 219.78 l
119.822727 219.78 l
120.245455 219.78 l
120.668182 219.78 l
121.090909 219.78 l
121.513636 219.78 l
121.936364 219.78 l
122.359091 219.78 l
122.781818 219.78 l
123.204545 219.78 l
123.627273 219.78 l
124.05 219.78 l
124.472727 219.78 l
124.895455 219.78 l
125.318182 219.78 l
125.740909 219.78 l
126.163636 219.78 l
126.586364 219.78 l
127.009091 219.78 l
127.431818 219.78 l
127.854545 219.78 l
128.277273 219.78 l
128.7 219.78 l
129.122727 219.78 l
129.545455 219.78 l
129.968182 219.78 l
130.390909 219.78 l
130.813636 219.78 l
131.236364 219.78 l
131.659091 219.78 l
132.081818 219.78 l
132.504545 219.78 l
132.927273 219.78 l
133.35 219.78 l
133.772727 219.78 l
134.195455 219.78 l
134.618182 219.78 l
135.040909 219.78 l
135.463636 219.78 l
135.886364 219.78 l
136.309091 219.78 l
136.731818 219.78 l
137.154545 219.78 l
137.577273 219.78 l
138 219.78 l
138.422727 219.78 l
138.845455 219.78 l
139.268182 219.78 l
139.690909 219.78 l
140.113636 219.78 l
140.536364 219.78 l
140.959091 219.78 l
141.381818 219.78 l
141.804545 219.78 l
142.227273 219.78 l
142.65 219.78 l
stroke
grestore
gsave
279 277.2 45 39.6 clipbox
224.955 233.64 m
225.434091 233.64 l
225.913182 233.64 l
226.392273 233.64 l
226.871364 233.64 l
227.350455 233.64 l
227.829545 233.64 l
228.308636 233.64 l
228.787727 233.64 l
229.266818 233.64 l
229.745909 233.64 l
230.225 233.64 l
230.704091 233.64 l
231.183182 233.64 l
231.662273 233.64 l
232.141364 233.64 l
232.620455 233.64 l
233.099545 233.64 l
233.578636 233.64 l
234.057727 233.64 l
234.536818 233.64 l
235.015909 233.64 l
235.495 233.64 l
235.974091 233.64 l
236.453182 233.64 l
236.932273 233.64 l
237.411364 233.64 l
237.890455 233.64 l
238.369545 233.64 l
238.848636 233.64 l
239.327727 233.64 l
239.806818 233.64 l
240.285909 233.64 l
240.765 233.64 l
241.244091 233.64 l
241.723182 233.64 l
242.202273 233.64 l
242.681364 233.64 l
243.160455 233.64 l
243.639545 233.64 l
244.118636 233.64 l
244.597727 233.64 l
245.076818 233.64 l
245.555909 233.64 l
246.035 233.64 l
246.514091 233.64 l
246.993182 233.64 l
247.472273 233.64 l
247.951364 233.64 l
248.430455 233.64 l
248.909545 233.64 l
249.388636 233.64 l
249.867727 233.64 l
250.346818 233.64 l
250.825909 233.64 l
251.305 233.64 l
251.784091 233.64 l
252.263182 233.64 l
252.742273 233.64 l
253.221364 233.64 l
253.700455 233.64 l
254.179545 233.64 l
254.658636 233.64 l
255.137727 233.64 l
255.616818 233.64 l
256.095909 233.64 l
256.575 233.64 l
257.054091 233.64 l
257.533182 233.64 l
258.012273 233.64 l
258.491364 233.64 l
258.970455 233.64 l
259.449545 233.64 l
259.928636 233.64 l
260.407727 233.64 l
260.886818 233.64 l
261.365909 233.64 l
261.845 233.64 l
262.324091 233.64 l
262.803182 233.64 l
263.282273 233.64 l
263.761364 233.64 l
264.240455 233.64 l
264.719545 233.64 l
265.198636 233.64 l
265.677727 233.64 l
266.156818 233.64 l
266.635909 233.64 l
267.115 233.64 l
267.594091 233.64 l
268.073182 233.64 l
268.552273 233.64 l
269.031364 233.64 l
269.510455 233.64 l
269.989545 233.64 l
270.468636 233.64 l
270.947727 233.64 l
271.426818 233.64 l
271.905909 233.64 l
272.385 233.64 l
stroke
grestore
0.800 setlinewidth
0 setlinejoin
[] 0 setdash
gsave
45 39.6 m
45 316.8 l
stroke
grestore
gsave
324 39.6 m
324 316.8 l
stroke
grestore
gsave
45 39.6 m
324 39.6 l
stroke
grestore
gsave
45 316.8 m
324 316.8 l
stroke
grestore
1.000 setlinewidth
0 setlinecap
0.800 setgray
gsave
51.3 269.94375 m
135.865625 269.94375 l
137.065625 269.94375 137.665625 270.54375 137.665625 271.74375 c
137.665625 310.5 l
137.665625 311.7 137.065625 312.3 135.865625 312.3 c
51.3 312.3 l
50.1 312.3 49.5 311.7 49.5 310.5 c
49.5 271.74375 l
49.5 270.54375 50.1 269.94375 51.3 269.94375 c
cl
gsave
1.000 setgray
fill
grestore
stroke
grestore
1.500 setlinewidth
1 setlinejoin
[1.5 2.475] 0 setdash
0.000 0.000 1.000 setrgbcolor
gsave
53.1 305.00625 m
71.1 305.00625 l
stroke
grestore
0.000 setgray
/DejaVuSans findfont
9.000 scalefont
setfont
gsave
78.300000 301.856250 translate
0.000000 rotate
0.000000 0.000000 m /l glyphshow
2.500488 0.000000 m /a glyphshow
8.015625 0.000000 m /s glyphshow
12.704590 0.000000 m /e glyphshow
18.241699 0.000000 m /r glyphshow
21.941895 0.000000 m /space glyphshow
24.802734 0.000000 m /s glyphshow
29.491699 0.000000 m /c glyphshow
34.439941 0.000000 m /a glyphshow
39.955078 0.000000 m /n glyphshow
grestore
8.000 setlinewidth
2 setlinecap
[] 0 setdash
gsave
53.1 291.7875 m
71.1 291.7875 l
stroke
grestore
gsave
78.300000 288.637500 translate
0.000000 rotate
0.000000 0.000000 m /o glyphshow
5.506348 0.000000 m /b glyphshow
11.219238 0.000000 m /s glyphshow
15.908203 0.000000 m /t glyphshow
19.437012 0.000000 m /a glyphshow
24.952148 0.000000 m /c glyphshow
29.900391 0.000000 m /l glyphshow
32.400879 0.000000 m /e glyphshow
grestore
1.000 setlinewidth
0 setlinecap
0.000 0.000 1.000 setrgbcolor
gsave
/o {
gsave
newpath
translate
1.0 setlinewidth
1 setlinejoin
0 setlinecap
0 5.477226 m
-5.477226 -5.477226 l
5.477226 -5.477226 l
cl

gsave
0.000 0.000 1.000 setrgbcolor
fill
grestore
stroke
grestore
} bind def
62.1 277.781 o
grestore
0.000 setgray
gsave
78.300000 275.418750 translate
0.000000 rotate
0.000000 0.000000 m /r glyphshow
3.700195 0.000000 m /o glyphshow
9.206543 0.000000 m /b glyphshow
14.919434 0.000000 m /o glyphshow
20.425781 0.000000 m /t glyphshow
23.954590 0.000000 m /space glyphshow
26.815430 0.000000 m /c glyphshow
31.763672 0.000000 m /e glyphshow
37.300781 0.000000 m /n glyphshow
43.004883 0.000000 m /t glyphshow
46.533691 0.000000 m /e glyphshow
52.070801 0.000000 m /r glyphshow
grestore

end
showpage
