%!PS-Adobe-3.0 EPSF-3.0
%%Title: /home/thaiduong/repo/papers/fastron_mapping_iros2019/ieeeconf/figures/line_segment.eps
%%Creator: matplotlib version 3.0.2, http://matplotlib.org/
%%CreationDate: Fri Mar 29 14:27:41 2019
%%Orientation: portrait
%%BoundingBox: 126 216 486 576
%%EndComments
%%BeginProlog
/mpldict 8 dict def
mpldict begin
/m { moveto } bind def
/l { lineto } bind def
/r { rlineto } bind def
/c { curveto } bind def
/cl { closepath } bind def
/box {
m
1 index 0 r
0 exch r
neg 0 r
cl
} bind def
/clipbox {
box
clip
newpath
} bind def
%!PS-Adobe-3.0 Resource-Font
%%Title: DejaVu Sans
%%Copyright: Copyright (c) 2003 by Bitstream, Inc. All Rights Reserved. Copyright (c) 2006 by Tavmjong Bah. All Rights Reserved. DejaVu changes are in public domain 
%%Creator: Converted from TrueType to type 3 by PPR
25 dict begin
/_d{bind def}bind def
/_m{moveto}_d
/_l{lineto}_d
/_cl{closepath eofill}_d
/_c{curveto}_d
/_sc{7 -1 roll{setcachedevice}{pop pop pop pop pop pop}ifelse}_d
/_e{exec}_d
/FontName /DejaVuSans def
/PaintType 0 def
/FontMatrix[.001 0 0 .001 0 0]def
/FontBBox[-1021 -463 1793 1232]def
/FontType 3 def
/Encoding [ /zero /two /four /six /minus ] def
/FontInfo 10 dict dup begin
/FamilyName (DejaVu Sans) def
/FullName (DejaVu Sans) def
/Notice (Copyright (c) 2003 by Bitstream, Inc. All Rights Reserved. Copyright (c) 2006 by Tavmjong Bah. All Rights Reserved. DejaVu changes are in public domain ) def
/Weight (Book) def
/Version (Version 2.35) def
/ItalicAngle 0.0 def
/isFixedPitch false def
/UnderlinePosition -130 def
/UnderlineThickness 90 def
end readonly def
/CharStrings 6 dict dup begin
/.notdef 0 def
/zero{636 0 66 -13 570 742 _sc
318 664 _m
267 664 229 639 203 589 _c
177 539 165 464 165 364 _c
165 264 177 189 203 139 _c
229 89 267 64 318 64 _c
369 64 407 89 433 139 _c
458 189 471 264 471 364 _c
471 464 458 539 433 589 _c
407 639 369 664 318 664 _c
318 742 _m
399 742 461 709 505 645 _c
548 580 570 486 570 364 _c
570 241 548 147 505 83 _c
461 19 399 -13 318 -13 _c
236 -13 173 19 130 83 _c
87 147 66 241 66 364 _c
66 486 87 580 130 645 _c
173 709 236 742 318 742 _c
_cl}_d
/two{{636 0 73 0 536 742 _sc
192 83 _m
536 83 _l
536 0 _l
73 0 _l
73 83 _l
110 121 161 173 226 239 _c
290 304 331 346 348 365 _c
380 400 402 430 414 455 _c
426 479 433 504 433 528 _c
433 566 419 598 392 622 _c
365 646 330 659 286 659 _c
255 659 222 653 188 643 _c
154 632 117 616 78 594 _c
78 694 _l
118 710 155 722 189 730 _c
223 738 255 742 284 742 _c
}_e{359 742 419 723 464 685 _c
509 647 532 597 532 534 _c
532 504 526 475 515 449 _c
504 422 484 390 454 354 _c
446 344 420 317 376 272 _c
332 227 271 164 192 83 _c
_cl}_e}_d
/four{636 0 49 0 580 729 _sc
378 643 _m
129 254 _l
378 254 _l
378 643 _l
352 729 _m
476 729 _l
476 254 _l
580 254 _l
580 172 _l
476 172 _l
476 0 _l
378 0 _l
378 172 _l
49 172 _l
49 267 _l
352 729 _l
_cl}_d
/six{{636 0 70 -13 573 742 _sc
330 404 _m
286 404 251 388 225 358 _c
199 328 186 286 186 234 _c
186 181 199 139 225 109 _c
251 79 286 64 330 64 _c
374 64 409 79 435 109 _c
461 139 474 181 474 234 _c
474 286 461 328 435 358 _c
409 388 374 404 330 404 _c
526 713 _m
526 623 _l
501 635 476 644 451 650 _c
425 656 400 659 376 659 _c
310 659 260 637 226 593 _c
}_e{192 549 172 482 168 394 _c
187 422 211 444 240 459 _c
269 474 301 482 336 482 _c
409 482 467 459 509 415 _c
551 371 573 310 573 234 _c
573 159 550 99 506 54 _c
462 9 403 -13 330 -13 _c
246 -13 181 19 137 83 _c
92 147 70 241 70 364 _c
70 479 97 571 152 639 _c
206 707 280 742 372 742 _c
396 742 421 739 447 735 _c
472 730 498 723 526 713 _c
_cl}_e}_d
/minus{838 0 106 272 732 355 _sc
106 355 _m
732 355 _l
732 272 _l
106 272 _l
106 355 _l
_cl}_d
end readonly def

/BuildGlyph
 {exch begin
 CharStrings exch
 2 copy known not{pop /.notdef}if
 true 3 1 roll get exec
 end}_d

/BuildChar {
 1 index /Encoding get exch get
 1 index /BuildGlyph get exec
}_d

FontName currentdict end definefont pop
end
%%EndProlog
mpldict begin
126 216 translate
360 360 0 0 clipbox
gsave
0 0 m
360 0 l
360 360 l
0 360 l
cl
1.000 setgray
fill
grestore
gsave
45 39.6 m
324 39.6 l
324 316.8 l
45 316.8 l
cl
1.000 setgray
fill
grestore
1.000 setlinewidth
1 setlinejoin
0 setlinecap
[] 0 setdash
0.000 0.000 1.000 setrgbcolor
gsave
279 277.2 45 39.6 clipbox
64.928571 59.4 m
64.928571 59.4 64.928571 59.4 64.928571 59.4 c
64.928571 59.4 64.928571 59.4 64.928571 59.4 c
64.928571 59.4 64.928571 59.4 64.928571 59.4 c
64.928571 59.4 64.928571 59.4 64.928571 59.4 c
64.928571 59.4 64.928571 59.4 64.928571 59.4 c
64.928571 59.4 64.928571 59.4 64.928571 59.4 c
64.928571 59.4 64.928571 59.4 64.928571 59.4 c
64.928571 59.4 64.928571 59.4 64.928571 59.4 c
cl
gsave
fill
grestore
stroke
grestore
gsave
279 277.2 45 39.6 clipbox
91.5 59.4 m
91.5 59.4 91.5 59.4 91.5 59.4 c
91.5 59.4 91.5 59.4 91.5 59.4 c
91.5 59.4 91.5 59.4 91.5 59.4 c
91.5 59.4 91.5 59.4 91.5 59.4 c
91.5 59.4 91.5 59.4 91.5 59.4 c
91.5 59.4 91.5 59.4 91.5 59.4 c
91.5 59.4 91.5 59.4 91.5 59.4 c
91.5 59.4 91.5 59.4 91.5 59.4 c
cl
gsave
fill
grestore
stroke
grestore
gsave
279 277.2 45 39.6 clipbox
118.071429 59.4 m
118.071429 59.4 118.071429 59.4 118.071429 59.4 c
118.071429 59.4 118.071429 59.4 118.071429 59.4 c
118.071429 59.4 118.071429 59.4 118.071429 59.4 c
118.071429 59.4 118.071429 59.4 118.071429 59.4 c
118.071429 59.4 118.071429 59.4 118.071429 59.4 c
118.071429 59.4 118.071429 59.4 118.071429 59.4 c
118.071429 59.4 118.071429 59.4 118.071429 59.4 c
118.071429 59.4 118.071429 59.4 118.071429 59.4 c
cl
gsave
fill
grestore
stroke
grestore
gsave
279 277.2 45 39.6 clipbox
144.642857 59.4 m
144.642857 59.4 144.642857 59.4 144.642857 59.4 c
144.642857 59.4 144.642857 59.4 144.642857 59.4 c
144.642857 59.4 144.642857 59.4 144.642857 59.4 c
144.642857 59.4 144.642857 59.4 144.642857 59.4 c
144.642857 59.4 144.642857 59.4 144.642857 59.4 c
144.642857 59.4 144.642857 59.4 144.642857 59.4 c
144.642857 59.4 144.642857 59.4 144.642857 59.4 c
144.642857 59.4 144.642857 59.4 144.642857 59.4 c
cl
gsave
fill
grestore
stroke
grestore
gsave
279 277.2 45 39.6 clipbox
171.214286 59.4 m
171.214286 59.4 171.214286 59.4 171.214286 59.4 c
171.214286 59.4 171.214286 59.4 171.214286 59.4 c
171.214286 59.4 171.214286 59.4 171.214286 59.4 c
171.214286 59.4 171.214286 59.4 171.214286 59.4 c
171.214286 59.4 171.214286 59.4 171.214286 59.4 c
171.214286 59.4 171.214286 59.4 171.214286 59.4 c
171.214286 59.4 171.214286 59.4 171.214286 59.4 c
171.214286 59.4 171.214286 59.4 171.214286 59.4 c
cl
gsave
fill
grestore
stroke
grestore
gsave
279 277.2 45 39.6 clipbox
197.785714 59.4 m
197.785714 59.4 197.785714 59.4 197.785714 59.4 c
197.785714 59.4 197.785714 59.4 197.785714 59.4 c
197.785714 59.4 197.785714 59.4 197.785714 59.4 c
197.785714 59.4 197.785714 59.4 197.785714 59.4 c
197.785714 59.4 197.785714 59.4 197.785714 59.4 c
197.785714 59.4 197.785714 59.4 197.785714 59.4 c
197.785714 59.4 197.785714 59.4 197.785714 59.4 c
197.785714 59.4 197.785714 59.4 197.785714 59.4 c
cl
gsave
fill
grestore
stroke
grestore
gsave
279 277.2 45 39.6 clipbox
224.357143 59.4 m
224.357143 59.4 224.357143 59.4 224.357143 59.4 c
224.357143 59.4 224.357143 59.4 224.357143 59.4 c
224.357143 59.4 224.357143 59.4 224.357143 59.4 c
224.357143 59.4 224.357143 59.4 224.357143 59.4 c
224.357143 59.4 224.357143 59.4 224.357143 59.4 c
224.357143 59.4 224.357143 59.4 224.357143 59.4 c
224.357143 59.4 224.357143 59.4 224.357143 59.4 c
224.357143 59.4 224.357143 59.4 224.357143 59.4 c
cl
gsave
fill
grestore
stroke
grestore
gsave
279 277.2 45 39.6 clipbox
250.928571 59.4 m
250.928571 59.4 250.928571 59.4 250.928571 59.4 c
250.928571 59.4 250.928571 59.4 250.928571 59.4 c
250.928571 59.4 250.928571 59.4 250.928571 59.4 c
250.928571 59.4 250.928571 59.4 250.928571 59.4 c
250.928571 59.4 250.928571 59.4 250.928571 59.4 c
250.928571 59.4 250.928571 59.4 250.928571 59.4 c
250.928571 59.4 250.928571 59.4 250.928571 59.4 c
250.928571 59.4 250.928571 59.4 250.928571 59.4 c
cl
gsave
fill
grestore
stroke
grestore
gsave
279 277.2 45 39.6 clipbox
277.5 59.4 m
277.5 59.4 277.5 59.4 277.5 59.4 c
277.5 59.4 277.5 59.4 277.5 59.4 c
277.5 59.4 277.5 59.4 277.5 59.4 c
277.5 59.4 277.5 59.4 277.5 59.4 c
277.5 59.4 277.5 59.4 277.5 59.4 c
277.5 59.4 277.5 59.4 277.5 59.4 c
277.5 59.4 277.5 59.4 277.5 59.4 c
277.5 59.4 277.5 59.4 277.5 59.4 c
cl
gsave
fill
grestore
stroke
grestore
gsave
279 277.2 45 39.6 clipbox
304.071429 59.4 m
304.071429 59.4 304.071429 59.4 304.071429 59.4 c
304.071429 59.4 304.071429 59.4 304.071429 59.4 c
304.071429 59.4 304.071429 59.4 304.071429 59.4 c
304.071429 59.4 304.071429 59.4 304.071429 59.4 c
304.071429 59.4 304.071429 59.4 304.071429 59.4 c
304.071429 59.4 304.071429 59.4 304.071429 59.4 c
304.071429 59.4 304.071429 59.4 304.071429 59.4 c
304.071429 59.4 304.071429 59.4 304.071429 59.4 c
cl
gsave
fill
grestore
stroke
grestore
gsave
279 277.2 45 39.6 clipbox
64.928571 85.8 m
64.928571 85.8 64.928571 85.8 64.928571 85.8 c
64.928571 85.8 64.928571 85.8 64.928571 85.8 c
64.928571 85.8 64.928571 85.8 64.928571 85.8 c
64.928571 85.8 64.928571 85.8 64.928571 85.8 c
64.928571 85.8 64.928571 85.8 64.928571 85.8 c
64.928571 85.8 64.928571 85.8 64.928571 85.8 c
64.928571 85.8 64.928571 85.8 64.928571 85.8 c
64.928571 85.8 64.928571 85.8 64.928571 85.8 c
cl
gsave
fill
grestore
stroke
grestore
gsave
279 277.2 45 39.6 clipbox
91.5 85.8 m
91.5 85.8 91.5 85.8 91.5 85.8 c
91.5 85.8 91.5 85.8 91.5 85.8 c
91.5 85.8 91.5 85.8 91.5 85.8 c
91.5 85.8 91.5 85.8 91.5 85.8 c
91.5 85.8 91.5 85.8 91.5 85.8 c
91.5 85.8 91.5 85.8 91.5 85.8 c
91.5 85.8 91.5 85.8 91.5 85.8 c
91.5 85.8 91.5 85.8 91.5 85.8 c
cl
gsave
fill
grestore
stroke
grestore
gsave
279 277.2 45 39.6 clipbox
118.071429 81.927017 m
119.098556 81.927017 120.083753 82.335099 120.810041 83.061387 c
121.53633 83.787676 121.944412 84.772873 121.944412 85.8 c
121.944412 86.827127 121.53633 87.812324 120.810041 88.538613 c
120.083753 89.264901 119.098556 89.672983 118.071429 89.672983 c
117.044301 89.672983 116.059104 89.264901 115.332816 88.538613 c
114.606527 87.812324 114.198445 86.827127 114.198445 85.8 c
114.198445 84.772873 114.606527 83.787676 115.332816 83.061387 c
116.059104 82.335099 117.044301 81.927017 118.071429 81.927017 c
cl
gsave
fill
grestore
stroke
grestore
gsave
279 277.2 45 39.6 clipbox
144.642857 85.8 m
144.642857 85.8 144.642857 85.8 144.642857 85.8 c
144.642857 85.8 144.642857 85.8 144.642857 85.8 c
144.642857 85.8 144.642857 85.8 144.642857 85.8 c
144.642857 85.8 144.642857 85.8 144.642857 85.8 c
144.642857 85.8 144.642857 85.8 144.642857 85.8 c
144.642857 85.8 144.642857 85.8 144.642857 85.8 c
144.642857 85.8 144.642857 85.8 144.642857 85.8 c
144.642857 85.8 144.642857 85.8 144.642857 85.8 c
cl
gsave
fill
grestore
stroke
grestore
gsave
279 277.2 45 39.6 clipbox
171.214286 85.8 m
171.214286 85.8 171.214286 85.8 171.214286 85.8 c
171.214286 85.8 171.214286 85.8 171.214286 85.8 c
171.214286 85.8 171.214286 85.8 171.214286 85.8 c
171.214286 85.8 171.214286 85.8 171.214286 85.8 c
171.214286 85.8 171.214286 85.8 171.214286 85.8 c
171.214286 85.8 171.214286 85.8 171.214286 85.8 c
171.214286 85.8 171.214286 85.8 171.214286 85.8 c
171.214286 85.8 171.214286 85.8 171.214286 85.8 c
cl
gsave
fill
grestore
stroke
grestore
gsave
279 277.2 45 39.6 clipbox
197.785714 85.8 m
197.785714 85.8 197.785714 85.8 197.785714 85.8 c
197.785714 85.8 197.785714 85.8 197.785714 85.8 c
197.785714 85.8 197.785714 85.8 197.785714 85.8 c
197.785714 85.8 197.785714 85.8 197.785714 85.8 c
197.785714 85.8 197.785714 85.8 197.785714 85.8 c
197.785714 85.8 197.785714 85.8 197.785714 85.8 c
197.785714 85.8 197.785714 85.8 197.785714 85.8 c
197.785714 85.8 197.785714 85.8 197.785714 85.8 c
cl
gsave
fill
grestore
stroke
grestore
gsave
279 277.2 45 39.6 clipbox
224.357143 85.8 m
224.357143 85.8 224.357143 85.8 224.357143 85.8 c
224.357143 85.8 224.357143 85.8 224.357143 85.8 c
224.357143 85.8 224.357143 85.8 224.357143 85.8 c
224.357143 85.8 224.357143 85.8 224.357143 85.8 c
224.357143 85.8 224.357143 85.8 224.357143 85.8 c
224.357143 85.8 224.357143 85.8 224.357143 85.8 c
224.357143 85.8 224.357143 85.8 224.357143 85.8 c
224.357143 85.8 224.357143 85.8 224.357143 85.8 c
cl
gsave
fill
grestore
stroke
grestore
gsave
279 277.2 45 39.6 clipbox
250.928571 85.8 m
250.928571 85.8 250.928571 85.8 250.928571 85.8 c
250.928571 85.8 250.928571 85.8 250.928571 85.8 c
250.928571 85.8 250.928571 85.8 250.928571 85.8 c
250.928571 85.8 250.928571 85.8 250.928571 85.8 c
250.928571 85.8 250.928571 85.8 250.928571 85.8 c
250.928571 85.8 250.928571 85.8 250.928571 85.8 c
250.928571 85.8 250.928571 85.8 250.928571 85.8 c
250.928571 85.8 250.928571 85.8 250.928571 85.8 c
cl
gsave
fill
grestore
stroke
grestore
gsave
279 277.2 45 39.6 clipbox
277.5 85.8 m
277.5 85.8 277.5 85.8 277.5 85.8 c
277.5 85.8 277.5 85.8 277.5 85.8 c
277.5 85.8 277.5 85.8 277.5 85.8 c
277.5 85.8 277.5 85.8 277.5 85.8 c
277.5 85.8 277.5 85.8 277.5 85.8 c
277.5 85.8 277.5 85.8 277.5 85.8 c
277.5 85.8 277.5 85.8 277.5 85.8 c
277.5 85.8 277.5 85.8 277.5 85.8 c
cl
gsave
fill
grestore
stroke
grestore
gsave
279 277.2 45 39.6 clipbox
304.071429 85.8 m
304.071429 85.8 304.071429 85.8 304.071429 85.8 c
304.071429 85.8 304.071429 85.8 304.071429 85.8 c
304.071429 85.8 304.071429 85.8 304.071429 85.8 c
304.071429 85.8 304.071429 85.8 304.071429 85.8 c
304.071429 85.8 304.071429 85.8 304.071429 85.8 c
304.071429 85.8 304.071429 85.8 304.071429 85.8 c
304.071429 85.8 304.071429 85.8 304.071429 85.8 c
304.071429 85.8 304.071429 85.8 304.071429 85.8 c
cl
gsave
fill
grestore
stroke
grestore
gsave
279 277.2 45 39.6 clipbox
64.928571 112.2 m
64.928571 112.2 64.928571 112.2 64.928571 112.2 c
64.928571 112.2 64.928571 112.2 64.928571 112.2 c
64.928571 112.2 64.928571 112.2 64.928571 112.2 c
64.928571 112.2 64.928571 112.2 64.928571 112.2 c
64.928571 112.2 64.928571 112.2 64.928571 112.2 c
64.928571 112.2 64.928571 112.2 64.928571 112.2 c
64.928571 112.2 64.928571 112.2 64.928571 112.2 c
64.928571 112.2 64.928571 112.2 64.928571 112.2 c
cl
gsave
fill
grestore
stroke
grestore
gsave
279 277.2 45 39.6 clipbox
91.5 108.327017 m
92.527127 108.327017 93.512324 108.735099 94.238613 109.461387 c
94.964901 110.187676 95.372983 111.172873 95.372983 112.2 c
95.372983 113.227127 94.964901 114.212324 94.238613 114.938613 c
93.512324 115.664901 92.527127 116.072983 91.5 116.072983 c
90.472873 116.072983 89.487676 115.664901 88.761387 114.938613 c
88.035099 114.212324 87.627017 113.227127 87.627017 112.2 c
87.627017 111.172873 88.035099 110.187676 88.761387 109.461387 c
89.487676 108.735099 90.472873 108.327017 91.5 108.327017 c
cl
gsave
fill
grestore
stroke
grestore
gsave
279 277.2 45 39.6 clipbox
118.071429 108.327017 m
119.098556 108.327017 120.083753 108.735099 120.810041 109.461387 c
121.53633 110.187676 121.944412 111.172873 121.944412 112.2 c
121.944412 113.227127 121.53633 114.212324 120.810041 114.938613 c
120.083753 115.664901 119.098556 116.072983 118.071429 116.072983 c
117.044301 116.072983 116.059104 115.664901 115.332816 114.938613 c
114.606527 114.212324 114.198445 113.227127 114.198445 112.2 c
114.198445 111.172873 114.606527 110.187676 115.332816 109.461387 c
116.059104 108.735099 117.044301 108.327017 118.071429 108.327017 c
cl
gsave
fill
grestore
stroke
grestore
gsave
279 277.2 45 39.6 clipbox
144.642857 108.327017 m
145.669984 108.327017 146.655181 108.735099 147.38147 109.461387 c
148.107759 110.187676 148.51584 111.172873 148.51584 112.2 c
148.51584 113.227127 148.107759 114.212324 147.38147 114.938613 c
146.655181 115.664901 145.669984 116.072983 144.642857 116.072983 c
143.61573 116.072983 142.630533 115.664901 141.904244 114.938613 c
141.177956 114.212324 140.769874 113.227127 140.769874 112.2 c
140.769874 111.172873 141.177956 110.187676 141.904244 109.461387 c
142.630533 108.735099 143.61573 108.327017 144.642857 108.327017 c
cl
gsave
fill
grestore
stroke
grestore
gsave
279 277.2 45 39.6 clipbox
171.214286 112.2 m
171.214286 112.2 171.214286 112.2 171.214286 112.2 c
171.214286 112.2 171.214286 112.2 171.214286 112.2 c
171.214286 112.2 171.214286 112.2 171.214286 112.2 c
171.214286 112.2 171.214286 112.2 171.214286 112.2 c
171.214286 112.2 171.214286 112.2 171.214286 112.2 c
171.214286 112.2 171.214286 112.2 171.214286 112.2 c
171.214286 112.2 171.214286 112.2 171.214286 112.2 c
171.214286 112.2 171.214286 112.2 171.214286 112.2 c
cl
gsave
fill
grestore
stroke
grestore
gsave
279 277.2 45 39.6 clipbox
197.785714 112.2 m
197.785714 112.2 197.785714 112.2 197.785714 112.2 c
197.785714 112.2 197.785714 112.2 197.785714 112.2 c
197.785714 112.2 197.785714 112.2 197.785714 112.2 c
197.785714 112.2 197.785714 112.2 197.785714 112.2 c
197.785714 112.2 197.785714 112.2 197.785714 112.2 c
197.785714 112.2 197.785714 112.2 197.785714 112.2 c
197.785714 112.2 197.785714 112.2 197.785714 112.2 c
197.785714 112.2 197.785714 112.2 197.785714 112.2 c
cl
gsave
fill
grestore
stroke
grestore
gsave
279 277.2 45 39.6 clipbox
224.357143 112.2 m
224.357143 112.2 224.357143 112.2 224.357143 112.2 c
224.357143 112.2 224.357143 112.2 224.357143 112.2 c
224.357143 112.2 224.357143 112.2 224.357143 112.2 c
224.357143 112.2 224.357143 112.2 224.357143 112.2 c
224.357143 112.2 224.357143 112.2 224.357143 112.2 c
224.357143 112.2 224.357143 112.2 224.357143 112.2 c
224.357143 112.2 224.357143 112.2 224.357143 112.2 c
224.357143 112.2 224.357143 112.2 224.357143 112.2 c
cl
gsave
fill
grestore
stroke
grestore
gsave
279 277.2 45 39.6 clipbox
250.928571 112.2 m
250.928571 112.2 250.928571 112.2 250.928571 112.2 c
250.928571 112.2 250.928571 112.2 250.928571 112.2 c
250.928571 112.2 250.928571 112.2 250.928571 112.2 c
250.928571 112.2 250.928571 112.2 250.928571 112.2 c
250.928571 112.2 250.928571 112.2 250.928571 112.2 c
250.928571 112.2 250.928571 112.2 250.928571 112.2 c
250.928571 112.2 250.928571 112.2 250.928571 112.2 c
250.928571 112.2 250.928571 112.2 250.928571 112.2 c
cl
gsave
fill
grestore
stroke
grestore
gsave
279 277.2 45 39.6 clipbox
277.5 112.2 m
277.5 112.2 277.5 112.2 277.5 112.2 c
277.5 112.2 277.5 112.2 277.5 112.2 c
277.5 112.2 277.5 112.2 277.5 112.2 c
277.5 112.2 277.5 112.2 277.5 112.2 c
277.5 112.2 277.5 112.2 277.5 112.2 c
277.5 112.2 277.5 112.2 277.5 112.2 c
277.5 112.2 277.5 112.2 277.5 112.2 c
277.5 112.2 277.5 112.2 277.5 112.2 c
cl
gsave
fill
grestore
stroke
grestore
gsave
279 277.2 45 39.6 clipbox
304.071429 112.2 m
304.071429 112.2 304.071429 112.2 304.071429 112.2 c
304.071429 112.2 304.071429 112.2 304.071429 112.2 c
304.071429 112.2 304.071429 112.2 304.071429 112.2 c
304.071429 112.2 304.071429 112.2 304.071429 112.2 c
304.071429 112.2 304.071429 112.2 304.071429 112.2 c
304.071429 112.2 304.071429 112.2 304.071429 112.2 c
304.071429 112.2 304.071429 112.2 304.071429 112.2 c
304.071429 112.2 304.071429 112.2 304.071429 112.2 c
cl
gsave
fill
grestore
stroke
grestore
gsave
279 277.2 45 39.6 clipbox
64.928571 138.6 m
64.928571 138.6 64.928571 138.6 64.928571 138.6 c
64.928571 138.6 64.928571 138.6 64.928571 138.6 c
64.928571 138.6 64.928571 138.6 64.928571 138.6 c
64.928571 138.6 64.928571 138.6 64.928571 138.6 c
64.928571 138.6 64.928571 138.6 64.928571 138.6 c
64.928571 138.6 64.928571 138.6 64.928571 138.6 c
64.928571 138.6 64.928571 138.6 64.928571 138.6 c
64.928571 138.6 64.928571 138.6 64.928571 138.6 c
cl
gsave
fill
grestore
stroke
grestore
gsave
279 277.2 45 39.6 clipbox
91.5 138.6 m
91.5 138.6 91.5 138.6 91.5 138.6 c
91.5 138.6 91.5 138.6 91.5 138.6 c
91.5 138.6 91.5 138.6 91.5 138.6 c
91.5 138.6 91.5 138.6 91.5 138.6 c
91.5 138.6 91.5 138.6 91.5 138.6 c
91.5 138.6 91.5 138.6 91.5 138.6 c
91.5 138.6 91.5 138.6 91.5 138.6 c
91.5 138.6 91.5 138.6 91.5 138.6 c
cl
gsave
fill
grestore
stroke
grestore
gsave
279 277.2 45 39.6 clipbox
118.071429 138.6 m
118.071429 138.6 118.071429 138.6 118.071429 138.6 c
118.071429 138.6 118.071429 138.6 118.071429 138.6 c
118.071429 138.6 118.071429 138.6 118.071429 138.6 c
118.071429 138.6 118.071429 138.6 118.071429 138.6 c
118.071429 138.6 118.071429 138.6 118.071429 138.6 c
118.071429 138.6 118.071429 138.6 118.071429 138.6 c
118.071429 138.6 118.071429 138.6 118.071429 138.6 c
118.071429 138.6 118.071429 138.6 118.071429 138.6 c
cl
gsave
fill
grestore
stroke
grestore
gsave
279 277.2 45 39.6 clipbox
144.642857 138.6 m
144.642857 138.6 144.642857 138.6 144.642857 138.6 c
144.642857 138.6 144.642857 138.6 144.642857 138.6 c
144.642857 138.6 144.642857 138.6 144.642857 138.6 c
144.642857 138.6 144.642857 138.6 144.642857 138.6 c
144.642857 138.6 144.642857 138.6 144.642857 138.6 c
144.642857 138.6 144.642857 138.6 144.642857 138.6 c
144.642857 138.6 144.642857 138.6 144.642857 138.6 c
144.642857 138.6 144.642857 138.6 144.642857 138.6 c
cl
gsave
fill
grestore
stroke
grestore
gsave
279 277.2 45 39.6 clipbox
171.214286 138.6 m
171.214286 138.6 171.214286 138.6 171.214286 138.6 c
171.214286 138.6 171.214286 138.6 171.214286 138.6 c
171.214286 138.6 171.214286 138.6 171.214286 138.6 c
171.214286 138.6 171.214286 138.6 171.214286 138.6 c
171.214286 138.6 171.214286 138.6 171.214286 138.6 c
171.214286 138.6 171.214286 138.6 171.214286 138.6 c
171.214286 138.6 171.214286 138.6 171.214286 138.6 c
171.214286 138.6 171.214286 138.6 171.214286 138.6 c
cl
gsave
fill
grestore
stroke
grestore
gsave
279 277.2 45 39.6 clipbox
197.785714 138.6 m
197.785714 138.6 197.785714 138.6 197.785714 138.6 c
197.785714 138.6 197.785714 138.6 197.785714 138.6 c
197.785714 138.6 197.785714 138.6 197.785714 138.6 c
197.785714 138.6 197.785714 138.6 197.785714 138.6 c
197.785714 138.6 197.785714 138.6 197.785714 138.6 c
197.785714 138.6 197.785714 138.6 197.785714 138.6 c
197.785714 138.6 197.785714 138.6 197.785714 138.6 c
197.785714 138.6 197.785714 138.6 197.785714 138.6 c
cl
gsave
fill
grestore
stroke
grestore
gsave
279 277.2 45 39.6 clipbox
224.357143 138.6 m
224.357143 138.6 224.357143 138.6 224.357143 138.6 c
224.357143 138.6 224.357143 138.6 224.357143 138.6 c
224.357143 138.6 224.357143 138.6 224.357143 138.6 c
224.357143 138.6 224.357143 138.6 224.357143 138.6 c
224.357143 138.6 224.357143 138.6 224.357143 138.6 c
224.357143 138.6 224.357143 138.6 224.357143 138.6 c
224.357143 138.6 224.357143 138.6 224.357143 138.6 c
224.357143 138.6 224.357143 138.6 224.357143 138.6 c
cl
gsave
fill
grestore
stroke
grestore
gsave
279 277.2 45 39.6 clipbox
250.928571 138.6 m
250.928571 138.6 250.928571 138.6 250.928571 138.6 c
250.928571 138.6 250.928571 138.6 250.928571 138.6 c
250.928571 138.6 250.928571 138.6 250.928571 138.6 c
250.928571 138.6 250.928571 138.6 250.928571 138.6 c
250.928571 138.6 250.928571 138.6 250.928571 138.6 c
250.928571 138.6 250.928571 138.6 250.928571 138.6 c
250.928571 138.6 250.928571 138.6 250.928571 138.6 c
250.928571 138.6 250.928571 138.6 250.928571 138.6 c
cl
gsave
fill
grestore
stroke
grestore
gsave
279 277.2 45 39.6 clipbox
277.5 138.6 m
277.5 138.6 277.5 138.6 277.5 138.6 c
277.5 138.6 277.5 138.6 277.5 138.6 c
277.5 138.6 277.5 138.6 277.5 138.6 c
277.5 138.6 277.5 138.6 277.5 138.6 c
277.5 138.6 277.5 138.6 277.5 138.6 c
277.5 138.6 277.5 138.6 277.5 138.6 c
277.5 138.6 277.5 138.6 277.5 138.6 c
277.5 138.6 277.5 138.6 277.5 138.6 c
cl
gsave
fill
grestore
stroke
grestore
gsave
279 277.2 45 39.6 clipbox
304.071429 138.6 m
304.071429 138.6 304.071429 138.6 304.071429 138.6 c
304.071429 138.6 304.071429 138.6 304.071429 138.6 c
304.071429 138.6 304.071429 138.6 304.071429 138.6 c
304.071429 138.6 304.071429 138.6 304.071429 138.6 c
304.071429 138.6 304.071429 138.6 304.071429 138.6 c
304.071429 138.6 304.071429 138.6 304.071429 138.6 c
304.071429 138.6 304.071429 138.6 304.071429 138.6 c
304.071429 138.6 304.071429 138.6 304.071429 138.6 c
cl
gsave
fill
grestore
stroke
grestore
gsave
279 277.2 45 39.6 clipbox
64.928571 165 m
64.928571 165 64.928571 165 64.928571 165 c
64.928571 165 64.928571 165 64.928571 165 c
64.928571 165 64.928571 165 64.928571 165 c
64.928571 165 64.928571 165 64.928571 165 c
64.928571 165 64.928571 165 64.928571 165 c
64.928571 165 64.928571 165 64.928571 165 c
64.928571 165 64.928571 165 64.928571 165 c
64.928571 165 64.928571 165 64.928571 165 c
cl
gsave
fill
grestore
stroke
grestore
gsave
279 277.2 45 39.6 clipbox
91.5 165 m
91.5 165 91.5 165 91.5 165 c
91.5 165 91.5 165 91.5 165 c
91.5 165 91.5 165 91.5 165 c
91.5 165 91.5 165 91.5 165 c
91.5 165 91.5 165 91.5 165 c
91.5 165 91.5 165 91.5 165 c
91.5 165 91.5 165 91.5 165 c
91.5 165 91.5 165 91.5 165 c
cl
gsave
fill
grestore
stroke
grestore
gsave
279 277.2 45 39.6 clipbox
118.071429 165 m
118.071429 165 118.071429 165 118.071429 165 c
118.071429 165 118.071429 165 118.071429 165 c
118.071429 165 118.071429 165 118.071429 165 c
118.071429 165 118.071429 165 118.071429 165 c
118.071429 165 118.071429 165 118.071429 165 c
118.071429 165 118.071429 165 118.071429 165 c
118.071429 165 118.071429 165 118.071429 165 c
118.071429 165 118.071429 165 118.071429 165 c
cl
gsave
fill
grestore
stroke
grestore
gsave
279 277.2 45 39.6 clipbox
144.642857 165 m
144.642857 165 144.642857 165 144.642857 165 c
144.642857 165 144.642857 165 144.642857 165 c
144.642857 165 144.642857 165 144.642857 165 c
144.642857 165 144.642857 165 144.642857 165 c
144.642857 165 144.642857 165 144.642857 165 c
144.642857 165 144.642857 165 144.642857 165 c
144.642857 165 144.642857 165 144.642857 165 c
144.642857 165 144.642857 165 144.642857 165 c
cl
gsave
fill
grestore
stroke
grestore
gsave
279 277.2 45 39.6 clipbox
171.214286 165 m
171.214286 165 171.214286 165 171.214286 165 c
171.214286 165 171.214286 165 171.214286 165 c
171.214286 165 171.214286 165 171.214286 165 c
171.214286 165 171.214286 165 171.214286 165 c
171.214286 165 171.214286 165 171.214286 165 c
171.214286 165 171.214286 165 171.214286 165 c
171.214286 165 171.214286 165 171.214286 165 c
171.214286 165 171.214286 165 171.214286 165 c
cl
gsave
fill
grestore
stroke
grestore
gsave
279 277.2 45 39.6 clipbox
197.785714 165 m
197.785714 165 197.785714 165 197.785714 165 c
197.785714 165 197.785714 165 197.785714 165 c
197.785714 165 197.785714 165 197.785714 165 c
197.785714 165 197.785714 165 197.785714 165 c
197.785714 165 197.785714 165 197.785714 165 c
197.785714 165 197.785714 165 197.785714 165 c
197.785714 165 197.785714 165 197.785714 165 c
197.785714 165 197.785714 165 197.785714 165 c
cl
gsave
fill
grestore
stroke
grestore
gsave
279 277.2 45 39.6 clipbox
224.357143 165 m
224.357143 165 224.357143 165 224.357143 165 c
224.357143 165 224.357143 165 224.357143 165 c
224.357143 165 224.357143 165 224.357143 165 c
224.357143 165 224.357143 165 224.357143 165 c
224.357143 165 224.357143 165 224.357143 165 c
224.357143 165 224.357143 165 224.357143 165 c
224.357143 165 224.357143 165 224.357143 165 c
224.357143 165 224.357143 165 224.357143 165 c
cl
gsave
fill
grestore
stroke
grestore
gsave
279 277.2 45 39.6 clipbox
250.928571 165 m
250.928571 165 250.928571 165 250.928571 165 c
250.928571 165 250.928571 165 250.928571 165 c
250.928571 165 250.928571 165 250.928571 165 c
250.928571 165 250.928571 165 250.928571 165 c
250.928571 165 250.928571 165 250.928571 165 c
250.928571 165 250.928571 165 250.928571 165 c
250.928571 165 250.928571 165 250.928571 165 c
250.928571 165 250.928571 165 250.928571 165 c
cl
gsave
fill
grestore
stroke
grestore
gsave
279 277.2 45 39.6 clipbox
277.5 165 m
277.5 165 277.5 165 277.5 165 c
277.5 165 277.5 165 277.5 165 c
277.5 165 277.5 165 277.5 165 c
277.5 165 277.5 165 277.5 165 c
277.5 165 277.5 165 277.5 165 c
277.5 165 277.5 165 277.5 165 c
277.5 165 277.5 165 277.5 165 c
277.5 165 277.5 165 277.5 165 c
cl
gsave
fill
grestore
stroke
grestore
gsave
279 277.2 45 39.6 clipbox
304.071429 165 m
304.071429 165 304.071429 165 304.071429 165 c
304.071429 165 304.071429 165 304.071429 165 c
304.071429 165 304.071429 165 304.071429 165 c
304.071429 165 304.071429 165 304.071429 165 c
304.071429 165 304.071429 165 304.071429 165 c
304.071429 165 304.071429 165 304.071429 165 c
304.071429 165 304.071429 165 304.071429 165 c
304.071429 165 304.071429 165 304.071429 165 c
cl
gsave
fill
grestore
stroke
grestore
gsave
279 277.2 45 39.6 clipbox
64.928571 191.4 m
64.928571 191.4 64.928571 191.4 64.928571 191.4 c
64.928571 191.4 64.928571 191.4 64.928571 191.4 c
64.928571 191.4 64.928571 191.4 64.928571 191.4 c
64.928571 191.4 64.928571 191.4 64.928571 191.4 c
64.928571 191.4 64.928571 191.4 64.928571 191.4 c
64.928571 191.4 64.928571 191.4 64.928571 191.4 c
64.928571 191.4 64.928571 191.4 64.928571 191.4 c
64.928571 191.4 64.928571 191.4 64.928571 191.4 c
cl
gsave
fill
grestore
stroke
grestore
gsave
279 277.2 45 39.6 clipbox
91.5 187.527017 m
92.527127 187.527017 93.512324 187.935099 94.238613 188.661387 c
94.964901 189.387676 95.372983 190.372873 95.372983 191.4 c
95.372983 192.427127 94.964901 193.412324 94.238613 194.138613 c
93.512324 194.864901 92.527127 195.272983 91.5 195.272983 c
90.472873 195.272983 89.487676 194.864901 88.761387 194.138613 c
88.035099 193.412324 87.627017 192.427127 87.627017 191.4 c
87.627017 190.372873 88.035099 189.387676 88.761387 188.661387 c
89.487676 187.935099 90.472873 187.527017 91.5 187.527017 c
cl
gsave
fill
grestore
stroke
grestore
gsave
279 277.2 45 39.6 clipbox
118.071429 187.527017 m
119.098556 187.527017 120.083753 187.935099 120.810041 188.661387 c
121.53633 189.387676 121.944412 190.372873 121.944412 191.4 c
121.944412 192.427127 121.53633 193.412324 120.810041 194.138613 c
120.083753 194.864901 119.098556 195.272983 118.071429 195.272983 c
117.044301 195.272983 116.059104 194.864901 115.332816 194.138613 c
114.606527 193.412324 114.198445 192.427127 114.198445 191.4 c
114.198445 190.372873 114.606527 189.387676 115.332816 188.661387 c
116.059104 187.935099 117.044301 187.527017 118.071429 187.527017 c
cl
gsave
fill
grestore
stroke
grestore
gsave
279 277.2 45 39.6 clipbox
144.642857 187.527017 m
145.669984 187.527017 146.655181 187.935099 147.38147 188.661387 c
148.107759 189.387676 148.51584 190.372873 148.51584 191.4 c
148.51584 192.427127 148.107759 193.412324 147.38147 194.138613 c
146.655181 194.864901 145.669984 195.272983 144.642857 195.272983 c
143.61573 195.272983 142.630533 194.864901 141.904244 194.138613 c
141.177956 193.412324 140.769874 192.427127 140.769874 191.4 c
140.769874 190.372873 141.177956 189.387676 141.904244 188.661387 c
142.630533 187.935099 143.61573 187.527017 144.642857 187.527017 c
cl
gsave
fill
grestore
stroke
grestore
gsave
279 277.2 45 39.6 clipbox
171.214286 191.4 m
171.214286 191.4 171.214286 191.4 171.214286 191.4 c
171.214286 191.4 171.214286 191.4 171.214286 191.4 c
171.214286 191.4 171.214286 191.4 171.214286 191.4 c
171.214286 191.4 171.214286 191.4 171.214286 191.4 c
171.214286 191.4 171.214286 191.4 171.214286 191.4 c
171.214286 191.4 171.214286 191.4 171.214286 191.4 c
171.214286 191.4 171.214286 191.4 171.214286 191.4 c
171.214286 191.4 171.214286 191.4 171.214286 191.4 c
cl
gsave
fill
grestore
stroke
grestore
gsave
279 277.2 45 39.6 clipbox
197.785714 191.4 m
197.785714 191.4 197.785714 191.4 197.785714 191.4 c
197.785714 191.4 197.785714 191.4 197.785714 191.4 c
197.785714 191.4 197.785714 191.4 197.785714 191.4 c
197.785714 191.4 197.785714 191.4 197.785714 191.4 c
197.785714 191.4 197.785714 191.4 197.785714 191.4 c
197.785714 191.4 197.785714 191.4 197.785714 191.4 c
197.785714 191.4 197.785714 191.4 197.785714 191.4 c
197.785714 191.4 197.785714 191.4 197.785714 191.4 c
cl
gsave
fill
grestore
stroke
grestore
gsave
279 277.2 45 39.6 clipbox
224.357143 191.4 m
224.357143 191.4 224.357143 191.4 224.357143 191.4 c
224.357143 191.4 224.357143 191.4 224.357143 191.4 c
224.357143 191.4 224.357143 191.4 224.357143 191.4 c
224.357143 191.4 224.357143 191.4 224.357143 191.4 c
224.357143 191.4 224.357143 191.4 224.357143 191.4 c
224.357143 191.4 224.357143 191.4 224.357143 191.4 c
224.357143 191.4 224.357143 191.4 224.357143 191.4 c
224.357143 191.4 224.357143 191.4 224.357143 191.4 c
cl
gsave
fill
grestore
stroke
grestore
gsave
279 277.2 45 39.6 clipbox
250.928571 191.4 m
250.928571 191.4 250.928571 191.4 250.928571 191.4 c
250.928571 191.4 250.928571 191.4 250.928571 191.4 c
250.928571 191.4 250.928571 191.4 250.928571 191.4 c
250.928571 191.4 250.928571 191.4 250.928571 191.4 c
250.928571 191.4 250.928571 191.4 250.928571 191.4 c
250.928571 191.4 250.928571 191.4 250.928571 191.4 c
250.928571 191.4 250.928571 191.4 250.928571 191.4 c
250.928571 191.4 250.928571 191.4 250.928571 191.4 c
cl
gsave
fill
grestore
stroke
grestore
gsave
279 277.2 45 39.6 clipbox
277.5 191.4 m
277.5 191.4 277.5 191.4 277.5 191.4 c
277.5 191.4 277.5 191.4 277.5 191.4 c
277.5 191.4 277.5 191.4 277.5 191.4 c
277.5 191.4 277.5 191.4 277.5 191.4 c
277.5 191.4 277.5 191.4 277.5 191.4 c
277.5 191.4 277.5 191.4 277.5 191.4 c
277.5 191.4 277.5 191.4 277.5 191.4 c
277.5 191.4 277.5 191.4 277.5 191.4 c
cl
gsave
fill
grestore
stroke
grestore
gsave
279 277.2 45 39.6 clipbox
304.071429 191.4 m
304.071429 191.4 304.071429 191.4 304.071429 191.4 c
304.071429 191.4 304.071429 191.4 304.071429 191.4 c
304.071429 191.4 304.071429 191.4 304.071429 191.4 c
304.071429 191.4 304.071429 191.4 304.071429 191.4 c
304.071429 191.4 304.071429 191.4 304.071429 191.4 c
304.071429 191.4 304.071429 191.4 304.071429 191.4 c
304.071429 191.4 304.071429 191.4 304.071429 191.4 c
304.071429 191.4 304.071429 191.4 304.071429 191.4 c
cl
gsave
fill
grestore
stroke
grestore
gsave
279 277.2 45 39.6 clipbox
64.928571 217.8 m
64.928571 217.8 64.928571 217.8 64.928571 217.8 c
64.928571 217.8 64.928571 217.8 64.928571 217.8 c
64.928571 217.8 64.928571 217.8 64.928571 217.8 c
64.928571 217.8 64.928571 217.8 64.928571 217.8 c
64.928571 217.8 64.928571 217.8 64.928571 217.8 c
64.928571 217.8 64.928571 217.8 64.928571 217.8 c
64.928571 217.8 64.928571 217.8 64.928571 217.8 c
64.928571 217.8 64.928571 217.8 64.928571 217.8 c
cl
gsave
fill
grestore
stroke
grestore
gsave
279 277.2 45 39.6 clipbox
91.5 217.8 m
91.5 217.8 91.5 217.8 91.5 217.8 c
91.5 217.8 91.5 217.8 91.5 217.8 c
91.5 217.8 91.5 217.8 91.5 217.8 c
91.5 217.8 91.5 217.8 91.5 217.8 c
91.5 217.8 91.5 217.8 91.5 217.8 c
91.5 217.8 91.5 217.8 91.5 217.8 c
91.5 217.8 91.5 217.8 91.5 217.8 c
91.5 217.8 91.5 217.8 91.5 217.8 c
cl
gsave
fill
grestore
stroke
grestore
gsave
279 277.2 45 39.6 clipbox
118.071429 217.8 m
118.071429 217.8 118.071429 217.8 118.071429 217.8 c
118.071429 217.8 118.071429 217.8 118.071429 217.8 c
118.071429 217.8 118.071429 217.8 118.071429 217.8 c
118.071429 217.8 118.071429 217.8 118.071429 217.8 c
118.071429 217.8 118.071429 217.8 118.071429 217.8 c
118.071429 217.8 118.071429 217.8 118.071429 217.8 c
118.071429 217.8 118.071429 217.8 118.071429 217.8 c
118.071429 217.8 118.071429 217.8 118.071429 217.8 c
cl
gsave
fill
grestore
stroke
grestore
gsave
279 277.2 45 39.6 clipbox
144.642857 213.927017 m
145.669984 213.927017 146.655181 214.335099 147.38147 215.061387 c
148.107759 215.787676 148.51584 216.772873 148.51584 217.8 c
148.51584 218.827127 148.107759 219.812324 147.38147 220.538613 c
146.655181 221.264901 145.669984 221.672983 144.642857 221.672983 c
143.61573 221.672983 142.630533 221.264901 141.904244 220.538613 c
141.177956 219.812324 140.769874 218.827127 140.769874 217.8 c
140.769874 216.772873 141.177956 215.787676 141.904244 215.061387 c
142.630533 214.335099 143.61573 213.927017 144.642857 213.927017 c
cl
gsave
fill
grestore
stroke
grestore
gsave
279 277.2 45 39.6 clipbox
171.214286 213.927017 m
172.241413 213.927017 173.22661 214.335099 173.952899 215.061387 c
174.679187 215.787676 175.087269 216.772873 175.087269 217.8 c
175.087269 218.827127 174.679187 219.812324 173.952899 220.538613 c
173.22661 221.264901 172.241413 221.672983 171.214286 221.672983 c
170.187159 221.672983 169.201962 221.264901 168.475673 220.538613 c
167.749384 219.812324 167.341302 218.827127 167.341302 217.8 c
167.341302 216.772873 167.749384 215.787676 168.475673 215.061387 c
169.201962 214.335099 170.187159 213.927017 171.214286 213.927017 c
cl
gsave
fill
grestore
stroke
grestore
gsave
279 277.2 45 39.6 clipbox
197.785714 217.8 m
197.785714 217.8 197.785714 217.8 197.785714 217.8 c
197.785714 217.8 197.785714 217.8 197.785714 217.8 c
197.785714 217.8 197.785714 217.8 197.785714 217.8 c
197.785714 217.8 197.785714 217.8 197.785714 217.8 c
197.785714 217.8 197.785714 217.8 197.785714 217.8 c
197.785714 217.8 197.785714 217.8 197.785714 217.8 c
197.785714 217.8 197.785714 217.8 197.785714 217.8 c
197.785714 217.8 197.785714 217.8 197.785714 217.8 c
cl
gsave
fill
grestore
stroke
grestore
gsave
279 277.2 45 39.6 clipbox
224.357143 213.927017 m
225.38427 213.927017 226.369467 214.335099 227.095756 215.061387 c
227.822044 215.787676 228.230126 216.772873 228.230126 217.8 c
228.230126 218.827127 227.822044 219.812324 227.095756 220.538613 c
226.369467 221.264901 225.38427 221.672983 224.357143 221.672983 c
223.330016 221.672983 222.344819 221.264901 221.61853 220.538613 c
220.892241 219.812324 220.48416 218.827127 220.48416 217.8 c
220.48416 216.772873 220.892241 215.787676 221.61853 215.061387 c
222.344819 214.335099 223.330016 213.927017 224.357143 213.927017 c
cl
gsave
fill
grestore
stroke
grestore
gsave
279 277.2 45 39.6 clipbox
250.928571 217.8 m
250.928571 217.8 250.928571 217.8 250.928571 217.8 c
250.928571 217.8 250.928571 217.8 250.928571 217.8 c
250.928571 217.8 250.928571 217.8 250.928571 217.8 c
250.928571 217.8 250.928571 217.8 250.928571 217.8 c
250.928571 217.8 250.928571 217.8 250.928571 217.8 c
250.928571 217.8 250.928571 217.8 250.928571 217.8 c
250.928571 217.8 250.928571 217.8 250.928571 217.8 c
250.928571 217.8 250.928571 217.8 250.928571 217.8 c
cl
gsave
fill
grestore
stroke
grestore
gsave
279 277.2 45 39.6 clipbox
277.5 213.927017 m
278.527127 213.927017 279.512324 214.335099 280.238613 215.061387 c
280.964901 215.787676 281.372983 216.772873 281.372983 217.8 c
281.372983 218.827127 280.964901 219.812324 280.238613 220.538613 c
279.512324 221.264901 278.527127 221.672983 277.5 221.672983 c
276.472873 221.672983 275.487676 221.264901 274.761387 220.538613 c
274.035099 219.812324 273.627017 218.827127 273.627017 217.8 c
273.627017 216.772873 274.035099 215.787676 274.761387 215.061387 c
275.487676 214.335099 276.472873 213.927017 277.5 213.927017 c
cl
gsave
fill
grestore
stroke
grestore
gsave
279 277.2 45 39.6 clipbox
304.071429 217.8 m
304.071429 217.8 304.071429 217.8 304.071429 217.8 c
304.071429 217.8 304.071429 217.8 304.071429 217.8 c
304.071429 217.8 304.071429 217.8 304.071429 217.8 c
304.071429 217.8 304.071429 217.8 304.071429 217.8 c
304.071429 217.8 304.071429 217.8 304.071429 217.8 c
304.071429 217.8 304.071429 217.8 304.071429 217.8 c
304.071429 217.8 304.071429 217.8 304.071429 217.8 c
304.071429 217.8 304.071429 217.8 304.071429 217.8 c
cl
gsave
fill
grestore
stroke
grestore
gsave
279 277.2 45 39.6 clipbox
64.928571 244.2 m
64.928571 244.2 64.928571 244.2 64.928571 244.2 c
64.928571 244.2 64.928571 244.2 64.928571 244.2 c
64.928571 244.2 64.928571 244.2 64.928571 244.2 c
64.928571 244.2 64.928571 244.2 64.928571 244.2 c
64.928571 244.2 64.928571 244.2 64.928571 244.2 c
64.928571 244.2 64.928571 244.2 64.928571 244.2 c
64.928571 244.2 64.928571 244.2 64.928571 244.2 c
64.928571 244.2 64.928571 244.2 64.928571 244.2 c
cl
gsave
fill
grestore
stroke
grestore
gsave
279 277.2 45 39.6 clipbox
91.5 244.2 m
91.5 244.2 91.5 244.2 91.5 244.2 c
91.5 244.2 91.5 244.2 91.5 244.2 c
91.5 244.2 91.5 244.2 91.5 244.2 c
91.5 244.2 91.5 244.2 91.5 244.2 c
91.5 244.2 91.5 244.2 91.5 244.2 c
91.5 244.2 91.5 244.2 91.5 244.2 c
91.5 244.2 91.5 244.2 91.5 244.2 c
91.5 244.2 91.5 244.2 91.5 244.2 c
cl
gsave
fill
grestore
stroke
grestore
gsave
279 277.2 45 39.6 clipbox
118.071429 244.2 m
118.071429 244.2 118.071429 244.2 118.071429 244.2 c
118.071429 244.2 118.071429 244.2 118.071429 244.2 c
118.071429 244.2 118.071429 244.2 118.071429 244.2 c
118.071429 244.2 118.071429 244.2 118.071429 244.2 c
118.071429 244.2 118.071429 244.2 118.071429 244.2 c
118.071429 244.2 118.071429 244.2 118.071429 244.2 c
118.071429 244.2 118.071429 244.2 118.071429 244.2 c
118.071429 244.2 118.071429 244.2 118.071429 244.2 c
cl
gsave
fill
grestore
stroke
grestore
gsave
279 277.2 45 39.6 clipbox
144.642857 240.327017 m
145.669984 240.327017 146.655181 240.735099 147.38147 241.461387 c
148.107759 242.187676 148.51584 243.172873 148.51584 244.2 c
148.51584 245.227127 148.107759 246.212324 147.38147 246.938613 c
146.655181 247.664901 145.669984 248.072983 144.642857 248.072983 c
143.61573 248.072983 142.630533 247.664901 141.904244 246.938613 c
141.177956 246.212324 140.769874 245.227127 140.769874 244.2 c
140.769874 243.172873 141.177956 242.187676 141.904244 241.461387 c
142.630533 240.735099 143.61573 240.327017 144.642857 240.327017 c
cl
gsave
fill
grestore
stroke
grestore
gsave
279 277.2 45 39.6 clipbox
171.214286 244.2 m
171.214286 244.2 171.214286 244.2 171.214286 244.2 c
171.214286 244.2 171.214286 244.2 171.214286 244.2 c
171.214286 244.2 171.214286 244.2 171.214286 244.2 c
171.214286 244.2 171.214286 244.2 171.214286 244.2 c
171.214286 244.2 171.214286 244.2 171.214286 244.2 c
171.214286 244.2 171.214286 244.2 171.214286 244.2 c
171.214286 244.2 171.214286 244.2 171.214286 244.2 c
171.214286 244.2 171.214286 244.2 171.214286 244.2 c
cl
gsave
fill
grestore
stroke
grestore
gsave
279 277.2 45 39.6 clipbox
197.785714 240.327017 m
198.812841 240.327017 199.798038 240.735099 200.524327 241.461387 c
201.250616 242.187676 201.658698 243.172873 201.658698 244.2 c
201.658698 245.227127 201.250616 246.212324 200.524327 246.938613 c
199.798038 247.664901 198.812841 248.072983 197.785714 248.072983 c
196.758587 248.072983 195.77339 247.664901 195.047101 246.938613 c
194.320813 246.212324 193.912731 245.227127 193.912731 244.2 c
193.912731 243.172873 194.320813 242.187676 195.047101 241.461387 c
195.77339 240.735099 196.758587 240.327017 197.785714 240.327017 c
cl
gsave
fill
grestore
stroke
grestore
gsave
279 277.2 45 39.6 clipbox
224.357143 240.327017 m
225.38427 240.327017 226.369467 240.735099 227.095756 241.461387 c
227.822044 242.187676 228.230126 243.172873 228.230126 244.2 c
228.230126 245.227127 227.822044 246.212324 227.095756 246.938613 c
226.369467 247.664901 225.38427 248.072983 224.357143 248.072983 c
223.330016 248.072983 222.344819 247.664901 221.61853 246.938613 c
220.892241 246.212324 220.48416 245.227127 220.48416 244.2 c
220.48416 243.172873 220.892241 242.187676 221.61853 241.461387 c
222.344819 240.735099 223.330016 240.327017 224.357143 240.327017 c
cl
gsave
fill
grestore
stroke
grestore
gsave
279 277.2 45 39.6 clipbox
250.928571 244.2 m
250.928571 244.2 250.928571 244.2 250.928571 244.2 c
250.928571 244.2 250.928571 244.2 250.928571 244.2 c
250.928571 244.2 250.928571 244.2 250.928571 244.2 c
250.928571 244.2 250.928571 244.2 250.928571 244.2 c
250.928571 244.2 250.928571 244.2 250.928571 244.2 c
250.928571 244.2 250.928571 244.2 250.928571 244.2 c
250.928571 244.2 250.928571 244.2 250.928571 244.2 c
250.928571 244.2 250.928571 244.2 250.928571 244.2 c
cl
gsave
fill
grestore
stroke
grestore
gsave
279 277.2 45 39.6 clipbox
277.5 240.327017 m
278.527127 240.327017 279.512324 240.735099 280.238613 241.461387 c
280.964901 242.187676 281.372983 243.172873 281.372983 244.2 c
281.372983 245.227127 280.964901 246.212324 280.238613 246.938613 c
279.512324 247.664901 278.527127 248.072983 277.5 248.072983 c
276.472873 248.072983 275.487676 247.664901 274.761387 246.938613 c
274.035099 246.212324 273.627017 245.227127 273.627017 244.2 c
273.627017 243.172873 274.035099 242.187676 274.761387 241.461387 c
275.487676 240.735099 276.472873 240.327017 277.5 240.327017 c
cl
gsave
fill
grestore
stroke
grestore
gsave
279 277.2 45 39.6 clipbox
304.071429 240.327017 m
305.098556 240.327017 306.083753 240.735099 306.810041 241.461387 c
307.53633 242.187676 307.944412 243.172873 307.944412 244.2 c
307.944412 245.227127 307.53633 246.212324 306.810041 246.938613 c
306.083753 247.664901 305.098556 248.072983 304.071429 248.072983 c
303.044301 248.072983 302.059104 247.664901 301.332816 246.938613 c
300.606527 246.212324 300.198445 245.227127 300.198445 244.2 c
300.198445 243.172873 300.606527 242.187676 301.332816 241.461387 c
302.059104 240.735099 303.044301 240.327017 304.071429 240.327017 c
cl
gsave
fill
grestore
stroke
grestore
gsave
279 277.2 45 39.6 clipbox
64.928571 270.6 m
64.928571 270.6 64.928571 270.6 64.928571 270.6 c
64.928571 270.6 64.928571 270.6 64.928571 270.6 c
64.928571 270.6 64.928571 270.6 64.928571 270.6 c
64.928571 270.6 64.928571 270.6 64.928571 270.6 c
64.928571 270.6 64.928571 270.6 64.928571 270.6 c
64.928571 270.6 64.928571 270.6 64.928571 270.6 c
64.928571 270.6 64.928571 270.6 64.928571 270.6 c
64.928571 270.6 64.928571 270.6 64.928571 270.6 c
cl
gsave
fill
grestore
stroke
grestore
gsave
279 277.2 45 39.6 clipbox
91.5 270.6 m
91.5 270.6 91.5 270.6 91.5 270.6 c
91.5 270.6 91.5 270.6 91.5 270.6 c
91.5 270.6 91.5 270.6 91.5 270.6 c
91.5 270.6 91.5 270.6 91.5 270.6 c
91.5 270.6 91.5 270.6 91.5 270.6 c
91.5 270.6 91.5 270.6 91.5 270.6 c
91.5 270.6 91.5 270.6 91.5 270.6 c
91.5 270.6 91.5 270.6 91.5 270.6 c
cl
gsave
fill
grestore
stroke
grestore
gsave
279 277.2 45 39.6 clipbox
118.071429 270.6 m
118.071429 270.6 118.071429 270.6 118.071429 270.6 c
118.071429 270.6 118.071429 270.6 118.071429 270.6 c
118.071429 270.6 118.071429 270.6 118.071429 270.6 c
118.071429 270.6 118.071429 270.6 118.071429 270.6 c
118.071429 270.6 118.071429 270.6 118.071429 270.6 c
118.071429 270.6 118.071429 270.6 118.071429 270.6 c
118.071429 270.6 118.071429 270.6 118.071429 270.6 c
118.071429 270.6 118.071429 270.6 118.071429 270.6 c
cl
gsave
fill
grestore
stroke
grestore
gsave
279 277.2 45 39.6 clipbox
144.642857 270.6 m
144.642857 270.6 144.642857 270.6 144.642857 270.6 c
144.642857 270.6 144.642857 270.6 144.642857 270.6 c
144.642857 270.6 144.642857 270.6 144.642857 270.6 c
144.642857 270.6 144.642857 270.6 144.642857 270.6 c
144.642857 270.6 144.642857 270.6 144.642857 270.6 c
144.642857 270.6 144.642857 270.6 144.642857 270.6 c
144.642857 270.6 144.642857 270.6 144.642857 270.6 c
144.642857 270.6 144.642857 270.6 144.642857 270.6 c
cl
gsave
fill
grestore
stroke
grestore
gsave
279 277.2 45 39.6 clipbox
171.214286 270.6 m
171.214286 270.6 171.214286 270.6 171.214286 270.6 c
171.214286 270.6 171.214286 270.6 171.214286 270.6 c
171.214286 270.6 171.214286 270.6 171.214286 270.6 c
171.214286 270.6 171.214286 270.6 171.214286 270.6 c
171.214286 270.6 171.214286 270.6 171.214286 270.6 c
171.214286 270.6 171.214286 270.6 171.214286 270.6 c
171.214286 270.6 171.214286 270.6 171.214286 270.6 c
171.214286 270.6 171.214286 270.6 171.214286 270.6 c
cl
gsave
fill
grestore
stroke
grestore
gsave
279 277.2 45 39.6 clipbox
197.785714 270.6 m
197.785714 270.6 197.785714 270.6 197.785714 270.6 c
197.785714 270.6 197.785714 270.6 197.785714 270.6 c
197.785714 270.6 197.785714 270.6 197.785714 270.6 c
197.785714 270.6 197.785714 270.6 197.785714 270.6 c
197.785714 270.6 197.785714 270.6 197.785714 270.6 c
197.785714 270.6 197.785714 270.6 197.785714 270.6 c
197.785714 270.6 197.785714 270.6 197.785714 270.6 c
197.785714 270.6 197.785714 270.6 197.785714 270.6 c
cl
gsave
fill
grestore
stroke
grestore
gsave
279 277.2 45 39.6 clipbox
224.357143 266.727017 m
225.38427 266.727017 226.369467 267.135099 227.095756 267.861387 c
227.822044 268.587676 228.230126 269.572873 228.230126 270.6 c
228.230126 271.627127 227.822044 272.612324 227.095756 273.338613 c
226.369467 274.064901 225.38427 274.472983 224.357143 274.472983 c
223.330016 274.472983 222.344819 274.064901 221.61853 273.338613 c
220.892241 272.612324 220.48416 271.627127 220.48416 270.6 c
220.48416 269.572873 220.892241 268.587676 221.61853 267.861387 c
222.344819 267.135099 223.330016 266.727017 224.357143 266.727017 c
cl
gsave
fill
grestore
stroke
grestore
gsave
279 277.2 45 39.6 clipbox
250.928571 270.6 m
250.928571 270.6 250.928571 270.6 250.928571 270.6 c
250.928571 270.6 250.928571 270.6 250.928571 270.6 c
250.928571 270.6 250.928571 270.6 250.928571 270.6 c
250.928571 270.6 250.928571 270.6 250.928571 270.6 c
250.928571 270.6 250.928571 270.6 250.928571 270.6 c
250.928571 270.6 250.928571 270.6 250.928571 270.6 c
250.928571 270.6 250.928571 270.6 250.928571 270.6 c
250.928571 270.6 250.928571 270.6 250.928571 270.6 c
cl
gsave
fill
grestore
stroke
grestore
gsave
279 277.2 45 39.6 clipbox
277.5 266.727017 m
278.527127 266.727017 279.512324 267.135099 280.238613 267.861387 c
280.964901 268.587676 281.372983 269.572873 281.372983 270.6 c
281.372983 271.627127 280.964901 272.612324 280.238613 273.338613 c
279.512324 274.064901 278.527127 274.472983 277.5 274.472983 c
276.472873 274.472983 275.487676 274.064901 274.761387 273.338613 c
274.035099 272.612324 273.627017 271.627127 273.627017 270.6 c
273.627017 269.572873 274.035099 268.587676 274.761387 267.861387 c
275.487676 267.135099 276.472873 266.727017 277.5 266.727017 c
cl
gsave
fill
grestore
stroke
grestore
gsave
279 277.2 45 39.6 clipbox
304.071429 270.6 m
304.071429 270.6 304.071429 270.6 304.071429 270.6 c
304.071429 270.6 304.071429 270.6 304.071429 270.6 c
304.071429 270.6 304.071429 270.6 304.071429 270.6 c
304.071429 270.6 304.071429 270.6 304.071429 270.6 c
304.071429 270.6 304.071429 270.6 304.071429 270.6 c
304.071429 270.6 304.071429 270.6 304.071429 270.6 c
304.071429 270.6 304.071429 270.6 304.071429 270.6 c
304.071429 270.6 304.071429 270.6 304.071429 270.6 c
cl
gsave
fill
grestore
stroke
grestore
gsave
279 277.2 45 39.6 clipbox
64.928571 297 m
64.928571 297 64.928571 297 64.928571 297 c
64.928571 297 64.928571 297 64.928571 297 c
64.928571 297 64.928571 297 64.928571 297 c
64.928571 297 64.928571 297 64.928571 297 c
64.928571 297 64.928571 297 64.928571 297 c
64.928571 297 64.928571 297 64.928571 297 c
64.928571 297 64.928571 297 64.928571 297 c
64.928571 297 64.928571 297 64.928571 297 c
cl
gsave
fill
grestore
stroke
grestore
gsave
279 277.2 45 39.6 clipbox
91.5 297 m
91.5 297 91.5 297 91.5 297 c
91.5 297 91.5 297 91.5 297 c
91.5 297 91.5 297 91.5 297 c
91.5 297 91.5 297 91.5 297 c
91.5 297 91.5 297 91.5 297 c
91.5 297 91.5 297 91.5 297 c
91.5 297 91.5 297 91.5 297 c
91.5 297 91.5 297 91.5 297 c
cl
gsave
fill
grestore
stroke
grestore
gsave
279 277.2 45 39.6 clipbox
118.071429 297 m
118.071429 297 118.071429 297 118.071429 297 c
118.071429 297 118.071429 297 118.071429 297 c
118.071429 297 118.071429 297 118.071429 297 c
118.071429 297 118.071429 297 118.071429 297 c
118.071429 297 118.071429 297 118.071429 297 c
118.071429 297 118.071429 297 118.071429 297 c
118.071429 297 118.071429 297 118.071429 297 c
118.071429 297 118.071429 297 118.071429 297 c
cl
gsave
fill
grestore
stroke
grestore
gsave
279 277.2 45 39.6 clipbox
144.642857 297 m
144.642857 297 144.642857 297 144.642857 297 c
144.642857 297 144.642857 297 144.642857 297 c
144.642857 297 144.642857 297 144.642857 297 c
144.642857 297 144.642857 297 144.642857 297 c
144.642857 297 144.642857 297 144.642857 297 c
144.642857 297 144.642857 297 144.642857 297 c
144.642857 297 144.642857 297 144.642857 297 c
144.642857 297 144.642857 297 144.642857 297 c
cl
gsave
fill
grestore
stroke
grestore
gsave
279 277.2 45 39.6 clipbox
171.214286 297 m
171.214286 297 171.214286 297 171.214286 297 c
171.214286 297 171.214286 297 171.214286 297 c
171.214286 297 171.214286 297 171.214286 297 c
171.214286 297 171.214286 297 171.214286 297 c
171.214286 297 171.214286 297 171.214286 297 c
171.214286 297 171.214286 297 171.214286 297 c
171.214286 297 171.214286 297 171.214286 297 c
171.214286 297 171.214286 297 171.214286 297 c
cl
gsave
fill
grestore
stroke
grestore
gsave
279 277.2 45 39.6 clipbox
197.785714 297 m
197.785714 297 197.785714 297 197.785714 297 c
197.785714 297 197.785714 297 197.785714 297 c
197.785714 297 197.785714 297 197.785714 297 c
197.785714 297 197.785714 297 197.785714 297 c
197.785714 297 197.785714 297 197.785714 297 c
197.785714 297 197.785714 297 197.785714 297 c
197.785714 297 197.785714 297 197.785714 297 c
197.785714 297 197.785714 297 197.785714 297 c
cl
gsave
fill
grestore
stroke
grestore
gsave
279 277.2 45 39.6 clipbox
224.357143 297 m
224.357143 297 224.357143 297 224.357143 297 c
224.357143 297 224.357143 297 224.357143 297 c
224.357143 297 224.357143 297 224.357143 297 c
224.357143 297 224.357143 297 224.357143 297 c
224.357143 297 224.357143 297 224.357143 297 c
224.357143 297 224.357143 297 224.357143 297 c
224.357143 297 224.357143 297 224.357143 297 c
224.357143 297 224.357143 297 224.357143 297 c
cl
gsave
fill
grestore
stroke
grestore
gsave
279 277.2 45 39.6 clipbox
250.928571 297 m
250.928571 297 250.928571 297 250.928571 297 c
250.928571 297 250.928571 297 250.928571 297 c
250.928571 297 250.928571 297 250.928571 297 c
250.928571 297 250.928571 297 250.928571 297 c
250.928571 297 250.928571 297 250.928571 297 c
250.928571 297 250.928571 297 250.928571 297 c
250.928571 297 250.928571 297 250.928571 297 c
250.928571 297 250.928571 297 250.928571 297 c
cl
gsave
fill
grestore
stroke
grestore
gsave
279 277.2 45 39.6 clipbox
277.5 297 m
277.5 297 277.5 297 277.5 297 c
277.5 297 277.5 297 277.5 297 c
277.5 297 277.5 297 277.5 297 c
277.5 297 277.5 297 277.5 297 c
277.5 297 277.5 297 277.5 297 c
277.5 297 277.5 297 277.5 297 c
277.5 297 277.5 297 277.5 297 c
277.5 297 277.5 297 277.5 297 c
cl
gsave
fill
grestore
stroke
grestore
gsave
279 277.2 45 39.6 clipbox
304.071429 297 m
304.071429 297 304.071429 297 304.071429 297 c
304.071429 297 304.071429 297 304.071429 297 c
304.071429 297 304.071429 297 304.071429 297 c
304.071429 297 304.071429 297 304.071429 297 c
304.071429 297 304.071429 297 304.071429 297 c
304.071429 297 304.071429 297 304.071429 297 c
304.071429 297 304.071429 297 304.071429 297 c
304.071429 297 304.071429 297 304.071429 297 c
cl
gsave
fill
grestore
stroke
grestore
1.000 0.000 0.000 setrgbcolor
gsave
279 277.2 45 39.6 clipbox
/o {
gsave
newpath
translate
1.0 setlinewidth
1 setlinejoin
0 setlinecap
0 -2.236068 m
0.593012 -2.236068 1.161816 -2.000462 1.581139 -1.581139 c
2.000462 -1.161816 2.236068 -0.593012 2.236068 0 c
2.236068 0.593012 2.000462 1.161816 1.581139 1.581139 c
1.161816 2.000462 0.593012 2.236068 0 2.236068 c
-0.593012 2.236068 -1.161816 2.000462 -1.581139 1.581139 c
-2.000462 1.161816 -2.236068 0.593012 -2.236068 0 c
-2.236068 -0.593012 -2.000462 -1.161816 -1.581139 -1.581139 c
-1.161816 -2.000462 -0.593012 -2.236068 0 -2.236068 c
cl

gsave
1.000 0.000 0.000 setrgbcolor
fill
grestore
stroke
grestore
} bind def
118.071 112.2 o
118.071 138.6 o
118.071 165 o
118.071 191.4 o
118.071 217.8 o
144.643 217.8 o
224.357 244.2 o
250.929 244.2 o
277.5 244.2 o
grestore
0 setlinejoin
[] 0 setdash
0.976 0.451 0.024 setrgbcolor
gsave
279 277.2 45 39.6 clipbox
61.51085 219.837403 m
65.953888 219.497836 l
64.933698 217.808489 l
164.576555 158.408489 l
164.566302 158.391511 l
64.923445 217.791511 l
63.903255 216.102164 l
cl
gsave
fill
grestore
stroke
grestore
0.082 0.690 0.102 setrgbcolor
gsave
279 277.2 45 39.6 clipbox
307.903788 199.087896 m
304.618909 196.096183 l
304.074166 197.990481 l
164.574166 158.390481 l
164.568691 158.409519 l
304.068691 198.009519 l
303.523949 199.903817 l
cl
gsave
fill
grestore
stroke
grestore
0.800 setlinewidth
1 setlinejoin
[] 0 setdash
0.000 setgray
gsave
/o {
gsave
newpath
translate
0.8 setlinewidth
1 setlinejoin
0 setlinecap
0 0 m
0 -3.5 l

gsave
0.000 setgray
fill
grestore
stroke
grestore
} bind def
64.9286 39.6 o
grestore
/DejaVuSans findfont
10.000 scalefont
setfont
gsave
57.561384 25.006250 translate
0.000000 rotate
0.000000 0.000000 m /minus glyphshow
8.378906 0.000000 m /six glyphshow
grestore
gsave
/o {
gsave
newpath
translate
0.8 setlinewidth
1 setlinejoin
0 setlinecap
0 0 m
0 -3.5 l

gsave
0.000 setgray
fill
grestore
stroke
grestore
} bind def
104.786 39.6 o
grestore
gsave
97.418527 25.006250 translate
0.000000 rotate
0.000000 0.000000 m /minus glyphshow
8.378906 0.000000 m /four glyphshow
grestore
gsave
/o {
gsave
newpath
translate
0.8 setlinewidth
1 setlinejoin
0 setlinecap
0 0 m
0 -3.5 l

gsave
0.000 setgray
fill
grestore
stroke
grestore
} bind def
144.643 39.6 o
grestore
gsave
137.275670 25.006250 translate
0.000000 rotate
0.000000 0.000000 m /minus glyphshow
8.378906 0.000000 m /two glyphshow
grestore
gsave
/o {
gsave
newpath
translate
0.8 setlinewidth
1 setlinejoin
0 setlinecap
0 0 m
0 -3.5 l

gsave
0.000 setgray
fill
grestore
stroke
grestore
} bind def
184.5 39.6 o
grestore
gsave
181.320312 25.006250 translate
0.000000 rotate
0.000000 0.000000 m /zero glyphshow
grestore
gsave
/o {
gsave
newpath
translate
0.8 setlinewidth
1 setlinejoin
0 setlinecap
0 0 m
0 -3.5 l

gsave
0.000 setgray
fill
grestore
stroke
grestore
} bind def
224.357 39.6 o
grestore
gsave
221.177455 25.006250 translate
0.000000 rotate
0.000000 0.000000 m /two glyphshow
grestore
gsave
/o {
gsave
newpath
translate
0.8 setlinewidth
1 setlinejoin
0 setlinecap
0 0 m
0 -3.5 l

gsave
0.000 setgray
fill
grestore
stroke
grestore
} bind def
264.214 39.6 o
grestore
gsave
261.034598 25.006250 translate
0.000000 rotate
0.000000 0.000000 m /four glyphshow
grestore
gsave
/o {
gsave
newpath
translate
0.8 setlinewidth
1 setlinejoin
0 setlinecap
0 0 m
0 -3.5 l

gsave
0.000 setgray
fill
grestore
stroke
grestore
} bind def
304.071 39.6 o
grestore
gsave
300.891741 25.006250 translate
0.000000 rotate
0.000000 0.000000 m /six glyphshow
grestore
gsave
/o {
gsave
newpath
translate
0.8 setlinewidth
1 setlinejoin
0 setlinecap
0 0 m
-3.5 0 l

gsave
0.000 setgray
fill
grestore
stroke
grestore
} bind def
45 59.4 o
grestore
gsave
23.265625 55.603125 translate
0.000000 rotate
0.000000 0.000000 m /minus glyphshow
8.378906 0.000000 m /six glyphshow
grestore
gsave
/o {
gsave
newpath
translate
0.8 setlinewidth
1 setlinejoin
0 setlinecap
0 0 m
-3.5 0 l

gsave
0.000 setgray
fill
grestore
stroke
grestore
} bind def
45 99 o
grestore
gsave
23.265625 95.203125 translate
0.000000 rotate
0.000000 0.000000 m /minus glyphshow
8.378906 0.000000 m /four glyphshow
grestore
gsave
/o {
gsave
newpath
translate
0.8 setlinewidth
1 setlinejoin
0 setlinecap
0 0 m
-3.5 0 l

gsave
0.000 setgray
fill
grestore
stroke
grestore
} bind def
45 138.6 o
grestore
gsave
23.265625 134.803125 translate
0.000000 rotate
0.000000 0.000000 m /minus glyphshow
8.378906 0.000000 m /two glyphshow
grestore
gsave
/o {
gsave
newpath
translate
0.8 setlinewidth
1 setlinejoin
0 setlinecap
0 0 m
-3.5 0 l

gsave
0.000 setgray
fill
grestore
stroke
grestore
} bind def
45 178.2 o
grestore
gsave
31.640625 174.403125 translate
0.000000 rotate
0.000000 0.000000 m /zero glyphshow
grestore
gsave
/o {
gsave
newpath
translate
0.8 setlinewidth
1 setlinejoin
0 setlinecap
0 0 m
-3.5 0 l

gsave
0.000 setgray
fill
grestore
stroke
grestore
} bind def
45 217.8 o
grestore
gsave
31.640625 214.003125 translate
0.000000 rotate
0.000000 0.000000 m /two glyphshow
grestore
gsave
/o {
gsave
newpath
translate
0.8 setlinewidth
1 setlinejoin
0 setlinecap
0 0 m
-3.5 0 l

gsave
0.000 setgray
fill
grestore
stroke
grestore
} bind def
45 257.4 o
grestore
gsave
31.640625 253.603125 translate
0.000000 rotate
0.000000 0.000000 m /four glyphshow
grestore
gsave
/o {
gsave
newpath
translate
0.8 setlinewidth
1 setlinejoin
0 setlinecap
0 0 m
-3.5 0 l

gsave
0.000 setgray
fill
grestore
stroke
grestore
} bind def
45 297 o
grestore
gsave
31.640625 293.203125 translate
0.000000 rotate
0.000000 0.000000 m /six glyphshow
grestore
1.500 setlinewidth
gsave
279 277.2 45 39.6 clipbox
107.632653 100.960337 m
113.326531 98.785506 l
119.020408 98.476754 l
124.714286 99.164874 l
129.296868 101.828571 l
130.408163 103.575873 l
131.720343 107.485714 l
132.290588 113.142857 l
132.459712 118.8 l
132.512449 124.457143 l
132.529148 130.114286 l
132.534462 135.771429 l
132.536156 141.428571 l
132.536711 147.085714 l
132.537035 152.742857 l
132.537509 158.4 l
132.53874 164.057143 l
132.542575 169.714286 l
132.554612 175.371429 l
132.592521 181.028571 l
132.713049 186.685714 l
133.108029 192.342857 l
134.542706 198 l
136.102041 200.072138 l
141.795918 202.751523 l
146.745064 203.657143 l
147.489796 203.78197 l
153.183673 205.356738 l
157.076367 209.314286 l
158.331768 214.971429 l
158.326708 220.628571 l
157.044724 226.285714 l
153.183673 230.15771 l
147.489796 231.558495 l
141.795918 231.932446 l
141.175371 231.942857 l
136.102041 232.058492 l
130.408163 232.114383 l
124.714286 232.181051 l
119.020408 232.34349 l
113.326531 232.736808 l
107.632653 233.26112 l
103.468342 231.942857 l
102.678893 226.285714 l
103.158493 220.628571 l
103.472444 214.971429 l
103.602565 209.314286 l
103.647975 203.657143 l
103.662891 198 l
103.667693 192.342857 l
103.669229 186.685714 l
103.66972 181.028571 l
103.669876 175.371429 l
103.669926 169.714286 l
103.669942 164.057143 l
103.669947 158.4 l
103.669977 152.742857 l
103.670183 147.085714 l
103.670721 141.428571 l
103.672375 135.771429 l
103.677559 130.114286 l
103.693853 124.457143 l
103.745327 118.8 l
103.910561 113.142857 l
104.469498 107.485714 l
106.754826 101.828571 l
107.632653 100.960337 l
stroke
grestore
gsave
279 277.2 45 39.6 clipbox
215.816327 231.753667 m
221.510204 230.368161 l
227.204082 229.993734 l
232.897959 229.88007 l
238.591837 229.844308 l
244.285714 229.83278 l
249.979592 229.829277 l
255.673469 229.831024 l
261.367347 229.838987 l
267.061224 229.863421 l
272.755102 229.940522 l
278.44898 230.190315 l
284.142857 231.063349 l
286.201602 231.942857 l
289.836735 235.663518 l
290.65347 237.6 l
291.359876 243.257143 l
291.042413 248.914286 l
289.836735 252.687741 l
288.730515 254.571429 l
284.142857 257.296558 l
278.44898 258.154333 l
272.755102 258.398545 l
267.061224 258.473816 l
261.367347 258.497659 l
255.673469 258.505428 l
249.979592 258.507132 l
244.285714 258.503715 l
238.591837 258.492467 l
232.897959 258.45757 l
227.204082 258.346605 l
221.510204 257.980502 l
215.816327 256.61722 l
213.134346 254.571429 l
210.889175 248.914286 l
210.575369 243.257143 l
211.284566 237.6 l
215.475059 231.942857 l
215.816327 231.753667 l
stroke
grestore
[5.55 2.4] 0 setdash
gsave
279 277.2 45 39.6 clipbox
96.244898 89.649148 m
101.938776 89.649148 l
107.632653 89.649148 l
113.326531 89.649148 l
119.020408 89.649148 l
124.714286 89.649148 l
130.408163 89.649148 l
136.102041 89.649148 l
138.81745 90.514286 l
140.811303 96.171429 l
140.811303 101.828571 l
140.811303 107.485714 l
140.811303 113.142857 l
140.811303 118.8 l
140.811303 124.457143 l
140.811303 130.114286 l
140.811303 135.771429 l
140.811303 141.428571 l
140.811303 147.085714 l
140.811303 152.742857 l
140.811303 158.4 l
140.811303 164.057143 l
140.811303 169.714286 l
140.811303 175.371429 l
140.811303 181.028571 l
140.811303 186.685714 l
140.811303 192.342857 l
141.795918 194.016175 l
147.489796 194.963426 l
153.183673 194.963426 l
158.877551 194.963426 l
164.571429 194.963426 l
167.627721 198 l
167.627721 203.657143 l
167.627721 209.314286 l
167.627721 214.971429 l
167.627721 220.628571 l
167.627721 226.285714 l
167.627721 231.942857 l
167.627721 237.6 l
164.571429 240.636574 l
158.877551 240.636574 l
153.183673 240.636574 l
147.489796 240.636574 l
141.795918 240.636574 l
136.102041 240.636574 l
130.408163 240.636574 l
124.714286 240.636574 l
119.020408 240.636574 l
113.326531 240.636574 l
107.632653 240.636574 l
101.938776 240.636574 l
96.244898 239.43852 l
95.374142 237.6 l
95.374142 231.942857 l
95.374142 226.285714 l
95.374142 220.628571 l
95.374142 214.971429 l
95.374142 209.314286 l
95.374142 203.657143 l
95.374142 198 l
95.374142 192.342857 l
95.374142 186.685714 l
95.374142 181.028571 l
95.374142 175.371429 l
95.374142 169.714286 l
95.374142 164.057143 l
95.374142 158.4 l
95.374142 152.742857 l
95.374142 147.085714 l
95.374142 141.428571 l
95.374142 135.771429 l
95.374142 130.114286 l
95.374142 124.457143 l
95.374142 118.8 l
95.374142 113.142857 l
95.374142 107.485714 l
95.374142 101.828571 l
95.374142 96.171429 l
95.374142 90.514286 l
96.244898 89.649148 l
stroke
grestore
gsave
279 277.2 45 39.6 clipbox
204.428571 221.971817 m
210.122449 221.606835 l
215.816327 221.606835 l
221.510204 221.606835 l
227.204082 221.606835 l
232.897959 221.606835 l
238.591837 221.606835 l
244.285714 221.606835 l
249.979592 221.606835 l
255.673469 221.606835 l
261.367347 221.606835 l
267.061224 221.606835 l
272.755102 221.606835 l
278.44898 221.606835 l
284.142857 221.606835 l
289.836735 221.606835 l
295.530612 221.606835 l
300.239874 226.285714 l
300.239874 231.942857 l
300.239874 237.6 l
300.239874 243.257143 l
300.239874 248.914286 l
300.239874 254.571429 l
300.239874 260.228571 l
298.246021 265.885714 l
295.530612 266.750852 l
289.836735 266.750852 l
284.142857 266.750852 l
278.44898 266.750852 l
272.755102 266.750852 l
267.061224 266.750852 l
261.367347 266.750852 l
255.673469 266.750852 l
249.979592 266.750852 l
244.285714 266.750852 l
238.591837 266.750852 l
232.897959 266.750852 l
227.204082 266.750852 l
221.510204 266.750852 l
215.816327 266.750852 l
210.122449 266.750852 l
204.428571 266.750852 l
203.019221 265.885714 l
201.372279 260.228571 l
201.372279 254.571429 l
201.372279 248.914286 l
201.372279 243.257143 l
201.372279 237.6 l
201.372279 231.942857 l
201.372279 226.285714 l
204.428571 221.971817 l
stroke
grestore
2 setlinecap
[] 0 setdash
0.000 0.500 0.000 setrgbcolor
gsave
279 277.2 45 39.6 clipbox
164.571429 158.4 m
stroke
grestore
1.000 setlinewidth
0 setlinejoin
0 setlinecap
gsave
279 277.2 45 39.6 clipbox
/o {
gsave
newpath
translate
1.0 setlinewidth
0 setlinejoin
0 setlinecap
0 4.5 m
-4.5 -4.5 l
4.5 -4.5 l
cl

gsave
0.000 0.500 0.000 setrgbcolor
fill
grestore
stroke
grestore
} bind def
164.571 158.4 o
grestore
0.800 setlinewidth
2 setlinecap
[] 0 setdash
0.000 setgray
gsave
45 39.6 m
45 316.8 l
stroke
grestore
gsave
324 39.6 m
324 316.8 l
stroke
grestore
gsave
45 39.6 m
324 39.6 l
stroke
grestore
gsave
45 316.8 m
324 316.8 l
stroke
grestore
1.000 setlinewidth
0 setlinecap
0.800 setgray
gsave
313 303.8 m
317 303.8 l
318.333333 303.8 319 304.466667 319 305.8 c
319 309.8 l
319 311.133333 318.333333 311.8 317 311.8 c
313 311.8 l
311.666667 311.8 311 311.133333 311 309.8 c
311 305.8 l
311 304.466667 311.666667 303.8 313 303.8 c
cl
gsave
1.000 setgray
fill
grestore
stroke
grestore

end
showpage
