%!PS-Adobe-3.0 EPSF-3.0
%%Title: /home/thaiduong/repo/papers/CoRL2019/fig/support_vec_count.eps
%%Creator: matplotlib version 3.0.2, http://matplotlib.org/
%%CreationDate: Wed Jun 26 21:52:21 2019
%%Orientation: portrait
%%BoundingBox: 75 223 536 568
%%EndComments
%%BeginProlog
/mpldict 8 dict def
mpldict begin
/m { moveto } bind def
/l { lineto } bind def
/r { rlineto } bind def
/c { curveto } bind def
/cl { closepath } bind def
/box {
m
1 index 0 r
0 exch r
neg 0 r
cl
} bind def
/clipbox {
box
clip
newpath
} bind def
%!PS-Adobe-3.0 Resource-Font
%%Title: DejaVu Sans
%%Copyright: Copyright (c) 2003 by Bitstream, Inc. All Rights Reserved. Copyright (c) 2006 by Tavmjong Bah. All Rights Reserved. DejaVu changes are in public domain 
%%Creator: Converted from TrueType to type 3 by PPR
25 dict begin
/_d{bind def}bind def
/_m{moveto}_d
/_l{lineto}_d
/_cl{closepath eofill}_d
/_c{curveto}_d
/_sc{7 -1 roll{setcachedevice}{pop pop pop pop pop pop}ifelse}_d
/_e{exec}_d
/FontName /DejaVuSans def
/PaintType 0 def
/FontMatrix[.001 0 0 .001 0 0]def
/FontBBox[-1021 -463 1793 1232]def
/FontType 3 def
/Encoding [ /space /quotesingle /zero /one /two /three /four /five /six /eight /a /b /c /d /e /f /g /i /l /m /n /o /p /r /s /t /u /v ] def
/FontInfo 10 dict dup begin
/FamilyName (DejaVu Sans) def
/FullName (DejaVu Sans) def
/Notice (Copyright (c) 2003 by Bitstream, Inc. All Rights Reserved. Copyright (c) 2006 by Tavmjong Bah. All Rights Reserved. DejaVu changes are in public domain ) def
/Weight (Book) def
/Version (Version 2.35) def
/ItalicAngle 0.0 def
/isFixedPitch false def
/UnderlinePosition -130 def
/UnderlineThickness 90 def
end readonly def
/CharStrings 29 dict dup begin
/.notdef 0 def
/space{318 0 0 0 0 0 _sc
}_d
/quotesingle{275 0 96 458 179 729 _sc
179 729 _m
179 458 _l
96 458 _l
96 729 _l
179 729 _l
_cl}_d
/zero{636 0 66 -13 570 742 _sc
318 664 _m
267 664 229 639 203 589 _c
177 539 165 464 165 364 _c
165 264 177 189 203 139 _c
229 89 267 64 318 64 _c
369 64 407 89 433 139 _c
458 189 471 264 471 364 _c
471 464 458 539 433 589 _c
407 639 369 664 318 664 _c
318 742 _m
399 742 461 709 505 645 _c
548 580 570 486 570 364 _c
570 241 548 147 505 83 _c
461 19 399 -13 318 -13 _c
236 -13 173 19 130 83 _c
87 147 66 241 66 364 _c
66 486 87 580 130 645 _c
173 709 236 742 318 742 _c
_cl}_d
/one{636 0 110 0 544 729 _sc
124 83 _m
285 83 _l
285 639 _l
110 604 _l
110 694 _l
284 729 _l
383 729 _l
383 83 _l
544 83 _l
544 0 _l
124 0 _l
124 83 _l
_cl}_d
/two{{636 0 73 0 536 742 _sc
192 83 _m
536 83 _l
536 0 _l
73 0 _l
73 83 _l
110 121 161 173 226 239 _c
290 304 331 346 348 365 _c
380 400 402 430 414 455 _c
426 479 433 504 433 528 _c
433 566 419 598 392 622 _c
365 646 330 659 286 659 _c
255 659 222 653 188 643 _c
154 632 117 616 78 594 _c
78 694 _l
118 710 155 722 189 730 _c
223 738 255 742 284 742 _c
}_e{359 742 419 723 464 685 _c
509 647 532 597 532 534 _c
532 504 526 475 515 449 _c
504 422 484 390 454 354 _c
446 344 420 317 376 272 _c
332 227 271 164 192 83 _c
_cl}_e}_d
/three{{636 0 76 -13 556 742 _sc
406 393 _m
453 383 490 362 516 330 _c
542 298 556 258 556 212 _c
556 140 531 84 482 45 _c
432 6 362 -13 271 -13 _c
240 -13 208 -10 176 -4 _c
144 1 110 10 76 22 _c
76 117 _l
103 101 133 89 166 81 _c
198 73 232 69 268 69 _c
330 69 377 81 409 105 _c
441 129 458 165 458 212 _c
458 254 443 288 413 312 _c
383 336 341 349 287 349 _c
}_e{202 349 _l
202 430 _l
291 430 _l
339 430 376 439 402 459 _c
428 478 441 506 441 543 _c
441 580 427 609 401 629 _c
374 649 336 659 287 659 _c
260 659 231 656 200 650 _c
169 644 135 635 98 623 _c
98 711 _l
135 721 170 729 203 734 _c
235 739 266 742 296 742 _c
370 742 429 725 473 691 _c
517 657 539 611 539 553 _c
539 513 527 479 504 451 _c
481 423 448 403 406 393 _c
_cl}_e}_d
/four{636 0 49 0 580 729 _sc
378 643 _m
129 254 _l
378 254 _l
378 643 _l
352 729 _m
476 729 _l
476 254 _l
580 254 _l
580 172 _l
476 172 _l
476 0 _l
378 0 _l
378 172 _l
49 172 _l
49 267 _l
352 729 _l
_cl}_d
/five{{636 0 77 -13 549 729 _sc
108 729 _m
495 729 _l
495 646 _l
198 646 _l
198 467 _l
212 472 227 476 241 478 _c
255 480 270 482 284 482 _c
365 482 429 459 477 415 _c
525 370 549 310 549 234 _c
549 155 524 94 475 51 _c
426 8 357 -13 269 -13 _c
238 -13 207 -10 175 -6 _c
143 -1 111 6 77 17 _c
77 116 _l
106 100 136 88 168 80 _c
199 72 232 69 267 69 _c
}_e{323 69 368 83 401 113 _c
433 143 450 183 450 234 _c
450 284 433 324 401 354 _c
368 384 323 399 267 399 _c
241 399 214 396 188 390 _c
162 384 135 375 108 363 _c
108 729 _l
_cl}_e}_d
/six{{636 0 70 -13 573 742 _sc
330 404 _m
286 404 251 388 225 358 _c
199 328 186 286 186 234 _c
186 181 199 139 225 109 _c
251 79 286 64 330 64 _c
374 64 409 79 435 109 _c
461 139 474 181 474 234 _c
474 286 461 328 435 358 _c
409 388 374 404 330 404 _c
526 713 _m
526 623 _l
501 635 476 644 451 650 _c
425 656 400 659 376 659 _c
310 659 260 637 226 593 _c
}_e{192 549 172 482 168 394 _c
187 422 211 444 240 459 _c
269 474 301 482 336 482 _c
409 482 467 459 509 415 _c
551 371 573 310 573 234 _c
573 159 550 99 506 54 _c
462 9 403 -13 330 -13 _c
246 -13 181 19 137 83 _c
92 147 70 241 70 364 _c
70 479 97 571 152 639 _c
206 707 280 742 372 742 _c
396 742 421 739 447 735 _c
472 730 498 723 526 713 _c
_cl}_e}_d
/eight{{636 0 68 -13 568 742 _sc
318 346 _m
271 346 234 333 207 308 _c
180 283 167 249 167 205 _c
167 161 180 126 207 101 _c
234 76 271 64 318 64 _c
364 64 401 76 428 102 _c
455 127 469 161 469 205 _c
469 249 455 283 429 308 _c
402 333 365 346 318 346 _c
219 388 _m
177 398 144 418 120 447 _c
96 476 85 511 85 553 _c
85 611 105 657 147 691 _c
188 725 245 742 318 742 _c
}_e{390 742 447 725 489 691 _c
530 657 551 611 551 553 _c
551 511 539 476 515 447 _c
491 418 459 398 417 388 _c
464 377 501 355 528 323 _c
554 291 568 251 568 205 _c
568 134 546 80 503 43 _c
459 5 398 -13 318 -13 _c
237 -13 175 5 132 43 _c
89 80 68 134 68 205 _c
68 251 81 291 108 323 _c
134 355 171 377 219 388 _c
183 544 _m
183 506 194 476 218 455 _c
}_e{242 434 275 424 318 424 _c
360 424 393 434 417 455 _c
441 476 453 506 453 544 _c
453 582 441 611 417 632 _c
393 653 360 664 318 664 _c
275 664 242 653 218 632 _c
194 611 183 582 183 544 _c
_cl}_e}_d
/a{{613 0 60 -13 522 560 _sc
343 275 _m
270 275 220 266 192 250 _c
164 233 150 205 150 165 _c
150 133 160 107 181 89 _c
202 70 231 61 267 61 _c
317 61 357 78 387 114 _c
417 149 432 196 432 255 _c
432 275 _l
343 275 _l
522 312 _m
522 0 _l
432 0 _l
432 83 _l
411 49 385 25 355 10 _c
325 -5 287 -13 243 -13 _c
187 -13 142 2 109 33 _c
76 64 60 106 60 159 _c
}_e{60 220 80 266 122 298 _c
163 329 224 345 306 345 _c
432 345 _l
432 354 _l
432 395 418 427 391 450 _c
364 472 326 484 277 484 _c
245 484 215 480 185 472 _c
155 464 127 453 100 439 _c
100 522 _l
132 534 164 544 195 550 _c
226 556 256 560 286 560 _c
365 560 424 539 463 498 _c
502 457 522 395 522 312 _c
_cl}_e}_d
/b{{635 0 91 -13 580 760 _sc
487 273 _m
487 339 473 390 446 428 _c
418 466 381 485 334 485 _c
286 485 249 466 222 428 _c
194 390 181 339 181 273 _c
181 207 194 155 222 117 _c
249 79 286 61 334 61 _c
381 61 418 79 446 117 _c
473 155 487 207 487 273 _c
181 464 _m
199 496 223 520 252 536 _c
281 552 316 560 356 560 _c
422 560 476 533 518 481 _c
559 428 580 359 580 273 _c
}_e{580 187 559 117 518 65 _c
476 13 422 -13 356 -13 _c
316 -13 281 -5 252 10 _c
223 25 199 49 181 82 _c
181 0 _l
91 0 _l
91 760 _l
181 760 _l
181 464 _l
_cl}_e}_d
/c{{550 0 55 -13 488 560 _sc
488 526 _m
488 442 _l
462 456 437 466 411 473 _c
385 480 360 484 334 484 _c
276 484 230 465 198 428 _c
166 391 150 339 150 273 _c
150 206 166 154 198 117 _c
230 80 276 62 334 62 _c
360 62 385 65 411 72 _c
437 79 462 90 488 104 _c
488 21 _l
462 9 436 0 410 -5 _c
383 -10 354 -13 324 -13 _c
242 -13 176 12 128 64 _c
}_e{79 115 55 185 55 273 _c
55 362 79 432 128 483 _c
177 534 244 560 330 560 _c
358 560 385 557 411 551 _c
437 545 463 537 488 526 _c
_cl}_e}_d
/d{{635 0 55 -13 544 760 _sc
454 464 _m
454 760 _l
544 760 _l
544 0 _l
454 0 _l
454 82 _l
435 49 411 25 382 10 _c
353 -5 319 -13 279 -13 _c
213 -13 159 13 117 65 _c
75 117 55 187 55 273 _c
55 359 75 428 117 481 _c
159 533 213 560 279 560 _c
319 560 353 552 382 536 _c
411 520 435 496 454 464 _c
148 273 _m
148 207 161 155 188 117 _c
215 79 253 61 301 61 _c
}_e{348 61 385 79 413 117 _c
440 155 454 207 454 273 _c
454 339 440 390 413 428 _c
385 466 348 485 301 485 _c
253 485 215 466 188 428 _c
161 390 148 339 148 273 _c
_cl}_e}_d
/e{{615 0 55 -13 562 560 _sc
562 296 _m
562 252 _l
149 252 _l
153 190 171 142 205 110 _c
238 78 284 62 344 62 _c
378 62 412 66 444 74 _c
476 82 509 95 541 113 _c
541 28 _l
509 14 476 3 442 -3 _c
408 -9 373 -13 339 -13 _c
251 -13 182 12 131 62 _c
80 112 55 181 55 268 _c
55 357 79 428 127 481 _c
175 533 241 560 323 560 _c
397 560 455 536 498 489 _c
}_e{540 441 562 377 562 296 _c
472 322 _m
471 371 457 410 431 440 _c
404 469 368 484 324 484 _c
274 484 234 469 204 441 _c
174 413 156 373 152 322 _c
472 322 _l
_cl}_e}_d
/f{352 0 23 0 371 760 _sc
371 760 _m
371 685 _l
285 685 _l
253 685 230 678 218 665 _c
205 652 199 629 199 595 _c
199 547 _l
347 547 _l
347 477 _l
199 477 _l
199 0 _l
109 0 _l
109 477 _l
23 477 _l
23 547 _l
109 547 _l
109 585 _l
109 645 123 690 151 718 _c
179 746 224 760 286 760 _c
371 760 _l
_cl}_d
/g{{635 0 55 -207 544 560 _sc
454 280 _m
454 344 440 395 414 431 _c
387 467 349 485 301 485 _c
253 485 215 467 188 431 _c
161 395 148 344 148 280 _c
148 215 161 165 188 129 _c
215 93 253 75 301 75 _c
349 75 387 93 414 129 _c
440 165 454 215 454 280 _c
544 68 _m
544 -24 523 -93 482 -139 _c
440 -184 377 -207 292 -207 _c
260 -207 231 -204 203 -200 _c
175 -195 147 -188 121 -178 _c
}_e{121 -91 _l
147 -105 173 -115 199 -122 _c
225 -129 251 -133 278 -133 _c
336 -133 380 -117 410 -87 _c
439 -56 454 -10 454 52 _c
454 96 _l
435 64 411 40 382 24 _c
353 8 319 0 279 0 _c
211 0 157 25 116 76 _c
75 127 55 195 55 280 _c
55 364 75 432 116 483 _c
157 534 211 560 279 560 _c
319 560 353 552 382 536 _c
411 520 435 496 454 464 _c
454 547 _l
544 547 _l
}_e{544 68 _l
_cl}_e}_d
/i{278 0 94 0 184 760 _sc
94 547 _m
184 547 _l
184 0 _l
94 0 _l
94 547 _l
94 760 _m
184 760 _l
184 646 _l
94 646 _l
94 760 _l
_cl}_d
/l{278 0 94 0 184 760 _sc
94 760 _m
184 760 _l
184 0 _l
94 0 _l
94 760 _l
_cl}_d
/m{{974 0 91 0 889 560 _sc
520 442 _m
542 482 569 511 600 531 _c
631 550 668 560 711 560 _c
767 560 811 540 842 500 _c
873 460 889 403 889 330 _c
889 0 _l
799 0 _l
799 327 _l
799 379 789 418 771 444 _c
752 469 724 482 686 482 _c
639 482 602 466 575 435 _c
548 404 535 362 535 309 _c
535 0 _l
445 0 _l
445 327 _l
445 379 435 418 417 444 _c
398 469 369 482 331 482 _c
}_e{285 482 248 466 221 435 _c
194 404 181 362 181 309 _c
181 0 _l
91 0 _l
91 547 _l
181 547 _l
181 462 _l
201 495 226 520 255 536 _c
283 552 317 560 357 560 _c
397 560 430 550 458 530 _c
486 510 506 480 520 442 _c
_cl}_e}_d
/n{634 0 91 0 549 560 _sc
549 330 _m
549 0 _l
459 0 _l
459 327 _l
459 379 448 417 428 443 _c
408 469 378 482 338 482 _c
289 482 251 466 223 435 _c
195 404 181 362 181 309 _c
181 0 _l
91 0 _l
91 547 _l
181 547 _l
181 462 _l
202 494 227 519 257 535 _c
286 551 320 560 358 560 _c
420 560 468 540 500 501 _c
532 462 549 405 549 330 _c
_cl}_d
/o{612 0 55 -13 557 560 _sc
306 484 _m
258 484 220 465 192 427 _c
164 389 150 338 150 273 _c
150 207 163 156 191 118 _c
219 80 257 62 306 62 _c
354 62 392 80 420 118 _c
448 156 462 207 462 273 _c
462 337 448 389 420 427 _c
392 465 354 484 306 484 _c
306 560 _m
384 560 445 534 490 484 _c
534 433 557 363 557 273 _c
557 183 534 113 490 63 _c
445 12 384 -13 306 -13 _c
227 -13 165 12 121 63 _c
77 113 55 183 55 273 _c
55 363 77 433 121 484 _c
165 534 227 560 306 560 _c
_cl}_d
/p{{635 0 91 -207 580 560 _sc
181 82 _m
181 -207 _l
91 -207 _l
91 547 _l
181 547 _l
181 464 _l
199 496 223 520 252 536 _c
281 552 316 560 356 560 _c
422 560 476 533 518 481 _c
559 428 580 359 580 273 _c
580 187 559 117 518 65 _c
476 13 422 -13 356 -13 _c
316 -13 281 -5 252 10 _c
223 25 199 49 181 82 _c
487 273 _m
487 339 473 390 446 428 _c
418 466 381 485 334 485 _c
}_e{286 485 249 466 222 428 _c
194 390 181 339 181 273 _c
181 207 194 155 222 117 _c
249 79 286 61 334 61 _c
381 61 418 79 446 117 _c
473 155 487 207 487 273 _c
_cl}_e}_d
/r{411 0 91 0 411 560 _sc
411 463 _m
401 469 390 473 378 476 _c
366 478 353 480 339 480 _c
288 480 249 463 222 430 _c
194 397 181 350 181 288 _c
181 0 _l
91 0 _l
91 547 _l
181 547 _l
181 462 _l
199 495 224 520 254 536 _c
284 552 321 560 365 560 _c
371 560 378 559 386 559 _c
393 558 401 557 411 555 _c
411 463 _l
_cl}_d
/s{{521 0 54 -13 472 560 _sc
443 531 _m
443 446 _l
417 458 391 468 364 475 _c
336 481 308 485 279 485 _c
234 485 200 478 178 464 _c
156 450 145 430 145 403 _c
145 382 153 366 169 354 _c
185 342 217 330 265 320 _c
296 313 _l
360 299 405 279 432 255 _c
458 230 472 195 472 151 _c
472 100 452 60 412 31 _c
372 1 316 -13 246 -13 _c
216 -13 186 -10 154 -5 _c
}_e{122 0 89 8 54 20 _c
54 113 _l
87 95 120 82 152 74 _c
184 65 216 61 248 61 _c
290 61 323 68 346 82 _c
368 96 380 117 380 144 _c
380 168 371 187 355 200 _c
339 213 303 226 247 238 _c
216 245 _l
160 257 119 275 95 299 _c
70 323 58 356 58 399 _c
58 450 76 490 112 518 _c
148 546 200 560 268 560 _c
301 560 332 557 362 552 _c
391 547 418 540 443 531 _c
}_e{_cl}_e}_d
/t{392 0 27 0 368 702 _sc
183 702 _m
183 547 _l
368 547 _l
368 477 _l
183 477 _l
183 180 _l
183 135 189 106 201 94 _c
213 81 238 75 276 75 _c
368 75 _l
368 0 _l
276 0 _l
206 0 158 13 132 39 _c
106 65 93 112 93 180 _c
93 477 _l
27 477 _l
27 547 _l
93 547 _l
93 702 _l
183 702 _l
_cl}_d
/u{634 0 85 -13 543 560 _sc
85 216 _m
85 547 _l
175 547 _l
175 219 _l
175 167 185 129 205 103 _c
225 77 255 64 296 64 _c
344 64 383 79 411 110 _c
439 141 453 183 453 237 _c
453 547 _l
543 547 _l
543 0 _l
453 0 _l
453 84 _l
431 50 405 26 377 10 _c
348 -5 315 -13 277 -13 _c
214 -13 166 6 134 45 _c
101 83 85 140 85 216 _c
311 560 _m
311 560 _l
_cl}_d
/v{592 0 30 0 562 547 _sc
30 547 _m
125 547 _l
296 88 _l
467 547 _l
562 547 _l
357 0 _l
235 0 _l
30 547 _l
_cl}_d
end readonly def

/BuildGlyph
 {exch begin
 CharStrings exch
 2 copy known not{pop /.notdef}if
 true 3 1 roll get exec
 end}_d

/BuildChar {
 1 index /Encoding get exch get
 1 index /BuildGlyph get exec
}_d

FontName currentdict end definefont pop
end
%%EndProlog
mpldict begin
75.6 223.2 translate
460.8 345.6 0 0 clipbox
gsave
0 0 m
460.8 0 l
460.8 345.6 l
0 345.6 l
cl
1.000 setgray
fill
grestore
gsave
57.6 38.016 m
414.72 38.016 l
414.72 304.128 l
57.6 304.128 l
cl
1.000 setgray
fill
grestore
0.800 setlinewidth
1 setlinejoin
0 setlinecap
[] 0 setdash
0.000 setgray
gsave
/o {
gsave
newpath
translate
0.8 setlinewidth
1 setlinejoin
0 setlinecap
0 0 m
0 -3.5 l

gsave
0.000 setgray
fill
grestore
stroke
grestore
} bind def
73.8327 38.016 o
grestore
/DejaVuSans findfont
10.000 scalefont
setfont
gsave
70.653040 23.422250 translate
0.000000 rotate
0.000000 0.000000 m /zero glyphshow
grestore
gsave
/o {
gsave
newpath
translate
0.8 setlinewidth
1 setlinejoin
0 setlinecap
0 0 m
0 -3.5 l

gsave
0.000 setgray
fill
grestore
stroke
grestore
} bind def
119.626 38.016 o
grestore
gsave
106.907693 23.422250 translate
0.000000 rotate
0.000000 0.000000 m /two glyphshow
6.362305 0.000000 m /zero glyphshow
12.724609 0.000000 m /zero glyphshow
19.086914 0.000000 m /zero glyphshow
grestore
gsave
/o {
gsave
newpath
translate
0.8 setlinewidth
1 setlinejoin
0 setlinecap
0 0 m
0 -3.5 l

gsave
0.000 setgray
fill
grestore
stroke
grestore
} bind def
165.42 38.016 o
grestore
gsave
152.701408 23.422250 translate
0.000000 rotate
0.000000 0.000000 m /four glyphshow
6.362305 0.000000 m /zero glyphshow
12.724609 0.000000 m /zero glyphshow
19.086914 0.000000 m /zero glyphshow
grestore
gsave
/o {
gsave
newpath
translate
0.8 setlinewidth
1 setlinejoin
0 setlinecap
0 0 m
0 -3.5 l

gsave
0.000 setgray
fill
grestore
stroke
grestore
} bind def
211.214 38.016 o
grestore
gsave
198.495124 23.422250 translate
0.000000 rotate
0.000000 0.000000 m /six glyphshow
6.362305 0.000000 m /zero glyphshow
12.724609 0.000000 m /zero glyphshow
19.086914 0.000000 m /zero glyphshow
grestore
gsave
/o {
gsave
newpath
translate
0.8 setlinewidth
1 setlinejoin
0 setlinecap
0 0 m
0 -3.5 l

gsave
0.000 setgray
fill
grestore
stroke
grestore
} bind def
257.008 38.016 o
grestore
gsave
244.288839 23.422250 translate
0.000000 rotate
0.000000 0.000000 m /eight glyphshow
6.362305 0.000000 m /zero glyphshow
12.724609 0.000000 m /zero glyphshow
19.086914 0.000000 m /zero glyphshow
grestore
gsave
/o {
gsave
newpath
translate
0.8 setlinewidth
1 setlinejoin
0 setlinecap
0 0 m
0 -3.5 l

gsave
0.000 setgray
fill
grestore
stroke
grestore
} bind def
302.801 38.016 o
grestore
gsave
286.902867 23.422250 translate
0.000000 rotate
0.000000 0.000000 m /one glyphshow
6.362305 0.000000 m /zero glyphshow
12.724609 0.000000 m /zero glyphshow
19.086914 0.000000 m /zero glyphshow
25.449219 0.000000 m /zero glyphshow
grestore
gsave
/o {
gsave
newpath
translate
0.8 setlinewidth
1 setlinejoin
0 setlinecap
0 0 m
0 -3.5 l

gsave
0.000 setgray
fill
grestore
stroke
grestore
} bind def
348.595 38.016 o
grestore
gsave
332.696582 23.422250 translate
0.000000 rotate
0.000000 0.000000 m /one glyphshow
6.362305 0.000000 m /two glyphshow
12.724609 0.000000 m /zero glyphshow
19.086914 0.000000 m /zero glyphshow
25.449219 0.000000 m /zero glyphshow
grestore
gsave
/o {
gsave
newpath
translate
0.8 setlinewidth
1 setlinejoin
0 setlinecap
0 0 m
0 -3.5 l

gsave
0.000 setgray
fill
grestore
stroke
grestore
} bind def
394.389 38.016 o
grestore
gsave
378.490298 23.422250 translate
0.000000 rotate
0.000000 0.000000 m /one glyphshow
6.362305 0.000000 m /four glyphshow
12.724609 0.000000 m /zero glyphshow
19.086914 0.000000 m /zero glyphshow
25.449219 0.000000 m /zero glyphshow
grestore
gsave
209.831875 9.750375 translate
0.000000 rotate
0.000000 0.000000 m /t glyphshow
3.920898 0.000000 m /i glyphshow
6.699219 0.000000 m /m glyphshow
16.440430 0.000000 m /e glyphshow
22.592773 0.000000 m /space glyphshow
25.771484 0.000000 m /s glyphshow
30.981445 0.000000 m /t glyphshow
34.902344 0.000000 m /e glyphshow
41.054688 0.000000 m /p glyphshow
47.402344 0.000000 m /s glyphshow
grestore
gsave
/o {
gsave
newpath
translate
0.8 setlinewidth
1 setlinejoin
0 setlinecap
0 0 m
-3.5 0 l

gsave
0.000 setgray
fill
grestore
stroke
grestore
} bind def
57.6 49.3985 o
grestore
gsave
44.240625 45.601615 translate
0.000000 rotate
0.000000 0.000000 m /zero glyphshow
grestore
gsave
/o {
gsave
newpath
translate
0.8 setlinewidth
1 setlinejoin
0 setlinecap
0 0 m
-3.5 0 l

gsave
0.000 setgray
fill
grestore
stroke
grestore
} bind def
57.6 89.4833 o
grestore
gsave
25.162500 85.686451 translate
0.000000 rotate
0.000000 0.000000 m /five glyphshow
6.362305 0.000000 m /zero glyphshow
12.724609 0.000000 m /zero glyphshow
19.086914 0.000000 m /zero glyphshow
grestore
gsave
/o {
gsave
newpath
translate
0.8 setlinewidth
1 setlinejoin
0 setlinecap
0 0 m
-3.5 0 l

gsave
0.000 setgray
fill
grestore
stroke
grestore
} bind def
57.6 129.568 o
grestore
gsave
18.803125 125.771286 translate
0.000000 rotate
0.000000 0.000000 m /one glyphshow
6.362305 0.000000 m /zero glyphshow
12.724609 0.000000 m /zero glyphshow
19.086914 0.000000 m /zero glyphshow
25.449219 0.000000 m /zero glyphshow
grestore
gsave
/o {
gsave
newpath
translate
0.8 setlinewidth
1 setlinejoin
0 setlinecap
0 0 m
-3.5 0 l

gsave
0.000 setgray
fill
grestore
stroke
grestore
} bind def
57.6 169.653 o
grestore
gsave
18.803125 165.856122 translate
0.000000 rotate
0.000000 0.000000 m /one glyphshow
6.362305 0.000000 m /five glyphshow
12.724609 0.000000 m /zero glyphshow
19.086914 0.000000 m /zero glyphshow
25.449219 0.000000 m /zero glyphshow
grestore
gsave
/o {
gsave
newpath
translate
0.8 setlinewidth
1 setlinejoin
0 setlinecap
0 0 m
-3.5 0 l

gsave
0.000 setgray
fill
grestore
stroke
grestore
} bind def
57.6 209.738 o
grestore
gsave
18.803125 205.940957 translate
0.000000 rotate
0.000000 0.000000 m /two glyphshow
6.362305 0.000000 m /zero glyphshow
12.724609 0.000000 m /zero glyphshow
19.086914 0.000000 m /zero glyphshow
25.449219 0.000000 m /zero glyphshow
grestore
gsave
/o {
gsave
newpath
translate
0.8 setlinewidth
1 setlinejoin
0 setlinecap
0 0 m
-3.5 0 l

gsave
0.000 setgray
fill
grestore
stroke
grestore
} bind def
57.6 249.823 o
grestore
gsave
18.803125 246.025793 translate
0.000000 rotate
0.000000 0.000000 m /two glyphshow
6.362305 0.000000 m /five glyphshow
12.724609 0.000000 m /zero glyphshow
19.086914 0.000000 m /zero glyphshow
25.449219 0.000000 m /zero glyphshow
grestore
gsave
/o {
gsave
newpath
translate
0.8 setlinewidth
1 setlinejoin
0 setlinecap
0 0 m
-3.5 0 l

gsave
0.000 setgray
fill
grestore
stroke
grestore
} bind def
57.6 289.908 o
grestore
gsave
18.803125 286.110629 translate
0.000000 rotate
0.000000 0.000000 m /three glyphshow
6.362305 0.000000 m /zero glyphshow
12.724609 0.000000 m /zero glyphshow
19.086914 0.000000 m /zero glyphshow
25.449219 0.000000 m /zero glyphshow
grestore
gsave
12.725000 156.954812 translate
90.000000 rotate
0.000000 0.000000 m /c glyphshow
5.498047 0.000000 m /o glyphshow
11.616211 0.000000 m /u glyphshow
17.954102 0.000000 m /n glyphshow
24.291992 0.000000 m /t glyphshow
grestore
1.500 setlinewidth
2 setlinecap
0.000 0.500 0.000 setrgbcolor
gsave
357.1 266.1 57.6 38.02 clipbox
73.832727 50.160102 m
79.007417 50.256305 l
79.213489 50.272339 l
81.068134 50.344492 l
81.205515 50.384577 l
82.808295 50.488797 l
83.014367 50.504831 l
85.189569 50.56095 l
85.32695 50.633103 l
91.783864 50.737323 l
92.653944 50.929731 l
100.896813 51.001883 l
101.034194 51.082053 l
104.651898 51.162223 l
104.766382 51.266443 l
105.819637 51.362647 l
106.025709 51.482901 l
106.689718 51.563071 l
106.827099 51.595139 l
107.170552 51.643241 l
107.307933 51.731427 l
107.903252 51.819614 l
108.040633 51.867716 l
109.093888 51.971936 l
109.231269 52.028055 l
110.124247 52.124259 l
110.261628 52.180378 l
110.627978 52.228479 l
110.765359 52.41287 l
111.452264 52.509073 l
111.589646 52.581226 l
111.955995 52.661396 l
112.093377 52.725531 l
112.688695 52.805701 l
112.826076 52.853803 l
113.856435 52.909922 l
113.970919 53.030176 l
114.268578 53.110346 l
114.405959 53.150431 l
115.001277 53.2306 l
115.138659 53.294736 l
116.214811 53.342838 l
116.329295 53.503177 l
117.634416 53.599381 l
117.794694 53.623432 l
117.817591 53.623432 l
117.932075 53.75972 l
118.298425 53.83989 l
118.412909 53.936093 l
119.031124 54.02428 l
119.168506 54.064365 l
119.763824 54.160568 l
119.878308 54.296857 l
120.702595 54.36901 l
120.817079 54.617536 l
121.183429 54.721756 l
121.32081 54.761841 l
121.939025 54.850028 l
122.076406 54.898129 l
126.93054 54.994333 l
127.090818 55.018384 l
128.693598 55.122604 l
128.830979 55.18674 l
131.029078 55.26691 l
131.166459 55.323029 l
132.746342 55.363113 l
132.883723 55.443283 l
134.94444 55.491385 l
135.058925 55.603622 l
136.409839 55.683792 l
136.547221 55.723877 l
136.867777 55.771979 l
137.005158 55.844131 l
138.287382 55.948352 l
138.44766 55.972403 l
140.210718 56.044556 l
140.348099 56.148776 l
142.248538 56.24498 l
142.385919 56.277048 l
142.958341 56.381268 l
143.095722 56.453421 l
143.62235 56.517557 l
143.759731 56.565659 l
144.080287 56.653845 l
144.217668 56.701947 l
144.835883 56.717981 l
144.950367 56.854269 l
145.22513 56.87832 l
145.339614 57.022626 l
145.843345 57.06271 l
145.957829 57.207016 l
146.072313 57.207016 l
146.186798 57.359338 l
146.392869 57.463559 l
146.53025 57.495627 l
147.423228 57.599847 l
147.583506 57.623898 l
150.399819 57.728119 l
150.560097 57.75217 l
151.613353 57.848373 l
151.750734 57.896475 l
152.368949 57.960611 l
152.483434 58.241205 l
152.87268 58.273273 l
153.010061 58.353442 l
153.376411 58.433612 l
153.490895 58.529815 l
154.360976 58.618002 l
154.521254 58.642053 l
155.116572 58.722223 l
155.253953 58.762308 l
156.353002 58.842477 l
156.490384 58.874545 l
158.070267 58.978766 l
158.505307 59.01885 l
159.535666 59.091003 l
159.65015 59.195224 l
160.245468 59.219275 l
160.359953 59.339529 l
160.497334 59.339529 l
160.611818 59.451767 l
161.001065 59.523919 l
161.138446 59.572021 l
162.214598 59.668225 l
162.351979 59.70831 l
166.381826 59.804513 l
166.49631 59.908734 l
167.206113 60.004937 l
167.320597 60.141226 l
167.709844 60.229413 l
167.870122 60.253463 l
168.350956 60.333633 l
168.488337 60.365701 l
168.854687 60.453888 l
168.992068 60.485955 l
169.358418 60.534057 l
169.495799 60.614227 l
170.342983 60.718448 l
170.480364 60.766549 l
170.594848 60.766549 l
170.709332 60.894821 l
171.098579 60.926889 l
171.23596 61.007058 l
171.854175 61.071194 l
171.968659 61.207483 l
172.747153 61.287652 l
172.907431 61.351788 l
173.846202 61.456008 l
174.052273 61.472042 l
174.349933 61.560229 l
174.487314 61.592297 l
174.601798 61.592297 l
174.716282 61.704534 l
175.105529 61.736602 l
175.220013 61.832806 l
175.60926 61.896942 l
175.723744 62.001162 l
176.112991 62.081332 l
176.250372 62.129434 l
177.326524 62.209603 l
177.463905 62.257705 l
177.532596 62.257705 l
177.64708 62.506231 l
178.036327 62.602435 l
178.173708 62.690621 l
178.540058 62.754757 l
178.677439 62.802859 l
178.952201 62.891046 l
179.089582 62.963198 l
179.410138 63.067419 l
179.547519 63.123538 l
179.913869 63.227758 l
180.074147 63.251809 l
180.371806 63.339996 l
180.48629 63.46025 l
180.967124 63.548437 l
181.081609 63.644641 l
181.21899 63.644641 l
181.333474 63.788946 l
181.676927 63.877133 l
181.791411 63.98937 l
182.684389 64.061523 l
182.798873 64.17376 l
183.439985 64.277981 l
183.737644 64.358151 l
184.653519 64.43832 l
184.7909 64.470388 l
185.409115 64.566592 l
185.546496 64.59866 l
186.02733 64.662795 l
186.164711 64.726931 l
186.324989 64.775033 l
186.46237 64.847186 l
187.813285 64.943389 l
188.019357 64.959423 l
188.820747 65.055627 l
188.981025 65.079678 l
190.057177 65.183898 l
190.194558 65.232 l
192.323966 65.304153 l
192.43845 65.41639 l
192.759006 65.520611 l
192.896387 65.592764 l
193.194047 65.632848 l
193.308531 65.745086 l
193.674881 65.84129 l
193.812262 65.913442 l
193.926746 65.913442 l
194.04123 66.033697 l
194.682342 66.121883 l
194.84262 66.145934 l
194.934208 66.145934 l
195.048692 66.29024 l
195.186073 66.29024 l
195.300557 66.482647 l
195.689804 66.562817 l
195.827185 66.634969 l
197.155203 66.699105 l
197.292584 66.763241 l
198.116871 66.867461 l
198.231355 66.963665 l
202.375686 67.043835 l
202.490171 67.148055 l
203.108386 67.244259 l
203.268664 67.26831 l
203.863982 67.348479 l
203.978466 67.516836 l
204.115848 67.516836 l
204.230332 67.701226 l
204.619579 67.789413 l
204.734063 67.925701 l
205.077516 67.957769 l
205.192 68.061989 l
207.527479 68.142159 l
207.664861 68.222329 l
208.008313 68.278448 l
208.145695 68.334566 l
208.76391 68.334566 l
208.878394 68.478872 l
209.267641 68.543007 l
209.382125 68.639211 l
210.023237 68.735415 l
210.137721 68.839635 l
210.275102 68.839635 l
210.389587 69.216433 l
210.526968 69.216433 l
210.641452 69.32867 l
211.786295 69.432891 l
211.923676 69.48901 l
216.548841 69.59323 l
216.869397 69.59323 l
218.311899 69.641332 l
218.426384 69.737536 l
219.571227 69.785637 l
219.708608 69.85779 l
220.326823 69.921926 l
220.464204 69.978045 l
221.082419 70.04218 l
221.196903 70.170452 l
221.58615 70.20252 l
221.700634 70.338808 l
222.089881 70.443029 l
222.250159 70.46708 l
222.593612 70.523198 l
222.730993 70.611385 l
223.097343 70.715606 l
223.303414 70.731639 l
229.119216 70.83586 l
229.279494 70.859911 l
230.882274 70.932064 l
231.019655 71.004216 l
231.386005 71.092403 l
231.500489 71.212657 l
231.889736 71.316878 l
232.027117 71.397048 l
232.141601 71.397048 l
232.256086 71.565404 l
233.90466 71.669625 l
234.019144 71.773845 l
234.660256 71.870049 l
234.797637 71.950218 l
256.023024 72.038405 l
256.183302 72.062456 l
257.030486 72.102541 l
257.167867 72.174694 l
260.556602 72.270897 l
260.671086 72.375118 l
264.334583 72.479338 l
264.678036 72.487355 l
268.36443 72.575542 l
268.501812 72.623644 l
274.157335 72.71183 l
274.294717 72.743898 l
274.661066 72.775966 l
274.798447 72.856136 l
275.416663 72.936305 l
275.554044 72.968373 l
275.920393 72.984407 l
276.034878 73.080611 l
276.424124 73.128713 l
276.561505 73.216899 l
276.927855 73.265001 l
277.065236 73.345171 l
277.431586 73.377239 l
277.54607 73.489476 l
278.439048 73.529561 l
278.576429 73.601714 l
280.705837 73.705934 l
280.843218 73.786104 l
285.49128 73.874291 l
285.651558 73.898341 l
290.024858 73.986528 l
290.162239 74.018596 l
291.032319 74.1148 l
291.169701 74.154884 l
291.787916 74.211003 l
291.9024 74.40341 l
292.039781 74.40341 l
292.154266 74.539699 l
292.795378 74.635902 l
292.909862 74.732106 l
293.299108 74.836327 l
293.413593 74.980632 l
300.351341 75.060802 l
300.488722 75.09287 l
301.358802 75.189073 l
301.51908 75.213124 l
303.625591 75.301311 l
303.762972 75.333379 l
308.6629 75.38148 l
308.777384 75.501735 l
309.922227 75.509752 l
310.036711 75.662074 l
310.929689 75.742244 l
311.06707 75.774312 l
311.685285 75.878532 l
311.822666 75.918617 l
312.692747 75.958702 l
312.830128 76.046889 l
313.952074 76.09499 l
314.066558 76.271364 l
315.463267 76.343516 l
315.600648 76.399635 l
315.966998 76.471788 l
316.104379 76.543941 l
316.722594 76.640144 l
316.859975 76.680229 l
317.226325 76.728331 l
317.363706 76.816517 l
319.241248 76.920738 l
319.378629 77.000908 l
321.508037 77.04901 l
321.645418 77.121162 l
322.515499 77.201332 l
322.629983 77.321586 l
323.271095 77.409773 l
323.408476 77.457875 l
324.530422 77.522011 l
324.667803 77.570112 l
325.034153 77.562095 l
325.148637 77.730452 l
326.545346 77.810621 l
326.682727 77.850706 l
327.552808 77.954927 l
327.667292 78.067164 l
335.864367 78.171385 l
336.070439 78.187419 l
343.42033 78.275606 l
343.557711 78.31569 l
346.694581 78.363792 l
346.831962 78.427928 l
349.716966 78.484047 l
349.854347 78.564216 l
361.554641 78.636369 l
361.692022 78.684471 l
398.487273 78.772657 l
398.487273 78.772657 l
stroke
grestore
0 setlinecap
[5.55 2.4] 0 setdash
1.000 0.000 0.000 setrgbcolor
gsave
357.1 266.1 57.6 38.02 clipbox
73.832727 54.072382 m
77.702296 54.072382 l
77.816781 54.858045 l
78.251821 54.858045 l
78.366305 55.619656 l
79.602735 55.619656 l
79.71722 56.365234 l
80.175157 56.365234 l
80.289641 56.629794 l
80.747578 56.629794 l
80.862063 57.006592 l
81.617659 57.006592 l
81.732143 57.311236 l
81.938215 57.311236 l
82.052699 57.59183 l
82.55643 57.59183 l
82.670914 57.944577 l
83.72417 57.944577 l
83.838654 58.233188 l
84.456869 58.233188 l
84.571354 58.473697 l
85.006394 58.473697 l
85.120878 58.762308 l
85.624609 58.762308 l
85.739093 59.058935 l
86.151237 59.058935 l
86.265721 59.243326 l
91.967039 59.243326 l
92.081523 59.62814 l
96.91276 59.692276 l
97.050141 59.748394 l
99.431414 59.852615 l
99.637486 59.868649 l
100.988401 59.884683 l
101.102885 60.269497 l
101.423441 60.269497 l
101.537925 60.622244 l
102.08745 60.622244 l
102.201934 61.007058 l
102.705665 61.007058 l
102.820149 61.375839 l
103.278086 61.375839 l
103.392571 61.696517 l
103.919198 61.696517 l
104.033683 61.920993 l
104.49162 61.920993 l
104.606104 63.780929 l
105.109835 63.780929 l
105.224319 64.045489 l
105.796741 64.045489 l
105.911225 64.959423 l
106.117297 64.959423 l
106.231781 65.833273 l
106.781306 65.833273 l
106.89579 66.39446 l
107.399521 66.39446 l
107.514005 67.10797 l
107.949045 67.10797 l
108.06353 68.053972 l
108.590157 68.053972 l
108.704642 68.711364 l
109.254166 68.711364 l
109.36865 69.360738 l
109.757897 69.360738 l
109.872381 69.889858 l
110.376112 69.889858 l
110.490596 73.120696 l
110.879843 73.120696 l
110.994327 74.579784 l
111.452264 74.579784 l
111.566749 75.830431 l
111.955995 75.830431 l
112.07048 76.720314 l
112.482623 76.720314 l
112.597107 77.273485 l
113.192426 77.273485 l
113.30691 77.658299 l
113.810641 77.658299 l
113.925125 78.21147 l
114.154094 78.21147 l
114.268578 78.572233 l
114.634928 78.572233 l
114.749412 78.989116 l
115.069968 78.989116 l
115.184452 79.181523 l
115.573699 79.181523 l
115.688183 79.349879 l
116.214811 79.349879 l
116.329295 79.566337 l
116.672748 79.566337 l
116.787232 79.750727 l
117.130685 79.750727 l
117.245169 79.991236 l
117.703107 79.991236 l
117.817591 80.552424 l
118.04656 80.552424 l
118.161044 81.177748 l
118.527394 81.177748 l
118.641878 81.682817 l
119.031124 81.682817 l
119.145609 82.284089 l
119.511958 82.284089 l
119.626443 82.997599 l
120.015689 82.997599 l
120.130174 83.646973 l
120.45073 83.646973 l
120.565214 84.296348 l
120.931564 84.296348 l
121.046048 86.204386 l
121.32081 86.204386 l
121.435294 86.597217 l
121.824541 86.597217 l
121.939025 86.925913 l
122.282478 86.925913 l
122.396962 87.246592 l
122.717518 87.246592 l
122.832003 87.583304 l
123.175456 87.583304 l
123.28994 87.855881 l
123.473115 87.855881 l
123.587599 87.99217 l
123.885258 87.99217 l
123.999743 88.128458 l
124.297402 88.128458 l
124.411886 88.296814 l
125.304863 88.401035 l
125.419348 88.537323 l
125.808594 88.537323 l
125.923079 88.673612 l
126.358119 88.673612 l
126.472603 89.082477 l
126.86185 89.082477 l
126.976334 89.403156 l
127.182406 89.403156 l
127.29689 89.723835 l
127.686137 89.723835 l
127.800621 90.036496 l
128.189867 90.036496 l
128.304352 90.341141 l
128.693598 90.341141 l
128.808083 90.669837 l
129.128639 90.669837 l
129.243123 91.014566 l
129.746854 91.014566 l
129.861338 91.319211 l
130.204791 91.319211 l
130.319275 91.655924 l
130.639831 91.655924 l
130.754316 92.000653 l
131.212253 92.000653 l
131.326737 92.337366 l
131.761777 92.337366 l
131.876262 92.818384 l
132.242611 92.818384 l
132.357096 93.002774 l
132.677652 93.002774 l
132.792136 93.443707 l
134.211741 93.443707 l
134.326225 93.724301 l
134.692575 93.724301 l
134.807059 94.069031 l
135.196306 94.069031 l
135.31079 94.590134 l
135.791624 94.590134 l
135.906109 96.377917 l
136.226665 96.377917 l
136.341149 99.849264 l
136.661705 99.849264 l
136.776189 101.476708 l
137.028055 101.476708 l
137.142539 102.735372 l
137.348611 102.735372 l
137.463095 103.368713 l
137.737857 103.368713 l
137.852341 104.018087 l
138.241588 104.018087 l
138.356072 104.651427 l
138.768216 104.651427 l
138.8827 105.276751 l
139.226153 105.276751 l
139.340637 105.573379 l
139.706987 105.573379 l
139.821471 106.318957 l
140.210718 106.318957 l
140.325202 106.992382 l
140.554171 106.992382 l
140.668655 107.553569 l
141.035005 107.553569 l
141.149489 108.146825 l
141.492942 108.146825 l
141.607426 108.740081 l
141.950879 108.740081 l
142.065363 109.365404 l
142.340126 109.365404 l
142.45461 109.98271 l
142.752269 109.98271 l
142.866753 110.648119 l
143.210206 110.648119 l
143.32469 111.65024 l
143.599453 111.65024 l
143.713937 112.540123 l
143.920009 112.540123 l
144.034493 113.365871 l
144.332152 113.365871 l
144.446636 114.191618 l
144.790089 114.191618 l
144.904574 115.065468 l
145.156439 115.065468 l
145.270923 116.757048 l
145.476995 116.757048 l
145.591479 117.815287 l
145.912035 117.815287 l
146.02652 118.625001 l
146.255488 118.625001 l
146.369972 119.186189 l
146.644735 119.186189 l
146.759219 119.691258 l
146.965291 119.691258 l
147.079775 120.508988 l
147.377434 120.508988 l
147.491919 121.08621 l
147.720887 121.08621 l
147.835371 121.775669 l
148.270412 121.775669 l
148.384896 122.32884 l
148.728349 122.32884 l
148.842833 122.665552 l
149.23208 122.665552 l
149.346564 125.960526 l
149.575533 125.960526 l
149.690017 126.601883 l
150.03347 126.601883 l
150.147954 127.05885 l
150.491407 127.05885 l
150.605891 127.371512 l
150.949344 127.371512 l
151.063828 127.507801 l
151.613353 127.507801 l
151.727837 127.644089 l
152.254465 127.644089 l
152.368949 129.528076 l
152.620815 129.528076 l
152.735299 131.676624 l
152.87268 131.676624 l
152.987164 133.272 l
153.216133 133.272 l
153.330617 134.242053 l
153.582483 134.242053 l
153.696967 135.388479 l
153.857245 135.388479 l
153.971729 135.67709 l
154.612841 135.765277 l
154.727326 135.893548 l
154.864707 135.893548 l
154.979191 136.069922 l
155.116572 136.069922 l
155.231056 136.190176 l
155.71189 136.28638 l
155.849272 136.318448 l
156.00955 136.318448 l
156.124034 136.438702 l
156.307209 136.438702 l
156.421693 136.55094 l
157.085702 136.591024 l
157.200186 136.687228 l
157.887092 136.727313 l
158.001576 136.831533 l
158.322132 136.831533 l
158.436617 136.983856 l
159.65015 137.088076 l
159.764634 138.354757 l
159.879119 138.354757 l
159.993603 139.581353 l
160.245468 139.581353 l
160.359953 140.904153 l
160.588921 140.904153 l
160.703405 141.321035 l
160.978168 141.321035 l
161.092652 141.697832 l
161.230033 141.697832 l
161.344517 142.170834 l
161.573486 142.170834 l
161.68797 142.459444 l
161.894042 142.459444 l
162.008526 142.86831 l
162.145907 142.86831 l
162.260392 143.028649 l
162.466463 143.028649 l
162.580948 143.197005 l
162.901504 143.197005 l
163.015988 143.357345 l
163.679997 143.437514 l
163.794481 143.541735 l
164.275315 143.605871 l
164.3898 143.726125 l
164.641665 143.726125 l
164.756149 143.838363 l
165.008015 143.838363 l
165.122499 144.03077 l
165.351468 144.03077 l
165.465952 144.191109 l
165.649127 144.191109 l
165.763611 144.55989 l
165.969683 144.55989 l
166.084167 144.92867 l
166.267342 144.92867 l
166.381826 145.321502 l
166.542104 145.321502 l
166.656588 145.866655 l
166.748176 145.866655 l
166.86266 146.387758 l
167.091629 146.387758 l
167.206113 146.989031 l
167.366391 146.989031 l
167.480875 147.542201 l
167.66405 147.542201 l
167.778534 147.902965 l
167.961709 147.902965 l
168.076194 148.335881 l
168.236472 148.335881 l
168.350956 148.712679 l
168.557028 148.712679 l
168.671512 149.129561 l
168.854687 149.129561 l
168.969171 149.538426 l
169.19814 149.538426 l
169.312624 149.89919 l
169.518696 149.89919 l
169.63318 150.211852 l
169.862149 150.211852 l
169.976633 150.885277 l
170.205601 150.885277 l
170.320086 151.494566 l
170.526157 151.494566 l
170.640642 152.496687 l
170.846713 152.496687 l
170.961198 153.691215 l
171.121476 153.691215 l
171.23596 154.132148 l
171.419135 154.132148 l
171.533619 154.653251 l
171.739691 154.653251 l
171.854175 155.070134 l
172.014453 155.070134 l
172.128937 155.470982 l
172.312112 155.470982 l
172.426597 155.992085 l
172.586875 155.992085 l
172.701359 156.360865 l
172.747153 156.360865 l
172.861637 156.857917 l
172.976121 156.857917 l
173.090605 157.226698 l
173.296677 157.226698 l
173.411161 157.547376 l
173.594336 157.547376 l
173.708821 157.852021 l
173.846202 157.852021 l
173.960686 158.469328 l
174.212551 158.469328 l
174.327036 159.014481 l
174.556004 159.014481 l
174.670489 160.225043 l
174.853663 160.225043 l
174.968148 161.203113 l
175.105529 161.203113 l
175.220013 161.611979 l
175.334497 161.611979 l
175.448982 162.149116 l
175.60926 162.149116 l
175.723744 162.582032 l
175.815332 162.582032 l
175.929816 163.047016 l
176.112991 163.047016 l
176.227475 163.528034 l
176.364856 163.528034 l
176.47934 163.784577 l
176.708309 163.784577 l
176.822793 164.129306 l
176.960174 164.129306 l
177.074659 164.530155 l
177.28073 164.530155 l
177.395215 164.802732 l
177.486802 164.802732 l
177.601286 167.007398 l
177.761564 167.007398 l
177.876049 167.255924 l
178.036327 167.255924 l
178.150811 167.79306 l
178.265295 167.79306 l
178.37978 168.346231 l
178.517161 168.346231 l
178.631645 168.77113 l
178.723232 168.77113 l
178.906407 170.101947 l
179.066685 170.101947 l
179.18117 170.871576 l
179.295654 170.871576 l
179.410138 171.328543 l
179.570416 171.328543 l
179.6849 171.809561 l
179.822282 171.809561 l
179.936766 172.138257 l
180.005456 172.138257 l
180.119941 172.250494 l
180.303116 172.250494 l
180.4176 172.370749 l
180.509187 172.370749 l
180.623672 172.523071 l
180.692362 172.523071 l
180.829743 172.835733 l
181.310577 172.915902 l
181.425062 173.092276 l
181.58534 173.092276 l
181.699824 173.244598 l
181.768515 173.244598 l
181.882999 173.39692 l
182.066174 173.39692 l
182.180658 173.509158 l
182.638595 173.613379 l
182.753079 173.797769 l
182.936254 173.797769 l
183.050739 173.982159 l
183.233913 173.982159 l
183.348398 174.102414 l
183.531573 174.102414 l
183.646057 174.286804 l
183.783438 174.286804 l
183.897922 174.431109 l
184.0582 174.431109 l
184.172685 174.575415 l
184.310066 174.575415 l
184.42455 174.695669 l
184.607725 174.695669 l
184.722209 174.839975 l
184.882487 174.839975 l
184.996971 174.992297 l
185.157249 174.992297 l
185.271734 175.136602 l
185.409115 175.136602 l
185.523599 175.32901 l
185.729671 175.32901 l
185.844155 175.505383 l
185.912846 175.505383 l
186.050227 175.705807 l
186.118917 175.705807 l
186.233402 175.818045 l
186.439473 175.818045 l
186.553958 176.034503 l
186.714236 176.034503 l
186.82872 176.218893 l
187.217967 176.30708 l
187.355348 176.379232 l
187.469832 176.379232 l
187.584316 176.507504 l
187.744594 176.507504 l
187.859079 176.627758 l
188.317016 176.723962 l
188.454397 176.812148 l
188.889437 176.876284 l
189.003922 177.028607 l
189.484756 177.100759 l
189.622137 177.188946 l
190.950154 177.277133 l
191.087536 177.325234 l
191.224917 177.325234 l
191.339401 177.541692 l
191.545473 177.541692 l
191.659957 177.710049 l
192.163688 177.806252 l
192.278172 177.902456 l
192.461347 177.902456 l
192.575831 178.359423 l
192.621625 178.359423 l
192.736109 178.760271 l
192.965078 178.760271 l
193.079562 179.105001 l
193.102459 179.105001 l
193.216943 179.866613 l
193.423015 179.866613 l
193.537499 180.748479 l
193.674881 180.748479 l
193.789365 182.039211 l
193.926746 182.039211 l
194.04123 182.872976 l
194.132818 182.872976 l
194.247302 183.201671 l
194.567858 183.201671 l
194.682342 184.003368 l
194.84262 184.003368 l
194.957105 184.941353 l
195.048692 184.941353 l
195.163176 185.807186 l
195.300557 185.807186 l
195.415042 186.400441 l
196.308019 186.400441 l
196.422503 187.017748 l
196.514091 187.017748 l
196.628575 187.458681 l
196.834647 187.458681 l
196.949131 187.955733 l
197.132306 187.955733 l
197.24679 188.244344 l
197.407068 188.244344 l
197.521553 188.436751 l
197.681831 188.436751 l
197.796315 189.551109 l
197.956593 189.551109 l
198.071077 190.240568 l
198.185561 190.240568 l
198.300046 190.424959 l
198.529014 190.424959 l
198.643499 190.705552 l
198.826674 190.705552 l
198.941158 190.865892 l
199.078539 190.865892 l
199.193023 191.066316 l
199.857032 191.066316 l
199.971516 191.26674 l
200.154691 191.26674 l
200.269176 191.378978 l
200.406557 191.378978 l
200.521041 191.499232 l
200.704216 191.499232 l
200.8187 191.667589 l
201.024772 191.667589 l
201.139256 192.220759 l
201.368225 192.220759 l
201.482709 193.086592 l
201.665884 193.086592 l
201.780368 193.583644 l
201.963543 193.583644 l
202.078027 194.112764 l
202.192512 194.112764 l
202.306996 194.842308 l
202.398583 194.842308 l
202.513068 195.579869 l
202.604655 195.579869 l
202.719139 195.924598 l
202.879417 195.924598 l
202.993902 196.349497 l
203.199973 196.349497 l
203.314458 196.646125 l
203.520529 196.646125 l
203.635014 196.918702 l
203.795292 196.918702 l
203.909776 197.415754 l
204.092951 197.415754 l
204.207435 197.872721 l
204.299022 197.872721 l
204.413507 198.241502 l
204.573785 198.241502 l
204.688269 198.658384 l
204.802753 198.658384 l
204.940135 199.155436 l
205.260691 199.155436 l
205.375175 199.411979 l
205.764421 199.484131 l
205.901803 199.532233 l
206.245255 199.556284 l
206.35974 199.652488 l
206.703193 199.724641 l
206.840574 199.772742 l
207.252717 199.788776 l
207.367201 199.917048 l
207.527479 199.917048 l
207.641964 200.406083 l
207.756448 200.406083 l
207.870932 201.215796 l
207.96252 201.215796 l
208.077004 201.328034 l
208.512044 201.432255 l
208.626529 202.851258 l
208.76391 202.851258 l
208.878394 204.679126 l
209.015775 204.679126 l
209.130259 205.432721 l
209.221847 205.432721 l
209.336331 205.85762 l
209.450815 205.85762 l
209.5653 206.426825 l
209.702681 206.426825 l
209.817165 207.132318 l
209.885856 207.132318 l
210.00034 209.922223 l
210.114824 209.922223 l
210.229309 211.17287 l
210.275102 211.17287 l
210.389587 211.902414 l
210.504071 211.902414 l
210.618555 212.207058 l
210.641452 212.207058 l
210.755936 212.43955 l
210.847524 212.43955 l
210.962008 212.672042 l
211.694708 212.712127 l
211.809192 213.297366 l
215.129236 213.393569 l
215.289514 213.41762 l
217.808169 213.481756 l
217.922653 214.363622 l
218.037137 214.363622 l
218.151621 214.716369 l
218.861424 214.748437 l
218.998805 214.828607 l
219.777298 214.828607 l
219.891783 215.045065 l
220.006267 215.045065 l
220.120751 215.261523 l
220.235235 215.261523 l
220.34972 215.518066 l
220.487101 215.518066 l
220.601585 215.82271 l
220.738966 215.82271 l
220.853451 216.071236 l
220.945038 216.071236 l
221.059522 216.568288 l
221.174007 216.568288 l
221.288491 217.217663 l
221.334285 217.217663 l
221.448769 217.851003 l
221.58615 217.851003 l
221.700634 218.436242 l
221.998294 218.436242 l
222.112778 219.390261 l
222.158572 219.390261 l
222.273056 219.887313 l
222.433334 219.887313 l
222.547818 220.248076 l
222.639406 220.248076 l
222.75389 220.600823 l
222.845477 220.600823 l
222.959962 220.953569 l
223.097343 220.953569 l
223.211827 221.290282 l
223.280518 221.290282 l
223.395002 221.562859 l
223.532383 221.562859 l
223.646867 221.803368 l
223.669764 221.803368 l
223.784248 222.043877 l
223.852939 222.043877 l
223.967423 222.356539 l
224.059011 222.356539 l
224.173495 222.556963 l
224.310876 222.556963 l
224.42536 222.781438 l
224.516948 222.781438 l
224.631432 222.949794 l
224.745916 222.949794 l
224.860401 223.134185 l
224.974885 223.134185 l
225.089369 223.302541 l
225.180957 223.302541 l
225.295441 223.454863 l
225.432822 223.454863 l
225.547306 224.208458 l
225.615997 224.208458 l
225.730481 224.489052 l
226.096831 224.585256 l
226.234212 224.641374 l
226.921118 224.745595 l
227.287468 224.761629 l
229.760328 224.78568 l
229.874813 225.002138 l
230.218265 225.098341 l
230.33275 225.218596 l
230.424337 225.218596 l
230.538821 225.386952 l
230.653306 225.386952 l
230.76779 225.699614 l
230.836481 225.699614 l
230.950965 226.004259 l
230.996759 226.004259 l
231.111243 226.525362 l
231.225727 226.525362 l
231.340211 227.816093 l
231.408902 227.816093 l
231.523386 228.890367 l
231.637871 228.890367 l
231.752355 229.06674 l
232.050014 229.162944 l
232.164498 229.51569 l
232.507951 229.611894 l
232.645332 229.692064 l
232.897198 229.724131 l
233.011682 229.924556 l
233.400929 229.956624 l
233.515413 230.413591 l
233.652794 230.413591 l
233.767278 231.046931 l
233.881763 231.046931 l
233.996247 231.720356 l
234.110731 231.720356 l
234.225216 233.844853 l
234.3397 233.844853 l
234.454184 235.584534 l
234.545772 235.584534 l
234.660256 235.9934 l
245.696541 236.073569 l
245.833922 236.129688 l
245.92551 236.129688 l
246.039994 236.578638 l
247.711465 236.666825 l
247.848846 236.730961 l
254.511831 236.827164 l
254.649213 236.859232 l
255.313221 236.931385 l
255.450603 236.995521 l
255.885643 237.059656 l
256.023024 237.115775 l
256.114611 237.115775 l
256.229096 237.228013 l
256.320683 237.228013 l
256.435168 237.364301 l
256.526755 237.364301 l
256.641239 237.516624 l
256.732827 237.516624 l
256.847311 237.68498 l
256.893105 237.68498 l
257.007589 237.877387 l
257.099176 237.877387 l
257.213661 238.366422 l
257.259454 238.366422 l
257.373939 238.58288 l
257.648701 238.66305 l
257.786082 238.703135 l
269.738242 238.799338 l
269.875623 238.831406 l
272.531658 238.903559 l
272.66904 238.951661 l
272.920905 239.023813 l
273.058286 239.079932 l
273.722295 239.184153 l
273.836779 239.288373 l
274.134439 239.328458 l
274.248923 239.45673 l
274.729757 239.552933 l
274.867138 239.585001 l
275.096107 239.625086 l
275.210591 240.787546 l
275.279281 240.787546 l
275.393766 241.020038 l
275.485353 241.020038 l
275.599837 241.228479 l
275.668528 241.228479 l
275.783012 241.43692 l
275.920393 241.43692 l
276.034878 241.661396 l
276.240949 241.725531 l
276.355434 241.950006 l
276.447021 241.950006 l
276.561505 242.094312 l
276.630196 242.094312 l
276.74468 242.254651 l
276.790474 242.254651 l
276.904958 242.41499 l
277.202617 242.487143 l
277.317102 242.591364 l
277.614761 242.663516 l
277.729245 242.936093 l
277.752142 242.936093 l
277.866626 243.128501 l
278.141389 243.20867 l
278.27877 243.28884 l
278.530635 243.336942 l
278.668016 243.401077 l
279.377819 243.505298 l
279.5152 243.545383 l
280.179209 243.649603 l
280.339487 243.673654 l
282.949729 243.729773 l
283.064213 243.833994 l
283.361872 243.833994 l
283.476356 244.058469 l
283.567944 244.058469 l
283.682428 244.403198 l
283.819809 244.403198 l
283.934294 245.052573 l
284.048778 245.052573 l
284.163262 245.653845 l
284.231953 245.653845 l
284.346437 246.118829 l
284.438024 246.118829 l
284.552509 246.680017 l
284.666993 246.680017 l
284.781477 247.433612 l
284.873065 247.433612 l
284.987549 247.930664 l
285.079136 247.930664 l
285.193621 248.315478 l
285.239414 248.315478 l
285.353899 248.660208 l
285.674455 248.660208 l
285.788939 248.804513 l
285.903423 248.804513 l
286.017908 248.916751 l
286.338464 249.012954 l
286.452948 249.109158 l
286.819298 249.165277 l
286.956679 249.229413 l
287.277235 249.301565 l
287.391719 249.534057 l
287.506203 249.534057 l
287.620688 249.798617 l
287.758069 249.798617 l
287.872553 250.119296 l
287.987037 250.119296 l
288.101522 250.383856 l
288.422078 250.439975 l
288.536562 250.616348 l
288.651046 250.616348 l
288.765531 250.776687 l
288.811324 250.776687 l
288.925809 250.95306 l
289.086087 250.95306 l
289.200571 251.1134 l
289.566921 251.201586 l
289.681405 251.369943 l
289.772992 251.369943 l
289.887477 251.538299 l
290.368311 251.634503 l
290.482795 254.248034 l
290.574382 254.248034 l
290.688867 256.621056 l
290.780454 256.621056 l
290.894938 257.871703 l
290.986526 257.871703 l
291.10101 258.833739 l
291.192598 258.833739 l
291.307082 259.38691 l
291.398669 259.38691 l
291.513154 259.908013 l
291.604741 259.908013 l
291.719225 260.372997 l
291.765019 260.372997 l
291.879503 260.8941 l
291.948194 260.8941 l
292.062678 261.399169 l
292.108472 261.399169 l
292.222956 261.856136 l
292.291647 261.856136 l
292.406131 262.192848 l
292.474822 262.192848 l
292.589306 262.649815 l
292.657996 262.649815 l
292.772481 263.130834 l
292.841171 263.130834 l
292.955656 263.347292 l
293.047243 263.347292 l
293.161727 264.437599 l
293.184624 264.437599 l
293.299108 265.608076 l
293.322005 265.608076 l
293.43649 265.880653 l
293.619664 265.880653 l
293.734149 267.331724 l
293.802839 267.331724 l
293.917324 268.542286 l
294.008911 268.542286 l
294.123395 268.870982 l
303.740076 268.919084 l
303.877457 268.999253 l
304.404084 269.095457 l
304.541466 269.151576 l
306.602183 269.207695 l
306.739564 269.287864 l
308.685797 269.287864 l
308.800281 269.664662 l
308.846075 269.664662 l
308.960559 269.905171 l
309.02925 269.905171 l
309.143734 270.049476 l
309.212425 270.049476 l
309.326909 270.209815 l
309.418496 270.209815 l
309.532981 270.378172 l
309.578774 270.378172 l
309.693259 270.69885 l
309.761949 270.69885 l
309.876433 270.915309 l
310.151196 271.011512 l
310.288577 271.083665 l
310.334371 271.083665 l
310.448855 272.358363 l
310.517545 272.358363 l
310.63203 272.566804 l
310.70072 272.566804 l
310.815205 272.711109 l
311.50211 272.711109 l
311.616595 273.136008 l
311.685285 273.136008 l
311.799769 273.657111 l
311.891357 273.657111 l
312.005841 273.889603 l
312.074532 273.889603 l
312.189016 274.154163 l
312.257707 274.154163 l
312.372191 274.330537 l
312.440881 274.330537 l
312.555366 274.635181 l
312.646953 274.635181 l
312.761437 275.56515 l
312.830128 275.56515 l
312.944612 276.054185 l
313.173581 276.11832 l
313.288065 276.262626 l
314.112352 276.262626 l
314.226836 277.120441 l
314.295527 277.120441 l
314.410011 278.210749 l
314.455805 278.210749 l
314.570289 278.804004 l
314.593186 278.804004 l
314.70767 279.076581 l
314.776361 279.076581 l
314.890845 279.333124 l
314.959536 279.333124 l
315.07402 279.445362 l
315.165608 279.445362 l
315.280092 279.645786 l
315.371679 279.645786 l
315.486164 279.758023 l
315.554854 279.758023 l
315.669338 281.201077 l
316.470728 281.201077 l
316.585213 281.642011 l
317.226325 281.642011 l
317.340809 282.475775 l
317.47819 282.475775 l
317.592674 283.213336 l
317.661365 283.213336 l
317.775849 283.654269 l
317.821643 283.654269 l
317.936127 283.798575 l
318.027715 283.798575 l
318.142199 283.998999 l
318.737517 284.10322 l
318.897795 284.12727 l
318.920692 284.12727 l
319.035176 284.856814 l
320.637957 284.928967 l
320.752441 285.377917 l
320.935616 285.377917 l
321.0501 285.698596 l
321.462243 285.7948 l
321.576728 286.251767 l
321.645418 286.251767 l
321.759903 286.500293 l
322.629983 286.596496 l
322.744467 286.965277 l
322.813158 286.965277 l
322.927642 287.173718 l
322.973436 287.173718 l
323.08792 287.390176 l
323.133714 287.390176 l
323.248198 287.686804 l
323.316889 287.686804 l
323.431373 287.911279 l
323.522961 287.911279 l
323.637445 288.19989 l
323.88931 288.256008 l
324.003795 288.432382 l
324.026691 288.432382 l
324.141176 288.937451 l
324.415938 289.025637 l
324.530422 289.185977 l
324.576216 289.185977 l
324.6907 289.386401 l
324.782288 289.386401 l
324.896772 289.554757 l
324.942566 289.554757 l
325.05705 289.666995 l
325.286019 289.666995 l
325.400503 290.123962 l
325.469193 290.123962 l
325.583678 290.637048 l
325.629471 290.637048 l
325.743956 291.069964 l
325.78975 291.069964 l
325.904234 291.358575 l
325.972924 291.358575 l
326.087409 291.591067 l
326.614036 291.639169 l
326.751418 291.711321 l
339.642348 291.791491 l
339.77973 291.831576 l
354.800068 291.911745 l
354.914553 292.032 l
398.487273 292.032 l
398.487273 292.032 l
stroke
grestore
0.800 setlinewidth
0 setlinejoin
2 setlinecap
[] 0 setdash
0.000 setgray
gsave
57.6 38.016 m
57.6 304.128 l
stroke
grestore
gsave
414.72 38.016 m
414.72 304.128 l
stroke
grestore
gsave
57.6 38.016 m
414.72 38.016 l
stroke
grestore
gsave
57.6 304.128 m
414.72 304.128 l
stroke
grestore
1.000 setlinewidth
0 setlinecap
0.800 setgray
gsave
64.6 266.78425 m
285.19375 266.78425 l
286.527083 266.78425 287.19375 267.450917 287.19375 268.78425 c
287.19375 297.128 l
287.19375 298.461333 286.527083 299.128 285.19375 299.128 c
64.6 299.128 l
63.266667 299.128 62.6 298.461333 62.6 297.128 c
62.6 268.78425 l
62.6 267.450917 63.266667 266.78425 64.6 266.78425 c
cl
gsave
1.000 setgray
fill
grestore
stroke
grestore
1.500 setlinewidth
1 setlinejoin
2 setlinecap
[] 0 setdash
0.000 0.500 0.000 setrgbcolor
gsave
66.6 291.03425 m
86.6 291.03425 l
stroke
grestore
0.000 setgray
gsave
94.600000 287.534250 translate
0.000000 rotate
0.000000 0.000000 m /n glyphshow
6.337891 0.000000 m /u glyphshow
12.675781 0.000000 m /m glyphshow
22.416992 0.000000 m /b glyphshow
28.764648 0.000000 m /e glyphshow
34.916992 0.000000 m /r glyphshow
39.028320 0.000000 m /space glyphshow
42.207031 0.000000 m /o glyphshow
48.325195 0.000000 m /f glyphshow
51.845703 0.000000 m /space glyphshow
55.024414 0.000000 m /s glyphshow
60.234375 0.000000 m /u glyphshow
66.572266 0.000000 m /p glyphshow
72.919922 0.000000 m /p glyphshow
79.267578 0.000000 m /o glyphshow
85.385742 0.000000 m /r glyphshow
89.497070 0.000000 m /t glyphshow
93.417969 0.000000 m /space glyphshow
96.596680 0.000000 m /v glyphshow
102.514648 0.000000 m /e glyphshow
108.666992 0.000000 m /c glyphshow
114.165039 0.000000 m /t glyphshow
118.085938 0.000000 m /o glyphshow
124.204102 0.000000 m /r glyphshow
128.315430 0.000000 m /s glyphshow
grestore
0 setlinecap
[5.55 2.4] 0 setdash
1.000 0.000 0.000 setrgbcolor
gsave
66.6 276.362375 m
86.6 276.362375 l
stroke
grestore
0.000 setgray
gsave
94.600000 272.862375 translate
0.000000 rotate
0.000000 0.000000 m /n glyphshow
6.337891 0.000000 m /u glyphshow
12.675781 0.000000 m /m glyphshow
22.416992 0.000000 m /b glyphshow
28.764648 0.000000 m /e glyphshow
34.916992 0.000000 m /r glyphshow
39.028320 0.000000 m /space glyphshow
42.207031 0.000000 m /o glyphshow
48.325195 0.000000 m /f glyphshow
51.845703 0.000000 m /space glyphshow
55.024414 0.000000 m /g glyphshow
61.372070 0.000000 m /m glyphshow
71.113281 0.000000 m /a glyphshow
77.241211 0.000000 m /p glyphshow
83.588867 0.000000 m /p glyphshow
89.936523 0.000000 m /i glyphshow
92.714844 0.000000 m /n glyphshow
99.052734 0.000000 m /g glyphshow
105.400391 0.000000 m /quotesingle glyphshow
108.149414 0.000000 m /s glyphshow
113.359375 0.000000 m /space glyphshow
116.538086 0.000000 m /o glyphshow
122.656250 0.000000 m /b glyphshow
129.003906 0.000000 m /s glyphshow
134.213867 0.000000 m /e glyphshow
140.366211 0.000000 m /r glyphshow
144.477539 0.000000 m /v glyphshow
150.395508 0.000000 m /e glyphshow
156.547852 0.000000 m /d glyphshow
162.895508 0.000000 m /space glyphshow
166.074219 0.000000 m /c glyphshow
171.572266 0.000000 m /e glyphshow
177.724609 0.000000 m /l glyphshow
180.502930 0.000000 m /l glyphshow
183.281250 0.000000 m /s glyphshow
grestore

end
showpage
