%!PS-Adobe-3.0 EPSF-3.0
%%Title: /home/thaiduong/repo/papers/CoRL2019/fig/upper_bound_along_path2.eps
%%Creator: matplotlib version 3.0.2, http://matplotlib.org/
%%CreationDate: Mon Jun 24 12:42:36 2019
%%Orientation: portrait
%%BoundingBox: 126 216 486 576
%%EndComments
%%BeginProlog
/mpldict 9 dict def
mpldict begin
/m { moveto } bind def
/l { lineto } bind def
/r { rlineto } bind def
/c { curveto } bind def
/cl { closepath } bind def
/box {
m
1 index 0 r
0 exch r
neg 0 r
cl
} bind def
/clipbox {
box
clip
newpath
} bind def
%!PS-Adobe-3.0 Resource-Font
%%Title: DejaVu Sans
%%Copyright: Copyright (c) 2003 by Bitstream, Inc. All Rights Reserved. Copyright (c) 2006 by Tavmjong Bah. All Rights Reserved. DejaVu changes are in public domain 
%%Creator: Converted from TrueType to type 3 by PPR
25 dict begin
/_d{bind def}bind def
/_m{moveto}_d
/_l{lineto}_d
/_cl{closepath eofill}_d
/_c{curveto}_d
/_sc{7 -1 roll{setcachedevice}{pop pop pop pop pop pop}ifelse}_d
/_e{exec}_d
/FontName /DejaVuSans def
/PaintType 0 def
/FontMatrix[.001 0 0 .001 0 0]def
/FontBBox[-1021 -463 1793 1232]def
/FontType 3 def
/Encoding [ /space /parenleft /parenright /period /zero /one /two /three /four /five /six /seven /eight /b /c /d /e /n /o /p /r /s /t /u /z /minus ] def
/FontInfo 10 dict dup begin
/FamilyName (DejaVu Sans) def
/FullName (DejaVu Sans) def
/Notice (Copyright (c) 2003 by Bitstream, Inc. All Rights Reserved. Copyright (c) 2006 by Tavmjong Bah. All Rights Reserved. DejaVu changes are in public domain ) def
/Weight (Book) def
/Version (Version 2.35) def
/ItalicAngle 0.0 def
/isFixedPitch false def
/UnderlinePosition -130 def
/UnderlineThickness 90 def
end readonly def
/CharStrings 27 dict dup begin
/.notdef 0 def
/space{318 0 0 0 0 0 _sc
}_d
/parenleft{390 0 86 -131 310 759 _sc
310 759 _m
266 683 234 609 213 536 _c
191 463 181 389 181 314 _c
181 238 191 164 213 91 _c
234 17 266 -56 310 -131 _c
232 -131 _l
183 -54 146 20 122 94 _c
98 168 86 241 86 314 _c
86 386 98 459 122 533 _c
146 607 182 682 232 759 _c
310 759 _l
_cl}_d
/parenright{390 0 80 -131 304 759 _sc
80 759 _m
158 759 _l
206 682 243 607 267 533 _c
291 459 304 386 304 314 _c
304 241 291 168 267 94 _c
243 20 206 -54 158 -131 _c
80 -131 _l
123 -56 155 17 177 91 _c
198 164 209 238 209 314 _c
209 389 198 463 177 536 _c
155 609 123 683 80 759 _c
_cl}_d
/period{318 0 107 0 210 124 _sc
107 124 _m
210 124 _l
210 0 _l
107 0 _l
107 124 _l
_cl}_d
/zero{636 0 66 -13 570 742 _sc
318 664 _m
267 664 229 639 203 589 _c
177 539 165 464 165 364 _c
165 264 177 189 203 139 _c
229 89 267 64 318 64 _c
369 64 407 89 433 139 _c
458 189 471 264 471 364 _c
471 464 458 539 433 589 _c
407 639 369 664 318 664 _c
318 742 _m
399 742 461 709 505 645 _c
548 580 570 486 570 364 _c
570 241 548 147 505 83 _c
461 19 399 -13 318 -13 _c
236 -13 173 19 130 83 _c
87 147 66 241 66 364 _c
66 486 87 580 130 645 _c
173 709 236 742 318 742 _c
_cl}_d
/one{636 0 110 0 544 729 _sc
124 83 _m
285 83 _l
285 639 _l
110 604 _l
110 694 _l
284 729 _l
383 729 _l
383 83 _l
544 83 _l
544 0 _l
124 0 _l
124 83 _l
_cl}_d
/two{{636 0 73 0 536 742 _sc
192 83 _m
536 83 _l
536 0 _l
73 0 _l
73 83 _l
110 121 161 173 226 239 _c
290 304 331 346 348 365 _c
380 400 402 430 414 455 _c
426 479 433 504 433 528 _c
433 566 419 598 392 622 _c
365 646 330 659 286 659 _c
255 659 222 653 188 643 _c
154 632 117 616 78 594 _c
78 694 _l
118 710 155 722 189 730 _c
223 738 255 742 284 742 _c
}_e{359 742 419 723 464 685 _c
509 647 532 597 532 534 _c
532 504 526 475 515 449 _c
504 422 484 390 454 354 _c
446 344 420 317 376 272 _c
332 227 271 164 192 83 _c
_cl}_e}_d
/three{{636 0 76 -13 556 742 _sc
406 393 _m
453 383 490 362 516 330 _c
542 298 556 258 556 212 _c
556 140 531 84 482 45 _c
432 6 362 -13 271 -13 _c
240 -13 208 -10 176 -4 _c
144 1 110 10 76 22 _c
76 117 _l
103 101 133 89 166 81 _c
198 73 232 69 268 69 _c
330 69 377 81 409 105 _c
441 129 458 165 458 212 _c
458 254 443 288 413 312 _c
383 336 341 349 287 349 _c
}_e{202 349 _l
202 430 _l
291 430 _l
339 430 376 439 402 459 _c
428 478 441 506 441 543 _c
441 580 427 609 401 629 _c
374 649 336 659 287 659 _c
260 659 231 656 200 650 _c
169 644 135 635 98 623 _c
98 711 _l
135 721 170 729 203 734 _c
235 739 266 742 296 742 _c
370 742 429 725 473 691 _c
517 657 539 611 539 553 _c
539 513 527 479 504 451 _c
481 423 448 403 406 393 _c
_cl}_e}_d
/four{636 0 49 0 580 729 _sc
378 643 _m
129 254 _l
378 254 _l
378 643 _l
352 729 _m
476 729 _l
476 254 _l
580 254 _l
580 172 _l
476 172 _l
476 0 _l
378 0 _l
378 172 _l
49 172 _l
49 267 _l
352 729 _l
_cl}_d
/five{{636 0 77 -13 549 729 _sc
108 729 _m
495 729 _l
495 646 _l
198 646 _l
198 467 _l
212 472 227 476 241 478 _c
255 480 270 482 284 482 _c
365 482 429 459 477 415 _c
525 370 549 310 549 234 _c
549 155 524 94 475 51 _c
426 8 357 -13 269 -13 _c
238 -13 207 -10 175 -6 _c
143 -1 111 6 77 17 _c
77 116 _l
106 100 136 88 168 80 _c
199 72 232 69 267 69 _c
}_e{323 69 368 83 401 113 _c
433 143 450 183 450 234 _c
450 284 433 324 401 354 _c
368 384 323 399 267 399 _c
241 399 214 396 188 390 _c
162 384 135 375 108 363 _c
108 729 _l
_cl}_e}_d
/six{{636 0 70 -13 573 742 _sc
330 404 _m
286 404 251 388 225 358 _c
199 328 186 286 186 234 _c
186 181 199 139 225 109 _c
251 79 286 64 330 64 _c
374 64 409 79 435 109 _c
461 139 474 181 474 234 _c
474 286 461 328 435 358 _c
409 388 374 404 330 404 _c
526 713 _m
526 623 _l
501 635 476 644 451 650 _c
425 656 400 659 376 659 _c
310 659 260 637 226 593 _c
}_e{192 549 172 482 168 394 _c
187 422 211 444 240 459 _c
269 474 301 482 336 482 _c
409 482 467 459 509 415 _c
551 371 573 310 573 234 _c
573 159 550 99 506 54 _c
462 9 403 -13 330 -13 _c
246 -13 181 19 137 83 _c
92 147 70 241 70 364 _c
70 479 97 571 152 639 _c
206 707 280 742 372 742 _c
396 742 421 739 447 735 _c
472 730 498 723 526 713 _c
_cl}_e}_d
/seven{636 0 82 0 551 729 _sc
82 729 _m
551 729 _l
551 687 _l
286 0 _l
183 0 _l
432 646 _l
82 646 _l
82 729 _l
_cl}_d
/eight{{636 0 68 -13 568 742 _sc
318 346 _m
271 346 234 333 207 308 _c
180 283 167 249 167 205 _c
167 161 180 126 207 101 _c
234 76 271 64 318 64 _c
364 64 401 76 428 102 _c
455 127 469 161 469 205 _c
469 249 455 283 429 308 _c
402 333 365 346 318 346 _c
219 388 _m
177 398 144 418 120 447 _c
96 476 85 511 85 553 _c
85 611 105 657 147 691 _c
188 725 245 742 318 742 _c
}_e{390 742 447 725 489 691 _c
530 657 551 611 551 553 _c
551 511 539 476 515 447 _c
491 418 459 398 417 388 _c
464 377 501 355 528 323 _c
554 291 568 251 568 205 _c
568 134 546 80 503 43 _c
459 5 398 -13 318 -13 _c
237 -13 175 5 132 43 _c
89 80 68 134 68 205 _c
68 251 81 291 108 323 _c
134 355 171 377 219 388 _c
183 544 _m
183 506 194 476 218 455 _c
}_e{242 434 275 424 318 424 _c
360 424 393 434 417 455 _c
441 476 453 506 453 544 _c
453 582 441 611 417 632 _c
393 653 360 664 318 664 _c
275 664 242 653 218 632 _c
194 611 183 582 183 544 _c
_cl}_e}_d
/b{{635 0 91 -13 580 760 _sc
487 273 _m
487 339 473 390 446 428 _c
418 466 381 485 334 485 _c
286 485 249 466 222 428 _c
194 390 181 339 181 273 _c
181 207 194 155 222 117 _c
249 79 286 61 334 61 _c
381 61 418 79 446 117 _c
473 155 487 207 487 273 _c
181 464 _m
199 496 223 520 252 536 _c
281 552 316 560 356 560 _c
422 560 476 533 518 481 _c
559 428 580 359 580 273 _c
}_e{580 187 559 117 518 65 _c
476 13 422 -13 356 -13 _c
316 -13 281 -5 252 10 _c
223 25 199 49 181 82 _c
181 0 _l
91 0 _l
91 760 _l
181 760 _l
181 464 _l
_cl}_e}_d
/c{{550 0 55 -13 488 560 _sc
488 526 _m
488 442 _l
462 456 437 466 411 473 _c
385 480 360 484 334 484 _c
276 484 230 465 198 428 _c
166 391 150 339 150 273 _c
150 206 166 154 198 117 _c
230 80 276 62 334 62 _c
360 62 385 65 411 72 _c
437 79 462 90 488 104 _c
488 21 _l
462 9 436 0 410 -5 _c
383 -10 354 -13 324 -13 _c
242 -13 176 12 128 64 _c
}_e{79 115 55 185 55 273 _c
55 362 79 432 128 483 _c
177 534 244 560 330 560 _c
358 560 385 557 411 551 _c
437 545 463 537 488 526 _c
_cl}_e}_d
/d{{635 0 55 -13 544 760 _sc
454 464 _m
454 760 _l
544 760 _l
544 0 _l
454 0 _l
454 82 _l
435 49 411 25 382 10 _c
353 -5 319 -13 279 -13 _c
213 -13 159 13 117 65 _c
75 117 55 187 55 273 _c
55 359 75 428 117 481 _c
159 533 213 560 279 560 _c
319 560 353 552 382 536 _c
411 520 435 496 454 464 _c
148 273 _m
148 207 161 155 188 117 _c
215 79 253 61 301 61 _c
}_e{348 61 385 79 413 117 _c
440 155 454 207 454 273 _c
454 339 440 390 413 428 _c
385 466 348 485 301 485 _c
253 485 215 466 188 428 _c
161 390 148 339 148 273 _c
_cl}_e}_d
/e{{615 0 55 -13 562 560 _sc
562 296 _m
562 252 _l
149 252 _l
153 190 171 142 205 110 _c
238 78 284 62 344 62 _c
378 62 412 66 444 74 _c
476 82 509 95 541 113 _c
541 28 _l
509 14 476 3 442 -3 _c
408 -9 373 -13 339 -13 _c
251 -13 182 12 131 62 _c
80 112 55 181 55 268 _c
55 357 79 428 127 481 _c
175 533 241 560 323 560 _c
397 560 455 536 498 489 _c
}_e{540 441 562 377 562 296 _c
472 322 _m
471 371 457 410 431 440 _c
404 469 368 484 324 484 _c
274 484 234 469 204 441 _c
174 413 156 373 152 322 _c
472 322 _l
_cl}_e}_d
/n{634 0 91 0 549 560 _sc
549 330 _m
549 0 _l
459 0 _l
459 327 _l
459 379 448 417 428 443 _c
408 469 378 482 338 482 _c
289 482 251 466 223 435 _c
195 404 181 362 181 309 _c
181 0 _l
91 0 _l
91 547 _l
181 547 _l
181 462 _l
202 494 227 519 257 535 _c
286 551 320 560 358 560 _c
420 560 468 540 500 501 _c
532 462 549 405 549 330 _c
_cl}_d
/o{612 0 55 -13 557 560 _sc
306 484 _m
258 484 220 465 192 427 _c
164 389 150 338 150 273 _c
150 207 163 156 191 118 _c
219 80 257 62 306 62 _c
354 62 392 80 420 118 _c
448 156 462 207 462 273 _c
462 337 448 389 420 427 _c
392 465 354 484 306 484 _c
306 560 _m
384 560 445 534 490 484 _c
534 433 557 363 557 273 _c
557 183 534 113 490 63 _c
445 12 384 -13 306 -13 _c
227 -13 165 12 121 63 _c
77 113 55 183 55 273 _c
55 363 77 433 121 484 _c
165 534 227 560 306 560 _c
_cl}_d
/p{{635 0 91 -207 580 560 _sc
181 82 _m
181 -207 _l
91 -207 _l
91 547 _l
181 547 _l
181 464 _l
199 496 223 520 252 536 _c
281 552 316 560 356 560 _c
422 560 476 533 518 481 _c
559 428 580 359 580 273 _c
580 187 559 117 518 65 _c
476 13 422 -13 356 -13 _c
316 -13 281 -5 252 10 _c
223 25 199 49 181 82 _c
487 273 _m
487 339 473 390 446 428 _c
418 466 381 485 334 485 _c
}_e{286 485 249 466 222 428 _c
194 390 181 339 181 273 _c
181 207 194 155 222 117 _c
249 79 286 61 334 61 _c
381 61 418 79 446 117 _c
473 155 487 207 487 273 _c
_cl}_e}_d
/r{411 0 91 0 411 560 _sc
411 463 _m
401 469 390 473 378 476 _c
366 478 353 480 339 480 _c
288 480 249 463 222 430 _c
194 397 181 350 181 288 _c
181 0 _l
91 0 _l
91 547 _l
181 547 _l
181 462 _l
199 495 224 520 254 536 _c
284 552 321 560 365 560 _c
371 560 378 559 386 559 _c
393 558 401 557 411 555 _c
411 463 _l
_cl}_d
/s{{521 0 54 -13 472 560 _sc
443 531 _m
443 446 _l
417 458 391 468 364 475 _c
336 481 308 485 279 485 _c
234 485 200 478 178 464 _c
156 450 145 430 145 403 _c
145 382 153 366 169 354 _c
185 342 217 330 265 320 _c
296 313 _l
360 299 405 279 432 255 _c
458 230 472 195 472 151 _c
472 100 452 60 412 31 _c
372 1 316 -13 246 -13 _c
216 -13 186 -10 154 -5 _c
}_e{122 0 89 8 54 20 _c
54 113 _l
87 95 120 82 152 74 _c
184 65 216 61 248 61 _c
290 61 323 68 346 82 _c
368 96 380 117 380 144 _c
380 168 371 187 355 200 _c
339 213 303 226 247 238 _c
216 245 _l
160 257 119 275 95 299 _c
70 323 58 356 58 399 _c
58 450 76 490 112 518 _c
148 546 200 560 268 560 _c
301 560 332 557 362 552 _c
391 547 418 540 443 531 _c
}_e{_cl}_e}_d
/t{392 0 27 0 368 702 _sc
183 702 _m
183 547 _l
368 547 _l
368 477 _l
183 477 _l
183 180 _l
183 135 189 106 201 94 _c
213 81 238 75 276 75 _c
368 75 _l
368 0 _l
276 0 _l
206 0 158 13 132 39 _c
106 65 93 112 93 180 _c
93 477 _l
27 477 _l
27 547 _l
93 547 _l
93 702 _l
183 702 _l
_cl}_d
/u{634 0 85 -13 543 560 _sc
85 216 _m
85 547 _l
175 547 _l
175 219 _l
175 167 185 129 205 103 _c
225 77 255 64 296 64 _c
344 64 383 79 411 110 _c
439 141 453 183 453 237 _c
453 547 _l
543 547 _l
543 0 _l
453 0 _l
453 84 _l
431 50 405 26 377 10 _c
348 -5 315 -13 277 -13 _c
214 -13 166 6 134 45 _c
101 83 85 140 85 216 _c
311 560 _m
311 560 _l
_cl}_d
/z{525 0 43 0 482 547 _sc
55 547 _m
482 547 _l
482 465 _l
144 72 _l
482 72 _l
482 0 _l
43 0 _l
43 82 _l
381 475 _l
55 475 _l
55 547 _l
_cl}_d
/minus{838 0 106 272 732 355 _sc
106 355 _m
732 355 _l
732 272 _l
106 272 _l
106 355 _l
_cl}_d
end readonly def

/BuildGlyph
 {exch begin
 CharStrings exch
 2 copy known not{pop /.notdef}if
 true 3 1 roll get exec
 end}_d

/BuildChar {
 1 index /Encoding get exch get
 1 index /BuildGlyph get exec
}_d

FontName currentdict end definefont pop
%!PS-Adobe-3.0 Resource-Font
%%Title: DejaVu Sans Oblique
%%Copyright: Copyright (c) 2003 by Bitstream, Inc. All Rights Reserved. Copyright (c) 2006 by Tavmjong Bah. All Rights Reserved. DejaVu changes are in public domain 
%%Creator: Converted from TrueType to type 3 by PPR
25 dict begin
/_d{bind def}bind def
/_m{moveto}_d
/_l{lineto}_d
/_cl{closepath eofill}_d
/_c{curveto}_d
/_sc{7 -1 roll{setcachedevice}{pop pop pop pop pop pop}ifelse}_d
/_e{exec}_d
/FontName /DejaVuSans-Oblique def
/PaintType 0 def
/FontMatrix[.001 0 0 .001 0 0]def
/FontBBox[-1016 -350 1659 1068]def
/FontType 3 def
/Encoding [ /F /U /t /x ] def
/FontInfo 10 dict dup begin
/FamilyName (DejaVu Sans) def
/FullName (DejaVu Sans Oblique) def
/Notice (Copyright (c) 2003 by Bitstream, Inc. All Rights Reserved. Copyright (c) 2006 by Tavmjong Bah. All Rights Reserved. DejaVu changes are in public domain ) def
/Weight (Oblique) def
/Version (Version 2.35) def
/ItalicAngle -11.0 def
/isFixedPitch false def
/UnderlinePosition -130 def
/UnderlineThickness 90 def
end readonly def
/CharStrings 5 dict dup begin
/.notdef 0 def
/F{575 0 27 0 587 729 _sc
169 729 _m
587 729 _l
571 646 _l
251 646 _l
209 431 _l
498 431 _l
482 348 _l
193 348 _l
125 0 _l
27 0 _l
169 729 _l
_cl}_d
/U{732 0 58 -13 713 729 _sc
155 729 _m
254 729 _l
168 286 _l
164 266 162 249 160 237 _c
158 224 158 213 158 203 _c
158 158 170 124 195 101 _c
220 77 257 66 306 66 _c
368 66 417 83 452 117 _c
487 151 512 208 528 286 _c
614 729 _l
713 729 _l
625 274 _l
605 175 569 102 515 56 _c
461 10 388 -13 295 -13 _c
222 -13 164 5 122 41 _c
79 77 58 127 58 190 _c
58 201 58 214 60 228 _c
62 242 64 258 68 274 _c
155 729 _l
_cl}_d
/t{{392 0 64 0 423 702 _sc
423 547 _m
409 477 _l
230 477 _l
172 180 _l
170 169 168 160 167 152 _c
166 144 166 139 166 135 _c
166 114 172 99 185 89 _c
197 79 217 75 245 75 _c
336 75 _l
321 0 _l
235 0 _l
181 0 141 10 115 31 _c
89 52 76 84 76 126 _c
76 133 76 141 77 150 _c
78 159 80 169 82 180 _c
140 477 _l
64 477 _l
78 547 _l
153 547 _l
183 702 _l
}_e{273 702 _l
243 547 _l
423 547 _l
_cl}_e}_d
/x{592 0 -25 0 600 547 _sc
600 547 _m
349 279 _l
503 0 _l
400 0 _l
284 217 _l
83 0 _l
-25 0 _l
243 288 _l
100 547 _l
203 547 _l
308 349 _l
491 547 _l
600 547 _l
_cl}_d
end readonly def

/BuildGlyph
 {exch begin
 CharStrings exch
 2 copy known not{pop /.notdef}if
 true 3 1 roll get exec
 end}_d

/BuildChar {
 1 index /Encoding get exch get
 1 index /BuildGlyph get exec
}_d

FontName currentdict end definefont pop
end
%%EndProlog
mpldict begin
126 216 translate
360 360 0 0 clipbox
gsave
0 0 m
360 0 l
360 360 l
0 360 l
cl
1.000 setgray
fill
grestore
gsave
45 39.6 m
324 39.6 l
324 316.8 l
45 316.8 l
cl
1.000 setgray
fill
grestore
0.800 setlinewidth
1 setlinejoin
0 setlinecap
[] 0 setdash
0.000 setgray
gsave
/o {
gsave
newpath
translate
0.8 setlinewidth
1 setlinejoin
0 setlinecap
0 0 m
0 -3.5 l

gsave
0.000 setgray
fill
grestore
stroke
grestore
} bind def
57.6818 39.6 o
grestore
/DejaVuSans findfont
10.000 scalefont
setfont
gsave
49.728693 25.006250 translate
0.000000 rotate
0.000000 0.000000 m /zero glyphshow
6.362305 0.000000 m /period glyphshow
9.541016 0.000000 m /zero glyphshow
grestore
gsave
/o {
gsave
newpath
translate
0.8 setlinewidth
1 setlinejoin
0 setlinecap
0 0 m
0 -3.5 l

gsave
0.000 setgray
fill
grestore
stroke
grestore
} bind def
108.409 39.6 o
grestore
gsave
100.455966 25.006250 translate
0.000000 rotate
0.000000 0.000000 m /zero glyphshow
6.362305 0.000000 m /period glyphshow
9.541016 0.000000 m /two glyphshow
grestore
gsave
/o {
gsave
newpath
translate
0.8 setlinewidth
1 setlinejoin
0 setlinecap
0 0 m
0 -3.5 l

gsave
0.000 setgray
fill
grestore
stroke
grestore
} bind def
159.136 39.6 o
grestore
gsave
151.183239 25.006250 translate
0.000000 rotate
0.000000 0.000000 m /zero glyphshow
6.362305 0.000000 m /period glyphshow
9.541016 0.000000 m /four glyphshow
grestore
gsave
/o {
gsave
newpath
translate
0.8 setlinewidth
1 setlinejoin
0 setlinecap
0 0 m
0 -3.5 l

gsave
0.000 setgray
fill
grestore
stroke
grestore
} bind def
209.864 39.6 o
grestore
gsave
201.910511 25.006250 translate
0.000000 rotate
0.000000 0.000000 m /zero glyphshow
6.362305 0.000000 m /period glyphshow
9.541016 0.000000 m /six glyphshow
grestore
gsave
/o {
gsave
newpath
translate
0.8 setlinewidth
1 setlinejoin
0 setlinecap
0 0 m
0 -3.5 l

gsave
0.000 setgray
fill
grestore
stroke
grestore
} bind def
260.591 39.6 o
grestore
gsave
252.637784 25.006250 translate
0.000000 rotate
0.000000 0.000000 m /zero glyphshow
6.362305 0.000000 m /period glyphshow
9.541016 0.000000 m /eight glyphshow
grestore
gsave
/o {
gsave
newpath
translate
0.8 setlinewidth
1 setlinejoin
0 setlinecap
0 0 m
0 -3.5 l

gsave
0.000 setgray
fill
grestore
stroke
grestore
} bind def
311.318 39.6 o
grestore
gsave
303.365057 25.006250 translate
0.000000 rotate
0.000000 0.000000 m /one glyphshow
6.362305 0.000000 m /period glyphshow
9.541016 0.000000 m /zero glyphshow
grestore
gsave
182.539062 11.334375 translate
0.000000 rotate
0.000000 0.000000 m /t glyphshow
grestore
gsave
/o {
gsave
newpath
translate
0.8 setlinewidth
1 setlinejoin
0 setlinecap
0 0 m
-3.5 0 l

gsave
0.000 setgray
fill
grestore
stroke
grestore
} bind def
45 42.5777 o
grestore
gsave
13.718750 38.780844 translate
0.000000 rotate
0.000000 0.000000 m /minus glyphshow
8.378906 0.000000 m /zero glyphshow
14.741211 0.000000 m /period glyphshow
17.919922 0.000000 m /eight glyphshow
grestore
gsave
/o {
gsave
newpath
translate
0.8 setlinewidth
1 setlinejoin
0 setlinecap
0 0 m
-3.5 0 l

gsave
0.000 setgray
fill
grestore
stroke
grestore
} bind def
45 75.2805 o
grestore
gsave
13.718750 71.483630 translate
0.000000 rotate
0.000000 0.000000 m /minus glyphshow
8.378906 0.000000 m /zero glyphshow
14.741211 0.000000 m /period glyphshow
17.919922 0.000000 m /seven glyphshow
grestore
gsave
/o {
gsave
newpath
translate
0.8 setlinewidth
1 setlinejoin
0 setlinecap
0 0 m
-3.5 0 l

gsave
0.000 setgray
fill
grestore
stroke
grestore
} bind def
45 107.983 o
grestore
gsave
13.718750 104.186415 translate
0.000000 rotate
0.000000 0.000000 m /minus glyphshow
8.378906 0.000000 m /zero glyphshow
14.741211 0.000000 m /period glyphshow
17.919922 0.000000 m /six glyphshow
grestore
gsave
/o {
gsave
newpath
translate
0.8 setlinewidth
1 setlinejoin
0 setlinecap
0 0 m
-3.5 0 l

gsave
0.000 setgray
fill
grestore
stroke
grestore
} bind def
45 140.686 o
grestore
gsave
13.718750 136.889200 translate
0.000000 rotate
0.000000 0.000000 m /minus glyphshow
8.378906 0.000000 m /zero glyphshow
14.741211 0.000000 m /period glyphshow
17.919922 0.000000 m /five glyphshow
grestore
gsave
/o {
gsave
newpath
translate
0.8 setlinewidth
1 setlinejoin
0 setlinecap
0 0 m
-3.5 0 l

gsave
0.000 setgray
fill
grestore
stroke
grestore
} bind def
45 173.389 o
grestore
gsave
13.718750 169.591985 translate
0.000000 rotate
0.000000 0.000000 m /minus glyphshow
8.378906 0.000000 m /zero glyphshow
14.741211 0.000000 m /period glyphshow
17.919922 0.000000 m /four glyphshow
grestore
gsave
/o {
gsave
newpath
translate
0.8 setlinewidth
1 setlinejoin
0 setlinecap
0 0 m
-3.5 0 l

gsave
0.000 setgray
fill
grestore
stroke
grestore
} bind def
45 206.092 o
grestore
gsave
13.718750 202.294770 translate
0.000000 rotate
0.000000 0.000000 m /minus glyphshow
8.378906 0.000000 m /zero glyphshow
14.741211 0.000000 m /period glyphshow
17.919922 0.000000 m /three glyphshow
grestore
gsave
/o {
gsave
newpath
translate
0.8 setlinewidth
1 setlinejoin
0 setlinecap
0 0 m
-3.5 0 l

gsave
0.000 setgray
fill
grestore
stroke
grestore
} bind def
45 238.794 o
grestore
gsave
13.718750 234.997555 translate
0.000000 rotate
0.000000 0.000000 m /minus glyphshow
8.378906 0.000000 m /zero glyphshow
14.741211 0.000000 m /period glyphshow
17.919922 0.000000 m /two glyphshow
grestore
gsave
/o {
gsave
newpath
translate
0.8 setlinewidth
1 setlinejoin
0 setlinecap
0 0 m
-3.5 0 l

gsave
0.000 setgray
fill
grestore
stroke
grestore
} bind def
45 271.497 o
grestore
gsave
13.718750 267.700340 translate
0.000000 rotate
0.000000 0.000000 m /minus glyphshow
8.378906 0.000000 m /zero glyphshow
14.741211 0.000000 m /period glyphshow
17.919922 0.000000 m /one glyphshow
grestore
gsave
/o {
gsave
newpath
translate
0.8 setlinewidth
1 setlinejoin
0 setlinecap
0 0 m
-3.5 0 l

gsave
0.000 setgray
fill
grestore
stroke
grestore
} bind def
45 304.2 o
grestore
gsave
22.093750 300.403125 translate
0.000000 rotate
0.000000 0.000000 m /zero glyphshow
6.362305 0.000000 m /period glyphshow
9.541016 0.000000 m /zero glyphshow
grestore
gsave
7.640625 164.645313 translate
90.000000 rotate
0.000000 0.000000 m /s glyphshow
5.209961 0.000000 m /c glyphshow
10.708008 0.000000 m /o glyphshow
16.826172 0.000000 m /r glyphshow
20.937500 0.000000 m /e glyphshow
grestore
1.500 setlinewidth
[5.55 2.4] 0 setdash
0.122 0.467 0.706 setrgbcolor
gsave
279 277.2 45 39.6 clipbox
57.681818 304.170306 m
60.243802 304.175838 l
62.805785 304.181273 l
65.367769 304.186175 l
67.929752 304.190279 l
70.491736 304.193489 l
73.053719 304.195846 l
75.615702 304.197476 l
78.177686 304.198539 l
80.739669 304.199195 l
83.301653 304.199577 l
85.863636 304.199788 l
88.42562 304.199899 l
90.987603 304.199954 l
93.549587 304.19998 l
96.11157 304.199971 l
98.673554 304.19993 l
101.235537 304.199839 l
103.797521 304.199646 l
106.359504 304.199261 l
108.921488 304.198531 l
111.483471 304.197218 l
114.045455 304.194982 l
116.607438 304.191379 l
119.169421 304.18589 l
121.731405 304.178005 l
124.293388 304.167341 l
126.855372 304.153812 l
129.417355 304.137782 l
131.979339 304.12017 l
134.541322 304.102439 l
137.103306 304.086434 l
139.665289 304.074085 l
142.227273 304.067026 l
144.789256 304.066244 l
147.35124 304.07185 l
149.913223 304.083055 l
152.475207 304.098351 l
155.03719 304.09276 l
157.599174 304.002449 l
160.161157 303.853381 l
162.72314 303.620734 l
165.285124 303.277953 l
167.847107 302.802098 l
170.409091 302.181416 l
172.971074 301.423735 l
175.533058 300.563222 l
178.095041 299.662554 l
180.657025 298.808102 l
183.219008 298.097555 l
185.780992 297.622 l
188.342975 297.446839 l
190.904959 297.597046 l
193.466942 298.051328 l
196.028926 298.747074 l
198.590909 299.594516 l
201.152893 300.495669 l
203.714876 301.362583 l
206.27686 302.130315 l
208.838843 302.762393 l
211.400826 303.24914 l
213.96281 303.601152 l
216.524793 303.308677 l
219.086777 302.382971 l
221.64876 300.673472 l
224.210744 297.684268 l
226.772727 292.740198 l
229.334711 285.015452 l
231.896694 273.633651 l
234.458678 257.854963 l
237.020661 237.339025 l
239.582645 212.433414 l
242.144628 184.399132 l
244.706612 155.467406 l
247.268595 128.644879 l
249.830579 107.252003 l
252.392562 94.275082 l
254.954545 91.698612 l
257.516529 100.019542 l
260.078512 118.104324 l
262.640496 143.442397 l
265.202479 172.717946 l
267.764463 202.520446 l
270.326446 229.98459 l
272.88843 253.198129 l
275.450413 271.313989 l
278.012397 284.404851 l
280.57438 293.16501 l
283.136364 298.579256 l
285.698347 295.386665 l
288.260331 293.844186 l
290.822314 293.663669 l
293.384298 294.468276 l
295.946281 295.866569 l
298.508264 297.511523 l
301.070248 299.13736 l
303.632231 300.572823 l
306.194215 301.734612 l
308.756198 302.607991 l
311.318182 303.22244 l
stroke
grestore
2 setlinecap
[] 0 setdash
1.000 0.498 0.055 setrgbcolor
gsave
279 277.2 45 39.6 clipbox
57.681818 304.170305 m
60.243802 304.175837 l
62.805785 304.181273 l
65.367769 304.186175 l
67.929752 304.190279 l
70.491736 304.193489 l
73.053719 304.195846 l
75.615702 304.197476 l
78.177686 304.198539 l
80.739669 304.199195 l
83.301653 304.199577 l
85.863636 304.199788 l
88.42562 304.199898 l
90.987603 304.19995 l
93.549587 304.199969 l
96.11157 304.199963 l
98.673554 304.199927 l
101.235537 304.199837 l
103.797521 304.199646 l
106.359504 304.199261 l
108.921488 304.198531 l
111.483471 304.197218 l
114.045455 304.194981 l
116.607438 304.191376 l
119.169421 304.185886 l
121.731405 304.177998 l
124.293388 304.167329 l
126.855372 304.15379 l
129.417355 304.13774 l
131.979339 304.120084 l
134.541322 304.102248 l
137.103306 304.085987 l
139.665289 304.073015 l
142.227273 304.06449 l
144.789256 304.060404 l
147.35124 304.058908 l
149.913223 304.055594 l
152.475207 304.042714 l
155.03719 304.008346 l
157.599174 303.935686 l
160.161157 303.802855 l
162.72314 303.583881 l
165.285124 303.251575 l
167.847107 302.782817 l
170.409091 302.165977 l
172.971074 301.409178 l
175.533058 300.546972 l
178.095041 299.642481 l
180.657025 298.782597 l
183.219008 298.065645 l
185.780992 297.583461 l
188.342975 297.402271 l
190.904959 297.547836 l
193.466942 297.999456 l
196.028926 298.694739 l
198.590909 299.543487 l
201.152893 300.446197 l
203.714876 301.311322 l
206.27686 302.066077 l
208.838843 302.657373 l
211.400826 303.041436 l
213.96281 303.16202 l
216.524793 302.917705 l
219.086777 302.119564 l
221.64876 300.442978 l
224.210744 297.382653 l
226.772727 292.227994 l
229.334711 284.084039 l
231.896694 271.966022 l
234.458678 254.986557 l
237.020661 232.629119 l
239.582645 205.062134 l
242.144628 173.406673 l
244.706612 139.847513 l
247.268595 107.492332 l
249.830579 79.945332 l
252.392562 60.656326 l
254.954545 52.2 l
257.516529 55.690321 l
260.078512 70.512642 l
262.640496 94.462507 l
265.202479 124.249959 l
267.764463 156.213768 l
270.326446 187.036264 l
272.88843 214.272499 l
275.450413 236.589807 l
278.012397 253.716168 l
280.57438 266.178001 l
283.136364 274.946086 l
285.698347 281.100814 l
288.260331 285.589918 l
290.822314 289.104634 l
293.384298 292.061077 l
295.946281 294.651482 l
298.508264 296.92517 l
301.070248 298.866868 l
303.632231 300.453542 l
306.194215 301.684333 l
308.756198 302.587736 l
311.318182 303.214642 l
stroke
grestore
0 setlinecap
[1.5 2.475] 0 setdash
0.173 0.627 0.173 setrgbcolor
gsave
279 277.2 45 39.6 clipbox
57.681818 304.2 m
60.243802 304.2 l
62.805785 304.2 l
65.367769 304.2 l
67.929752 304.2 l
70.491736 304.2 l
73.053719 304.2 l
75.615702 304.2 l
78.177686 304.2 l
80.739669 304.2 l
83.301653 304.2 l
85.863636 304.2 l
88.42562 304.2 l
90.987603 304.2 l
93.549587 304.2 l
96.11157 304.2 l
98.673554 304.2 l
101.235537 304.2 l
103.797521 304.2 l
106.359504 304.2 l
108.921488 304.2 l
111.483471 304.2 l
114.045455 304.2 l
116.607438 304.2 l
119.169421 304.2 l
121.731405 304.2 l
124.293388 304.2 l
126.855372 304.2 l
129.417355 304.2 l
131.979339 304.2 l
134.541322 304.2 l
137.103306 304.2 l
139.665289 304.2 l
142.227273 304.2 l
144.789256 304.2 l
147.35124 304.2 l
149.913223 304.2 l
152.475207 304.2 l
155.03719 304.2 l
157.599174 304.2 l
160.161157 304.2 l
162.72314 304.2 l
165.285124 304.2 l
167.847107 304.2 l
170.409091 304.2 l
172.971074 304.2 l
175.533058 304.2 l
178.095041 304.2 l
180.657025 304.2 l
183.219008 304.2 l
185.780992 304.2 l
188.342975 304.2 l
190.904959 304.2 l
193.466942 304.2 l
196.028926 304.2 l
198.590909 304.2 l
201.152893 304.2 l
203.714876 304.2 l
206.27686 304.2 l
208.838843 304.2 l
211.400826 304.2 l
213.96281 304.2 l
216.524793 304.2 l
219.086777 304.2 l
221.64876 304.2 l
224.210744 304.2 l
226.772727 304.2 l
229.334711 304.2 l
231.896694 304.2 l
234.458678 304.2 l
237.020661 304.2 l
239.582645 304.2 l
242.144628 304.2 l
244.706612 304.2 l
247.268595 304.2 l
249.830579 304.2 l
252.392562 304.2 l
254.954545 304.2 l
257.516529 304.2 l
260.078512 304.2 l
262.640496 304.2 l
265.202479 304.2 l
267.764463 304.2 l
270.326446 304.2 l
272.88843 304.2 l
275.450413 304.2 l
278.012397 304.2 l
280.57438 304.2 l
283.136364 304.2 l
285.698347 304.2 l
288.260331 304.2 l
290.822314 304.2 l
293.384298 304.2 l
295.946281 304.2 l
298.508264 304.2 l
301.070248 304.2 l
303.632231 304.2 l
306.194215 304.2 l
308.756198 304.2 l
311.318182 304.2 l
stroke
grestore
0.800 setlinewidth
0 setlinejoin
2 setlinecap
[] 0 setdash
0.000 setgray
gsave
45 39.6 m
45 316.8 l
stroke
grestore
gsave
324 39.6 m
324 316.8 l
stroke
grestore
gsave
45 39.6 m
324 39.6 l
stroke
grestore
gsave
45 316.8 m
324 316.8 l
stroke
grestore
1.000 setlinewidth
0 setlinecap
0.800 setgray
gsave
51.3 44.1 m
163.1 44.1 l
164.3 44.1 164.9 44.7 164.9 45.9 c
164.9 85.21875 l
164.9 86.41875 164.3 87.01875 163.1 87.01875 c
51.3 87.01875 l
50.1 87.01875 49.5 86.41875 49.5 85.21875 c
49.5 45.9 l
49.5 44.7 50.1 44.1 51.3 44.1 c
cl
gsave
1.000 setgray
fill
grestore
stroke
grestore
1.500 setlinewidth
1 setlinejoin
[5.55 2.4] 0 setdash
0.122 0.467 0.706 setrgbcolor
gsave
53.1 79.56875 m
71.1 79.56875 l
stroke
grestore
0.000 setgray
gsave
78.300000 76.418750 translate
0.000000 rotate
/DejaVuSans findfont
9.0 scalefont
setfont
0.000000 0.156250 moveto
/u glyphshow

5.704102 0.156250 moveto
/p glyphshow

11.416992 0.156250 moveto
/p glyphshow

17.129883 0.156250 moveto
/e glyphshow

22.666992 0.156250 moveto
/r glyphshow

26.367188 0.156250 moveto
/space glyphshow

29.228027 0.156250 moveto
/b glyphshow

34.940918 0.156250 moveto
/o glyphshow

40.447266 0.156250 moveto
/u glyphshow

46.151367 0.156250 moveto
/n glyphshow

51.855469 0.156250 moveto
/d glyphshow

57.568359 0.156250 moveto
/space glyphshow

/DejaVuSans-Oblique findfont
9.0 scalefont
setfont
60.429199 0.156250 moveto
/U glyphshow

/DejaVuSans findfont
9.0 scalefont
setfont
67.016602 0.156250 moveto
/parenleft glyphshow

/DejaVuSans-Oblique findfont
9.0 scalefont
setfont
70.527832 0.156250 moveto
/x glyphshow

/DejaVuSans-Oblique findfont
6.3 scalefont
setfont
75.854004 -1.320312 moveto
/t glyphshow

/DejaVuSans findfont
9.0 scalefont
setfont
78.570264 0.156250 moveto
/parenright glyphshow


grestore
2 setlinecap
[] 0 setdash
1.000 0.498 0.055 setrgbcolor
gsave
53.1 66.06875 m
71.1 66.06875 l
stroke
grestore
0.000 setgray
gsave
78.300000 62.918750 translate
0.000000 rotate
/DejaVuSans findfont
9.0 scalefont
setfont
0.000000 0.171875 moveto
/t glyphshow

3.528809 0.171875 moveto
/r glyphshow

7.229004 0.171875 moveto
/u glyphshow

12.933105 0.171875 moveto
/e glyphshow

18.470215 0.171875 moveto
/space glyphshow

21.331055 0.171875 moveto
/s glyphshow

26.020020 0.171875 moveto
/c glyphshow

30.968262 0.171875 moveto
/o glyphshow

36.474609 0.171875 moveto
/r glyphshow

40.174805 0.171875 moveto
/e glyphshow

45.711914 0.171875 moveto
/space glyphshow

/DejaVuSans-Oblique findfont
9.0 scalefont
setfont
48.572754 0.171875 moveto
/F glyphshow

/DejaVuSans findfont
9.0 scalefont
setfont
53.749512 0.171875 moveto
/parenleft glyphshow

/DejaVuSans-Oblique findfont
9.0 scalefont
setfont
57.260742 0.171875 moveto
/x glyphshow

/DejaVuSans-Oblique findfont
6.3 scalefont
setfont
62.586914 -1.304688 moveto
/t glyphshow

/DejaVuSans findfont
9.0 scalefont
setfont
65.303174 0.171875 moveto
/parenright glyphshow


grestore
0 setlinecap
[1.5 2.475] 0 setdash
0.173 0.627 0.173 setrgbcolor
gsave
53.1 52.725 m
71.1 52.725 l
stroke
grestore
0.000 setgray
/DejaVuSans findfont
9.000 scalefont
setfont
gsave
78.300000 49.575000 translate
0.000000 rotate
0.000000 0.000000 m /z glyphshow
4.724121 0.000000 m /e glyphshow
10.261230 0.000000 m /r glyphshow
13.961426 0.000000 m /o glyphshow
grestore

end
showpage
