%!PS-Adobe-3.0 EPSF-3.0
%%Title: /home/thaiduong/repo/papers/fastron_mapping_iros2019/ieeeconf/figures/upper_bound_orangeline.eps
%%Creator: matplotlib version 3.0.2, http://matplotlib.org/
%%CreationDate: Fri Mar 29 14:28:04 2019
%%Orientation: portrait
%%BoundingBox: 75 223 536 568
%%EndComments
%%BeginProlog
/mpldict 8 dict def
mpldict begin
/m { moveto } bind def
/l { lineto } bind def
/r { rlineto } bind def
/c { curveto } bind def
/cl { closepath } bind def
/box {
m
1 index 0 r
0 exch r
neg 0 r
cl
} bind def
/clipbox {
box
clip
newpath
} bind def
%!PS-Adobe-3.0 Resource-Font
%%Title: DejaVu Sans
%%Copyright: Copyright (c) 2003 by Bitstream, Inc. All Rights Reserved. Copyright (c) 2006 by Tavmjong Bah. All Rights Reserved. DejaVu changes are in public domain 
%%Creator: Converted from TrueType to type 3 by PPR
25 dict begin
/_d{bind def}bind def
/_m{moveto}_d
/_l{lineto}_d
/_cl{closepath eofill}_d
/_c{curveto}_d
/_sc{7 -1 roll{setcachedevice}{pop pop pop pop pop pop}ifelse}_d
/_e{exec}_d
/FontName /DejaVuSans def
/PaintType 0 def
/FontMatrix[.001 0 0 .001 0 0]def
/FontBBox[-1021 -463 1793 1232]def
/FontType 3 def
/Encoding [ /space /period /zero /one /two /four /six /eight /b /c /d /e /n /o /p /r /s /t /u /z ] def
/FontInfo 10 dict dup begin
/FamilyName (DejaVu Sans) def
/FullName (DejaVu Sans) def
/Notice (Copyright (c) 2003 by Bitstream, Inc. All Rights Reserved. Copyright (c) 2006 by Tavmjong Bah. All Rights Reserved. DejaVu changes are in public domain ) def
/Weight (Book) def
/Version (Version 2.35) def
/ItalicAngle 0.0 def
/isFixedPitch false def
/UnderlinePosition -130 def
/UnderlineThickness 90 def
end readonly def
/CharStrings 21 dict dup begin
/.notdef 0 def
/space{318 0 0 0 0 0 _sc
}_d
/period{318 0 107 0 210 124 _sc
107 124 _m
210 124 _l
210 0 _l
107 0 _l
107 124 _l
_cl}_d
/zero{636 0 66 -13 570 742 _sc
318 664 _m
267 664 229 639 203 589 _c
177 539 165 464 165 364 _c
165 264 177 189 203 139 _c
229 89 267 64 318 64 _c
369 64 407 89 433 139 _c
458 189 471 264 471 364 _c
471 464 458 539 433 589 _c
407 639 369 664 318 664 _c
318 742 _m
399 742 461 709 505 645 _c
548 580 570 486 570 364 _c
570 241 548 147 505 83 _c
461 19 399 -13 318 -13 _c
236 -13 173 19 130 83 _c
87 147 66 241 66 364 _c
66 486 87 580 130 645 _c
173 709 236 742 318 742 _c
_cl}_d
/one{636 0 110 0 544 729 _sc
124 83 _m
285 83 _l
285 639 _l
110 604 _l
110 694 _l
284 729 _l
383 729 _l
383 83 _l
544 83 _l
544 0 _l
124 0 _l
124 83 _l
_cl}_d
/two{{636 0 73 0 536 742 _sc
192 83 _m
536 83 _l
536 0 _l
73 0 _l
73 83 _l
110 121 161 173 226 239 _c
290 304 331 346 348 365 _c
380 400 402 430 414 455 _c
426 479 433 504 433 528 _c
433 566 419 598 392 622 _c
365 646 330 659 286 659 _c
255 659 222 653 188 643 _c
154 632 117 616 78 594 _c
78 694 _l
118 710 155 722 189 730 _c
223 738 255 742 284 742 _c
}_e{359 742 419 723 464 685 _c
509 647 532 597 532 534 _c
532 504 526 475 515 449 _c
504 422 484 390 454 354 _c
446 344 420 317 376 272 _c
332 227 271 164 192 83 _c
_cl}_e}_d
/four{636 0 49 0 580 729 _sc
378 643 _m
129 254 _l
378 254 _l
378 643 _l
352 729 _m
476 729 _l
476 254 _l
580 254 _l
580 172 _l
476 172 _l
476 0 _l
378 0 _l
378 172 _l
49 172 _l
49 267 _l
352 729 _l
_cl}_d
/six{{636 0 70 -13 573 742 _sc
330 404 _m
286 404 251 388 225 358 _c
199 328 186 286 186 234 _c
186 181 199 139 225 109 _c
251 79 286 64 330 64 _c
374 64 409 79 435 109 _c
461 139 474 181 474 234 _c
474 286 461 328 435 358 _c
409 388 374 404 330 404 _c
526 713 _m
526 623 _l
501 635 476 644 451 650 _c
425 656 400 659 376 659 _c
310 659 260 637 226 593 _c
}_e{192 549 172 482 168 394 _c
187 422 211 444 240 459 _c
269 474 301 482 336 482 _c
409 482 467 459 509 415 _c
551 371 573 310 573 234 _c
573 159 550 99 506 54 _c
462 9 403 -13 330 -13 _c
246 -13 181 19 137 83 _c
92 147 70 241 70 364 _c
70 479 97 571 152 639 _c
206 707 280 742 372 742 _c
396 742 421 739 447 735 _c
472 730 498 723 526 713 _c
_cl}_e}_d
/eight{{636 0 68 -13 568 742 _sc
318 346 _m
271 346 234 333 207 308 _c
180 283 167 249 167 205 _c
167 161 180 126 207 101 _c
234 76 271 64 318 64 _c
364 64 401 76 428 102 _c
455 127 469 161 469 205 _c
469 249 455 283 429 308 _c
402 333 365 346 318 346 _c
219 388 _m
177 398 144 418 120 447 _c
96 476 85 511 85 553 _c
85 611 105 657 147 691 _c
188 725 245 742 318 742 _c
}_e{390 742 447 725 489 691 _c
530 657 551 611 551 553 _c
551 511 539 476 515 447 _c
491 418 459 398 417 388 _c
464 377 501 355 528 323 _c
554 291 568 251 568 205 _c
568 134 546 80 503 43 _c
459 5 398 -13 318 -13 _c
237 -13 175 5 132 43 _c
89 80 68 134 68 205 _c
68 251 81 291 108 323 _c
134 355 171 377 219 388 _c
183 544 _m
183 506 194 476 218 455 _c
}_e{242 434 275 424 318 424 _c
360 424 393 434 417 455 _c
441 476 453 506 453 544 _c
453 582 441 611 417 632 _c
393 653 360 664 318 664 _c
275 664 242 653 218 632 _c
194 611 183 582 183 544 _c
_cl}_e}_d
/b{{635 0 91 -13 580 760 _sc
487 273 _m
487 339 473 390 446 428 _c
418 466 381 485 334 485 _c
286 485 249 466 222 428 _c
194 390 181 339 181 273 _c
181 207 194 155 222 117 _c
249 79 286 61 334 61 _c
381 61 418 79 446 117 _c
473 155 487 207 487 273 _c
181 464 _m
199 496 223 520 252 536 _c
281 552 316 560 356 560 _c
422 560 476 533 518 481 _c
559 428 580 359 580 273 _c
}_e{580 187 559 117 518 65 _c
476 13 422 -13 356 -13 _c
316 -13 281 -5 252 10 _c
223 25 199 49 181 82 _c
181 0 _l
91 0 _l
91 760 _l
181 760 _l
181 464 _l
_cl}_e}_d
/c{{550 0 55 -13 488 560 _sc
488 526 _m
488 442 _l
462 456 437 466 411 473 _c
385 480 360 484 334 484 _c
276 484 230 465 198 428 _c
166 391 150 339 150 273 _c
150 206 166 154 198 117 _c
230 80 276 62 334 62 _c
360 62 385 65 411 72 _c
437 79 462 90 488 104 _c
488 21 _l
462 9 436 0 410 -5 _c
383 -10 354 -13 324 -13 _c
242 -13 176 12 128 64 _c
}_e{79 115 55 185 55 273 _c
55 362 79 432 128 483 _c
177 534 244 560 330 560 _c
358 560 385 557 411 551 _c
437 545 463 537 488 526 _c
_cl}_e}_d
/d{{635 0 55 -13 544 760 _sc
454 464 _m
454 760 _l
544 760 _l
544 0 _l
454 0 _l
454 82 _l
435 49 411 25 382 10 _c
353 -5 319 -13 279 -13 _c
213 -13 159 13 117 65 _c
75 117 55 187 55 273 _c
55 359 75 428 117 481 _c
159 533 213 560 279 560 _c
319 560 353 552 382 536 _c
411 520 435 496 454 464 _c
148 273 _m
148 207 161 155 188 117 _c
215 79 253 61 301 61 _c
}_e{348 61 385 79 413 117 _c
440 155 454 207 454 273 _c
454 339 440 390 413 428 _c
385 466 348 485 301 485 _c
253 485 215 466 188 428 _c
161 390 148 339 148 273 _c
_cl}_e}_d
/e{{615 0 55 -13 562 560 _sc
562 296 _m
562 252 _l
149 252 _l
153 190 171 142 205 110 _c
238 78 284 62 344 62 _c
378 62 412 66 444 74 _c
476 82 509 95 541 113 _c
541 28 _l
509 14 476 3 442 -3 _c
408 -9 373 -13 339 -13 _c
251 -13 182 12 131 62 _c
80 112 55 181 55 268 _c
55 357 79 428 127 481 _c
175 533 241 560 323 560 _c
397 560 455 536 498 489 _c
}_e{540 441 562 377 562 296 _c
472 322 _m
471 371 457 410 431 440 _c
404 469 368 484 324 484 _c
274 484 234 469 204 441 _c
174 413 156 373 152 322 _c
472 322 _l
_cl}_e}_d
/n{634 0 91 0 549 560 _sc
549 330 _m
549 0 _l
459 0 _l
459 327 _l
459 379 448 417 428 443 _c
408 469 378 482 338 482 _c
289 482 251 466 223 435 _c
195 404 181 362 181 309 _c
181 0 _l
91 0 _l
91 547 _l
181 547 _l
181 462 _l
202 494 227 519 257 535 _c
286 551 320 560 358 560 _c
420 560 468 540 500 501 _c
532 462 549 405 549 330 _c
_cl}_d
/o{612 0 55 -13 557 560 _sc
306 484 _m
258 484 220 465 192 427 _c
164 389 150 338 150 273 _c
150 207 163 156 191 118 _c
219 80 257 62 306 62 _c
354 62 392 80 420 118 _c
448 156 462 207 462 273 _c
462 337 448 389 420 427 _c
392 465 354 484 306 484 _c
306 560 _m
384 560 445 534 490 484 _c
534 433 557 363 557 273 _c
557 183 534 113 490 63 _c
445 12 384 -13 306 -13 _c
227 -13 165 12 121 63 _c
77 113 55 183 55 273 _c
55 363 77 433 121 484 _c
165 534 227 560 306 560 _c
_cl}_d
/p{{635 0 91 -207 580 560 _sc
181 82 _m
181 -207 _l
91 -207 _l
91 547 _l
181 547 _l
181 464 _l
199 496 223 520 252 536 _c
281 552 316 560 356 560 _c
422 560 476 533 518 481 _c
559 428 580 359 580 273 _c
580 187 559 117 518 65 _c
476 13 422 -13 356 -13 _c
316 -13 281 -5 252 10 _c
223 25 199 49 181 82 _c
487 273 _m
487 339 473 390 446 428 _c
418 466 381 485 334 485 _c
}_e{286 485 249 466 222 428 _c
194 390 181 339 181 273 _c
181 207 194 155 222 117 _c
249 79 286 61 334 61 _c
381 61 418 79 446 117 _c
473 155 487 207 487 273 _c
_cl}_e}_d
/r{411 0 91 0 411 560 _sc
411 463 _m
401 469 390 473 378 476 _c
366 478 353 480 339 480 _c
288 480 249 463 222 430 _c
194 397 181 350 181 288 _c
181 0 _l
91 0 _l
91 547 _l
181 547 _l
181 462 _l
199 495 224 520 254 536 _c
284 552 321 560 365 560 _c
371 560 378 559 386 559 _c
393 558 401 557 411 555 _c
411 463 _l
_cl}_d
/s{{521 0 54 -13 472 560 _sc
443 531 _m
443 446 _l
417 458 391 468 364 475 _c
336 481 308 485 279 485 _c
234 485 200 478 178 464 _c
156 450 145 430 145 403 _c
145 382 153 366 169 354 _c
185 342 217 330 265 320 _c
296 313 _l
360 299 405 279 432 255 _c
458 230 472 195 472 151 _c
472 100 452 60 412 31 _c
372 1 316 -13 246 -13 _c
216 -13 186 -10 154 -5 _c
}_e{122 0 89 8 54 20 _c
54 113 _l
87 95 120 82 152 74 _c
184 65 216 61 248 61 _c
290 61 323 68 346 82 _c
368 96 380 117 380 144 _c
380 168 371 187 355 200 _c
339 213 303 226 247 238 _c
216 245 _l
160 257 119 275 95 299 _c
70 323 58 356 58 399 _c
58 450 76 490 112 518 _c
148 546 200 560 268 560 _c
301 560 332 557 362 552 _c
391 547 418 540 443 531 _c
}_e{_cl}_e}_d
/t{392 0 27 0 368 702 _sc
183 702 _m
183 547 _l
368 547 _l
368 477 _l
183 477 _l
183 180 _l
183 135 189 106 201 94 _c
213 81 238 75 276 75 _c
368 75 _l
368 0 _l
276 0 _l
206 0 158 13 132 39 _c
106 65 93 112 93 180 _c
93 477 _l
27 477 _l
27 547 _l
93 547 _l
93 702 _l
183 702 _l
_cl}_d
/u{634 0 85 -13 543 560 _sc
85 216 _m
85 547 _l
175 547 _l
175 219 _l
175 167 185 129 205 103 _c
225 77 255 64 296 64 _c
344 64 383 79 411 110 _c
439 141 453 183 453 237 _c
453 547 _l
543 547 _l
543 0 _l
453 0 _l
453 84 _l
431 50 405 26 377 10 _c
348 -5 315 -13 277 -13 _c
214 -13 166 6 134 45 _c
101 83 85 140 85 216 _c
311 560 _m
311 560 _l
_cl}_d
/z{525 0 43 0 482 547 _sc
55 547 _m
482 547 _l
482 465 _l
144 72 _l
482 72 _l
482 0 _l
43 0 _l
43 82 _l
381 475 _l
55 475 _l
55 547 _l
_cl}_d
end readonly def

/BuildGlyph
 {exch begin
 CharStrings exch
 2 copy known not{pop /.notdef}if
 true 3 1 roll get exec
 end}_d

/BuildChar {
 1 index /Encoding get exch get
 1 index /BuildGlyph get exec
}_d

FontName currentdict end definefont pop
end
%%EndProlog
mpldict begin
75.6 223.2 translate
460.8 345.6 0 0 clipbox
gsave
0 0 m
460.8 0 l
460.8 345.6 l
0 345.6 l
cl
1.000 setgray
fill
grestore
gsave
57.6 38.016 m
414.72 38.016 l
414.72 304.128 l
57.6 304.128 l
cl
1.000 setgray
fill
grestore
0.800 setlinewidth
1 setlinejoin
0 setlinecap
[] 0 setdash
0.000 setgray
gsave
/o {
gsave
newpath
translate
0.8 setlinewidth
1 setlinejoin
0 setlinecap
0 0 m
0 -3.5 l

gsave
0.000 setgray
fill
grestore
stroke
grestore
} bind def
73.8327 38.016 o
grestore
/DejaVuSans findfont
10.000 scalefont
setfont
gsave
65.879602 23.422250 translate
0.000000 rotate
0.000000 0.000000 m /zero glyphshow
6.362305 0.000000 m /period glyphshow
9.541016 0.000000 m /zero glyphshow
grestore
gsave
/o {
gsave
newpath
translate
0.8 setlinewidth
1 setlinejoin
0 setlinecap
0 0 m
0 -3.5 l

gsave
0.000 setgray
fill
grestore
stroke
grestore
} bind def
138.764 38.016 o
grestore
gsave
130.810511 23.422250 translate
0.000000 rotate
0.000000 0.000000 m /zero glyphshow
6.362305 0.000000 m /period glyphshow
9.541016 0.000000 m /two glyphshow
grestore
gsave
/o {
gsave
newpath
translate
0.8 setlinewidth
1 setlinejoin
0 setlinecap
0 0 m
0 -3.5 l

gsave
0.000 setgray
fill
grestore
stroke
grestore
} bind def
203.695 38.016 o
grestore
gsave
195.741420 23.422250 translate
0.000000 rotate
0.000000 0.000000 m /zero glyphshow
6.362305 0.000000 m /period glyphshow
9.541016 0.000000 m /four glyphshow
grestore
gsave
/o {
gsave
newpath
translate
0.8 setlinewidth
1 setlinejoin
0 setlinecap
0 0 m
0 -3.5 l

gsave
0.000 setgray
fill
grestore
stroke
grestore
} bind def
268.625 38.016 o
grestore
gsave
260.672330 23.422250 translate
0.000000 rotate
0.000000 0.000000 m /zero glyphshow
6.362305 0.000000 m /period glyphshow
9.541016 0.000000 m /six glyphshow
grestore
gsave
/o {
gsave
newpath
translate
0.8 setlinewidth
1 setlinejoin
0 setlinecap
0 0 m
0 -3.5 l

gsave
0.000 setgray
fill
grestore
stroke
grestore
} bind def
333.556 38.016 o
grestore
gsave
325.603239 23.422250 translate
0.000000 rotate
0.000000 0.000000 m /zero glyphshow
6.362305 0.000000 m /period glyphshow
9.541016 0.000000 m /eight glyphshow
grestore
gsave
/o {
gsave
newpath
translate
0.8 setlinewidth
1 setlinejoin
0 setlinecap
0 0 m
0 -3.5 l

gsave
0.000 setgray
fill
grestore
stroke
grestore
} bind def
398.487 38.016 o
grestore
gsave
390.534148 23.422250 translate
0.000000 rotate
0.000000 0.000000 m /one glyphshow
6.362305 0.000000 m /period glyphshow
9.541016 0.000000 m /zero glyphshow
grestore
gsave
234.199062 9.750375 translate
0.000000 rotate
0.000000 0.000000 m /t glyphshow
grestore
gsave
/o {
gsave
newpath
translate
0.8 setlinewidth
1 setlinejoin
0 setlinecap
0 0 m
-3.5 0 l

gsave
0.000 setgray
fill
grestore
stroke
grestore
} bind def
57.6 73.6678 o
grestore
gsave
44.240625 69.870949 translate
0.000000 rotate
0.000000 0.000000 m /zero glyphshow
grestore
gsave
/o {
gsave
newpath
translate
0.8 setlinewidth
1 setlinejoin
0 setlinecap
0 0 m
-3.5 0 l

gsave
0.000 setgray
fill
grestore
stroke
grestore
} bind def
57.6 112.127 o
grestore
gsave
44.240625 108.330024 translate
0.000000 rotate
0.000000 0.000000 m /two glyphshow
grestore
gsave
/o {
gsave
newpath
translate
0.8 setlinewidth
1 setlinejoin
0 setlinecap
0 0 m
-3.5 0 l

gsave
0.000 setgray
fill
grestore
stroke
grestore
} bind def
57.6 150.586 o
grestore
gsave
44.240625 146.789099 translate
0.000000 rotate
0.000000 0.000000 m /four glyphshow
grestore
gsave
/o {
gsave
newpath
translate
0.8 setlinewidth
1 setlinejoin
0 setlinecap
0 0 m
-3.5 0 l

gsave
0.000 setgray
fill
grestore
stroke
grestore
} bind def
57.6 189.045 o
grestore
gsave
44.240625 185.248174 translate
0.000000 rotate
0.000000 0.000000 m /six glyphshow
grestore
gsave
/o {
gsave
newpath
translate
0.8 setlinewidth
1 setlinejoin
0 setlinecap
0 0 m
-3.5 0 l

gsave
0.000 setgray
fill
grestore
stroke
grestore
} bind def
57.6 227.504 o
grestore
gsave
44.240625 223.707249 translate
0.000000 rotate
0.000000 0.000000 m /eight glyphshow
grestore
gsave
/o {
gsave
newpath
translate
0.8 setlinewidth
1 setlinejoin
0 setlinecap
0 0 m
-3.5 0 l

gsave
0.000 setgray
fill
grestore
stroke
grestore
} bind def
57.6 265.963 o
grestore
gsave
37.881250 262.166324 translate
0.000000 rotate
0.000000 0.000000 m /one glyphshow
6.362305 0.000000 m /zero glyphshow
grestore
gsave
/o {
gsave
newpath
translate
0.8 setlinewidth
1 setlinejoin
0 setlinecap
0 0 m
-3.5 0 l

gsave
0.000 setgray
fill
grestore
stroke
grestore
} bind def
57.6 304.422 o
grestore
gsave
37.881250 300.625399 translate
0.000000 rotate
0.000000 0.000000 m /one glyphshow
6.362305 0.000000 m /two glyphshow
grestore
gsave
31.803125 157.517312 translate
90.000000 rotate
0.000000 0.000000 m /s glyphshow
5.209961 0.000000 m /c glyphshow
10.708008 0.000000 m /o glyphshow
16.826172 0.000000 m /r glyphshow
20.937500 0.000000 m /e glyphshow
grestore
1.500 setlinewidth
[5.55 2.4] 0 setdash
0.122 0.467 0.706 setrgbcolor
gsave
357.1 266.1 57.6 38.02 clipbox
73.832727 73.535838 m
77.112066 73.490367 l
80.391405 73.431798 l
83.670744 73.357303 l
86.950083 73.263773 l
90.229421 73.14791 l
93.50876 73.006368 l
96.788099 72.835968 l
100.067438 72.633983 l
103.346777 72.398518 l
106.626116 72.128982 l
109.905455 71.826655 l
113.184793 71.495371 l
116.464132 71.142282 l
119.743471 70.778716 l
123.02281 70.421091 l
126.302149 70.09187 l
129.581488 69.820502 l
132.860826 69.644305 l
136.140165 69.60923 l
139.419504 69.770421 l
142.698843 70.192492 l
145.978182 70.949424 l
149.257521 72.12399 l
152.53686 73.806595 l
155.816198 76.093456 l
159.095537 79.084049 l
162.374876 82.877766 l
165.654215 87.56981 l
168.933554 93.246353 l
172.212893 99.979095 l
175.492231 107.819407 l
178.77157 116.79233 l
182.050909 126.89076 l
185.330248 138.070231 l
188.609587 150.244704 l
191.888926 163.283835 l
195.168264 177.012114 l
198.447603 191.210221 l
201.726942 205.618847 l
205.006281 219.945047 l
208.28562 233.871051 l
211.564959 247.06524 l
214.844298 259.194818 l
218.123636 269.93954 l
221.402975 279.005726 l
224.682314 286.139694 l
227.961653 290.347386 l
231.240992 292.032 l
234.520331 291.304075 l
237.799669 288.153868 l
241.079008 282.645384 l
244.358347 274.913603 l
247.637686 265.158258 l
250.917025 253.634623 l
254.196364 240.641924 l
257.475702 226.510145 l
260.755041 211.586045 l
264.03438 196.219234 l
267.313719 180.74905 l
270.593058 165.492909 l
273.872397 150.736608 l
277.151736 136.726919 l
280.431074 123.666597 l
283.710413 111.71181 l
286.989752 100.971809 l
290.269091 91.510574 l
293.54843 83.350092 l
296.827769 76.474887 l
300.107107 70.837408 l
303.386446 66.363902 l
306.665785 62.960449 l
309.945124 60.518863 l
313.224463 58.922247 l
316.503802 58.050018 l
319.78314 57.782292 l
323.062479 58.003558 l
326.341818 58.605617 l
329.621157 59.489778 l
332.900496 60.568361 l
336.179835 61.765552 l
339.459174 63.017685 l
342.738512 64.273031 l
346.017851 65.49119 l
349.29719 66.642164 l
352.576529 67.705228 l
355.855868 68.667647 l
359.135207 69.523357 l
362.414545 70.271648 l
365.693884 70.915915 l
368.973223 71.462524 l
372.252562 71.919806 l
375.531901 72.297219 l
378.81124 72.604653 l
382.090579 72.851905 l
385.369917 73.048286 l
388.649256 73.202362 l
391.928595 73.321796 l
395.207934 73.41328 l
398.487273 73.482535 l
stroke
grestore
2 setlinecap
[] 0 setdash
1.000 0.498 0.055 setrgbcolor
gsave
357.1 266.1 57.6 38.02 clipbox
73.832727 73.532529 m
77.112066 73.486662 l
80.391405 73.427377 l
83.670744 73.351661 l
86.950083 73.256121 l
90.229421 73.137039 l
93.50876 72.990453 l
96.788099 72.812291 l
100.067438 72.598545 l
103.346777 72.345501 l
106.626116 72.050024 l
109.905455 71.709882 l
113.184793 71.32412 l
116.464132 70.893449 l
119.743471 70.420656 l
123.02281 69.910997 l
126.302149 69.372551 l
129.581488 68.816516 l
132.860826 68.257408 l
136.140165 67.71315 l
139.419504 67.205009 l
142.698843 66.757382 l
145.978182 66.397403 l
149.257521 66.154367 l
152.53686 66.058981 l
155.816198 66.142438 l
159.095537 66.435344 l
162.374876 66.966518 l
165.654215 67.761693 l
168.933554 68.842173 l
172.212893 70.223479 l
175.492231 71.914046 l
178.77157 73.914023 l
182.050909 76.214249 l
185.330248 78.795453 l
188.609587 81.627765 l
191.888926 84.670572 l
195.168264 87.872792 l
198.447603 91.173598 l
201.726942 94.503604 l
205.006281 97.786524 l
208.28562 100.94126 l
211.564959 103.884381 l
214.844298 106.532879 l
218.123636 108.807117 l
221.402975 110.633817 l
224.682314 111.948955 l
227.961653 112.700405 l
231.240992 112.850196 l
234.520331 112.376271 l
237.799669 111.273624 l
241.079008 109.554778 l
244.358347 107.249571 l
247.637686 104.40426 l
250.917025 101.079995 l
254.196364 97.350742 l
257.475702 93.300764 l
260.755041 89.021774 l
264.03438 84.609896 l
267.313719 80.162547 l
270.593058 75.775378 l
273.872397 71.539383 l
277.151736 67.538256 l
280.431074 63.846106 l
283.710413 60.525567 l
286.989752 57.626382 l
290.269091 55.184468 l
293.54843 53.221491 l
296.827769 51.744962 l
300.107107 50.748806 l
303.386446 50.214399 l
306.665785 50.112 l
309.945124 50.40251 l
313.224463 51.03948 l
316.503802 51.971263 l
319.78314 53.143214 l
323.062479 54.499837 l
326.341818 55.986783 l
329.621157 57.55261 l
332.900496 59.15026 l
336.179835 60.738181 l
339.459174 62.281091 l
342.738512 63.750383 l
346.017851 65.124185 l
349.29719 66.387122 l
352.576529 67.529825 l
355.855868 68.548265 l
359.135207 69.442945 l
362.414545 70.218046 l
365.693884 70.880554 l
368.973223 71.439438 l
372.252562 71.90489 l
375.531901 72.287681 l
378.81124 72.598617 l
382.090579 72.848125 l
385.369917 73.045944 l
388.649256 73.200926 l
391.928595 73.320924 l
395.207934 73.412756 l
398.487273 73.482224 l
stroke
grestore
0 setlinecap
[1.5 2.475] 0 setdash
0.173 0.627 0.173 setrgbcolor
gsave
357.1 266.1 57.6 38.02 clipbox
73.832727 73.667824 m
77.112066 73.667824 l
80.391405 73.667824 l
83.670744 73.667824 l
86.950083 73.667824 l
90.229421 73.667824 l
93.50876 73.667824 l
96.788099 73.667824 l
100.067438 73.667824 l
103.346777 73.667824 l
106.626116 73.667824 l
109.905455 73.667824 l
113.184793 73.667824 l
116.464132 73.667824 l
119.743471 73.667824 l
123.02281 73.667824 l
126.302149 73.667824 l
129.581488 73.667824 l
132.860826 73.667824 l
136.140165 73.667824 l
139.419504 73.667824 l
142.698843 73.667824 l
145.978182 73.667824 l
149.257521 73.667824 l
152.53686 73.667824 l
155.816198 73.667824 l
159.095537 73.667824 l
162.374876 73.667824 l
165.654215 73.667824 l
168.933554 73.667824 l
172.212893 73.667824 l
175.492231 73.667824 l
178.77157 73.667824 l
182.050909 73.667824 l
185.330248 73.667824 l
188.609587 73.667824 l
191.888926 73.667824 l
195.168264 73.667824 l
198.447603 73.667824 l
201.726942 73.667824 l
205.006281 73.667824 l
208.28562 73.667824 l
211.564959 73.667824 l
214.844298 73.667824 l
218.123636 73.667824 l
221.402975 73.667824 l
224.682314 73.667824 l
227.961653 73.667824 l
231.240992 73.667824 l
234.520331 73.667824 l
237.799669 73.667824 l
241.079008 73.667824 l
244.358347 73.667824 l
247.637686 73.667824 l
250.917025 73.667824 l
254.196364 73.667824 l
257.475702 73.667824 l
260.755041 73.667824 l
264.03438 73.667824 l
267.313719 73.667824 l
270.593058 73.667824 l
273.872397 73.667824 l
277.151736 73.667824 l
280.431074 73.667824 l
283.710413 73.667824 l
286.989752 73.667824 l
290.269091 73.667824 l
293.54843 73.667824 l
296.827769 73.667824 l
300.107107 73.667824 l
303.386446 73.667824 l
306.665785 73.667824 l
309.945124 73.667824 l
313.224463 73.667824 l
316.503802 73.667824 l
319.78314 73.667824 l
323.062479 73.667824 l
326.341818 73.667824 l
329.621157 73.667824 l
332.900496 73.667824 l
336.179835 73.667824 l
339.459174 73.667824 l
342.738512 73.667824 l
346.017851 73.667824 l
349.29719 73.667824 l
352.576529 73.667824 l
355.855868 73.667824 l
359.135207 73.667824 l
362.414545 73.667824 l
365.693884 73.667824 l
368.973223 73.667824 l
372.252562 73.667824 l
375.531901 73.667824 l
378.81124 73.667824 l
382.090579 73.667824 l
385.369917 73.667824 l
388.649256 73.667824 l
391.928595 73.667824 l
395.207934 73.667824 l
398.487273 73.667824 l
stroke
grestore
0.800 setlinewidth
0 setlinejoin
2 setlinecap
[] 0 setdash
0.000 setgray
gsave
57.6 38.016 m
57.6 304.128 l
stroke
grestore
gsave
414.72 38.016 m
414.72 304.128 l
stroke
grestore
gsave
57.6 38.016 m
414.72 38.016 l
stroke
grestore
gsave
57.6 304.128 m
414.72 304.128 l
stroke
grestore
1.000 setlinewidth
0 setlinecap
0.800 setgray
gsave
311.735625 252.112375 m
407.72 252.112375 l
409.053333 252.112375 409.72 252.779042 409.72 254.112375 c
409.72 297.128 l
409.72 298.461333 409.053333 299.128 407.72 299.128 c
311.735625 299.128 l
310.402292 299.128 309.735625 298.461333 309.735625 297.128 c
309.735625 254.112375 l
309.735625 252.779042 310.402292 252.112375 311.735625 252.112375 c
cl
gsave
1.000 setgray
fill
grestore
stroke
grestore
1.500 setlinewidth
1 setlinejoin
[5.55 2.4] 0 setdash
0.122 0.467 0.706 setrgbcolor
gsave
313.735625 291.03425 m
333.735625 291.03425 l
stroke
grestore
0.000 setgray
gsave
341.735625 287.534250 translate
0.000000 rotate
0.000000 0.000000 m /u glyphshow
6.337891 0.000000 m /p glyphshow
12.685547 0.000000 m /p glyphshow
19.033203 0.000000 m /e glyphshow
25.185547 0.000000 m /r glyphshow
29.296875 0.000000 m /space glyphshow
32.475586 0.000000 m /b glyphshow
38.823242 0.000000 m /o glyphshow
44.941406 0.000000 m /u glyphshow
51.279297 0.000000 m /n glyphshow
57.617188 0.000000 m /d glyphshow
grestore
2 setlinecap
[] 0 setdash
1.000 0.498 0.055 setrgbcolor
gsave
313.735625 276.362375 m
333.735625 276.362375 l
stroke
grestore
0.000 setgray
gsave
341.735625 272.862375 translate
0.000000 rotate
0.000000 0.000000 m /t glyphshow
3.920898 0.000000 m /r glyphshow
8.032227 0.000000 m /u glyphshow
14.370117 0.000000 m /e glyphshow
20.522461 0.000000 m /space glyphshow
23.701172 0.000000 m /s glyphshow
28.911133 0.000000 m /c glyphshow
34.409180 0.000000 m /o glyphshow
40.527344 0.000000 m /r glyphshow
44.638672 0.000000 m /e glyphshow
grestore
0 setlinecap
[1.5 2.475] 0 setdash
0.173 0.627 0.173 setrgbcolor
gsave
313.735625 261.6905 m
333.735625 261.6905 l
stroke
grestore
0.000 setgray
gsave
341.735625 258.190500 translate
0.000000 rotate
0.000000 0.000000 m /z glyphshow
5.249023 0.000000 m /e glyphshow
11.401367 0.000000 m /r glyphshow
15.512695 0.000000 m /o glyphshow
grestore

end
showpage
