\relax 
\citation{cadena_slam_survey}
\citation{kaess_isam}
\citation{human_friendly_nav_guzzi_icra13}
\citation{safe_auto_nav_pavone_rss18}
\citation{moravec1985high}
\citation{thrun2005probabilistic}
\citation{ieee_map_rep_standard}
\citation{ieee_map_rep_standard}
\citation{wurm2010octomap}
\citation{behley2018rss_surfel_slam}
\citation{thrun1998probabilistic}
\citation{Thrun2003_grid_map_forward_sensor_model}
\citation{safe_auto_nav_pavone_rss18}
\citation{cadena_slam_survey}
\citation{moravec1985high}
\citation{thrun2005probabilistic}
\citation{ieee_map_rep_standard}
\citation{wurm2010octomap}
\citation{behley2018rss_surfel_slam}
\citation{human_friendly_nav_guzzi_icra13}
\citation{safe_auto_nav_pavone_rss18}
\citation{human_friendly_nav_guzzi_icra13}
\citation{safe_auto_nav_pavone_rss18}
\citation{Russell_AI_Modern_Approach}
\citation{d_star_lite}
\citation{karaman2011sampling}
\citation{choset2005principles}
\citation{lavalle1998rapidly}
\citation{das2017fastron}
\@writefile{toc}{\contentsline {section}{\numberline {I}INTRODUCTION}{1}}
\newlabel{sec:intro}{{I}{1}}
\citation{das2017fastron}
\citation{das2017fastron}
\citation{das2017fastron}
\citation{das2017fastron}
\citation{thrun1998probabilistic}
\citation{Thrun2003_grid_map_forward_sensor_model}
\@writefile{toc}{\contentsline {section}{\numberline {II}Problem Formulation}{2}}
\newlabel{sec:problem_formulation}{{II}{2}}
\newlabel{robot_dynamics}{{1}{2}}
\newlabel{problem_formulation_known_env}{{1}{2}}
\newlabel{known_env_formulation_discrete}{{2}{2}}
\newlabel{problem_formulation_unknown_env}{{2}{2}}
\newlabel{unknown_env_formulation_discrete}{{3}{2}}
\@writefile{toc}{\contentsline {section}{\numberline {III}Preliminaries}{2}}
\newlabel{sec:prelim}{{III}{2}}
\citation{thrun2005probabilistic}
\providecommand*\caption@xref[2]{\@setref\relax\@undefined{#1}}
\newlabel{fig:fastron_one_obs}{{1a}{3}}
\newlabel{sub@fig:fastron_one_obs}{{a}{3}}
\newlabel{fig:fastron_two_obs}{{1b}{3}}
\newlabel{sub@fig:fastron_two_obs}{{b}{3}}
\@writefile{lof}{\contentsline {figure}{\numberline {1}{\ignorespaces Fastron boundaries in changing environment\relax }}{3}}
\newlabel{fig:fastron_example}{{1}{3}}
\@writefile{toc}{\contentsline {section}{\numberline {IV}Autonomous Navigation with Fastron-based Occupancy Grid Mapping}{3}}
\newlabel{sec:mapping_with_fastron}{{IV}{3}}
\@writefile{toc}{\contentsline {subsection}{\numberline {IV-A}Fastron-based Occupancy Grid Mapping}{3}}
\newlabel{subsec:ogm_with_fastron}{{IV-A}{3}}
\@writefile{loa}{\contentsline {algorithm}{\numberline {1}{\ignorespaces $fastron\_update\_model$ \cite  {das2017fastron}\relax }}{3}}
\newlabel{alg:fastron_model}{{1}{3}}
\@writefile{loa}{\contentsline {algorithm}{\numberline {2}{\ignorespaces $update\_label$\relax }}{3}}
\newlabel{alg:update_label}{{2}{3}}
\citation{Russell_AI_Modern_Approach}
\newlabel{eq:fastron_prediction}{{5}{4}}
\@writefile{toc}{\contentsline {subsection}{\numberline {IV-B}Autonomous Navigation with Fastron-based Occupancy Grid Mapping}{4}}
\newlabel{subsec:nav_with_fastron}{{IV-B}{4}}
\@writefile{loa}{\contentsline {algorithm}{\numberline {3}{\ignorespaces Autonomous Navigation with Fastron-based Occupancy Grid Map\relax }}{4}}
\newlabel{alg:auto_nav_fastron_ogm}{{3}{4}}
\@writefile{toc}{\contentsline {subsection}{\numberline {IV-C}Collision Checking}{4}}
\newlabel{subsec:collision_checking}{{IV-C}{4}}
\newlabel{fastron_score}{{7}{4}}
\newlabel{prop:score_bounds}{{1}{4}}
\newlabel{eq:score_bounds}{{8}{4}}
\@writefile{toc}{\contentsline {subsubsection}{\numberline {IV-C.1}Line curve}{4}}
\newlabel{prop:line_curve_defensive_checking}{{2}{4}}
\newlabel{eq:line_curve_t_condition}{{9}{5}}
\newlabel{eq:line_curve_condition}{{10}{5}}
\newlabel{eq:line_curve_t_condition_x_star}{{11}{5}}
\newlabel{collorary:line_curve_tigher_bound}{{2.1}{5}}
\newlabel{eq:line_curve_t_condition_tigher_bound}{{12}{5}}
\@writefile{loa}{\contentsline {algorithm}{\numberline {4}{\ignorespaces Defensive collision checking for a line segment $AB$.\relax }}{5}}
\newlabel{alg:collision_checking_line}{{4}{5}}
\newlabel{corollary:free_ball}{{2.2}{5}}
\newlabel{eq:line_curve_radius}{{13}{5}}
\citation{liu2017search}
\newlabel{fig:collision_checking_oneobs}{{2a}{6}}
\newlabel{sub@fig:collision_checking_oneobs}{{a}{6}}
\newlabel{fig:collision_checking_twoobs}{{2b}{6}}
\newlabel{sub@fig:collision_checking_twoobs}{{b}{6}}
\@writefile{lof}{\contentsline {figure}{\numberline {2}{\ignorespaces Collision checking on line segments starting from the same point. The orange points are where the segments collides with the upper bound boundary found by Algorithm 4\hbox {}\relax }}{6}}
\newlabel{fig:collision_checking_line}{{2}{6}}
\newlabel{eq:line_curve_radius_tighter_bound}{{14}{6}}
\newlabel{fig:fastron_one_obs}{{3a}{6}}
\newlabel{sub@fig:fastron_one_obs}{{a}{6}}
\newlabel{fig:fastron_two_obs}{{3b}{6}}
\newlabel{sub@fig:fastron_two_obs}{{b}{6}}
\@writefile{lof}{\contentsline {figure}{\numberline {3}{\ignorespaces Boundary based on $U(x(t))$ and a few examples of $\mathcal  {B}(x_0,r)$\relax }}{6}}
\newlabel{fig:upper_bound_boundary}{{3}{6}}
\@writefile{loa}{\contentsline {algorithm}{\numberline {5}{\ignorespaces Sequential defensive collision checking for a curve $x(t)$.\relax }}{6}}
\newlabel{alg:collision_checking_curve}{{5}{6}}
\bibstyle{../thai_bibtex/IEEEtran}
\bibdata{../thai_bibtex/thai_ref}
\bibcite{cadena_slam_survey}{1}
\bibcite{kaess_isam}{2}
\bibcite{human_friendly_nav_guzzi_icra13}{3}
\bibcite{safe_auto_nav_pavone_rss18}{4}
\bibcite{moravec1985high}{5}
\bibcite{thrun2005probabilistic}{6}
\bibcite{ieee_map_rep_standard}{7}
\bibcite{wurm2010octomap}{8}
\bibcite{behley2018rss_surfel_slam}{9}
\bibcite{thrun1998probabilistic}{10}
\bibcite{Thrun2003_grid_map_forward_sensor_model}{11}
\bibcite{Russell_AI_Modern_Approach}{12}
\bibcite{d_star_lite}{13}
\bibcite{karaman2011sampling}{14}
\bibcite{choset2005principles}{15}
\bibcite{lavalle1998rapidly}{16}
\bibcite{das2017fastron}{17}
\bibcite{liu2017search}{18}
\newlabel{fig:ground_truth_grid}{{4a}{7}}
\newlabel{sub@fig:ground_truth_grid}{{a}{7}}
\newlabel{fig:grid_1}{{4b}{7}}
\newlabel{sub@fig:grid_1}{{b}{7}}
\newlabel{fig:grid_4}{{4c}{7}}
\newlabel{sub@fig:grid_4}{{c}{7}}
\newlabel{fig:grid_10}{{4d}{7}}
\newlabel{sub@fig:grid_10}{{d}{7}}
\newlabel{fig:grid_14}{{4e}{7}}
\newlabel{sub@fig:grid_14}{{e}{7}}
\newlabel{fig:grid_18}{{4f}{7}}
\newlabel{sub@fig:grid_18}{{f}{7}}
\@writefile{lof}{\contentsline {figure}{\numberline {4}{\ignorespaces Autonomous navigation in a simple grid environment\relax }}{7}}
\newlabel{fig:simple_grid_env}{{4}{7}}
\@writefile{toc}{\contentsline {section}{\numberline {V}EXPERIMENTAL RESULTS}{7}}
\newlabel{sec:experimental_results}{{V}{7}}
\@writefile{toc}{\contentsline {subsection}{\numberline {V-A}Simple Grid Environment}{7}}
\@writefile{toc}{\contentsline {subsection}{\numberline {V-B}Racecar Simulation}{7}}
\@writefile{toc}{\contentsline {subsection}{\numberline {V-C}Racecar Robot}{7}}
\@writefile{toc}{\contentsline {section}{\numberline {VI}CONCLUSIONS}{7}}
\newlabel{sec:conclusions}{{VI}{7}}
\@writefile{toc}{\contentsline {section}{References}{7}}
