%!PS-Adobe-3.0 EPSF-3.0
%%Title: /home/thaiduong/repo/papers/fastron_mapping_iros2019/ieeeconf/figures/training_data1.eps
%%Creator: matplotlib version 3.0.2, http://matplotlib.org/
%%CreationDate: Fri Mar 29 14:12:16 2019
%%Orientation: portrait
%%BoundingBox: 126 216 486 576
%%EndComments
%%BeginProlog
/mpldict 8 dict def
mpldict begin
/m { moveto } bind def
/l { lineto } bind def
/r { rlineto } bind def
/c { curveto } bind def
/cl { closepath } bind def
/box {
m
1 index 0 r
0 exch r
neg 0 r
cl
} bind def
/clipbox {
box
clip
newpath
} bind def
%!PS-Adobe-3.0 Resource-Font
%%Title: DejaVu Sans
%%Copyright: Copyright (c) 2003 by Bitstream, Inc. All Rights Reserved. Copyright (c) 2006 by Tavmjong Bah. All Rights Reserved. DejaVu changes are in public domain 
%%Creator: Converted from TrueType to type 3 by PPR
25 dict begin
/_d{bind def}bind def
/_m{moveto}_d
/_l{lineto}_d
/_cl{closepath eofill}_d
/_c{curveto}_d
/_sc{7 -1 roll{setcachedevice}{pop pop pop pop pop pop}ifelse}_d
/_e{exec}_d
/FontName /DejaVuSans def
/PaintType 0 def
/FontMatrix[.001 0 0 .001 0 0]def
/FontBBox[-1021 -463 1793 1232]def
/FontType 3 def
/Encoding [ /zero /two /four /six /minus ] def
/FontInfo 10 dict dup begin
/FamilyName (DejaVu Sans) def
/FullName (DejaVu Sans) def
/Notice (Copyright (c) 2003 by Bitstream, Inc. All Rights Reserved. Copyright (c) 2006 by Tavmjong Bah. All Rights Reserved. DejaVu changes are in public domain ) def
/Weight (Book) def
/Version (Version 2.35) def
/ItalicAngle 0.0 def
/isFixedPitch false def
/UnderlinePosition -130 def
/UnderlineThickness 90 def
end readonly def
/CharStrings 6 dict dup begin
/.notdef 0 def
/zero{636 0 66 -13 570 742 _sc
318 664 _m
267 664 229 639 203 589 _c
177 539 165 464 165 364 _c
165 264 177 189 203 139 _c
229 89 267 64 318 64 _c
369 64 407 89 433 139 _c
458 189 471 264 471 364 _c
471 464 458 539 433 589 _c
407 639 369 664 318 664 _c
318 742 _m
399 742 461 709 505 645 _c
548 580 570 486 570 364 _c
570 241 548 147 505 83 _c
461 19 399 -13 318 -13 _c
236 -13 173 19 130 83 _c
87 147 66 241 66 364 _c
66 486 87 580 130 645 _c
173 709 236 742 318 742 _c
_cl}_d
/two{{636 0 73 0 536 742 _sc
192 83 _m
536 83 _l
536 0 _l
73 0 _l
73 83 _l
110 121 161 173 226 239 _c
290 304 331 346 348 365 _c
380 400 402 430 414 455 _c
426 479 433 504 433 528 _c
433 566 419 598 392 622 _c
365 646 330 659 286 659 _c
255 659 222 653 188 643 _c
154 632 117 616 78 594 _c
78 694 _l
118 710 155 722 189 730 _c
223 738 255 742 284 742 _c
}_e{359 742 419 723 464 685 _c
509 647 532 597 532 534 _c
532 504 526 475 515 449 _c
504 422 484 390 454 354 _c
446 344 420 317 376 272 _c
332 227 271 164 192 83 _c
_cl}_e}_d
/four{636 0 49 0 580 729 _sc
378 643 _m
129 254 _l
378 254 _l
378 643 _l
352 729 _m
476 729 _l
476 254 _l
580 254 _l
580 172 _l
476 172 _l
476 0 _l
378 0 _l
378 172 _l
49 172 _l
49 267 _l
352 729 _l
_cl}_d
/six{{636 0 70 -13 573 742 _sc
330 404 _m
286 404 251 388 225 358 _c
199 328 186 286 186 234 _c
186 181 199 139 225 109 _c
251 79 286 64 330 64 _c
374 64 409 79 435 109 _c
461 139 474 181 474 234 _c
474 286 461 328 435 358 _c
409 388 374 404 330 404 _c
526 713 _m
526 623 _l
501 635 476 644 451 650 _c
425 656 400 659 376 659 _c
310 659 260 637 226 593 _c
}_e{192 549 172 482 168 394 _c
187 422 211 444 240 459 _c
269 474 301 482 336 482 _c
409 482 467 459 509 415 _c
551 371 573 310 573 234 _c
573 159 550 99 506 54 _c
462 9 403 -13 330 -13 _c
246 -13 181 19 137 83 _c
92 147 70 241 70 364 _c
70 479 97 571 152 639 _c
206 707 280 742 372 742 _c
396 742 421 739 447 735 _c
472 730 498 723 526 713 _c
_cl}_e}_d
/minus{838 0 106 272 732 355 _sc
106 355 _m
732 355 _l
732 272 _l
106 272 _l
106 355 _l
_cl}_d
end readonly def

/BuildGlyph
 {exch begin
 CharStrings exch
 2 copy known not{pop /.notdef}if
 true 3 1 roll get exec
 end}_d

/BuildChar {
 1 index /Encoding get exch get
 1 index /BuildGlyph get exec
}_d

FontName currentdict end definefont pop
end
%%EndProlog
mpldict begin
126 216 translate
360 360 0 0 clipbox
gsave
0 0 m
360 0 l
360 360 l
0 360 l
cl
1.000 setgray
fill
grestore
gsave
45 39.6 m
324 39.6 l
324 316.8 l
45 316.8 l
cl
1.000 setgray
fill
grestore
1.000 setlinewidth
1 setlinejoin
0 setlinecap
[] 0 setdash
1.000 0.000 0.000 setrgbcolor
gsave
279 277.2 45 39.6 clipbox
/o {
gsave
newpath
translate
1.0 setlinewidth
1 setlinejoin
0 setlinecap
0 -2.236068 m
0.593012 -2.236068 1.161816 -2.000462 1.581139 -1.581139 c
2.000462 -1.161816 2.236068 -0.593012 2.236068 0 c
2.236068 0.593012 2.000462 1.161816 1.581139 1.581139 c
1.161816 2.000462 0.593012 2.236068 0 2.236068 c
-0.593012 2.236068 -1.161816 2.000462 -1.581139 1.581139 c
-2.000462 1.161816 -2.236068 0.593012 -2.236068 0 c
-2.236068 -0.593012 -2.000462 -1.161816 -1.581139 -1.581139 c
-1.161816 -2.000462 -0.593012 -2.236068 0 -2.236068 c
cl

gsave
1.000 0.000 0.000 setrgbcolor
fill
grestore
stroke
grestore
} bind def
121.248 106.501 o
121.248 133.223 o
121.248 159.946 o
121.248 186.669 o
121.248 213.392 o
146.744 213.392 o
172.239 213.392 o
223.231 240.114 o
248.726 240.114 o
274.222 240.114 o
grestore
0.000 0.502 0.000 setrgbcolor
gsave
279 277.2 45 39.6 clipbox
/o {
gsave
newpath
translate
1.0 setlinewidth
1 setlinejoin
0 setlinecap
0 -2.236068 m
0.593012 -2.236068 1.161816 -2.000462 1.581139 -1.581139 c
2.000462 -1.161816 2.236068 -0.593012 2.236068 0 c
2.236068 0.593012 2.000462 1.161816 1.581139 1.581139 c
1.161816 2.000462 0.593012 2.236068 0 2.236068 c
-0.593012 2.236068 -1.161816 2.000462 -1.581139 1.581139 c
-2.000462 1.161816 -2.236068 0.593012 -2.236068 0 c
-2.236068 -0.593012 -2.000462 -1.161816 -1.581139 -1.581139 c
-1.161816 -2.000462 -0.593012 -2.236068 0 -2.236068 c
cl

gsave
0.000 0.502 0.000 setrgbcolor
fill
grestore
stroke
grestore
} bind def
70.257 53.0551 o
95.7526 53.0551 o
121.248 53.0551 o
146.744 53.0551 o
172.239 53.0551 o
197.735 53.0551 o
223.231 53.0551 o
248.726 53.0551 o
274.222 53.0551 o
299.717 53.0551 o
70.257 79.7779 o
95.7526 79.7779 o
121.248 79.7779 o
146.744 79.7779 o
172.239 79.7779 o
197.735 79.7779 o
223.231 79.7779 o
248.726 79.7779 o
274.222 79.7779 o
299.717 79.7779 o
70.257 106.501 o
95.7526 106.501 o
146.744 106.501 o
172.239 106.501 o
197.735 106.501 o
223.231 106.501 o
248.726 106.501 o
274.222 106.501 o
299.717 106.501 o
70.257 133.223 o
95.7526 133.223 o
146.744 133.223 o
172.239 133.223 o
197.735 133.223 o
223.231 133.223 o
248.726 133.223 o
274.222 133.223 o
299.717 133.223 o
70.257 159.946 o
95.7526 159.946 o
146.744 159.946 o
172.239 159.946 o
197.735 159.946 o
223.231 159.946 o
248.726 159.946 o
274.222 159.946 o
299.717 159.946 o
70.257 186.669 o
95.7526 186.669 o
146.744 186.669 o
172.239 186.669 o
197.735 186.669 o
223.231 186.669 o
248.726 186.669 o
274.222 186.669 o
299.717 186.669 o
70.257 213.392 o
95.7526 213.392 o
197.735 213.392 o
223.231 213.392 o
248.726 213.392 o
274.222 213.392 o
299.717 213.392 o
70.257 240.114 o
95.7526 240.114 o
121.248 240.114 o
146.744 240.114 o
172.239 240.114 o
197.735 240.114 o
299.717 240.114 o
70.257 266.837 o
95.7526 266.837 o
121.248 266.837 o
146.744 266.837 o
172.239 266.837 o
197.735 266.837 o
223.231 266.837 o
248.726 266.837 o
274.222 266.837 o
299.717 266.837 o
70.257 293.56 o
95.7526 293.56 o
121.248 293.56 o
146.744 293.56 o
172.239 293.56 o
197.735 293.56 o
223.231 293.56 o
248.726 293.56 o
274.222 293.56 o
299.717 293.56 o
grestore
0.800 setlinewidth
0.000 setgray
gsave
/o {
gsave
newpath
translate
0.8 setlinewidth
1 setlinejoin
0 setlinecap
0 0 m
0 -3.5 l

gsave
0.000 setgray
fill
grestore
stroke
grestore
} bind def
70.257 39.6 o
grestore
/DejaVuSans findfont
10.000 scalefont
setfont
gsave
62.889815 25.006250 translate
0.000000 rotate
0.000000 0.000000 m /minus glyphshow
8.378906 0.000000 m /six glyphshow
grestore
gsave
/o {
gsave
newpath
translate
0.8 setlinewidth
1 setlinejoin
0 setlinecap
0 0 m
0 -3.5 l

gsave
0.000 setgray
fill
grestore
stroke
grestore
} bind def
108.5 39.6 o
grestore
gsave
101.133217 25.006250 translate
0.000000 rotate
0.000000 0.000000 m /minus glyphshow
8.378906 0.000000 m /four glyphshow
grestore
gsave
/o {
gsave
newpath
translate
0.8 setlinewidth
1 setlinejoin
0 setlinecap
0 0 m
0 -3.5 l

gsave
0.000 setgray
fill
grestore
stroke
grestore
} bind def
146.744 39.6 o
grestore
gsave
139.376619 25.006250 translate
0.000000 rotate
0.000000 0.000000 m /minus glyphshow
8.378906 0.000000 m /two glyphshow
grestore
gsave
/o {
gsave
newpath
translate
0.8 setlinewidth
1 setlinejoin
0 setlinecap
0 0 m
0 -3.5 l

gsave
0.000 setgray
fill
grestore
stroke
grestore
} bind def
184.987 39.6 o
grestore
gsave
181.807522 25.006250 translate
0.000000 rotate
0.000000 0.000000 m /zero glyphshow
grestore
gsave
/o {
gsave
newpath
translate
0.8 setlinewidth
1 setlinejoin
0 setlinecap
0 0 m
0 -3.5 l

gsave
0.000 setgray
fill
grestore
stroke
grestore
} bind def
223.231 39.6 o
grestore
gsave
220.050924 25.006250 translate
0.000000 rotate
0.000000 0.000000 m /two glyphshow
grestore
gsave
/o {
gsave
newpath
translate
0.8 setlinewidth
1 setlinejoin
0 setlinecap
0 0 m
0 -3.5 l

gsave
0.000 setgray
fill
grestore
stroke
grestore
} bind def
261.474 39.6 o
grestore
gsave
258.294326 25.006250 translate
0.000000 rotate
0.000000 0.000000 m /four glyphshow
grestore
gsave
/o {
gsave
newpath
translate
0.8 setlinewidth
1 setlinejoin
0 setlinecap
0 0 m
0 -3.5 l

gsave
0.000 setgray
fill
grestore
stroke
grestore
} bind def
299.717 39.6 o
grestore
gsave
296.537729 25.006250 translate
0.000000 rotate
0.000000 0.000000 m /six glyphshow
grestore
gsave
/o {
gsave
newpath
translate
0.8 setlinewidth
1 setlinejoin
0 setlinecap
0 0 m
-3.5 0 l

gsave
0.000 setgray
fill
grestore
stroke
grestore
} bind def
45 53.0551 o
grestore
gsave
23.265625 49.258239 translate
0.000000 rotate
0.000000 0.000000 m /minus glyphshow
8.378906 0.000000 m /six glyphshow
grestore
gsave
/o {
gsave
newpath
translate
0.8 setlinewidth
1 setlinejoin
0 setlinecap
0 0 m
-3.5 0 l

gsave
0.000 setgray
fill
grestore
stroke
grestore
} bind def
45 93.1392 o
grestore
gsave
23.265625 89.342355 translate
0.000000 rotate
0.000000 0.000000 m /minus glyphshow
8.378906 0.000000 m /four glyphshow
grestore
gsave
/o {
gsave
newpath
translate
0.8 setlinewidth
1 setlinejoin
0 setlinecap
0 0 m
-3.5 0 l

gsave
0.000 setgray
fill
grestore
stroke
grestore
} bind def
45 133.223 o
grestore
gsave
23.265625 129.426472 translate
0.000000 rotate
0.000000 0.000000 m /minus glyphshow
8.378906 0.000000 m /two glyphshow
grestore
gsave
/o {
gsave
newpath
translate
0.8 setlinewidth
1 setlinejoin
0 setlinecap
0 0 m
-3.5 0 l

gsave
0.000 setgray
fill
grestore
stroke
grestore
} bind def
45 173.307 o
grestore
gsave
31.640625 169.510588 translate
0.000000 rotate
0.000000 0.000000 m /zero glyphshow
grestore
gsave
/o {
gsave
newpath
translate
0.8 setlinewidth
1 setlinejoin
0 setlinecap
0 0 m
-3.5 0 l

gsave
0.000 setgray
fill
grestore
stroke
grestore
} bind def
45 213.392 o
grestore
gsave
31.640625 209.594704 translate
0.000000 rotate
0.000000 0.000000 m /two glyphshow
grestore
gsave
/o {
gsave
newpath
translate
0.8 setlinewidth
1 setlinejoin
0 setlinecap
0 0 m
-3.5 0 l

gsave
0.000 setgray
fill
grestore
stroke
grestore
} bind def
45 253.476 o
grestore
gsave
31.640625 249.678820 translate
0.000000 rotate
0.000000 0.000000 m /four glyphshow
grestore
gsave
/o {
gsave
newpath
translate
0.8 setlinewidth
1 setlinejoin
0 setlinecap
0 0 m
-3.5 0 l

gsave
0.000 setgray
fill
grestore
stroke
grestore
} bind def
45 293.56 o
grestore
gsave
31.640625 289.762937 translate
0.000000 rotate
0.000000 0.000000 m /six glyphshow
grestore
1.500 setlinewidth
2 setlinecap
0.000 0.500 0.000 setrgbcolor
gsave
279 277.2 45 39.6 clipbox
261.474014 93.13923 m
stroke
grestore
1.000 setlinewidth
0 setlinejoin
0 setlinecap
gsave
279 277.2 45 39.6 clipbox
/o {
gsave
newpath
translate
1.0 setlinewidth
0 setlinejoin
0 setlinecap
0 6 m
-6 -6 l
6 -6 l
cl

gsave
0.000 0.500 0.000 setrgbcolor
fill
grestore
stroke
grestore
} bind def
261.474 93.1392 o
grestore
1.500 setlinewidth
1 setlinejoin
[1.5 2.475] 0 setdash
0.000 0.000 1.000 setrgbcolor
gsave
279 277.2 45 39.6 clipbox
261.474014 93.13923 m
259.432769 92.800368 l
257.391525 92.461506 l
255.35028 92.122643 l
253.309036 91.783781 l
251.267791 91.444918 l
249.226547 91.106056 l
247.185302 90.767194 l
245.144058 90.428331 l
243.102813 90.089469 l
241.061568 89.750607 l
239.020324 89.411744 l
236.979079 89.072882 l
234.937835 88.73402 l
232.89659 88.395157 l
230.855346 88.056295 l
228.814101 87.717432 l
226.772857 87.37857 l
224.731612 87.039708 l
222.690368 86.700845 l
220.649123 86.361983 l
218.607878 86.023121 l
216.566634 85.684258 l
214.525389 85.345396 l
212.484145 85.006534 l
210.4429 84.667671 l
208.401656 84.328809 l
206.360411 83.989946 l
204.319167 83.651084 l
202.277922 83.312222 l
200.236678 82.973359 l
198.195433 82.634497 l
196.154188 82.295635 l
194.112944 81.956772 l
192.071699 81.61791 l
190.030455 81.279047 l
187.98921 80.940185 l
185.947966 80.601323 l
183.906721 80.26246 l
181.865477 79.923598 l
179.824232 79.584736 l
177.782988 79.245873 l
175.741743 78.907011 l
173.700499 78.568149 l
171.659254 78.229286 l
169.618009 77.890424 l
167.576765 77.551561 l
165.53552 77.212699 l
163.494276 76.873837 l
161.453031 76.534974 l
159.411787 76.196112 l
157.370542 75.85725 l
155.329298 75.518387 l
153.288053 75.179525 l
151.246809 74.840662 l
149.205564 74.5018 l
147.164319 74.162938 l
145.123075 73.824075 l
143.08183 73.485213 l
141.040586 73.146351 l
138.999341 72.807488 l
136.958097 72.468626 l
134.916852 72.129764 l
132.875608 71.790901 l
130.834363 71.452039 l
128.793119 71.113176 l
126.751874 70.774314 l
124.710629 70.435452 l
122.669385 70.096589 l
120.62814 69.757727 l
118.586896 69.418865 l
116.545651 69.080002 l
114.504407 68.74114 l
112.463162 68.402277 l
110.421918 68.063415 l
108.380673 67.724553 l
106.339429 67.38569 l
104.298184 67.046828 l
102.256939 66.707966 l
100.215695 66.369103 l
98.17445 66.030241 l
96.133206 65.691379 l
94.091961 65.352516 l
92.050717 65.013654 l
90.009472 64.674791 l
87.968228 64.335929 l
85.926983 63.997067 l
83.885739 63.658204 l
81.844494 63.319342 l
79.80325 62.98048 l
77.762005 62.641617 l
75.72076 62.302755 l
73.679516 61.963892 l
71.638271 61.62503 l
69.597027 61.286168 l
67.555782 60.947305 l
65.514538 60.608443 l
63.473293 60.269581 l
61.432049 59.930718 l
59.390804 59.591856 l
stroke
grestore
gsave
279 277.2 45 39.6 clipbox
261.474014 93.13923 m
259.415507 92.946671 l
257.357 92.754111 l
255.298493 92.561552 l
253.239986 92.368993 l
251.181479 92.176433 l
249.122972 91.983874 l
247.064465 91.791314 l
245.005958 91.598755 l
242.947451 91.406195 l
240.888944 91.213636 l
238.830437 91.021077 l
236.77193 90.828517 l
234.713423 90.635958 l
232.654915 90.443398 l
230.596408 90.250839 l
228.537901 90.058279 l
226.479394 89.86572 l
224.420887 89.673161 l
222.36238 89.480601 l
220.303873 89.288042 l
218.245366 89.095482 l
216.186859 88.902923 l
214.128352 88.710363 l
212.069845 88.517804 l
210.011338 88.325245 l
207.952831 88.132685 l
205.894324 87.940126 l
203.835817 87.747566 l
201.77731 87.555007 l
199.718803 87.362447 l
197.660296 87.169888 l
195.601789 86.977328 l
193.543282 86.784769 l
191.484775 86.59221 l
189.426268 86.39965 l
187.367761 86.207091 l
185.309254 86.014531 l
183.250747 85.821972 l
181.19224 85.629412 l
179.133733 85.436853 l
177.075226 85.244294 l
175.016719 85.051734 l
172.958212 84.859175 l
170.899705 84.666615 l
168.841198 84.474056 l
166.782691 84.281496 l
164.724184 84.088937 l
162.665677 83.896378 l
160.60717 83.703818 l
158.548663 83.511259 l
156.490155 83.318699 l
154.431648 83.12614 l
152.373141 82.93358 l
150.314634 82.741021 l
148.256127 82.548462 l
146.19762 82.355902 l
144.139113 82.163343 l
142.080606 81.970783 l
140.022099 81.778224 l
137.963592 81.585664 l
135.905085 81.393105 l
133.846578 81.200545 l
131.788071 81.007986 l
129.729564 80.815427 l
127.671057 80.622867 l
125.61255 80.430308 l
123.554043 80.237748 l
121.495536 80.045189 l
119.437029 79.852629 l
117.378522 79.66007 l
115.320015 79.467511 l
113.261508 79.274951 l
111.203001 79.082392 l
109.144494 78.889832 l
107.085987 78.697273 l
105.02748 78.504713 l
102.968973 78.312154 l
100.910466 78.119595 l
98.851959 77.927035 l
96.793452 77.734476 l
94.734945 77.541916 l
92.676438 77.349357 l
90.617931 77.156797 l
88.559424 76.964238 l
86.500917 76.771678 l
84.44241 76.579119 l
82.383903 76.38656 l
80.325395 76.194 l
78.266888 76.001441 l
76.208381 75.808881 l
74.149874 75.616322 l
72.091367 75.423762 l
70.03286 75.231203 l
67.974353 75.038644 l
65.915846 74.846084 l
63.857339 74.653525 l
61.798832 74.460965 l
59.740325 74.268406 l
57.681818 74.075846 l
stroke
grestore
gsave
279 277.2 45 39.6 clipbox
261.474014 93.13923 m
260.035373 93.107645 l
258.596732 93.076059 l
257.158092 93.044473 l
255.719451 93.012888 l
254.28081 92.981302 l
252.84217 92.949716 l
251.403529 92.918131 l
249.964888 92.886545 l
248.526247 92.854959 l
247.087607 92.823374 l
245.648966 92.791788 l
244.210325 92.760202 l
242.771685 92.728616 l
241.333044 92.697031 l
239.894403 92.665445 l
238.455762 92.633859 l
237.017122 92.602274 l
235.578481 92.570688 l
234.13984 92.539102 l
232.7012 92.507517 l
231.262559 92.475931 l
229.823918 92.444345 l
228.385277 92.41276 l
226.946637 92.381174 l
225.507996 92.349588 l
224.069355 92.318003 l
222.630715 92.286417 l
221.192074 92.254831 l
219.753433 92.223246 l
218.314792 92.19166 l
216.876152 92.160074 l
215.437511 92.128489 l
213.99887 92.096903 l
212.56023 92.065317 l
211.121589 92.033731 l
209.682948 92.002146 l
208.244307 91.97056 l
206.805667 91.938974 l
205.367026 91.907389 l
203.928385 91.875803 l
202.489745 91.844217 l
201.051104 91.812632 l
199.612463 91.781046 l
198.173823 91.74946 l
196.735182 91.717875 l
195.296541 91.686289 l
193.8579 91.654703 l
192.41926 91.623118 l
190.980619 91.591532 l
189.541978 91.559946 l
188.103338 91.528361 l
186.664697 91.496775 l
185.226056 91.465189 l
183.787415 91.433604 l
182.348775 91.402018 l
180.910134 91.370432 l
179.471493 91.338846 l
178.032853 91.307261 l
176.594212 91.275675 l
175.155571 91.244089 l
173.71693 91.212504 l
172.27829 91.180918 l
170.839649 91.149332 l
169.401008 91.117747 l
167.962368 91.086161 l
166.523727 91.054575 l
165.085086 91.02299 l
163.646445 90.991404 l
162.207805 90.959818 l
160.769164 90.928233 l
159.330523 90.896647 l
157.891883 90.865061 l
156.453242 90.833476 l
155.014601 90.80189 l
153.57596 90.770304 l
152.13732 90.738719 l
150.698679 90.707133 l
149.260038 90.675547 l
147.821398 90.643961 l
146.382757 90.612376 l
144.944116 90.58079 l
143.505475 90.549204 l
142.066835 90.517619 l
140.628194 90.486033 l
139.189553 90.454447 l
137.750913 90.422862 l
136.312272 90.391276 l
134.873631 90.35969 l
133.43499 90.328105 l
131.99635 90.296519 l
130.557709 90.264933 l
129.119068 90.233348 l
127.680428 90.201762 l
126.241787 90.170176 l
124.803146 90.138591 l
123.364505 90.107005 l
121.925865 90.075419 l
120.487224 90.043834 l
119.048583 90.012248 l
stroke
grestore
gsave
279 277.2 45 39.6 clipbox
261.474014 93.13923 m
260.027008 93.210754 l
258.580003 93.282277 l
257.132997 93.353801 l
255.685992 93.425324 l
254.238986 93.496848 l
252.79198 93.568371 l
251.344975 93.639895 l
249.897969 93.711418 l
248.450964 93.782942 l
247.003958 93.854465 l
245.556952 93.925989 l
244.109947 93.997512 l
242.662941 94.069036 l
241.215936 94.140559 l
239.76893 94.212083 l
238.321925 94.283606 l
236.874919 94.35513 l
235.427913 94.426653 l
233.980908 94.498177 l
232.533902 94.5697 l
231.086897 94.641224 l
229.639891 94.712747 l
228.192885 94.784271 l
226.74588 94.855794 l
225.298874 94.927318 l
223.851869 94.998841 l
222.404863 95.070365 l
220.957858 95.141888 l
219.510852 95.213412 l
218.063846 95.284935 l
216.616841 95.356459 l
215.169835 95.427982 l
213.72283 95.499506 l
212.275824 95.571029 l
210.828818 95.642553 l
209.381813 95.714076 l
207.934807 95.7856 l
206.487802 95.857123 l
205.040796 95.928647 l
203.593791 96.00017 l
202.146785 96.071694 l
200.699779 96.143217 l
199.252774 96.214741 l
197.805768 96.286264 l
196.358763 96.357788 l
194.911757 96.429311 l
193.464752 96.500835 l
192.017746 96.572358 l
190.57074 96.643882 l
189.123735 96.715405 l
187.676729 96.786929 l
186.229724 96.858452 l
184.782718 96.929976 l
183.335712 97.001499 l
181.888707 97.073023 l
180.441701 97.144546 l
178.994696 97.21607 l
177.54769 97.287593 l
176.100685 97.359117 l
174.653679 97.43064 l
173.206673 97.502164 l
171.759668 97.573687 l
170.312662 97.645211 l
168.865657 97.716734 l
167.418651 97.788258 l
165.971645 97.859781 l
164.52464 97.931305 l
163.077634 98.002828 l
161.630629 98.074352 l
160.183623 98.145875 l
158.736618 98.217399 l
157.289612 98.288922 l
155.842606 98.360446 l
154.395601 98.431969 l
152.948595 98.503493 l
151.50159 98.575016 l
150.054584 98.64654 l
148.607578 98.718063 l
147.160573 98.789587 l
145.713567 98.86111 l
144.266562 98.932634 l
142.819556 99.004157 l
141.372551 99.075681 l
139.925545 99.147204 l
138.478539 99.218728 l
137.031534 99.290251 l
135.584528 99.361775 l
134.137523 99.433298 l
132.690517 99.504822 l
131.243511 99.576345 l
129.796506 99.647869 l
128.3495 99.719392 l
126.902495 99.790916 l
125.455489 99.86244 l
124.008484 99.933963 l
122.561478 100.005487 l
121.114472 100.07701 l
119.667467 100.148534 l
118.220461 100.220057 l
stroke
grestore
gsave
279 277.2 45 39.6 clipbox
261.474014 93.13923 m
260.025407 93.314907 l
258.5768 93.490584 l
257.128193 93.666261 l
255.679586 93.841938 l
254.23098 94.017615 l
252.782373 94.193291 l
251.333766 94.368968 l
249.885159 94.544645 l
248.436552 94.720322 l
246.987945 94.895999 l
245.539339 95.071676 l
244.090732 95.247352 l
242.642125 95.423029 l
241.193518 95.598706 l
239.744911 95.774383 l
238.296304 95.95006 l
236.847698 96.125737 l
235.399091 96.301413 l
233.950484 96.47709 l
232.501877 96.652767 l
231.05327 96.828444 l
229.604663 97.004121 l
228.156056 97.179798 l
226.70745 97.355474 l
225.258843 97.531151 l
223.810236 97.706828 l
222.361629 97.882505 l
220.913022 98.058182 l
219.464415 98.233859 l
218.015809 98.409535 l
216.567202 98.585212 l
215.118595 98.760889 l
213.669988 98.936566 l
212.221381 99.112243 l
210.772774 99.28792 l
209.324167 99.463596 l
207.875561 99.639273 l
206.426954 99.81495 l
204.978347 99.990627 l
203.52974 100.166304 l
202.081133 100.341981 l
200.632526 100.517657 l
199.18392 100.693334 l
197.735313 100.869011 l
196.286706 101.044688 l
194.838099 101.220365 l
193.389492 101.396042 l
191.940885 101.571718 l
190.492278 101.747395 l
189.043672 101.923072 l
187.595065 102.098749 l
186.146458 102.274426 l
184.697851 102.450103 l
183.249244 102.625779 l
181.800637 102.801456 l
180.352031 102.977133 l
178.903424 103.15281 l
177.454817 103.328487 l
176.00621 103.504164 l
174.557603 103.67984 l
173.108996 103.855517 l
171.66039 104.031194 l
170.211783 104.206871 l
168.763176 104.382548 l
167.314569 104.558225 l
165.865962 104.733901 l
164.417355 104.909578 l
162.968748 105.085255 l
161.520142 105.260932 l
160.071535 105.436609 l
158.622928 105.612286 l
157.174321 105.787963 l
155.725714 105.963639 l
154.277107 106.139316 l
152.828501 106.314993 l
151.379894 106.49067 l
149.931287 106.666347 l
148.48268 106.842024 l
147.034073 107.0177 l
145.585466 107.193377 l
144.136859 107.369054 l
142.688253 107.544731 l
141.239646 107.720408 l
139.791039 107.896085 l
138.342432 108.071761 l
136.893825 108.247438 l
135.445218 108.423115 l
133.996612 108.598792 l
132.548005 108.774469 l
131.099398 108.950146 l
129.650791 109.125822 l
128.202184 109.301499 l
126.753577 109.477176 l
125.30497 109.652853 l
123.856364 109.82853 l
122.407757 110.004207 l
120.95915 110.179883 l
119.510543 110.35556 l
118.061936 110.531237 l
stroke
grestore
gsave
279 277.2 45 39.6 clipbox
261.474014 93.13923 m
260.030666 93.419615 l
258.587318 93.699999 l
257.14397 93.980383 l
255.700622 94.260768 l
254.257274 94.541152 l
252.813926 94.821536 l
251.370578 95.101921 l
249.92723 95.382305 l
248.483882 95.662689 l
247.040534 95.943074 l
245.597186 96.223458 l
244.153838 96.503842 l
242.71049 96.784227 l
241.267142 97.064611 l
239.823794 97.344995 l
238.380446 97.62538 l
236.937098 97.905764 l
235.49375 98.186149 l
234.050402 98.466533 l
232.607054 98.746917 l
231.163706 99.027302 l
229.720358 99.307686 l
228.27701 99.58807 l
226.833662 99.868455 l
225.390315 100.148839 l
223.946967 100.429223 l
222.503619 100.709608 l
221.060271 100.989992 l
219.616923 101.270376 l
218.173575 101.550761 l
216.730227 101.831145 l
215.286879 102.111529 l
213.843531 102.391914 l
212.400183 102.672298 l
210.956835 102.952682 l
209.513487 103.233067 l
208.070139 103.513451 l
206.626791 103.793835 l
205.183443 104.07422 l
203.740095 104.354604 l
202.296747 104.634988 l
200.853399 104.915373 l
199.410051 105.195757 l
197.966703 105.476141 l
196.523355 105.756526 l
195.080007 106.03691 l
193.636659 106.317294 l
192.193311 106.597679 l
190.749963 106.878063 l
189.306615 107.158447 l
187.863267 107.438832 l
186.419919 107.719216 l
184.976571 107.999601 l
183.533223 108.279985 l
182.089875 108.560369 l
180.646527 108.840754 l
179.203179 109.121138 l
177.759831 109.401522 l
176.316483 109.681907 l
174.873135 109.962291 l
173.429787 110.242675 l
171.986439 110.52306 l
170.543091 110.803444 l
169.099744 111.083828 l
167.656396 111.364213 l
166.213048 111.644597 l
164.7697 111.924981 l
163.326352 112.205366 l
161.883004 112.48575 l
160.439656 112.766134 l
158.996308 113.046519 l
157.55296 113.326903 l
156.109612 113.607287 l
154.666264 113.887672 l
153.222916 114.168056 l
151.779568 114.44844 l
150.33622 114.728825 l
148.892872 115.009209 l
147.449524 115.289593 l
146.006176 115.569978 l
144.562828 115.850362 l
143.11948 116.130746 l
141.676132 116.411131 l
140.232784 116.691515 l
138.789436 116.971899 l
137.346088 117.252284 l
135.90274 117.532668 l
134.459392 117.813053 l
133.016044 118.093437 l
131.572696 118.373821 l
130.129348 118.654206 l
128.686 118.93459 l
127.242652 119.214974 l
125.799304 119.495359 l
124.355956 119.775743 l
122.912608 120.056127 l
121.46926 120.336512 l
120.025912 120.616896 l
118.582564 120.89728 l
stroke
grestore
gsave
279 277.2 45 39.6 clipbox
261.474014 93.13923 m
260.014787 93.531929 l
258.55556 93.924628 l
257.096333 94.317327 l
255.637106 94.710027 l
254.177879 95.102726 l
252.718652 95.495425 l
251.259425 95.888124 l
249.800198 96.280823 l
248.340971 96.673522 l
246.881744 97.066221 l
245.422517 97.45892 l
243.96329 97.851619 l
242.504063 98.244318 l
241.044836 98.637017 l
239.585609 99.029716 l
238.126382 99.422415 l
236.667155 99.815114 l
235.207928 100.207813 l
233.748701 100.600512 l
232.289474 100.993211 l
230.830247 101.38591 l
229.37102 101.778609 l
227.911793 102.171308 l
226.452566 102.564008 l
224.993339 102.956707 l
223.534113 103.349406 l
222.074886 103.742105 l
220.615659 104.134804 l
219.156432 104.527503 l
217.697205 104.920202 l
216.237978 105.312901 l
214.778751 105.7056 l
213.319524 106.098299 l
211.860297 106.490998 l
210.40107 106.883697 l
208.941843 107.276396 l
207.482616 107.669095 l
206.023389 108.061794 l
204.564162 108.454493 l
203.104935 108.847192 l
201.645708 109.239891 l
200.186481 109.63259 l
198.727254 110.025289 l
197.268027 110.417989 l
195.8088 110.810688 l
194.349573 111.203387 l
192.890346 111.596086 l
191.431119 111.988785 l
189.971892 112.381484 l
188.512665 112.774183 l
187.053438 113.166882 l
185.594211 113.559581 l
184.134984 113.95228 l
182.675757 114.344979 l
181.21653 114.737678 l
179.757303 115.130377 l
178.298076 115.523076 l
176.838849 115.915775 l
175.379622 116.308474 l
173.920395 116.701173 l
172.461168 117.093872 l
171.001941 117.486571 l
169.542714 117.87927 l
168.083487 118.27197 l
166.624261 118.664669 l
165.165034 119.057368 l
163.705807 119.450067 l
162.24658 119.842766 l
160.787353 120.235465 l
159.328126 120.628164 l
157.868899 121.020863 l
156.409672 121.413562 l
154.950445 121.806261 l
153.491218 122.19896 l
152.031991 122.591659 l
150.572764 122.984358 l
149.113537 123.377057 l
147.65431 123.769756 l
146.195083 124.162455 l
144.735856 124.555154 l
143.276629 124.947853 l
141.817402 125.340552 l
140.358175 125.733251 l
138.898948 126.125951 l
137.439721 126.51865 l
135.980494 126.911349 l
134.521267 127.304048 l
133.06204 127.696747 l
131.602813 128.089446 l
130.143586 128.482145 l
128.684359 128.874844 l
127.225132 129.267543 l
125.765905 129.660242 l
124.306678 130.052941 l
122.847451 130.44564 l
121.388224 130.838339 l
119.928997 131.231038 l
118.46977 131.623737 l
117.010543 132.016436 l
stroke
grestore
gsave
279 277.2 45 39.6 clipbox
261.474014 93.13923 m
260.025311 93.641403 l
258.576608 94.143576 l
257.127905 94.64575 l
255.679203 95.147923 l
254.2305 95.650096 l
252.781797 96.152269 l
251.333094 96.654442 l
249.884391 97.156615 l
248.435688 97.658788 l
246.986986 98.160961 l
245.538283 98.663134 l
244.08958 99.165307 l
242.640877 99.66748 l
241.192174 100.169653 l
239.743472 100.671827 l
238.294769 101.174 l
236.846066 101.676173 l
235.397363 102.178346 l
233.94866 102.680519 l
232.499957 103.182692 l
231.051255 103.684865 l
229.602552 104.187038 l
228.153849 104.689211 l
226.705146 105.191384 l
225.256443 105.693557 l
223.807741 106.19573 l
222.359038 106.697903 l
220.910335 107.200077 l
219.461632 107.70225 l
218.012929 108.204423 l
216.564226 108.706596 l
215.115524 109.208769 l
213.666821 109.710942 l
212.218118 110.213115 l
210.769415 110.715288 l
209.320712 111.217461 l
207.87201 111.719634 l
206.423307 112.221807 l
204.974604 112.72398 l
203.525901 113.226154 l
202.077198 113.728327 l
200.628495 114.2305 l
199.179793 114.732673 l
197.73109 115.234846 l
196.282387 115.737019 l
194.833684 116.239192 l
193.384981 116.741365 l
191.936279 117.243538 l
190.487576 117.745711 l
189.038873 118.247884 l
187.59017 118.750057 l
186.141467 119.25223 l
184.692764 119.754404 l
183.244062 120.256577 l
181.795359 120.75875 l
180.346656 121.260923 l
178.897953 121.763096 l
177.44925 122.265269 l
176.000548 122.767442 l
174.551845 123.269615 l
173.103142 123.771788 l
171.654439 124.273961 l
170.205736 124.776134 l
168.757033 125.278307 l
167.308331 125.780481 l
165.859628 126.282654 l
164.410925 126.784827 l
162.962222 127.287 l
161.513519 127.789173 l
160.064817 128.291346 l
158.616114 128.793519 l
157.167411 129.295692 l
155.718708 129.797865 l
154.270005 130.300038 l
152.821302 130.802211 l
151.3726 131.304384 l
149.923897 131.806557 l
148.475194 132.308731 l
147.026491 132.810904 l
145.577788 133.313077 l
144.129086 133.81525 l
142.680383 134.317423 l
141.23168 134.819596 l
139.782977 135.321769 l
138.334274 135.823942 l
136.885571 136.326115 l
135.436869 136.828288 l
133.988166 137.330461 l
132.539463 137.832634 l
131.09076 138.334808 l
129.642057 138.836981 l
128.193355 139.339154 l
126.744652 139.841327 l
125.295949 140.3435 l
123.847246 140.845673 l
122.398543 141.347846 l
120.94984 141.850019 l
119.501138 142.352192 l
118.052435 142.854365 l
stroke
grestore
gsave
279 277.2 45 39.6 clipbox
261.474014 93.13923 m
260.025487 93.758815 l
258.57696 94.378401 l
257.128432 94.997986 l
255.679905 95.617571 l
254.231378 96.237156 l
252.782851 96.856741 l
251.334324 97.476326 l
249.885797 98.095911 l
248.43727 98.715496 l
246.988742 99.335082 l
245.540215 99.954667 l
244.091688 100.574252 l
242.643161 101.193837 l
241.194634 101.813422 l
239.746107 102.433007 l
238.29758 103.052592 l
236.849052 103.672177 l
235.400525 104.291762 l
233.951998 104.911348 l
232.503471 105.530933 l
231.054944 106.150518 l
229.606417 106.770103 l
228.15789 107.389688 l
226.709362 108.009273 l
225.260835 108.628858 l
223.812308 109.248443 l
222.363781 109.868029 l
220.915254 110.487614 l
219.466727 111.107199 l
218.0182 111.726784 l
216.569672 112.346369 l
215.121145 112.965954 l
213.672618 113.585539 l
212.224091 114.205124 l
210.775564 114.82471 l
209.327037 115.444295 l
207.87851 116.06388 l
206.429982 116.683465 l
204.981455 117.30305 l
203.532928 117.922635 l
202.084401 118.54222 l
200.635874 119.161805 l
199.187347 119.78139 l
197.73882 120.400976 l
196.290292 121.020561 l
194.841765 121.640146 l
193.393238 122.259731 l
191.944711 122.879316 l
190.496184 123.498901 l
189.047657 124.118486 l
187.59913 124.738071 l
186.150602 125.357657 l
184.702075 125.977242 l
183.253548 126.596827 l
181.805021 127.216412 l
180.356494 127.835997 l
178.907967 128.455582 l
177.45944 129.075167 l
176.010912 129.694752 l
174.562385 130.314337 l
173.113858 130.933923 l
171.665331 131.553508 l
170.216804 132.173093 l
168.768277 132.792678 l
167.31975 133.412263 l
165.871222 134.031848 l
164.422695 134.651433 l
162.974168 135.271018 l
161.525641 135.890604 l
160.077114 136.510189 l
158.628587 137.129774 l
157.18006 137.749359 l
155.731532 138.368944 l
154.283005 138.988529 l
152.834478 139.608114 l
151.385951 140.227699 l
149.937424 140.847284 l
148.488897 141.46687 l
147.04037 142.086455 l
145.591842 142.70604 l
144.143315 143.325625 l
142.694788 143.94521 l
141.246261 144.564795 l
139.797734 145.18438 l
138.349207 145.803965 l
136.90068 146.423551 l
135.452152 147.043136 l
134.003625 147.662721 l
132.555098 148.282306 l
131.106571 148.901891 l
129.658044 149.521476 l
128.209517 150.141061 l
126.76099 150.760646 l
125.312462 151.380232 l
123.863935 151.999817 l
122.415408 152.619402 l
120.966881 153.238987 l
119.518354 153.858572 l
118.069827 154.478157 l
stroke
grestore
gsave
279 277.2 45 39.6 clipbox
261.474014 93.13923 m
260.017011 93.887364 l
258.560009 94.635497 l
257.103006 95.383631 l
255.646004 96.131764 l
254.189001 96.879897 l
252.731999 97.628031 l
251.274997 98.376164 l
249.817994 99.124297 l
248.360992 99.872431 l
246.903989 100.620564 l
245.446987 101.368698 l
243.989984 102.116831 l
242.532982 102.864964 l
241.075979 103.613098 l
239.618977 104.361231 l
238.161974 105.109365 l
236.704972 105.857498 l
235.247969 106.605631 l
233.790967 107.353765 l
232.333964 108.101898 l
230.876962 108.850032 l
229.419959 109.598165 l
227.962957 110.346298 l
226.505954 111.094432 l
225.048952 111.842565 l
223.591949 112.590699 l
222.134947 113.338832 l
220.677944 114.086965 l
219.220942 114.835099 l
217.763939 115.583232 l
216.306937 116.331366 l
214.849935 117.079499 l
213.392932 117.827632 l
211.93593 118.575766 l
210.478927 119.323899 l
209.021925 120.072032 l
207.564922 120.820166 l
206.10792 121.568299 l
204.650917 122.316433 l
203.193915 123.064566 l
201.736912 123.812699 l
200.27991 124.560833 l
198.822907 125.308966 l
197.365905 126.0571 l
195.908902 126.805233 l
194.4519 127.553366 l
192.994897 128.3015 l
191.537895 129.049633 l
190.080892 129.797767 l
188.62389 130.5459 l
187.166887 131.294033 l
185.709885 132.042167 l
184.252882 132.7903 l
182.79588 133.538434 l
181.338877 134.286567 l
179.881875 135.0347 l
178.424873 135.782834 l
176.96787 136.530967 l
175.510868 137.2791 l
174.053865 138.027234 l
172.596863 138.775367 l
171.13986 139.523501 l
169.682858 140.271634 l
168.225855 141.019767 l
166.768853 141.767901 l
165.31185 142.516034 l
163.854848 143.264168 l
162.397845 144.012301 l
160.940843 144.760434 l
159.48384 145.508568 l
158.026838 146.256701 l
156.569835 147.004835 l
155.112833 147.752968 l
153.65583 148.501101 l
152.198828 149.249235 l
150.741825 149.997368 l
149.284823 150.745502 l
147.82782 151.493635 l
146.370818 152.241768 l
144.913815 152.989902 l
143.456813 153.738035 l
141.999811 154.486169 l
140.542808 155.234302 l
139.085806 155.982435 l
137.628803 156.730569 l
136.171801 157.478702 l
134.714798 158.226835 l
133.257796 158.974969 l
131.800793 159.723102 l
130.343791 160.471236 l
128.886788 161.219369 l
127.429786 161.967502 l
125.972783 162.715636 l
124.515781 163.463769 l
123.058778 164.211903 l
121.601776 164.960036 l
120.144773 165.708169 l
118.687771 166.456303 l
117.230768 167.204436 l
stroke
grestore
gsave
279 277.2 45 39.6 clipbox
261.474014 93.13923 m
260.018752 94.019866 l
258.56349 94.900502 l
257.108228 95.781138 l
255.652965 96.661774 l
254.197703 97.54241 l
252.742441 98.423046 l
251.287179 99.303682 l
249.831917 100.184317 l
248.376655 101.064953 l
246.921393 101.945589 l
245.466131 102.826225 l
244.010869 103.706861 l
242.555607 104.587497 l
241.100345 105.468133 l
239.645082 106.348769 l
238.18982 107.229405 l
236.734558 108.11004 l
235.279296 108.990676 l
233.824034 109.871312 l
232.368772 110.751948 l
230.91351 111.632584 l
229.458248 112.51322 l
228.002986 113.393856 l
226.547724 114.274492 l
225.092462 115.155128 l
223.637199 116.035763 l
222.181937 116.916399 l
220.726675 117.797035 l
219.271413 118.677671 l
217.816151 119.558307 l
216.360889 120.438943 l
214.905627 121.319579 l
213.450365 122.200215 l
211.995103 123.08085 l
210.539841 123.961486 l
209.084579 124.842122 l
207.629316 125.722758 l
206.174054 126.603394 l
204.718792 127.48403 l
203.26353 128.364666 l
201.808268 129.245302 l
200.353006 130.125938 l
198.897744 131.006573 l
197.442482 131.887209 l
195.98722 132.767845 l
194.531958 133.648481 l
193.076696 134.529117 l
191.621433 135.409753 l
190.166171 136.290389 l
188.710909 137.171025 l
187.255647 138.051661 l
185.800385 138.932296 l
184.345123 139.812932 l
182.889861 140.693568 l
181.434599 141.574204 l
179.979337 142.45484 l
178.524075 143.335476 l
177.068813 144.216112 l
175.61355 145.096748 l
174.158288 145.977384 l
172.703026 146.858019 l
171.247764 147.738655 l
169.792502 148.619291 l
168.33724 149.499927 l
166.881978 150.380563 l
165.426716 151.261199 l
163.971454 152.141835 l
162.516192 153.022471 l
161.06093 153.903107 l
159.605667 154.783742 l
158.150405 155.664378 l
156.695143 156.545014 l
155.239881 157.42565 l
153.784619 158.306286 l
152.329357 159.186922 l
150.874095 160.067558 l
149.418833 160.948194 l
147.963571 161.82883 l
146.508309 162.709465 l
145.053047 163.590101 l
143.597784 164.470737 l
142.142522 165.351373 l
140.68726 166.232009 l
139.231998 167.112645 l
137.776736 167.993281 l
136.321474 168.873917 l
134.866212 169.754553 l
133.41095 170.635188 l
131.955688 171.515824 l
130.500426 172.39646 l
129.045164 173.277096 l
127.589901 174.157732 l
126.134639 175.038368 l
124.679377 175.919004 l
123.224115 176.79964 l
121.768853 177.680275 l
120.313591 178.560911 l
118.858329 179.441547 l
117.403067 180.322183 l
stroke
grestore
gsave
279 277.2 45 39.6 clipbox
261.474014 93.13923 m
260.039189 94.149799 l
258.604364 95.160368 l
257.169539 96.170937 l
255.734714 97.181506 l
254.29989 98.192075 l
252.865065 99.202644 l
251.43024 100.213213 l
249.995415 101.223782 l
248.56059 102.23435 l
247.125765 103.244919 l
245.690941 104.255488 l
244.256116 105.266057 l
242.821291 106.276626 l
241.386466 107.287195 l
239.951641 108.297764 l
238.516816 109.308333 l
237.081992 110.318902 l
235.647167 111.329471 l
234.212342 112.340039 l
232.777517 113.350608 l
231.342692 114.361177 l
229.907867 115.371746 l
228.473042 116.382315 l
227.038218 117.392884 l
225.603393 118.403453 l
224.168568 119.414022 l
222.733743 120.424591 l
221.298918 121.43516 l
219.864093 122.445728 l
218.429269 123.456297 l
216.994444 124.466866 l
215.559619 125.477435 l
214.124794 126.488004 l
212.689969 127.498573 l
211.255144 128.509142 l
209.820319 129.519711 l
208.385495 130.53028 l
206.95067 131.540849 l
205.515845 132.551417 l
204.08102 133.561986 l
202.646195 134.572555 l
201.21137 135.583124 l
199.776546 136.593693 l
198.341721 137.604262 l
196.906896 138.614831 l
195.472071 139.6254 l
194.037246 140.635969 l
192.602421 141.646537 l
191.167597 142.657106 l
189.732772 143.667675 l
188.297947 144.678244 l
186.863122 145.688813 l
185.428297 146.699382 l
183.993472 147.709951 l
182.558647 148.72052 l
181.123823 149.731089 l
179.688998 150.741658 l
178.254173 151.752226 l
176.819348 152.762795 l
175.384523 153.773364 l
173.949698 154.783933 l
172.514874 155.794502 l
171.080049 156.805071 l
169.645224 157.81564 l
168.210399 158.826209 l
166.775574 159.836778 l
165.340749 160.847347 l
163.905924 161.857915 l
162.4711 162.868484 l
161.036275 163.879053 l
159.60145 164.889622 l
158.166625 165.900191 l
156.7318 166.91076 l
155.296975 167.921329 l
153.862151 168.931898 l
152.427326 169.942467 l
150.992501 170.953036 l
149.557676 171.963604 l
148.122851 172.974173 l
146.688026 173.984742 l
145.253202 174.995311 l
143.818377 176.00588 l
142.383552 177.016449 l
140.948727 178.027018 l
139.513902 179.037587 l
138.079077 180.048156 l
136.644252 181.058725 l
135.209428 182.069293 l
133.774603 183.079862 l
132.339778 184.090431 l
130.904953 185.101 l
129.470128 186.111569 l
128.035303 187.122138 l
126.600479 188.132707 l
125.165654 189.143276 l
123.730829 190.153845 l
122.296004 191.164414 l
120.861179 192.174982 l
119.426354 193.185551 l
stroke
grestore
gsave
279 277.2 45 39.6 clipbox
261.474014 93.13923 m
260.039412 94.305582 l
258.60481 95.471934 l
257.170207 96.638286 l
255.735605 97.804638 l
254.301003 98.97099 l
252.866401 100.137342 l
251.431799 101.303694 l
249.997196 102.470045 l
248.562594 103.636397 l
247.127992 104.802749 l
245.69339 105.969101 l
244.258788 107.135453 l
242.824186 108.301805 l
241.389583 109.468157 l
239.954981 110.634509 l
238.520379 111.800861 l
237.085777 112.967212 l
235.651175 114.133564 l
234.216573 115.299916 l
232.78197 116.466268 l
231.347368 117.63262 l
229.912766 118.798972 l
228.478164 119.965324 l
227.043562 121.131676 l
225.608959 122.298027 l
224.174357 123.464379 l
222.739755 124.630731 l
221.305153 125.797083 l
219.870551 126.963435 l
218.435949 128.129787 l
217.001346 129.296139 l
215.566744 130.462491 l
214.132142 131.628843 l
212.69754 132.795194 l
211.262938 133.961546 l
209.828336 135.127898 l
208.393733 136.29425 l
206.959131 137.460602 l
205.524529 138.626954 l
204.089927 139.793306 l
202.655325 140.959658 l
201.220722 142.12601 l
199.78612 143.292361 l
198.351518 144.458713 l
196.916916 145.625065 l
195.482314 146.791417 l
194.047712 147.957769 l
192.613109 149.124121 l
191.178507 150.290473 l
189.743905 151.456825 l
188.309303 152.623176 l
186.874701 153.789528 l
185.440099 154.95588 l
184.005496 156.122232 l
182.570894 157.288584 l
181.136292 158.454936 l
179.70169 159.621288 l
178.267088 160.78764 l
176.832486 161.953992 l
175.397883 163.120343 l
173.963281 164.286695 l
172.528679 165.453047 l
171.094077 166.619399 l
169.659475 167.785751 l
168.224872 168.952103 l
166.79027 170.118455 l
165.355668 171.284807 l
163.921066 172.451159 l
162.486464 173.61751 l
161.051862 174.783862 l
159.617259 175.950214 l
158.182657 177.116566 l
156.748055 178.282918 l
155.313453 179.44927 l
153.878851 180.615622 l
152.444249 181.781974 l
151.009646 182.948326 l
149.575044 184.114677 l
148.140442 185.281029 l
146.70584 186.447381 l
145.271238 187.613733 l
143.836635 188.780085 l
142.402033 189.946437 l
140.967431 191.112789 l
139.532829 192.279141 l
138.098227 193.445492 l
136.663625 194.611844 l
135.229022 195.778196 l
133.79442 196.944548 l
132.359818 198.1109 l
130.925216 199.277252 l
129.490614 200.443604 l
128.056012 201.609956 l
126.621409 202.776308 l
125.186807 203.942659 l
123.752205 205.109011 l
122.317603 206.275363 l
120.883001 207.441715 l
119.448399 208.608067 l
stroke
grestore
gsave
279 277.2 45 39.6 clipbox
261.474014 93.13923 m
260.103999 94.41862 l
258.733985 95.698009 l
257.363971 96.977399 l
255.993956 98.256788 l
254.623942 99.536178 l
253.253927 100.815567 l
251.883913 102.094957 l
250.513899 103.374346 l
249.143884 104.653736 l
247.77387 105.933125 l
246.403855 107.212515 l
245.033841 108.491904 l
243.663827 109.771294 l
242.293812 111.050683 l
240.923798 112.330073 l
239.553783 113.609463 l
238.183769 114.888852 l
236.813755 116.168242 l
235.44374 117.447631 l
234.073726 118.727021 l
232.703711 120.00641 l
231.333697 121.2858 l
229.963683 122.565189 l
228.593668 123.844579 l
227.223654 125.123968 l
225.853639 126.403358 l
224.483625 127.682747 l
223.113611 128.962137 l
221.743596 130.241526 l
220.373582 131.520916 l
219.003567 132.800305 l
217.633553 134.079695 l
216.263539 135.359084 l
214.893524 136.638474 l
213.52351 137.917863 l
212.153495 139.197253 l
210.783481 140.476642 l
209.413467 141.756032 l
208.043452 143.035421 l
206.673438 144.314811 l
205.303423 145.5942 l
203.933409 146.87359 l
202.563395 148.152979 l
201.19338 149.432369 l
199.823366 150.711758 l
198.453351 151.991148 l
197.083337 153.270537 l
195.713323 154.549927 l
194.343308 155.829316 l
192.973294 157.108706 l
191.603279 158.388095 l
190.233265 159.667485 l
188.863251 160.946874 l
187.493236 162.226264 l
186.123222 163.505653 l
184.753207 164.785043 l
183.383193 166.064432 l
182.013179 167.343822 l
180.643164 168.623211 l
179.27315 169.902601 l
177.903135 171.181991 l
176.533121 172.46138 l
175.163106 173.74077 l
173.793092 175.020159 l
172.423078 176.299549 l
171.053063 177.578938 l
169.683049 178.858328 l
168.313034 180.137717 l
166.94302 181.417107 l
165.573006 182.696496 l
164.202991 183.975886 l
162.832977 185.255275 l
161.462962 186.534665 l
160.092948 187.814054 l
158.722934 189.093444 l
157.352919 190.372833 l
155.982905 191.652223 l
154.61289 192.931612 l
153.242876 194.211002 l
151.872862 195.490391 l
150.502847 196.769781 l
149.132833 198.04917 l
147.762818 199.32856 l
146.392804 200.607949 l
145.02279 201.887339 l
143.652775 203.166728 l
142.282761 204.446118 l
140.912746 205.725507 l
139.542732 207.004897 l
138.172718 208.284286 l
136.802703 209.563676 l
135.432689 210.843065 l
134.062674 212.122455 l
132.69266 213.401844 l
131.322646 214.681234 l
129.952631 215.960623 l
128.582617 217.240013 l
127.212602 218.519402 l
125.842588 219.798792 l
stroke
grestore
gsave
279 277.2 45 39.6 clipbox
261.474014 93.13923 m
260.210465 94.491628 l
258.946916 95.844025 l
257.683367 97.196423 l
256.419818 98.54882 l
255.156269 99.901218 l
253.89272 101.253615 l
252.629171 102.606013 l
251.365622 103.95841 l
250.102074 105.310808 l
248.838525 106.663205 l
247.574976 108.015603 l
246.311427 109.368 l
245.047878 110.720398 l
243.784329 112.072795 l
242.52078 113.425193 l
241.257231 114.77759 l
239.993682 116.129988 l
238.730133 117.482385 l
237.466584 118.834783 l
236.203035 120.18718 l
234.939486 121.539578 l
233.675938 122.891975 l
232.412389 124.244373 l
231.14884 125.59677 l
229.885291 126.949168 l
228.621742 128.301565 l
227.358193 129.653963 l
226.094644 131.00636 l
224.831095 132.358758 l
223.567546 133.711155 l
222.303997 135.063553 l
221.040448 136.41595 l
219.776899 137.768348 l
218.51335 139.120745 l
217.249802 140.473143 l
215.986253 141.82554 l
214.722704 143.177938 l
213.459155 144.530335 l
212.195606 145.882733 l
210.932057 147.23513 l
209.668508 148.587528 l
208.404959 149.939925 l
207.14141 151.292323 l
205.877861 152.64472 l
204.614312 153.997118 l
203.350763 155.349515 l
202.087214 156.701913 l
200.823666 158.05431 l
199.560117 159.406708 l
198.296568 160.759105 l
197.033019 162.111503 l
195.76947 163.4639 l
194.505921 164.816298 l
193.242372 166.168695 l
191.978823 167.521093 l
190.715274 168.87349 l
189.451725 170.225888 l
188.188176 171.578285 l
186.924627 172.930683 l
185.661078 174.283081 l
184.39753 175.635478 l
183.133981 176.987876 l
181.870432 178.340273 l
180.606883 179.692671 l
179.343334 181.045068 l
178.079785 182.397466 l
176.816236 183.749863 l
175.552687 185.102261 l
174.289138 186.454658 l
173.025589 187.807056 l
171.76204 189.159453 l
170.498491 190.511851 l
169.234942 191.864248 l
167.971394 193.216646 l
166.707845 194.569043 l
165.444296 195.921441 l
164.180747 197.273838 l
162.917198 198.626236 l
161.653649 199.978633 l
160.3901 201.331031 l
159.126551 202.683428 l
157.863002 204.035826 l
156.599453 205.388223 l
155.335904 206.740621 l
154.072355 208.093018 l
152.808806 209.445416 l
151.545257 210.797813 l
150.281709 212.150211 l
149.01816 213.502608 l
147.754611 214.855006 l
146.491062 216.207403 l
145.227513 217.559801 l
143.963964 218.912198 l
142.700415 220.264596 l
141.436866 221.616993 l
140.173317 222.969391 l
138.909768 224.321788 l
137.646219 225.674186 l
136.38267 227.026583 l
stroke
grestore
gsave
279 277.2 45 39.6 clipbox
261.474014 93.13923 m
260.445407 94.401542 l
259.416799 95.663853 l
258.388192 96.926164 l
257.359585 98.188476 l
256.330977 99.450787 l
255.30237 100.713098 l
254.273763 101.97541 l
253.245155 103.237721 l
252.216548 104.500033 l
251.187941 105.762344 l
250.159334 107.024655 l
249.130726 108.286967 l
248.102119 109.549278 l
247.073512 110.811589 l
246.044904 112.073901 l
245.016297 113.336212 l
243.98769 114.598523 l
242.959083 115.860835 l
241.930475 117.123146 l
240.901868 118.385458 l
239.873261 119.647769 l
238.844653 120.91008 l
237.816046 122.172392 l
236.787439 123.434703 l
235.758831 124.697014 l
234.730224 125.959326 l
233.701617 127.221637 l
232.67301 128.483948 l
231.644402 129.74626 l
230.615795 131.008571 l
229.587188 132.270882 l
228.55858 133.533194 l
227.529973 134.795505 l
226.501366 136.057817 l
225.472759 137.320128 l
224.444151 138.582439 l
223.415544 139.844751 l
222.386937 141.107062 l
221.358329 142.369373 l
220.329722 143.631685 l
219.301115 144.893996 l
218.272507 146.156307 l
217.2439 147.418619 l
216.215293 148.68093 l
215.186686 149.943242 l
214.158078 151.205553 l
213.129471 152.467864 l
212.100864 153.730176 l
211.072256 154.992487 l
210.043649 156.254798 l
209.015042 157.51711 l
207.986434 158.779421 l
206.957827 160.041732 l
205.92922 161.304044 l
204.900613 162.566355 l
203.872005 163.828666 l
202.843398 165.090978 l
201.814791 166.353289 l
200.786183 167.615601 l
199.757576 168.877912 l
198.728969 170.140223 l
197.700362 171.402535 l
196.671754 172.664846 l
195.643147 173.927157 l
194.61454 175.189469 l
193.585932 176.45178 l
192.557325 177.714091 l
191.528718 178.976403 l
190.50011 180.238714 l
189.471503 181.501025 l
188.442896 182.763337 l
187.414289 184.025648 l
186.385681 185.28796 l
185.357074 186.550271 l
184.328467 187.812582 l
183.299859 189.074894 l
182.271252 190.337205 l
181.242645 191.599516 l
180.214037 192.861828 l
179.18543 194.124139 l
178.156823 195.38645 l
177.128216 196.648762 l
176.099608 197.911073 l
175.071001 199.173385 l
174.042394 200.435696 l
173.013786 201.698007 l
171.985179 202.960319 l
170.956572 204.22263 l
169.927965 205.484941 l
168.899357 206.747253 l
167.87075 208.009564 l
166.842143 209.271875 l
165.813535 210.534187 l
164.784928 211.796498 l
163.756321 213.058809 l
162.727713 214.321121 l
161.699106 215.583432 l
160.670499 216.845744 l
159.641892 218.108055 l
stroke
grestore
gsave
279 277.2 45 39.6 clipbox
261.474014 93.13923 m
260.552734 94.439442 l
259.631455 95.739653 l
258.710175 97.039864 l
257.788896 98.340075 l
256.867616 99.640287 l
255.946337 100.940498 l
255.025057 102.240709 l
254.103778 103.540921 l
253.182498 104.841132 l
252.261219 106.141343 l
251.339939 107.441554 l
250.41866 108.741766 l
249.49738 110.041977 l
248.576101 111.342188 l
247.654821 112.642399 l
246.733542 113.942611 l
245.812262 115.242822 l
244.890983 116.543033 l
243.969703 117.843245 l
243.048424 119.143456 l
242.127144 120.443667 l
241.205865 121.743878 l
240.284585 123.04409 l
239.363306 124.344301 l
238.442026 125.644512 l
237.520747 126.944723 l
236.599467 128.244935 l
235.678188 129.545146 l
234.756908 130.845357 l
233.835629 132.145569 l
232.914349 133.44578 l
231.99307 134.745991 l
231.07179 136.046202 l
230.150511 137.346414 l
229.229231 138.646625 l
228.307952 139.946836 l
227.386672 141.247047 l
226.465393 142.547259 l
225.544113 143.84747 l
224.622834 145.147681 l
223.701554 146.447893 l
222.780275 147.748104 l
221.858995 149.048315 l
220.937716 150.348526 l
220.016436 151.648738 l
219.095157 152.948949 l
218.173877 154.24916 l
217.252598 155.549371 l
216.331318 156.849583 l
215.410039 158.149794 l
214.488759 159.450005 l
213.56748 160.750217 l
212.6462 162.050428 l
211.724921 163.350639 l
210.803641 164.65085 l
209.882362 165.951062 l
208.961082 167.251273 l
208.039803 168.551484 l
207.118523 169.851695 l
206.197244 171.151907 l
205.275964 172.452118 l
204.354685 173.752329 l
203.433405 175.052541 l
202.512125 176.352752 l
201.590846 177.652963 l
200.669566 178.953174 l
199.748287 180.253386 l
198.827007 181.553597 l
197.905728 182.853808 l
196.984448 184.154019 l
196.063169 185.454231 l
195.141889 186.754442 l
194.22061 188.054653 l
193.29933 189.354865 l
192.378051 190.655076 l
191.456771 191.955287 l
190.535492 193.255498 l
189.614212 194.55571 l
188.692933 195.855921 l
187.771653 197.156132 l
186.850374 198.456343 l
185.929094 199.756555 l
185.007815 201.056766 l
184.086535 202.356977 l
183.165256 203.657189 l
182.243976 204.9574 l
181.322697 206.257611 l
180.401417 207.557822 l
179.480138 208.858034 l
178.558858 210.158245 l
177.637579 211.458456 l
176.716299 212.758667 l
175.79502 214.058879 l
174.87374 215.35909 l
173.952461 216.659301 l
173.031181 217.959512 l
172.109902 219.259724 l
171.188622 220.559935 l
170.267343 221.860146 l
stroke
grestore
gsave
279 277.2 45 39.6 clipbox
261.474014 93.13923 m
260.357505 94.962079 l
259.240997 96.784927 l
258.124488 98.607776 l
257.007979 100.430625 l
255.89147 102.253473 l
254.774962 104.076322 l
253.658453 105.89917 l
252.541944 107.722019 l
251.425436 109.544867 l
250.308927 111.367716 l
249.192418 113.190564 l
248.07591 115.013413 l
246.959401 116.836261 l
245.842892 118.65911 l
244.726384 120.481958 l
243.609875 122.304807 l
242.493366 124.127656 l
241.376858 125.950504 l
240.260349 127.773353 l
239.14384 129.596201 l
238.027332 131.41905 l
236.910823 133.241898 l
235.794314 135.064747 l
234.677806 136.887595 l
233.561297 138.710444 l
232.444788 140.533292 l
231.328279 142.356141 l
230.211771 144.178989 l
229.095262 146.001838 l
227.978753 147.824687 l
226.862245 149.647535 l
225.745736 151.470384 l
224.629227 153.293232 l
223.512719 155.116081 l
222.39621 156.938929 l
221.279701 158.761778 l
220.163193 160.584626 l
219.046684 162.407475 l
217.930175 164.230323 l
216.813667 166.053172 l
215.697158 167.876021 l
214.580649 169.698869 l
213.464141 171.521718 l
212.347632 173.344566 l
211.231123 175.167415 l
210.114615 176.990263 l
208.998106 178.813112 l
207.881597 180.63596 l
206.765089 182.458809 l
205.64858 184.281657 l
204.532071 186.104506 l
203.415562 187.927354 l
202.299054 189.750203 l
201.182545 191.573052 l
200.066036 193.3959 l
198.949528 195.218749 l
197.833019 197.041597 l
196.71651 198.864446 l
195.600002 200.687294 l
194.483493 202.510143 l
193.366984 204.332991 l
192.250476 206.15584 l
191.133967 207.978688 l
190.017458 209.801537 l
188.90095 211.624386 l
187.784441 213.447234 l
186.667932 215.270083 l
185.551424 217.092931 l
184.434915 218.91578 l
183.318406 220.738628 l
182.201898 222.561477 l
181.085389 224.384325 l
179.96888 226.207174 l
178.852371 228.030022 l
177.735863 229.852871 l
176.619354 231.675719 l
175.502845 233.498568 l
174.386337 235.321417 l
173.269828 237.144265 l
172.153319 238.967114 l
171.036811 240.789962 l
169.920302 242.612811 l
168.803793 244.435659 l
167.687285 246.258508 l
166.570776 248.081356 l
165.454267 249.904205 l
164.337759 251.727053 l
163.22125 253.549902 l
162.104741 255.372751 l
160.988233 257.195599 l
159.871724 259.018448 l
158.755215 260.841296 l
157.638707 262.664145 l
156.522198 264.486993 l
155.405689 266.309842 l
154.289181 268.13269 l
153.172672 269.955539 l
152.056163 271.778387 l
150.939654 273.601236 l
stroke
grestore
gsave
279 277.2 45 39.6 clipbox
261.474014 93.13923 m
260.478379 95.037452 l
259.482744 96.935675 l
258.487109 98.833897 l
257.491474 100.732119 l
256.495839 102.630341 l
255.500204 104.528563 l
254.504569 106.426785 l
253.508934 108.325007 l
252.513299 110.223229 l
251.517664 112.121451 l
250.522029 114.019673 l
249.526394 115.917895 l
248.530759 117.816117 l
247.535124 119.71434 l
246.539489 121.612562 l
245.543854 123.510784 l
244.548219 125.409006 l
243.552584 127.307228 l
242.556949 129.20545 l
241.561314 131.103672 l
240.565679 133.001894 l
239.570044 134.900116 l
238.574409 136.798338 l
237.578774 138.69656 l
236.583139 140.594783 l
235.587504 142.493005 l
234.591869 144.391227 l
233.596235 146.289449 l
232.6006 148.187671 l
231.604965 150.085893 l
230.60933 151.984115 l
229.613695 153.882337 l
228.61806 155.780559 l
227.622425 157.678781 l
226.62679 159.577003 l
225.631155 161.475226 l
224.63552 163.373448 l
223.639885 165.27167 l
222.64425 167.169892 l
221.648615 169.068114 l
220.65298 170.966336 l
219.657345 172.864558 l
218.66171 174.76278 l
217.666075 176.661002 l
216.67044 178.559224 l
215.674805 180.457446 l
214.67917 182.355668 l
213.683535 184.253891 l
212.6879 186.152113 l
211.692265 188.050335 l
210.69663 189.948557 l
209.700995 191.846779 l
208.70536 193.745001 l
207.709725 195.643223 l
206.71409 197.541445 l
205.718455 199.439667 l
204.72282 201.337889 l
203.727185 203.236111 l
202.73155 205.134334 l
201.735915 207.032556 l
200.74028 208.930778 l
199.744645 210.829 l
198.74901 212.727222 l
197.753375 214.625444 l
196.75774 216.523666 l
195.762105 218.421888 l
194.76647 220.32011 l
193.770835 222.218332 l
192.7752 224.116554 l
191.779565 226.014776 l
190.78393 227.912999 l
189.788296 229.811221 l
188.792661 231.709443 l
187.797026 233.607665 l
186.801391 235.505887 l
185.805756 237.404109 l
184.810121 239.302331 l
183.814486 241.200553 l
182.818851 243.098775 l
181.823216 244.996997 l
180.827581 246.895219 l
179.831946 248.793442 l
178.836311 250.691664 l
177.840676 252.589886 l
176.845041 254.488108 l
175.849406 256.38633 l
174.853771 258.284552 l
173.858136 260.182774 l
172.862501 262.080996 l
171.866866 263.979218 l
170.871231 265.87744 l
169.875596 267.775662 l
168.879961 269.673885 l
167.884326 271.572107 l
166.888691 273.470329 l
165.893056 275.368551 l
164.897421 277.266773 l
163.901786 279.164995 l
162.906151 281.063217 l
stroke
grestore
gsave
279 277.2 45 39.6 clipbox
261.474014 93.13923 m
260.603864 95.104034 l
259.733714 97.068839 l
258.863564 99.033643 l
257.993414 100.998447 l
257.123264 102.963251 l
256.253114 104.928055 l
255.382964 106.892859 l
254.512813 108.857663 l
253.642663 110.822467 l
252.772513 112.787272 l
251.902363 114.752076 l
251.032213 116.71688 l
250.162063 118.681684 l
249.291913 120.646488 l
248.421763 122.611292 l
247.551613 124.576096 l
246.681463 126.540901 l
245.811313 128.505705 l
244.941163 130.470509 l
244.071013 132.435313 l
243.200863 134.400117 l
242.330713 136.364921 l
241.460563 138.329725 l
240.590413 140.294529 l
239.720263 142.259334 l
238.850113 144.224138 l
237.979963 146.188942 l
237.109813 148.153746 l
236.239662 150.11855 l
235.369512 152.083354 l
234.499362 154.048158 l
233.629212 156.012962 l
232.759062 157.977767 l
231.888912 159.942571 l
231.018762 161.907375 l
230.148612 163.872179 l
229.278462 165.836983 l
228.408312 167.801787 l
227.538162 169.766591 l
226.668012 171.731395 l
225.797862 173.6962 l
224.927712 175.661004 l
224.057562 177.625808 l
223.187412 179.590612 l
222.317262 181.555416 l
221.447112 183.52022 l
220.576962 185.485024 l
219.706812 187.449829 l
218.836662 189.414633 l
217.966511 191.379437 l
217.096361 193.344241 l
216.226211 195.309045 l
215.356061 197.273849 l
214.485911 199.238653 l
213.615761 201.203457 l
212.745611 203.168262 l
211.875461 205.133066 l
211.005311 207.09787 l
210.135161 209.062674 l
209.265011 211.027478 l
208.394861 212.992282 l
207.524711 214.957086 l
206.654561 216.92189 l
205.784411 218.886695 l
204.914261 220.851499 l
204.044111 222.816303 l
203.173961 224.781107 l
202.303811 226.745911 l
201.433661 228.710715 l
200.563511 230.675519 l
199.69336 232.640323 l
198.82321 234.605128 l
197.95306 236.569932 l
197.08291 238.534736 l
196.21276 240.49954 l
195.34261 242.464344 l
194.47246 244.429148 l
193.60231 246.393952 l
192.73216 248.358756 l
191.86201 250.323561 l
190.99186 252.288365 l
190.12171 254.253169 l
189.25156 256.217973 l
188.38141 258.182777 l
187.51126 260.147581 l
186.64111 262.112385 l
185.77096 264.07719 l
184.90081 266.041994 l
184.03066 268.006798 l
183.16051 269.971602 l
182.29036 271.936406 l
181.420209 273.90121 l
180.550059 275.866014 l
179.679909 277.830818 l
178.809759 279.795623 l
177.939609 281.760427 l
177.069459 283.725231 l
176.199309 285.690035 l
175.329159 287.654839 l
stroke
grestore
gsave
279 277.2 45 39.6 clipbox
261.474014 93.13923 m
260.920268 94.65122 l
260.366522 96.16321 l
259.812776 97.6752 l
259.25903 99.187189 l
258.705285 100.699179 l
258.151539 102.211169 l
257.597793 103.723159 l
257.044047 105.235148 l
256.490301 106.747138 l
255.936555 108.259128 l
255.38281 109.771118 l
254.829064 111.283107 l
254.275318 112.795097 l
253.721572 114.307087 l
253.167826 115.819077 l
252.61408 117.331066 l
252.060334 118.843056 l
251.506589 120.355046 l
250.952843 121.867036 l
250.399097 123.379025 l
249.845351 124.891015 l
249.291605 126.403005 l
248.737859 127.914995 l
248.184114 129.426984 l
247.630368 130.938974 l
247.076622 132.450964 l
246.522876 133.962954 l
245.96913 135.474943 l
245.415384 136.986933 l
244.861639 138.498923 l
244.307893 140.010913 l
243.754147 141.522902 l
243.200401 143.034892 l
242.646655 144.546882 l
242.092909 146.058872 l
241.539163 147.570861 l
240.985418 149.082851 l
240.431672 150.594841 l
239.877926 152.106831 l
239.32418 153.61882 l
238.770434 155.13081 l
238.216688 156.6428 l
237.662943 158.15479 l
237.109197 159.666779 l
236.555451 161.178769 l
236.001705 162.690759 l
235.447959 164.202749 l
234.894213 165.714738 l
234.340467 167.226728 l
233.786722 168.738718 l
233.232976 170.250708 l
232.67923 171.762697 l
232.125484 173.274687 l
231.571738 174.786677 l
231.017992 176.298667 l
230.464247 177.810656 l
229.910501 179.322646 l
229.356755 180.834636 l
228.803009 182.346626 l
228.249263 183.858615 l
227.695517 185.370605 l
227.141771 186.882595 l
226.588026 188.394585 l
226.03428 189.906574 l
225.480534 191.418564 l
224.926788 192.930554 l
224.373042 194.442544 l
223.819296 195.954533 l
223.265551 197.466523 l
222.711805 198.978513 l
222.158059 200.490503 l
221.604313 202.002492 l
221.050567 203.514482 l
220.496821 205.026472 l
219.943075 206.538462 l
219.38933 208.050451 l
218.835584 209.562441 l
218.281838 211.074431 l
217.728092 212.586421 l
217.174346 214.09841 l
216.6206 215.6104 l
216.066855 217.12239 l
215.513109 218.63438 l
214.959363 220.146369 l
214.405617 221.658359 l
213.851871 223.170349 l
213.298125 224.682339 l
212.744379 226.194328 l
212.190634 227.706318 l
211.636888 229.218308 l
211.083142 230.730298 l
210.529396 232.242287 l
209.97565 233.754277 l
209.421904 235.266267 l
208.868159 236.778257 l
208.314413 238.290246 l
207.760667 239.802236 l
207.206921 241.314226 l
206.653175 242.826216 l
stroke
grestore
gsave
279 277.2 45 39.6 clipbox
261.474014 93.13923 m
261.025346 94.667845 l
260.576677 96.19646 l
260.128009 97.725075 l
259.679341 99.25369 l
259.230673 100.782304 l
258.782004 102.310919 l
258.333336 103.839534 l
257.884668 105.368149 l
257.436 106.896764 l
256.987332 108.425379 l
256.538663 109.953993 l
256.089995 111.482608 l
255.641327 113.011223 l
255.192659 114.539838 l
254.74399 116.068453 l
254.295322 117.597067 l
253.846654 119.125682 l
253.397986 120.654297 l
252.949318 122.182912 l
252.500649 123.711527 l
252.051981 125.240142 l
251.603313 126.768756 l
251.154645 128.297371 l
250.705976 129.825986 l
250.257308 131.354601 l
249.80864 132.883216 l
249.359972 134.411831 l
248.911303 135.940445 l
248.462635 137.46906 l
248.013967 138.997675 l
247.565299 140.52629 l
247.116631 142.054905 l
246.667962 143.583519 l
246.219294 145.112134 l
245.770626 146.640749 l
245.321958 148.169364 l
244.873289 149.697979 l
244.424621 151.226594 l
243.975953 152.755208 l
243.527285 154.283823 l
243.078616 155.812438 l
242.629948 157.341053 l
242.18128 158.869668 l
241.732612 160.398282 l
241.283944 161.926897 l
240.835275 163.455512 l
240.386607 164.984127 l
239.937939 166.512742 l
239.489271 168.041357 l
239.040602 169.569971 l
238.591934 171.098586 l
238.143266 172.627201 l
237.694598 174.155816 l
237.245929 175.684431 l
236.797261 177.213046 l
236.348593 178.74166 l
235.899925 180.270275 l
235.451257 181.79889 l
235.002588 183.327505 l
234.55392 184.85612 l
234.105252 186.384734 l
233.656584 187.913349 l
233.207915 189.441964 l
232.759247 190.970579 l
232.310579 192.499194 l
231.861911 194.027809 l
231.413242 195.556423 l
230.964574 197.085038 l
230.515906 198.613653 l
230.067238 200.142268 l
229.61857 201.670883 l
229.169901 203.199497 l
228.721233 204.728112 l
228.272565 206.256727 l
227.823897 207.785342 l
227.375228 209.313957 l
226.92656 210.842572 l
226.477892 212.371186 l
226.029224 213.899801 l
225.580556 215.428416 l
225.131887 216.957031 l
224.683219 218.485646 l
224.234551 220.014261 l
223.785883 221.542875 l
223.337214 223.07149 l
222.888546 224.600105 l
222.439878 226.12872 l
221.99121 227.657335 l
221.542541 229.185949 l
221.093873 230.714564 l
220.645205 232.243179 l
220.196537 233.771794 l
219.747869 235.300409 l
219.2992 236.829024 l
218.850532 238.357638 l
218.401864 239.886253 l
217.953196 241.414868 l
217.504527 242.943483 l
217.055859 244.472098 l
stroke
grestore
gsave
279 277.2 45 39.6 clipbox
261.474014 93.13923 m
261.12999 94.676581 l
260.785966 96.213931 l
260.441942 97.751282 l
260.097918 99.288632 l
259.753894 100.825983 l
259.409871 102.363333 l
259.065847 103.900683 l
258.721823 105.438034 l
258.377799 106.975384 l
258.033775 108.512735 l
257.689751 110.050085 l
257.345727 111.587436 l
257.001703 113.124786 l
256.657679 114.662137 l
256.313655 116.199487 l
255.969632 117.736838 l
255.625608 119.274188 l
255.281584 120.811538 l
254.93756 122.348889 l
254.593536 123.886239 l
254.249512 125.42359 l
253.905488 126.96094 l
253.561464 128.498291 l
253.21744 130.035641 l
252.873417 131.572992 l
252.529393 133.110342 l
252.185369 134.647693 l
251.841345 136.185043 l
251.497321 137.722393 l
251.153297 139.259744 l
250.809273 140.797094 l
250.465249 142.334445 l
250.121225 143.871795 l
249.777202 145.409146 l
249.433178 146.946496 l
249.089154 148.483847 l
248.74513 150.021197 l
248.401106 151.558547 l
248.057082 153.095898 l
247.713058 154.633248 l
247.369034 156.170599 l
247.02501 157.707949 l
246.680986 159.2453 l
246.336963 160.78265 l
245.992939 162.320001 l
245.648915 163.857351 l
245.304891 165.394702 l
244.960867 166.932052 l
244.616843 168.469402 l
244.272819 170.006753 l
243.928795 171.544103 l
243.584771 173.081454 l
243.240748 174.618804 l
242.896724 176.156155 l
242.5527 177.693505 l
242.208676 179.230856 l
241.864652 180.768206 l
241.520628 182.305556 l
241.176604 183.842907 l
240.83258 185.380257 l
240.488556 186.917608 l
240.144533 188.454958 l
239.800509 189.992309 l
239.456485 191.529659 l
239.112461 193.06701 l
238.768437 194.60436 l
238.424413 196.141711 l
238.080389 197.679061 l
237.736365 199.216411 l
237.392341 200.753762 l
237.048317 202.291112 l
236.704294 203.828463 l
236.36027 205.365813 l
236.016246 206.903164 l
235.672222 208.440514 l
235.328198 209.977865 l
234.984174 211.515215 l
234.64015 213.052566 l
234.296126 214.589916 l
233.952102 216.127266 l
233.608079 217.664617 l
233.264055 219.201967 l
232.920031 220.739318 l
232.576007 222.276668 l
232.231983 223.814019 l
231.887959 225.351369 l
231.543935 226.88872 l
231.199911 228.42607 l
230.855887 229.96342 l
230.511864 231.500771 l
230.16784 233.038121 l
229.823816 234.575472 l
229.479792 236.112822 l
229.135768 237.650173 l
228.791744 239.187523 l
228.44772 240.724874 l
228.103696 242.262224 l
227.759672 243.799575 l
227.415648 245.336925 l
stroke
grestore
gsave
279 277.2 45 39.6 clipbox
261.474014 93.13923 m
261.239912 94.637611 l
261.005811 96.135991 l
260.771709 97.634371 l
260.537608 99.132751 l
260.303506 100.631132 l
260.069405 102.129512 l
259.835303 103.627892 l
259.601202 105.126273 l
259.3671 106.624653 l
259.132999 108.123033 l
258.898897 109.621413 l
258.664796 111.119794 l
258.430694 112.618174 l
258.196593 114.116554 l
257.962491 115.614934 l
257.72839 117.113315 l
257.494288 118.611695 l
257.260187 120.110075 l
257.026085 121.608456 l
256.791984 123.106836 l
256.557882 124.605216 l
256.323781 126.103596 l
256.089679 127.601977 l
255.855578 129.100357 l
255.621476 130.598737 l
255.387375 132.097117 l
255.153273 133.595498 l
254.919171 135.093878 l
254.68507 136.592258 l
254.450968 138.090639 l
254.216867 139.589019 l
253.982765 141.087399 l
253.748664 142.585779 l
253.514562 144.08416 l
253.280461 145.58254 l
253.046359 147.08092 l
252.812258 148.5793 l
252.578156 150.077681 l
252.344055 151.576061 l
252.109953 153.074441 l
251.875852 154.572822 l
251.64175 156.071202 l
251.407649 157.569582 l
251.173547 159.067962 l
250.939446 160.566343 l
250.705344 162.064723 l
250.471243 163.563103 l
250.237141 165.061484 l
250.00304 166.559864 l
249.768938 168.058244 l
249.534837 169.556624 l
249.300735 171.055005 l
249.066634 172.553385 l
248.832532 174.051765 l
248.598431 175.550145 l
248.364329 177.048526 l
248.130228 178.546906 l
247.896126 180.045286 l
247.662025 181.543667 l
247.427923 183.042047 l
247.193822 184.540427 l
246.95972 186.038807 l
246.725619 187.537188 l
246.491517 189.035568 l
246.257416 190.533948 l
246.023314 192.032328 l
245.789212 193.530709 l
245.555111 195.029089 l
245.321009 196.527469 l
245.086908 198.02585 l
244.852806 199.52423 l
244.618705 201.02261 l
244.384603 202.52099 l
244.150502 204.019371 l
243.9164 205.517751 l
243.682299 207.016131 l
243.448197 208.514511 l
243.214096 210.012892 l
242.979994 211.511272 l
242.745893 213.009652 l
242.511791 214.508033 l
242.27769 216.006413 l
242.043588 217.504793 l
241.809487 219.003173 l
241.575385 220.501554 l
241.341284 221.999934 l
241.107182 223.498314 l
240.873081 224.996694 l
240.638979 226.495075 l
240.404878 227.993455 l
240.170776 229.491835 l
239.936675 230.990216 l
239.702573 232.488596 l
239.468472 233.986976 l
239.23437 235.485356 l
239.000269 236.983737 l
238.766167 238.482117 l
238.532066 239.980497 l
238.297964 241.478878 l
stroke
grestore
gsave
279 277.2 45 39.6 clipbox
261.474014 93.13923 m
261.337687 94.65083 l
261.201361 96.162429 l
261.065034 97.674028 l
260.928707 99.185628 l
260.792381 100.697227 l
260.656054 102.208826 l
260.519728 103.720425 l
260.383401 105.232025 l
260.247075 106.743624 l
260.110748 108.255223 l
259.974421 109.766823 l
259.838095 111.278422 l
259.701768 112.790021 l
259.565442 114.301621 l
259.429115 115.81322 l
259.292788 117.324819 l
259.156462 118.836418 l
259.020135 120.348018 l
258.883809 121.859617 l
258.747482 123.371216 l
258.611155 124.882816 l
258.474829 126.394415 l
258.338502 127.906014 l
258.202176 129.417614 l
258.065849 130.929213 l
257.929522 132.440812 l
257.793196 133.952411 l
257.656869 135.464011 l
257.520543 136.97561 l
257.384216 138.487209 l
257.247889 139.998809 l
257.111563 141.510408 l
256.975236 143.022007 l
256.83891 144.533607 l
256.702583 146.045206 l
256.566256 147.556805 l
256.42993 149.068404 l
256.293603 150.580004 l
256.157277 152.091603 l
256.02095 153.603202 l
255.884624 155.114802 l
255.748297 156.626401 l
255.61197 158.138 l
255.475644 159.6496 l
255.339317 161.161199 l
255.202991 162.672798 l
255.066664 164.184397 l
254.930337 165.695997 l
254.794011 167.207596 l
254.657684 168.719195 l
254.521358 170.230795 l
254.385031 171.742394 l
254.248704 173.253993 l
254.112378 174.765593 l
253.976051 176.277192 l
253.839725 177.788791 l
253.703398 179.30039 l
253.567071 180.81199 l
253.430745 182.323589 l
253.294418 183.835188 l
253.158092 185.346788 l
253.021765 186.858387 l
252.885438 188.369986 l
252.749112 189.881586 l
252.612785 191.393185 l
252.476459 192.904784 l
252.340132 194.416383 l
252.203805 195.927983 l
252.067479 197.439582 l
251.931152 198.951181 l
251.794826 200.462781 l
251.658499 201.97438 l
251.522172 203.485979 l
251.385846 204.997579 l
251.249519 206.509178 l
251.113193 208.020777 l
250.976866 209.532376 l
250.84054 211.043976 l
250.704213 212.555575 l
250.567886 214.067174 l
250.43156 215.578774 l
250.295233 217.090373 l
250.158907 218.601972 l
250.02258 220.113572 l
249.886253 221.625171 l
249.749927 223.13677 l
249.6136 224.648369 l
249.477274 226.159969 l
249.340947 227.671568 l
249.20462 229.183167 l
249.068294 230.694767 l
248.931967 232.206366 l
248.795641 233.717965 l
248.659314 235.229565 l
248.522987 236.741164 l
248.386661 238.252763 l
248.250334 239.764362 l
248.114008 241.275962 l
247.977681 242.787561 l
stroke
grestore
gsave
279 277.2 45 39.6 clipbox
261.474014 93.13923 m
261.436094 94.657048 l
261.398173 96.174865 l
261.360253 97.692683 l
261.322333 99.2105 l
261.284412 100.728318 l
261.246492 102.246135 l
261.208572 103.763952 l
261.170652 105.28177 l
261.132731 106.799587 l
261.094811 108.317405 l
261.056891 109.835222 l
261.01897 111.35304 l
260.98105 112.870857 l
260.94313 114.388674 l
260.90521 115.906492 l
260.867289 117.424309 l
260.829369 118.942127 l
260.791449 120.459944 l
260.753528 121.977762 l
260.715608 123.495579 l
260.677688 125.013397 l
260.639768 126.531214 l
260.601847 128.049031 l
260.563927 129.566849 l
260.526007 131.084666 l
260.488086 132.602484 l
260.450166 134.120301 l
260.412246 135.638119 l
260.374326 137.155936 l
260.336405 138.673754 l
260.298485 140.191571 l
260.260565 141.709388 l
260.222644 143.227206 l
260.184724 144.745023 l
260.146804 146.262841 l
260.108884 147.780658 l
260.070963 149.298476 l
260.033043 150.816293 l
259.995123 152.33411 l
259.957202 153.851928 l
259.919282 155.369745 l
259.881362 156.887563 l
259.843442 158.40538 l
259.805521 159.923198 l
259.767601 161.441015 l
259.729681 162.958833 l
259.69176 164.47665 l
259.65384 165.994467 l
259.61592 167.512285 l
259.578 169.030102 l
259.540079 170.54792 l
259.502159 172.065737 l
259.464239 173.583555 l
259.426318 175.101372 l
259.388398 176.61919 l
259.350478 178.137007 l
259.312558 179.654824 l
259.274637 181.172642 l
259.236717 182.690459 l
259.198797 184.208277 l
259.160876 185.726094 l
259.122956 187.243912 l
259.085036 188.761729 l
259.047116 190.279546 l
259.009195 191.797364 l
258.971275 193.315181 l
258.933355 194.832999 l
258.895434 196.350816 l
258.857514 197.868634 l
258.819594 199.386451 l
258.781674 200.904269 l
258.743753 202.422086 l
258.705833 203.939903 l
258.667913 205.457721 l
258.629992 206.975538 l
258.592072 208.493356 l
258.554152 210.011173 l
258.516232 211.528991 l
258.478311 213.046808 l
258.440391 214.564626 l
258.402471 216.082443 l
258.36455 217.60026 l
258.32663 219.118078 l
258.28871 220.635895 l
258.25079 222.153713 l
258.212869 223.67153 l
258.174949 225.189348 l
258.137029 226.707165 l
258.099108 228.224982 l
258.061188 229.7428 l
258.023268 231.260617 l
257.985347 232.778435 l
257.947427 234.296252 l
257.909507 235.81407 l
257.871587 237.331887 l
257.833666 238.849705 l
257.795746 240.367522 l
257.757826 241.885339 l
257.719905 243.403157 l
stroke
grestore
gsave
279 277.2 45 39.6 clipbox
261.474014 93.13923 m
261.534676 94.656236 l
261.595337 96.173242 l
261.655999 97.690248 l
261.71666 99.207254 l
261.777322 100.72426 l
261.837984 102.241266 l
261.898645 103.758272 l
261.959307 105.275278 l
262.019969 106.792283 l
262.08063 108.309289 l
262.141292 109.826295 l
262.201954 111.343301 l
262.262615 112.860307 l
262.323277 114.377313 l
262.383939 115.894319 l
262.4446 117.411325 l
262.505262 118.928331 l
262.565924 120.445336 l
262.626585 121.962342 l
262.687247 123.479348 l
262.747908 124.996354 l
262.80857 126.51336 l
262.869232 128.030366 l
262.929893 129.547372 l
262.990555 131.064378 l
263.051217 132.581384 l
263.111878 134.09839 l
263.17254 135.615395 l
263.233202 137.132401 l
263.293863 138.649407 l
263.354525 140.166413 l
263.415187 141.683419 l
263.475848 143.200425 l
263.53651 144.717431 l
263.597171 146.234437 l
263.657833 147.751443 l
263.718495 149.268448 l
263.779156 150.785454 l
263.839818 152.30246 l
263.90048 153.819466 l
263.961141 155.336472 l
264.021803 156.853478 l
264.082465 158.370484 l
264.143126 159.88749 l
264.203788 161.404496 l
264.26445 162.921502 l
264.325111 164.438507 l
264.385773 165.955513 l
264.446435 167.472519 l
264.507096 168.989525 l
264.567758 170.506531 l
264.628419 172.023537 l
264.689081 173.540543 l
264.749743 175.057549 l
264.810404 176.574555 l
264.871066 178.091561 l
264.931728 179.608566 l
264.992389 181.125572 l
265.053051 182.642578 l
265.113713 184.159584 l
265.174374 185.67659 l
265.235036 187.193596 l
265.295698 188.710602 l
265.356359 190.227608 l
265.417021 191.744614 l
265.477683 193.261619 l
265.538344 194.778625 l
265.599006 196.295631 l
265.659667 197.812637 l
265.720329 199.329643 l
265.780991 200.846649 l
265.841652 202.363655 l
265.902314 203.880661 l
265.962976 205.397667 l
266.023637 206.914673 l
266.084299 208.431678 l
266.144961 209.948684 l
266.205622 211.46569 l
266.266284 212.982696 l
266.326946 214.499702 l
266.387607 216.016708 l
266.448269 217.533714 l
266.508931 219.05072 l
266.569592 220.567726 l
266.630254 222.084732 l
266.690915 223.601737 l
266.751577 225.118743 l
266.812239 226.635749 l
266.8729 228.152755 l
266.933562 229.669761 l
266.994224 231.186767 l
267.054885 232.703773 l
267.115547 234.220779 l
267.176209 235.737785 l
267.23687 237.25479 l
267.297532 238.771796 l
267.358194 240.288802 l
267.418855 241.805808 l
267.479517 243.322814 l
stroke
grestore
gsave
279 277.2 45 39.6 clipbox
261.474014 93.13923 m
261.632976 94.648399 l
261.791939 96.157567 l
261.950902 97.666736 l
262.109864 99.175904 l
262.268827 100.685072 l
262.42779 102.194241 l
262.586752 103.703409 l
262.745715 105.212578 l
262.904678 106.721746 l
263.06364 108.230915 l
263.222603 109.740083 l
263.381565 111.249251 l
263.540528 112.75842 l
263.699491 114.267588 l
263.858453 115.776757 l
264.017416 117.285925 l
264.176379 118.795094 l
264.335341 120.304262 l
264.494304 121.81343 l
264.653266 123.322599 l
264.812229 124.831767 l
264.971192 126.340936 l
265.130154 127.850104 l
265.289117 129.359273 l
265.44808 130.868441 l
265.607042 132.377609 l
265.766005 133.886778 l
265.924967 135.395946 l
266.08393 136.905115 l
266.242893 138.414283 l
266.401855 139.923452 l
266.560818 141.43262 l
266.719781 142.941788 l
266.878743 144.450957 l
267.037706 145.960125 l
267.196669 147.469294 l
267.355631 148.978462 l
267.514594 150.487631 l
267.673556 151.996799 l
267.832519 153.505967 l
267.991482 155.015136 l
268.150444 156.524304 l
268.309407 158.033473 l
268.46837 159.542641 l
268.627332 161.05181 l
268.786295 162.560978 l
268.945257 164.070146 l
269.10422 165.579315 l
269.263183 167.088483 l
269.422145 168.597652 l
269.581108 170.10682 l
269.740071 171.615989 l
269.899033 173.125157 l
270.057996 174.634325 l
270.216958 176.143494 l
270.375921 177.652662 l
270.534884 179.161831 l
270.693846 180.670999 l
270.852809 182.180168 l
271.011772 183.689336 l
271.170734 185.198504 l
271.329697 186.707673 l
271.488659 188.216841 l
271.647622 189.72601 l
271.806585 191.235178 l
271.965547 192.744347 l
272.12451 194.253515 l
272.283473 195.762683 l
272.442435 197.271852 l
272.601398 198.78102 l
272.760361 200.290189 l
272.919323 201.799357 l
273.078286 203.308526 l
273.237248 204.817694 l
273.396211 206.326862 l
273.555174 207.836031 l
273.714136 209.345199 l
273.873099 210.854368 l
274.032062 212.363536 l
274.191024 213.872705 l
274.349987 215.381873 l
274.508949 216.891041 l
274.667912 218.40021 l
274.826875 219.909378 l
274.985837 221.418547 l
275.1448 222.927715 l
275.303763 224.436883 l
275.462725 225.946052 l
275.621688 227.45522 l
275.78065 228.964389 l
275.939613 230.473557 l
276.098576 231.982726 l
276.257538 233.491894 l
276.416501 235.001062 l
276.575464 236.510231 l
276.734426 238.019399 l
276.893389 239.528568 l
277.052352 241.037736 l
277.211314 242.546905 l
stroke
grestore
gsave
279 277.2 45 39.6 clipbox
261.474014 93.13923 m
261.839993 95.271157 l
262.205972 97.403084 l
262.571951 99.535011 l
262.93793 101.666938 l
263.303909 103.798865 l
263.669888 105.930792 l
264.035867 108.062719 l
264.401846 110.194646 l
264.767825 112.326573 l
265.133805 114.4585 l
265.499784 116.590427 l
265.865763 118.722354 l
266.231742 120.854281 l
266.597721 122.986208 l
266.9637 125.118135 l
267.329679 127.250062 l
267.695658 129.381989 l
268.061637 131.513916 l
268.427616 133.645843 l
268.793595 135.77777 l
269.159574 137.909697 l
269.525553 140.041624 l
269.891532 142.173551 l
270.257512 144.305478 l
270.623491 146.437404 l
270.98947 148.569331 l
271.355449 150.701258 l
271.721428 152.833185 l
272.087407 154.965112 l
272.453386 157.097039 l
272.819365 159.228966 l
273.185344 161.360893 l
273.551323 163.49282 l
273.917302 165.624747 l
274.283281 167.756674 l
274.64926 169.888601 l
275.015239 172.020528 l
275.381219 174.152455 l
275.747198 176.284382 l
276.113177 178.416309 l
276.479156 180.548236 l
276.845135 182.680163 l
277.211114 184.81209 l
277.577093 186.944017 l
277.943072 189.075944 l
278.309051 191.207871 l
278.67503 193.339798 l
279.041009 195.471725 l
279.406988 197.603652 l
279.772967 199.735579 l
280.138946 201.867506 l
280.504925 203.999433 l
280.870905 206.13136 l
281.236884 208.263287 l
281.602863 210.395213 l
281.968842 212.52714 l
282.334821 214.659067 l
282.7008 216.790994 l
283.066779 218.922921 l
283.432758 221.054848 l
283.798737 223.186775 l
284.164716 225.318702 l
284.530695 227.450629 l
284.896674 229.582556 l
285.262653 231.714483 l
285.628632 233.84641 l
285.994612 235.978337 l
286.360591 238.110264 l
286.72657 240.242191 l
287.092549 242.374118 l
287.458528 244.506045 l
287.824507 246.637972 l
288.190486 248.769899 l
288.556465 250.901826 l
288.922444 253.033753 l
289.288423 255.16568 l
289.654402 257.297607 l
290.020381 259.429534 l
290.38636 261.561461 l
290.752339 263.693388 l
291.118318 265.825315 l
291.484298 267.957242 l
291.850277 270.089169 l
292.216256 272.221096 l
292.582235 274.353022 l
292.948214 276.484949 l
293.314193 278.616876 l
293.680172 280.748803 l
294.046151 282.88073 l
294.41213 285.012657 l
294.778109 287.144584 l
295.144088 289.276511 l
295.510067 291.408438 l
295.876046 293.540365 l
296.242025 295.672292 l
296.608005 297.804219 l
296.973984 299.936146 l
297.339963 302.068073 l
297.705942 304.2 l
stroke
grestore
gsave
279 277.2 45 39.6 clipbox
261.474014 93.13923 m
261.97749 95.24013 l
262.480967 97.34103 l
262.984443 99.44193 l
263.48792 101.542829 l
263.991396 103.643729 l
264.494873 105.744629 l
264.998349 107.845529 l
265.501825 109.946428 l
266.005302 112.047328 l
266.508778 114.148228 l
267.012255 116.249128 l
267.515731 118.350027 l
268.019208 120.450927 l
268.522684 122.551827 l
269.026161 124.652727 l
269.529637 126.753626 l
270.033113 128.854526 l
270.53659 130.955426 l
271.040066 133.056326 l
271.543543 135.157225 l
272.047019 137.258125 l
272.550496 139.359025 l
273.053972 141.459925 l
273.557449 143.560824 l
274.060925 145.661724 l
274.564401 147.762624 l
275.067878 149.863523 l
275.571354 151.964423 l
276.074831 154.065323 l
276.578307 156.166223 l
277.081784 158.267122 l
277.58526 160.368022 l
278.088737 162.468922 l
278.592213 164.569822 l
279.095689 166.670721 l
279.599166 168.771621 l
280.102642 170.872521 l
280.606119 172.973421 l
281.109595 175.07432 l
281.613072 177.17522 l
282.116548 179.27612 l
282.620025 181.37702 l
283.123501 183.477919 l
283.626977 185.578819 l
284.130454 187.679719 l
284.63393 189.780619 l
285.137407 191.881518 l
285.640883 193.982418 l
286.14436 196.083318 l
286.647836 198.184218 l
287.151313 200.285117 l
287.654789 202.386017 l
288.158265 204.486917 l
288.661742 206.587817 l
289.165218 208.688716 l
289.668695 210.789616 l
290.172171 212.890516 l
290.675648 214.991416 l
291.179124 217.092315 l
291.682601 219.193215 l
292.186077 221.294115 l
292.689553 223.395015 l
293.19303 225.495914 l
293.696506 227.596814 l
294.199983 229.697714 l
294.703459 231.798614 l
295.206936 233.899513 l
295.710412 236.000413 l
296.213888 238.101313 l
296.717365 240.202213 l
297.220841 242.303112 l
297.724318 244.404012 l
298.227794 246.504912 l
298.731271 248.605812 l
299.234747 250.706711 l
299.738224 252.807611 l
300.2417 254.908511 l
300.745176 257.009411 l
301.248653 259.11031 l
301.752129 261.21121 l
302.255606 263.31211 l
302.759082 265.41301 l
303.262559 267.513909 l
303.766035 269.614809 l
304.269512 271.715709 l
304.772988 273.816609 l
305.276464 275.917508 l
305.779941 278.018408 l
306.283417 280.119308 l
306.786894 282.220208 l
307.29037 284.321107 l
307.793847 286.422007 l
308.297323 288.522907 l
308.8008 290.623807 l
309.304276 292.724706 l
309.807752 294.825606 l
310.311229 296.926506 l
310.814705 299.027405 l
311.318182 301.128305 l
stroke
grestore
8.000 setlinewidth
2 setlinecap
[] 0 setdash
0.000 setgray
gsave
279 277.2 45 39.6 clipbox
114.236915 93.13923 m
114.236915 94.434879 l
114.236915 95.730527 l
114.236915 97.026175 l
114.236915 98.321823 l
114.236915 99.617471 l
114.236915 100.91312 l
114.236915 102.208768 l
114.236915 103.504416 l
114.236915 104.800064 l
114.236915 106.095712 l
114.236915 107.391361 l
114.236915 108.687009 l
114.236915 109.982657 l
114.236915 111.278305 l
114.236915 112.573953 l
114.236915 113.869602 l
114.236915 115.16525 l
114.236915 116.460898 l
114.236915 117.756546 l
114.236915 119.052194 l
114.236915 120.347843 l
114.236915 121.643491 l
114.236915 122.939139 l
114.236915 124.234787 l
114.236915 125.530435 l
114.236915 126.826084 l
114.236915 128.121732 l
114.236915 129.41738 l
114.236915 130.713028 l
114.236915 132.008676 l
114.236915 133.304325 l
114.236915 134.599973 l
114.236915 135.895621 l
114.236915 137.191269 l
114.236915 138.486917 l
114.236915 139.782566 l
114.236915 141.078214 l
114.236915 142.373862 l
114.236915 143.66951 l
114.236915 144.965158 l
114.236915 146.260807 l
114.236915 147.556455 l
114.236915 148.852103 l
114.236915 150.147751 l
114.236915 151.443399 l
114.236915 152.739048 l
114.236915 154.034696 l
114.236915 155.330344 l
114.236915 156.625992 l
114.236915 157.92164 l
114.236915 159.217289 l
114.236915 160.512937 l
114.236915 161.808585 l
114.236915 163.104233 l
114.236915 164.399881 l
114.236915 165.69553 l
114.236915 166.991178 l
114.236915 168.286826 l
114.236915 169.582474 l
114.236915 170.878122 l
114.236915 172.173771 l
114.236915 173.469419 l
114.236915 174.765067 l
114.236915 176.060715 l
114.236915 177.356363 l
114.236915 178.652012 l
114.236915 179.94766 l
114.236915 181.243308 l
114.236915 182.538956 l
114.236915 183.834604 l
114.236915 185.130253 l
114.236915 186.425901 l
114.236915 187.721549 l
114.236915 189.017197 l
114.236915 190.312845 l
114.236915 191.608494 l
114.236915 192.904142 l
114.236915 194.19979 l
114.236915 195.495438 l
114.236915 196.791086 l
114.236915 198.086735 l
114.236915 199.382383 l
114.236915 200.678031 l
114.236915 201.973679 l
114.236915 203.269327 l
114.236915 204.564976 l
114.236915 205.860624 l
114.236915 207.156272 l
114.236915 208.45192 l
114.236915 209.747568 l
114.236915 211.043217 l
114.236915 212.338865 l
114.236915 213.634513 l
114.236915 214.930161 l
114.236915 216.225809 l
114.236915 217.521458 l
114.236915 218.817106 l
114.236915 220.112754 l
114.236915 221.408402 l
stroke
grestore
gsave
279 277.2 45 39.6 clipbox
114.236915 223.412608 m
114.81636 223.412608 l
115.395806 223.412608 l
115.975251 223.412608 l
116.554697 223.412608 l
117.134142 223.412608 l
117.713588 223.412608 l
118.293033 223.412608 l
118.872479 223.412608 l
119.451924 223.412608 l
120.03137 223.412608 l
120.610815 223.412608 l
121.190261 223.412608 l
121.769706 223.412608 l
122.349152 223.412608 l
122.928597 223.412608 l
123.508043 223.412608 l
124.087488 223.412608 l
124.666934 223.412608 l
125.246379 223.412608 l
125.825825 223.412608 l
126.40527 223.412608 l
126.984716 223.412608 l
127.564161 223.412608 l
128.143607 223.412608 l
128.723052 223.412608 l
129.302498 223.412608 l
129.881943 223.412608 l
130.461389 223.412608 l
131.040834 223.412608 l
131.62028 223.412608 l
132.199725 223.412608 l
132.779171 223.412608 l
133.358616 223.412608 l
133.938062 223.412608 l
134.517507 223.412608 l
135.096953 223.412608 l
135.676398 223.412608 l
136.255844 223.412608 l
136.835289 223.412608 l
137.414735 223.412608 l
137.99418 223.412608 l
138.573625 223.412608 l
139.153071 223.412608 l
139.732516 223.412608 l
140.311962 223.412608 l
140.891407 223.412608 l
141.470853 223.412608 l
142.050298 223.412608 l
142.629744 223.412608 l
143.209189 223.412608 l
143.788635 223.412608 l
144.36808 223.412608 l
144.947526 223.412608 l
145.526971 223.412608 l
146.106417 223.412608 l
146.685862 223.412608 l
147.265308 223.412608 l
147.844753 223.412608 l
148.424199 223.412608 l
149.003644 223.412608 l
149.58309 223.412608 l
150.162535 223.412608 l
150.741981 223.412608 l
151.321426 223.412608 l
151.900872 223.412608 l
152.480317 223.412608 l
153.059763 223.412608 l
153.639208 223.412608 l
154.218654 223.412608 l
154.798099 223.412608 l
155.377545 223.412608 l
155.95699 223.412608 l
156.536436 223.412608 l
157.115881 223.412608 l
157.695327 223.412608 l
158.274772 223.412608 l
158.854218 223.412608 l
159.433663 223.412608 l
160.013109 223.412608 l
160.592554 223.412608 l
161.172 223.412608 l
161.751445 223.412608 l
162.330891 223.412608 l
162.910336 223.412608 l
163.489782 223.412608 l
164.069227 223.412608 l
164.648673 223.412608 l
165.228118 223.412608 l
165.807564 223.412608 l
166.387009 223.412608 l
166.966454 223.412608 l
167.5459 223.412608 l
168.125345 223.412608 l
168.704791 223.412608 l
169.284236 223.412608 l
169.863682 223.412608 l
170.443127 223.412608 l
171.022573 223.412608 l
171.602018 223.412608 l
stroke
grestore
gsave
279 277.2 45 39.6 clipbox
206.02108 248.465181 m
206.755045 248.465181 l
207.489009 248.465181 l
208.222973 248.465181 l
208.956938 248.465181 l
209.690902 248.465181 l
210.424866 248.465181 l
211.158831 248.465181 l
211.892795 248.465181 l
212.626759 248.465181 l
213.360723 248.465181 l
214.094688 248.465181 l
214.828652 248.465181 l
215.562616 248.465181 l
216.296581 248.465181 l
217.030545 248.465181 l
217.764509 248.465181 l
218.498473 248.465181 l
219.232438 248.465181 l
219.966402 248.465181 l
220.700366 248.465181 l
221.434331 248.465181 l
222.168295 248.465181 l
222.902259 248.465181 l
223.636223 248.465181 l
224.370188 248.465181 l
225.104152 248.465181 l
225.838116 248.465181 l
226.572081 248.465181 l
227.306045 248.465181 l
228.040009 248.465181 l
228.773973 248.465181 l
229.507938 248.465181 l
230.241902 248.465181 l
230.975866 248.465181 l
231.709831 248.465181 l
232.443795 248.465181 l
233.177759 248.465181 l
233.911723 248.465181 l
234.645688 248.465181 l
235.379652 248.465181 l
236.113616 248.465181 l
236.847581 248.465181 l
237.581545 248.465181 l
238.315509 248.465181 l
239.049473 248.465181 l
239.783438 248.465181 l
240.517402 248.465181 l
241.251366 248.465181 l
241.985331 248.465181 l
242.719295 248.465181 l
243.453259 248.465181 l
244.187223 248.465181 l
244.921188 248.465181 l
245.655152 248.465181 l
246.389116 248.465181 l
247.123081 248.465181 l
247.857045 248.465181 l
248.591009 248.465181 l
249.324973 248.465181 l
250.058938 248.465181 l
250.792902 248.465181 l
251.526866 248.465181 l
252.260831 248.465181 l
252.994795 248.465181 l
253.728759 248.465181 l
254.462723 248.465181 l
255.196688 248.465181 l
255.930652 248.465181 l
256.664616 248.465181 l
257.398581 248.465181 l
258.132545 248.465181 l
258.866509 248.465181 l
259.600473 248.465181 l
260.334438 248.465181 l
261.068402 248.465181 l
261.802366 248.465181 l
262.536331 248.465181 l
263.270295 248.465181 l
264.004259 248.465181 l
264.738223 248.465181 l
265.472188 248.465181 l
266.206152 248.465181 l
266.940116 248.465181 l
267.674081 248.465181 l
268.408045 248.465181 l
269.142009 248.465181 l
269.875973 248.465181 l
270.609938 248.465181 l
271.343902 248.465181 l
272.077866 248.465181 l
272.811831 248.465181 l
273.545795 248.465181 l
274.279759 248.465181 l
275.013723 248.465181 l
275.747688 248.465181 l
276.481652 248.465181 l
277.215616 248.465181 l
277.949581 248.465181 l
278.683545 248.465181 l
stroke
grestore
0.800 setlinewidth
0 setlinejoin
[] 0 setdash
gsave
45 39.6 m
45 316.8 l
stroke
grestore
gsave
324 39.6 m
324 316.8 l
stroke
grestore
gsave
45 39.6 m
324 39.6 l
stroke
grestore
gsave
45 316.8 m
324 316.8 l
stroke
grestore

end
showpage
