%!PS-Adobe-3.0 EPSF-3.0
%%Title: /home/thaiduong/repo/papers/fastron_mapping_iros2019/ieeeconf/figures/upper_bound_greenline.eps
%%Creator: matplotlib version 3.0.2, http://matplotlib.org/
%%CreationDate: Fri Mar 29 14:28:23 2019
%%Orientation: portrait
%%BoundingBox: 75 223 536 568
%%EndComments
%%BeginProlog
/mpldict 8 dict def
mpldict begin
/m { moveto } bind def
/l { lineto } bind def
/r { rlineto } bind def
/c { curveto } bind def
/cl { closepath } bind def
/box {
m
1 index 0 r
0 exch r
neg 0 r
cl
} bind def
/clipbox {
box
clip
newpath
} bind def
%!PS-Adobe-3.0 Resource-Font
%%Title: DejaVu Sans
%%Copyright: Copyright (c) 2003 by Bitstream, Inc. All Rights Reserved. Copyright (c) 2006 by Tavmjong Bah. All Rights Reserved. DejaVu changes are in public domain 
%%Creator: Converted from TrueType to type 3 by PPR
25 dict begin
/_d{bind def}bind def
/_m{moveto}_d
/_l{lineto}_d
/_cl{closepath eofill}_d
/_c{curveto}_d
/_sc{7 -1 roll{setcachedevice}{pop pop pop pop pop pop}ifelse}_d
/_e{exec}_d
/FontName /DejaVuSans def
/PaintType 0 def
/FontMatrix[.001 0 0 .001 0 0]def
/FontBBox[-1021 -463 1793 1232]def
/FontType 3 def
/Encoding [ /space /period /zero /one /two /four /six /eight /b /c /d /e /n /o /p /r /s /t /u /z /minus ] def
/FontInfo 10 dict dup begin
/FamilyName (DejaVu Sans) def
/FullName (DejaVu Sans) def
/Notice (Copyright (c) 2003 by Bitstream, Inc. All Rights Reserved. Copyright (c) 2006 by Tavmjong Bah. All Rights Reserved. DejaVu changes are in public domain ) def
/Weight (Book) def
/Version (Version 2.35) def
/ItalicAngle 0.0 def
/isFixedPitch false def
/UnderlinePosition -130 def
/UnderlineThickness 90 def
end readonly def
/CharStrings 22 dict dup begin
/.notdef 0 def
/space{318 0 0 0 0 0 _sc
}_d
/period{318 0 107 0 210 124 _sc
107 124 _m
210 124 _l
210 0 _l
107 0 _l
107 124 _l
_cl}_d
/zero{636 0 66 -13 570 742 _sc
318 664 _m
267 664 229 639 203 589 _c
177 539 165 464 165 364 _c
165 264 177 189 203 139 _c
229 89 267 64 318 64 _c
369 64 407 89 433 139 _c
458 189 471 264 471 364 _c
471 464 458 539 433 589 _c
407 639 369 664 318 664 _c
318 742 _m
399 742 461 709 505 645 _c
548 580 570 486 570 364 _c
570 241 548 147 505 83 _c
461 19 399 -13 318 -13 _c
236 -13 173 19 130 83 _c
87 147 66 241 66 364 _c
66 486 87 580 130 645 _c
173 709 236 742 318 742 _c
_cl}_d
/one{636 0 110 0 544 729 _sc
124 83 _m
285 83 _l
285 639 _l
110 604 _l
110 694 _l
284 729 _l
383 729 _l
383 83 _l
544 83 _l
544 0 _l
124 0 _l
124 83 _l
_cl}_d
/two{{636 0 73 0 536 742 _sc
192 83 _m
536 83 _l
536 0 _l
73 0 _l
73 83 _l
110 121 161 173 226 239 _c
290 304 331 346 348 365 _c
380 400 402 430 414 455 _c
426 479 433 504 433 528 _c
433 566 419 598 392 622 _c
365 646 330 659 286 659 _c
255 659 222 653 188 643 _c
154 632 117 616 78 594 _c
78 694 _l
118 710 155 722 189 730 _c
223 738 255 742 284 742 _c
}_e{359 742 419 723 464 685 _c
509 647 532 597 532 534 _c
532 504 526 475 515 449 _c
504 422 484 390 454 354 _c
446 344 420 317 376 272 _c
332 227 271 164 192 83 _c
_cl}_e}_d
/four{636 0 49 0 580 729 _sc
378 643 _m
129 254 _l
378 254 _l
378 643 _l
352 729 _m
476 729 _l
476 254 _l
580 254 _l
580 172 _l
476 172 _l
476 0 _l
378 0 _l
378 172 _l
49 172 _l
49 267 _l
352 729 _l
_cl}_d
/six{{636 0 70 -13 573 742 _sc
330 404 _m
286 404 251 388 225 358 _c
199 328 186 286 186 234 _c
186 181 199 139 225 109 _c
251 79 286 64 330 64 _c
374 64 409 79 435 109 _c
461 139 474 181 474 234 _c
474 286 461 328 435 358 _c
409 388 374 404 330 404 _c
526 713 _m
526 623 _l
501 635 476 644 451 650 _c
425 656 400 659 376 659 _c
310 659 260 637 226 593 _c
}_e{192 549 172 482 168 394 _c
187 422 211 444 240 459 _c
269 474 301 482 336 482 _c
409 482 467 459 509 415 _c
551 371 573 310 573 234 _c
573 159 550 99 506 54 _c
462 9 403 -13 330 -13 _c
246 -13 181 19 137 83 _c
92 147 70 241 70 364 _c
70 479 97 571 152 639 _c
206 707 280 742 372 742 _c
396 742 421 739 447 735 _c
472 730 498 723 526 713 _c
_cl}_e}_d
/eight{{636 0 68 -13 568 742 _sc
318 346 _m
271 346 234 333 207 308 _c
180 283 167 249 167 205 _c
167 161 180 126 207 101 _c
234 76 271 64 318 64 _c
364 64 401 76 428 102 _c
455 127 469 161 469 205 _c
469 249 455 283 429 308 _c
402 333 365 346 318 346 _c
219 388 _m
177 398 144 418 120 447 _c
96 476 85 511 85 553 _c
85 611 105 657 147 691 _c
188 725 245 742 318 742 _c
}_e{390 742 447 725 489 691 _c
530 657 551 611 551 553 _c
551 511 539 476 515 447 _c
491 418 459 398 417 388 _c
464 377 501 355 528 323 _c
554 291 568 251 568 205 _c
568 134 546 80 503 43 _c
459 5 398 -13 318 -13 _c
237 -13 175 5 132 43 _c
89 80 68 134 68 205 _c
68 251 81 291 108 323 _c
134 355 171 377 219 388 _c
183 544 _m
183 506 194 476 218 455 _c
}_e{242 434 275 424 318 424 _c
360 424 393 434 417 455 _c
441 476 453 506 453 544 _c
453 582 441 611 417 632 _c
393 653 360 664 318 664 _c
275 664 242 653 218 632 _c
194 611 183 582 183 544 _c
_cl}_e}_d
/b{{635 0 91 -13 580 760 _sc
487 273 _m
487 339 473 390 446 428 _c
418 466 381 485 334 485 _c
286 485 249 466 222 428 _c
194 390 181 339 181 273 _c
181 207 194 155 222 117 _c
249 79 286 61 334 61 _c
381 61 418 79 446 117 _c
473 155 487 207 487 273 _c
181 464 _m
199 496 223 520 252 536 _c
281 552 316 560 356 560 _c
422 560 476 533 518 481 _c
559 428 580 359 580 273 _c
}_e{580 187 559 117 518 65 _c
476 13 422 -13 356 -13 _c
316 -13 281 -5 252 10 _c
223 25 199 49 181 82 _c
181 0 _l
91 0 _l
91 760 _l
181 760 _l
181 464 _l
_cl}_e}_d
/c{{550 0 55 -13 488 560 _sc
488 526 _m
488 442 _l
462 456 437 466 411 473 _c
385 480 360 484 334 484 _c
276 484 230 465 198 428 _c
166 391 150 339 150 273 _c
150 206 166 154 198 117 _c
230 80 276 62 334 62 _c
360 62 385 65 411 72 _c
437 79 462 90 488 104 _c
488 21 _l
462 9 436 0 410 -5 _c
383 -10 354 -13 324 -13 _c
242 -13 176 12 128 64 _c
}_e{79 115 55 185 55 273 _c
55 362 79 432 128 483 _c
177 534 244 560 330 560 _c
358 560 385 557 411 551 _c
437 545 463 537 488 526 _c
_cl}_e}_d
/d{{635 0 55 -13 544 760 _sc
454 464 _m
454 760 _l
544 760 _l
544 0 _l
454 0 _l
454 82 _l
435 49 411 25 382 10 _c
353 -5 319 -13 279 -13 _c
213 -13 159 13 117 65 _c
75 117 55 187 55 273 _c
55 359 75 428 117 481 _c
159 533 213 560 279 560 _c
319 560 353 552 382 536 _c
411 520 435 496 454 464 _c
148 273 _m
148 207 161 155 188 117 _c
215 79 253 61 301 61 _c
}_e{348 61 385 79 413 117 _c
440 155 454 207 454 273 _c
454 339 440 390 413 428 _c
385 466 348 485 301 485 _c
253 485 215 466 188 428 _c
161 390 148 339 148 273 _c
_cl}_e}_d
/e{{615 0 55 -13 562 560 _sc
562 296 _m
562 252 _l
149 252 _l
153 190 171 142 205 110 _c
238 78 284 62 344 62 _c
378 62 412 66 444 74 _c
476 82 509 95 541 113 _c
541 28 _l
509 14 476 3 442 -3 _c
408 -9 373 -13 339 -13 _c
251 -13 182 12 131 62 _c
80 112 55 181 55 268 _c
55 357 79 428 127 481 _c
175 533 241 560 323 560 _c
397 560 455 536 498 489 _c
}_e{540 441 562 377 562 296 _c
472 322 _m
471 371 457 410 431 440 _c
404 469 368 484 324 484 _c
274 484 234 469 204 441 _c
174 413 156 373 152 322 _c
472 322 _l
_cl}_e}_d
/n{634 0 91 0 549 560 _sc
549 330 _m
549 0 _l
459 0 _l
459 327 _l
459 379 448 417 428 443 _c
408 469 378 482 338 482 _c
289 482 251 466 223 435 _c
195 404 181 362 181 309 _c
181 0 _l
91 0 _l
91 547 _l
181 547 _l
181 462 _l
202 494 227 519 257 535 _c
286 551 320 560 358 560 _c
420 560 468 540 500 501 _c
532 462 549 405 549 330 _c
_cl}_d
/o{612 0 55 -13 557 560 _sc
306 484 _m
258 484 220 465 192 427 _c
164 389 150 338 150 273 _c
150 207 163 156 191 118 _c
219 80 257 62 306 62 _c
354 62 392 80 420 118 _c
448 156 462 207 462 273 _c
462 337 448 389 420 427 _c
392 465 354 484 306 484 _c
306 560 _m
384 560 445 534 490 484 _c
534 433 557 363 557 273 _c
557 183 534 113 490 63 _c
445 12 384 -13 306 -13 _c
227 -13 165 12 121 63 _c
77 113 55 183 55 273 _c
55 363 77 433 121 484 _c
165 534 227 560 306 560 _c
_cl}_d
/p{{635 0 91 -207 580 560 _sc
181 82 _m
181 -207 _l
91 -207 _l
91 547 _l
181 547 _l
181 464 _l
199 496 223 520 252 536 _c
281 552 316 560 356 560 _c
422 560 476 533 518 481 _c
559 428 580 359 580 273 _c
580 187 559 117 518 65 _c
476 13 422 -13 356 -13 _c
316 -13 281 -5 252 10 _c
223 25 199 49 181 82 _c
487 273 _m
487 339 473 390 446 428 _c
418 466 381 485 334 485 _c
}_e{286 485 249 466 222 428 _c
194 390 181 339 181 273 _c
181 207 194 155 222 117 _c
249 79 286 61 334 61 _c
381 61 418 79 446 117 _c
473 155 487 207 487 273 _c
_cl}_e}_d
/r{411 0 91 0 411 560 _sc
411 463 _m
401 469 390 473 378 476 _c
366 478 353 480 339 480 _c
288 480 249 463 222 430 _c
194 397 181 350 181 288 _c
181 0 _l
91 0 _l
91 547 _l
181 547 _l
181 462 _l
199 495 224 520 254 536 _c
284 552 321 560 365 560 _c
371 560 378 559 386 559 _c
393 558 401 557 411 555 _c
411 463 _l
_cl}_d
/s{{521 0 54 -13 472 560 _sc
443 531 _m
443 446 _l
417 458 391 468 364 475 _c
336 481 308 485 279 485 _c
234 485 200 478 178 464 _c
156 450 145 430 145 403 _c
145 382 153 366 169 354 _c
185 342 217 330 265 320 _c
296 313 _l
360 299 405 279 432 255 _c
458 230 472 195 472 151 _c
472 100 452 60 412 31 _c
372 1 316 -13 246 -13 _c
216 -13 186 -10 154 -5 _c
}_e{122 0 89 8 54 20 _c
54 113 _l
87 95 120 82 152 74 _c
184 65 216 61 248 61 _c
290 61 323 68 346 82 _c
368 96 380 117 380 144 _c
380 168 371 187 355 200 _c
339 213 303 226 247 238 _c
216 245 _l
160 257 119 275 95 299 _c
70 323 58 356 58 399 _c
58 450 76 490 112 518 _c
148 546 200 560 268 560 _c
301 560 332 557 362 552 _c
391 547 418 540 443 531 _c
}_e{_cl}_e}_d
/t{392 0 27 0 368 702 _sc
183 702 _m
183 547 _l
368 547 _l
368 477 _l
183 477 _l
183 180 _l
183 135 189 106 201 94 _c
213 81 238 75 276 75 _c
368 75 _l
368 0 _l
276 0 _l
206 0 158 13 132 39 _c
106 65 93 112 93 180 _c
93 477 _l
27 477 _l
27 547 _l
93 547 _l
93 702 _l
183 702 _l
_cl}_d
/u{634 0 85 -13 543 560 _sc
85 216 _m
85 547 _l
175 547 _l
175 219 _l
175 167 185 129 205 103 _c
225 77 255 64 296 64 _c
344 64 383 79 411 110 _c
439 141 453 183 453 237 _c
453 547 _l
543 547 _l
543 0 _l
453 0 _l
453 84 _l
431 50 405 26 377 10 _c
348 -5 315 -13 277 -13 _c
214 -13 166 6 134 45 _c
101 83 85 140 85 216 _c
311 560 _m
311 560 _l
_cl}_d
/z{525 0 43 0 482 547 _sc
55 547 _m
482 547 _l
482 465 _l
144 72 _l
482 72 _l
482 0 _l
43 0 _l
43 82 _l
381 475 _l
55 475 _l
55 547 _l
_cl}_d
/minus{838 0 106 272 732 355 _sc
106 355 _m
732 355 _l
732 272 _l
106 272 _l
106 355 _l
_cl}_d
end readonly def

/BuildGlyph
 {exch begin
 CharStrings exch
 2 copy known not{pop /.notdef}if
 true 3 1 roll get exec
 end}_d

/BuildChar {
 1 index /Encoding get exch get
 1 index /BuildGlyph get exec
}_d

FontName currentdict end definefont pop
end
%%EndProlog
mpldict begin
75.6 223.2 translate
460.8 345.6 0 0 clipbox
gsave
0 0 m
460.8 0 l
460.8 345.6 l
0 345.6 l
cl
1.000 setgray
fill
grestore
gsave
57.6 38.016 m
414.72 38.016 l
414.72 304.128 l
57.6 304.128 l
cl
1.000 setgray
fill
grestore
0.800 setlinewidth
1 setlinejoin
0 setlinecap
[] 0 setdash
0.000 setgray
gsave
/o {
gsave
newpath
translate
0.8 setlinewidth
1 setlinejoin
0 setlinecap
0 0 m
0 -3.5 l

gsave
0.000 setgray
fill
grestore
stroke
grestore
} bind def
73.8327 38.016 o
grestore
/DejaVuSans findfont
10.000 scalefont
setfont
gsave
65.879602 23.422250 translate
0.000000 rotate
0.000000 0.000000 m /zero glyphshow
6.362305 0.000000 m /period glyphshow
9.541016 0.000000 m /zero glyphshow
grestore
gsave
/o {
gsave
newpath
translate
0.8 setlinewidth
1 setlinejoin
0 setlinecap
0 0 m
0 -3.5 l

gsave
0.000 setgray
fill
grestore
stroke
grestore
} bind def
138.764 38.016 o
grestore
gsave
130.810511 23.422250 translate
0.000000 rotate
0.000000 0.000000 m /zero glyphshow
6.362305 0.000000 m /period glyphshow
9.541016 0.000000 m /two glyphshow
grestore
gsave
/o {
gsave
newpath
translate
0.8 setlinewidth
1 setlinejoin
0 setlinecap
0 0 m
0 -3.5 l

gsave
0.000 setgray
fill
grestore
stroke
grestore
} bind def
203.695 38.016 o
grestore
gsave
195.741420 23.422250 translate
0.000000 rotate
0.000000 0.000000 m /zero glyphshow
6.362305 0.000000 m /period glyphshow
9.541016 0.000000 m /four glyphshow
grestore
gsave
/o {
gsave
newpath
translate
0.8 setlinewidth
1 setlinejoin
0 setlinecap
0 0 m
0 -3.5 l

gsave
0.000 setgray
fill
grestore
stroke
grestore
} bind def
268.625 38.016 o
grestore
gsave
260.672330 23.422250 translate
0.000000 rotate
0.000000 0.000000 m /zero glyphshow
6.362305 0.000000 m /period glyphshow
9.541016 0.000000 m /six glyphshow
grestore
gsave
/o {
gsave
newpath
translate
0.8 setlinewidth
1 setlinejoin
0 setlinecap
0 0 m
0 -3.5 l

gsave
0.000 setgray
fill
grestore
stroke
grestore
} bind def
333.556 38.016 o
grestore
gsave
325.603239 23.422250 translate
0.000000 rotate
0.000000 0.000000 m /zero glyphshow
6.362305 0.000000 m /period glyphshow
9.541016 0.000000 m /eight glyphshow
grestore
gsave
/o {
gsave
newpath
translate
0.8 setlinewidth
1 setlinejoin
0 setlinecap
0 0 m
0 -3.5 l

gsave
0.000 setgray
fill
grestore
stroke
grestore
} bind def
398.487 38.016 o
grestore
gsave
390.534148 23.422250 translate
0.000000 rotate
0.000000 0.000000 m /one glyphshow
6.362305 0.000000 m /period glyphshow
9.541016 0.000000 m /zero glyphshow
grestore
gsave
234.199062 9.750375 translate
0.000000 rotate
0.000000 0.000000 m /t glyphshow
grestore
gsave
/o {
gsave
newpath
translate
0.8 setlinewidth
1 setlinejoin
0 setlinecap
0 0 m
-3.5 0 l

gsave
0.000 setgray
fill
grestore
stroke
grestore
} bind def
57.6 53.3482 o
grestore
gsave
19.959375 49.551367 translate
0.000000 rotate
0.000000 0.000000 m /minus glyphshow
8.378906 0.000000 m /zero glyphshow
14.741211 0.000000 m /period glyphshow
17.919922 0.000000 m /one glyphshow
24.282227 0.000000 m /four glyphshow
grestore
gsave
/o {
gsave
newpath
translate
0.8 setlinewidth
1 setlinejoin
0 setlinecap
0 0 m
-3.5 0 l

gsave
0.000 setgray
fill
grestore
stroke
grestore
} bind def
57.6 87.4459 o
grestore
gsave
19.959375 83.649047 translate
0.000000 rotate
0.000000 0.000000 m /minus glyphshow
8.378906 0.000000 m /zero glyphshow
14.741211 0.000000 m /period glyphshow
17.919922 0.000000 m /one glyphshow
24.282227 0.000000 m /two glyphshow
grestore
gsave
/o {
gsave
newpath
translate
0.8 setlinewidth
1 setlinejoin
0 setlinecap
0 0 m
-3.5 0 l

gsave
0.000 setgray
fill
grestore
stroke
grestore
} bind def
57.6 121.544 o
grestore
gsave
19.959375 117.746726 translate
0.000000 rotate
0.000000 0.000000 m /minus glyphshow
8.378906 0.000000 m /zero glyphshow
14.741211 0.000000 m /period glyphshow
17.919922 0.000000 m /one glyphshow
24.282227 0.000000 m /zero glyphshow
grestore
gsave
/o {
gsave
newpath
translate
0.8 setlinewidth
1 setlinejoin
0 setlinecap
0 0 m
-3.5 0 l

gsave
0.000 setgray
fill
grestore
stroke
grestore
} bind def
57.6 155.641 o
grestore
gsave
19.959375 151.844406 translate
0.000000 rotate
0.000000 0.000000 m /minus glyphshow
8.378906 0.000000 m /zero glyphshow
14.741211 0.000000 m /period glyphshow
17.919922 0.000000 m /zero glyphshow
24.282227 0.000000 m /eight glyphshow
grestore
gsave
/o {
gsave
newpath
translate
0.8 setlinewidth
1 setlinejoin
0 setlinecap
0 0 m
-3.5 0 l

gsave
0.000 setgray
fill
grestore
stroke
grestore
} bind def
57.6 189.739 o
grestore
gsave
19.959375 185.942086 translate
0.000000 rotate
0.000000 0.000000 m /minus glyphshow
8.378906 0.000000 m /zero glyphshow
14.741211 0.000000 m /period glyphshow
17.919922 0.000000 m /zero glyphshow
24.282227 0.000000 m /six glyphshow
grestore
gsave
/o {
gsave
newpath
translate
0.8 setlinewidth
1 setlinejoin
0 setlinecap
0 0 m
-3.5 0 l

gsave
0.000 setgray
fill
grestore
stroke
grestore
} bind def
57.6 223.837 o
grestore
gsave
19.959375 220.039766 translate
0.000000 rotate
0.000000 0.000000 m /minus glyphshow
8.378906 0.000000 m /zero glyphshow
14.741211 0.000000 m /period glyphshow
17.919922 0.000000 m /zero glyphshow
24.282227 0.000000 m /four glyphshow
grestore
gsave
/o {
gsave
newpath
translate
0.8 setlinewidth
1 setlinejoin
0 setlinecap
0 0 m
-3.5 0 l

gsave
0.000 setgray
fill
grestore
stroke
grestore
} bind def
57.6 257.934 o
grestore
gsave
19.959375 254.137445 translate
0.000000 rotate
0.000000 0.000000 m /minus glyphshow
8.378906 0.000000 m /zero glyphshow
14.741211 0.000000 m /period glyphshow
17.919922 0.000000 m /zero glyphshow
24.282227 0.000000 m /two glyphshow
grestore
gsave
/o {
gsave
newpath
translate
0.8 setlinewidth
1 setlinejoin
0 setlinecap
0 0 m
-3.5 0 l

gsave
0.000 setgray
fill
grestore
stroke
grestore
} bind def
57.6 292.032 o
grestore
gsave
28.334375 288.235125 translate
0.000000 rotate
0.000000 0.000000 m /zero glyphshow
6.362305 0.000000 m /period glyphshow
9.541016 0.000000 m /zero glyphshow
15.903320 0.000000 m /zero glyphshow
grestore
gsave
13.881250 157.517312 translate
90.000000 rotate
0.000000 0.000000 m /s glyphshow
5.209961 0.000000 m /c glyphshow
10.708008 0.000000 m /o glyphshow
16.826172 0.000000 m /r glyphshow
20.937500 0.000000 m /e glyphshow
grestore
1.500 setlinewidth
[5.55 2.4] 0 setdash
0.122 0.467 0.706 setrgbcolor
gsave
357.1 266.1 57.6 38.02 clipbox
73.832727 280.330148 m
77.112066 281.624801 l
80.391405 282.92961 l
83.670744 284.201815 l
86.950083 285.40643 l
90.229421 286.517086 l
93.50876 287.516135 l
96.788099 288.394136 l
100.067438 289.149501 l
103.346777 289.785073 l
106.626116 290.308703 l
109.905455 290.731584 l
113.184793 291.066494 l
116.464132 291.326693 l
119.743471 291.525066 l
123.02281 291.673513 l
126.302149 291.782572 l
129.581488 291.861248 l
132.860826 291.91699 l
136.140165 291.955783 l
139.419504 291.982305 l
142.698843 292.000119 l
145.978182 292.011877 l
149.257521 292.014004 l
152.53686 292.011816 l
155.816198 292.001233 l
159.095537 291.985878 l
162.374876 291.963985 l
165.654215 291.933324 l
168.933554 291.89115 l
172.212893 291.834191 l
175.492231 291.758668 l
178.77157 291.660389 l
182.050909 291.534904 l
185.330248 291.377745 l
188.609587 291.184757 l
191.888926 290.952499 l
195.168264 290.678703 l
198.447603 290.362766 l
201.726942 290.006204 l
205.006281 289.613041 l
208.28562 289.190056 l
211.564959 288.746836 l
214.844298 288.295605 l
218.123636 287.850783 l
221.402975 287.4283 l
224.682314 287.044701 l
227.961653 286.716084 l
231.240992 286.456999 l
234.520331 286.279377 l
237.799669 286.191621 l
241.079008 286.197949 l
244.358347 286.298056 l
247.637686 286.487138 l
250.917025 286.756278 l
254.196364 287.093136 l
257.475702 287.482894 l
260.755041 287.909328 l
264.03438 288.355916 l
267.313719 288.806882 l
270.593058 289.248062 l
273.872397 289.667568 l
277.151736 289.072487 l
280.431074 287.747935 l
283.710413 285.93038 l
286.989752 283.481581 l
290.269091 280.242845 l
293.54843 276.038964 l
296.827769 270.68524 l
300.107107 263.997959 l
303.386446 255.808373 l
306.665785 245.979787 l
309.945124 234.426859 l
313.224463 221.135639 l
316.503802 206.182378 l
319.78314 189.748791 l
323.062479 172.131344 l
326.341818 153.742323 l
329.621157 135.101033 l
332.900496 116.814328 l
336.179835 99.546874 l
339.459174 83.982786 l
342.738512 70.781528 l
346.017851 60.53194 l
349.29719 53.70881 l
352.576529 50.636449 l
355.855868 51.463138 l
359.135207 56.149272 l
362.414545 64.470509 l
365.693884 76.03557 l
368.973223 90.316739 l
372.252562 106.689736 l
375.531901 124.478787 l
378.81124 143.002367 l
382.090579 161.615368 l
385.369917 179.744189 l
388.649256 196.912352 l
391.928595 212.755506 l
395.207934 227.025965 l
398.487273 239.587939 l
stroke
grestore
2 setlinecap
[] 0 setdash
1.000 0.498 0.055 setrgbcolor
gsave
357.1 266.1 57.6 38.02 clipbox
73.832727 280.036736 m
77.112066 281.420492 l
80.391405 282.788368 l
83.670744 284.104183 l
86.950083 285.338154 l
90.229421 286.467929 l
93.50876 287.478892 l
96.788099 288.363848 l
100.067438 289.122189 l
103.346777 289.758732 l
106.626116 290.282377 l
109.905455 290.70475 l
113.184793 291.03894 l
116.464132 291.298432 l
119.743471 291.496262 l
123.02281 291.644422 l
126.302149 291.753488 l
129.581488 291.832448 l
132.860826 291.888675 l
136.140165 291.928011 l
139.419504 291.954912 l
142.698843 291.972619 l
145.978182 291.983334 l
149.257521 291.988368 l
152.53686 291.988265 l
155.816198 291.982886 l
159.095537 291.97146 l
162.374876 291.952609 l
165.654215 291.92435 l
168.933554 291.884099 l
172.212893 291.828688 l
175.492231 291.754413 l
178.77157 291.657134 l
182.050909 291.532442 l
185.330248 291.375903 l
188.609587 291.183392 l
191.888926 290.951491 l
195.168264 290.677958 l
198.447603 290.362205 l
201.726942 290.005764 l
205.006281 289.61267 l
208.28562 289.189707 l
211.564959 288.746466 l
214.844298 288.295161 l
218.123636 287.85019 l
221.402975 287.42744 l
224.682314 287.043368 l
227.961653 286.713921 l
231.240992 286.453379 l
234.520331 286.27321 l
237.799669 286.181045 l
241.079008 286.179832 l
244.358347 286.267219 l
247.637686 286.435173 l
250.917025 286.669781 l
254.196364 286.951131 l
257.475702 287.253166 l
260.755041 287.543326 l
264.03438 287.781856 l
267.313719 287.920665 l
270.593058 287.901669 l
273.872397 287.654693 l
277.151736 287.095085 l
280.431074 286.121375 l
283.710413 284.613425 l
286.989752 282.431669 l
290.269091 279.418115 l
293.54843 275.399811 l
296.827769 270.195376 l
300.107107 263.625013 l
303.386446 255.524096 l
306.665785 245.759948 l
309.945124 234.250915 l
313.224463 220.986278 l
316.503802 206.045004 l
319.78314 189.611029 l
323.062479 171.982603 l
326.341818 153.573455 l
329.621157 134.904092 l
332.900496 116.582447 l
336.179835 99.274224 l
339.459174 83.664608 l
342.738512 70.414199 l
346.017851 60.113039 l
349.29719 53.237144 l
352.576529 50.112 l
355.855868 50.886926 l
359.135207 55.523102 l
362.414545 63.796609 l
365.693884 75.316153 l
368.973223 89.55351 l
372.252562 105.883409 l
375.531901 123.628659 l
378.81124 142.106025 l
382.090579 160.668578 l
385.369917 178.741014 l
388.649256 195.845513 l
391.928595 211.616989 l
395.207934 225.807837 l
398.487273 238.283305 l
stroke
grestore
0 setlinecap
[1.5 2.475] 0 setdash
0.173 0.627 0.173 setrgbcolor
gsave
357.1 266.1 57.6 38.02 clipbox
73.832727 292.032 m
77.112066 292.032 l
80.391405 292.032 l
83.670744 292.032 l
86.950083 292.032 l
90.229421 292.032 l
93.50876 292.032 l
96.788099 292.032 l
100.067438 292.032 l
103.346777 292.032 l
106.626116 292.032 l
109.905455 292.032 l
113.184793 292.032 l
116.464132 292.032 l
119.743471 292.032 l
123.02281 292.032 l
126.302149 292.032 l
129.581488 292.032 l
132.860826 292.032 l
136.140165 292.032 l
139.419504 292.032 l
142.698843 292.032 l
145.978182 292.032 l
149.257521 292.032 l
152.53686 292.032 l
155.816198 292.032 l
159.095537 292.032 l
162.374876 292.032 l
165.654215 292.032 l
168.933554 292.032 l
172.212893 292.032 l
175.492231 292.032 l
178.77157 292.032 l
182.050909 292.032 l
185.330248 292.032 l
188.609587 292.032 l
191.888926 292.032 l
195.168264 292.032 l
198.447603 292.032 l
201.726942 292.032 l
205.006281 292.032 l
208.28562 292.032 l
211.564959 292.032 l
214.844298 292.032 l
218.123636 292.032 l
221.402975 292.032 l
224.682314 292.032 l
227.961653 292.032 l
231.240992 292.032 l
234.520331 292.032 l
237.799669 292.032 l
241.079008 292.032 l
244.358347 292.032 l
247.637686 292.032 l
250.917025 292.032 l
254.196364 292.032 l
257.475702 292.032 l
260.755041 292.032 l
264.03438 292.032 l
267.313719 292.032 l
270.593058 292.032 l
273.872397 292.032 l
277.151736 292.032 l
280.431074 292.032 l
283.710413 292.032 l
286.989752 292.032 l
290.269091 292.032 l
293.54843 292.032 l
296.827769 292.032 l
300.107107 292.032 l
303.386446 292.032 l
306.665785 292.032 l
309.945124 292.032 l
313.224463 292.032 l
316.503802 292.032 l
319.78314 292.032 l
323.062479 292.032 l
326.341818 292.032 l
329.621157 292.032 l
332.900496 292.032 l
336.179835 292.032 l
339.459174 292.032 l
342.738512 292.032 l
346.017851 292.032 l
349.29719 292.032 l
352.576529 292.032 l
355.855868 292.032 l
359.135207 292.032 l
362.414545 292.032 l
365.693884 292.032 l
368.973223 292.032 l
372.252562 292.032 l
375.531901 292.032 l
378.81124 292.032 l
382.090579 292.032 l
385.369917 292.032 l
388.649256 292.032 l
391.928595 292.032 l
395.207934 292.032 l
398.487273 292.032 l
stroke
grestore
0.800 setlinewidth
0 setlinejoin
2 setlinecap
[] 0 setdash
0.000 setgray
gsave
57.6 38.016 m
57.6 304.128 l
stroke
grestore
gsave
414.72 38.016 m
414.72 304.128 l
stroke
grestore
gsave
57.6 38.016 m
414.72 38.016 l
stroke
grestore
gsave
57.6 304.128 m
414.72 304.128 l
stroke
grestore
1.000 setlinewidth
0 setlinecap
0.800 setgray
gsave
64.6 43.016 m
160.584375 43.016 l
161.917708 43.016 162.584375 43.682667 162.584375 45.016 c
162.584375 88.031625 l
162.584375 89.364958 161.917708 90.031625 160.584375 90.031625 c
64.6 90.031625 l
63.266667 90.031625 62.6 89.364958 62.6 88.031625 c
62.6 45.016 l
62.6 43.682667 63.266667 43.016 64.6 43.016 c
cl
gsave
1.000 setgray
fill
grestore
stroke
grestore
1.500 setlinewidth
1 setlinejoin
[5.55 2.4] 0 setdash
0.122 0.467 0.706 setrgbcolor
gsave
66.6 81.937875 m
86.6 81.937875 l
stroke
grestore
0.000 setgray
gsave
94.600000 78.437875 translate
0.000000 rotate
0.000000 0.000000 m /u glyphshow
6.337891 0.000000 m /p glyphshow
12.685547 0.000000 m /p glyphshow
19.033203 0.000000 m /e glyphshow
25.185547 0.000000 m /r glyphshow
29.296875 0.000000 m /space glyphshow
32.475586 0.000000 m /b glyphshow
38.823242 0.000000 m /o glyphshow
44.941406 0.000000 m /u glyphshow
51.279297 0.000000 m /n glyphshow
57.617188 0.000000 m /d glyphshow
grestore
2 setlinecap
[] 0 setdash
1.000 0.498 0.055 setrgbcolor
gsave
66.6 67.266 m
86.6 67.266 l
stroke
grestore
0.000 setgray
gsave
94.600000 63.766000 translate
0.000000 rotate
0.000000 0.000000 m /t glyphshow
3.920898 0.000000 m /r glyphshow
8.032227 0.000000 m /u glyphshow
14.370117 0.000000 m /e glyphshow
20.522461 0.000000 m /space glyphshow
23.701172 0.000000 m /s glyphshow
28.911133 0.000000 m /c glyphshow
34.409180 0.000000 m /o glyphshow
40.527344 0.000000 m /r glyphshow
44.638672 0.000000 m /e glyphshow
grestore
0 setlinecap
[1.5 2.475] 0 setdash
0.173 0.627 0.173 setrgbcolor
gsave
66.6 52.594125 m
86.6 52.594125 l
stroke
grestore
0.000 setgray
gsave
94.600000 49.094125 translate
0.000000 rotate
0.000000 0.000000 m /z glyphshow
5.249023 0.000000 m /e glyphshow
11.401367 0.000000 m /r glyphshow
15.512695 0.000000 m /o glyphshow
grestore

end
showpage
