%!PS-Adobe-3.0 EPSF-3.0
%%Title: /home/thaiduong/repo/papers/fastron_mapping_iros2019/ieeeconf/figures/fastron_obsdata_rbfkrnl.eps
%%Creator: matplotlib version 3.0.2, http://matplotlib.org/
%%CreationDate: Fri Mar 29 13:24:09 2019
%%Orientation: portrait
%%BoundingBox: 126 216 486 576
%%EndComments
%%BeginProlog
/mpldict 8 dict def
mpldict begin
/m { moveto } bind def
/l { lineto } bind def
/r { rlineto } bind def
/c { curveto } bind def
/cl { closepath } bind def
/box {
m
1 index 0 r
0 exch r
neg 0 r
cl
} bind def
/clipbox {
box
clip
newpath
} bind def
%!PS-Adobe-3.0 Resource-Font
%%Title: DejaVu Sans
%%Copyright: Copyright (c) 2003 by Bitstream, Inc. All Rights Reserved. Copyright (c) 2006 by Tavmjong Bah. All Rights Reserved. DejaVu changes are in public domain 
%%Creator: Converted from TrueType to type 3 by PPR
25 dict begin
/_d{bind def}bind def
/_m{moveto}_d
/_l{lineto}_d
/_cl{closepath eofill}_d
/_c{curveto}_d
/_sc{7 -1 roll{setcachedevice}{pop pop pop pop pop pop}ifelse}_d
/_e{exec}_d
/FontName /DejaVuSans def
/PaintType 0 def
/FontMatrix[.001 0 0 .001 0 0]def
/FontBBox[-1021 -463 1793 1232]def
/FontType 3 def
/Encoding [ /period /zero /two /four /six /c /d /e /f /i /o /p /r /u /minus ] def
/FontInfo 10 dict dup begin
/FamilyName (DejaVu Sans) def
/FullName (DejaVu Sans) def
/Notice (Copyright (c) 2003 by Bitstream, Inc. All Rights Reserved. Copyright (c) 2006 by Tavmjong Bah. All Rights Reserved. DejaVu changes are in public domain ) def
/Weight (Book) def
/Version (Version 2.35) def
/ItalicAngle 0.0 def
/isFixedPitch false def
/UnderlinePosition -130 def
/UnderlineThickness 90 def
end readonly def
/CharStrings 16 dict dup begin
/.notdef 0 def
/period{318 0 107 0 210 124 _sc
107 124 _m
210 124 _l
210 0 _l
107 0 _l
107 124 _l
_cl}_d
/zero{636 0 66 -13 570 742 _sc
318 664 _m
267 664 229 639 203 589 _c
177 539 165 464 165 364 _c
165 264 177 189 203 139 _c
229 89 267 64 318 64 _c
369 64 407 89 433 139 _c
458 189 471 264 471 364 _c
471 464 458 539 433 589 _c
407 639 369 664 318 664 _c
318 742 _m
399 742 461 709 505 645 _c
548 580 570 486 570 364 _c
570 241 548 147 505 83 _c
461 19 399 -13 318 -13 _c
236 -13 173 19 130 83 _c
87 147 66 241 66 364 _c
66 486 87 580 130 645 _c
173 709 236 742 318 742 _c
_cl}_d
/two{{636 0 73 0 536 742 _sc
192 83 _m
536 83 _l
536 0 _l
73 0 _l
73 83 _l
110 121 161 173 226 239 _c
290 304 331 346 348 365 _c
380 400 402 430 414 455 _c
426 479 433 504 433 528 _c
433 566 419 598 392 622 _c
365 646 330 659 286 659 _c
255 659 222 653 188 643 _c
154 632 117 616 78 594 _c
78 694 _l
118 710 155 722 189 730 _c
223 738 255 742 284 742 _c
}_e{359 742 419 723 464 685 _c
509 647 532 597 532 534 _c
532 504 526 475 515 449 _c
504 422 484 390 454 354 _c
446 344 420 317 376 272 _c
332 227 271 164 192 83 _c
_cl}_e}_d
/four{636 0 49 0 580 729 _sc
378 643 _m
129 254 _l
378 254 _l
378 643 _l
352 729 _m
476 729 _l
476 254 _l
580 254 _l
580 172 _l
476 172 _l
476 0 _l
378 0 _l
378 172 _l
49 172 _l
49 267 _l
352 729 _l
_cl}_d
/six{{636 0 70 -13 573 742 _sc
330 404 _m
286 404 251 388 225 358 _c
199 328 186 286 186 234 _c
186 181 199 139 225 109 _c
251 79 286 64 330 64 _c
374 64 409 79 435 109 _c
461 139 474 181 474 234 _c
474 286 461 328 435 358 _c
409 388 374 404 330 404 _c
526 713 _m
526 623 _l
501 635 476 644 451 650 _c
425 656 400 659 376 659 _c
310 659 260 637 226 593 _c
}_e{192 549 172 482 168 394 _c
187 422 211 444 240 459 _c
269 474 301 482 336 482 _c
409 482 467 459 509 415 _c
551 371 573 310 573 234 _c
573 159 550 99 506 54 _c
462 9 403 -13 330 -13 _c
246 -13 181 19 137 83 _c
92 147 70 241 70 364 _c
70 479 97 571 152 639 _c
206 707 280 742 372 742 _c
396 742 421 739 447 735 _c
472 730 498 723 526 713 _c
_cl}_e}_d
/c{{550 0 55 -13 488 560 _sc
488 526 _m
488 442 _l
462 456 437 466 411 473 _c
385 480 360 484 334 484 _c
276 484 230 465 198 428 _c
166 391 150 339 150 273 _c
150 206 166 154 198 117 _c
230 80 276 62 334 62 _c
360 62 385 65 411 72 _c
437 79 462 90 488 104 _c
488 21 _l
462 9 436 0 410 -5 _c
383 -10 354 -13 324 -13 _c
242 -13 176 12 128 64 _c
}_e{79 115 55 185 55 273 _c
55 362 79 432 128 483 _c
177 534 244 560 330 560 _c
358 560 385 557 411 551 _c
437 545 463 537 488 526 _c
_cl}_e}_d
/d{{635 0 55 -13 544 760 _sc
454 464 _m
454 760 _l
544 760 _l
544 0 _l
454 0 _l
454 82 _l
435 49 411 25 382 10 _c
353 -5 319 -13 279 -13 _c
213 -13 159 13 117 65 _c
75 117 55 187 55 273 _c
55 359 75 428 117 481 _c
159 533 213 560 279 560 _c
319 560 353 552 382 536 _c
411 520 435 496 454 464 _c
148 273 _m
148 207 161 155 188 117 _c
215 79 253 61 301 61 _c
}_e{348 61 385 79 413 117 _c
440 155 454 207 454 273 _c
454 339 440 390 413 428 _c
385 466 348 485 301 485 _c
253 485 215 466 188 428 _c
161 390 148 339 148 273 _c
_cl}_e}_d
/e{{615 0 55 -13 562 560 _sc
562 296 _m
562 252 _l
149 252 _l
153 190 171 142 205 110 _c
238 78 284 62 344 62 _c
378 62 412 66 444 74 _c
476 82 509 95 541 113 _c
541 28 _l
509 14 476 3 442 -3 _c
408 -9 373 -13 339 -13 _c
251 -13 182 12 131 62 _c
80 112 55 181 55 268 _c
55 357 79 428 127 481 _c
175 533 241 560 323 560 _c
397 560 455 536 498 489 _c
}_e{540 441 562 377 562 296 _c
472 322 _m
471 371 457 410 431 440 _c
404 469 368 484 324 484 _c
274 484 234 469 204 441 _c
174 413 156 373 152 322 _c
472 322 _l
_cl}_e}_d
/f{352 0 23 0 371 760 _sc
371 760 _m
371 685 _l
285 685 _l
253 685 230 678 218 665 _c
205 652 199 629 199 595 _c
199 547 _l
347 547 _l
347 477 _l
199 477 _l
199 0 _l
109 0 _l
109 477 _l
23 477 _l
23 547 _l
109 547 _l
109 585 _l
109 645 123 690 151 718 _c
179 746 224 760 286 760 _c
371 760 _l
_cl}_d
/i{278 0 94 0 184 760 _sc
94 547 _m
184 547 _l
184 0 _l
94 0 _l
94 547 _l
94 760 _m
184 760 _l
184 646 _l
94 646 _l
94 760 _l
_cl}_d
/o{612 0 55 -13 557 560 _sc
306 484 _m
258 484 220 465 192 427 _c
164 389 150 338 150 273 _c
150 207 163 156 191 118 _c
219 80 257 62 306 62 _c
354 62 392 80 420 118 _c
448 156 462 207 462 273 _c
462 337 448 389 420 427 _c
392 465 354 484 306 484 _c
306 560 _m
384 560 445 534 490 484 _c
534 433 557 363 557 273 _c
557 183 534 113 490 63 _c
445 12 384 -13 306 -13 _c
227 -13 165 12 121 63 _c
77 113 55 183 55 273 _c
55 363 77 433 121 484 _c
165 534 227 560 306 560 _c
_cl}_d
/p{{635 0 91 -207 580 560 _sc
181 82 _m
181 -207 _l
91 -207 _l
91 547 _l
181 547 _l
181 464 _l
199 496 223 520 252 536 _c
281 552 316 560 356 560 _c
422 560 476 533 518 481 _c
559 428 580 359 580 273 _c
580 187 559 117 518 65 _c
476 13 422 -13 356 -13 _c
316 -13 281 -5 252 10 _c
223 25 199 49 181 82 _c
487 273 _m
487 339 473 390 446 428 _c
418 466 381 485 334 485 _c
}_e{286 485 249 466 222 428 _c
194 390 181 339 181 273 _c
181 207 194 155 222 117 _c
249 79 286 61 334 61 _c
381 61 418 79 446 117 _c
473 155 487 207 487 273 _c
_cl}_e}_d
/r{411 0 91 0 411 560 _sc
411 463 _m
401 469 390 473 378 476 _c
366 478 353 480 339 480 _c
288 480 249 463 222 430 _c
194 397 181 350 181 288 _c
181 0 _l
91 0 _l
91 547 _l
181 547 _l
181 462 _l
199 495 224 520 254 536 _c
284 552 321 560 365 560 _c
371 560 378 559 386 559 _c
393 558 401 557 411 555 _c
411 463 _l
_cl}_d
/u{634 0 85 -13 543 560 _sc
85 216 _m
85 547 _l
175 547 _l
175 219 _l
175 167 185 129 205 103 _c
225 77 255 64 296 64 _c
344 64 383 79 411 110 _c
439 141 453 183 453 237 _c
453 547 _l
543 547 _l
543 0 _l
453 0 _l
453 84 _l
431 50 405 26 377 10 _c
348 -5 315 -13 277 -13 _c
214 -13 166 6 134 45 _c
101 83 85 140 85 216 _c
311 560 _m
311 560 _l
_cl}_d
/minus{838 0 106 272 732 355 _sc
106 355 _m
732 355 _l
732 272 _l
106 272 _l
106 355 _l
_cl}_d
end readonly def

/BuildGlyph
 {exch begin
 CharStrings exch
 2 copy known not{pop /.notdef}if
 true 3 1 roll get exec
 end}_d

/BuildChar {
 1 index /Encoding get exch get
 1 index /BuildGlyph get exec
}_d

FontName currentdict end definefont pop
end
%%EndProlog
mpldict begin
126 216 translate
360 360 0 0 clipbox
gsave
0 0 m
360 0 l
360 360 l
0 360 l
cl
1.000 setgray
fill
grestore
gsave
45 39.6 m
324 39.6 l
324 316.8 l
45 316.8 l
cl
1.000 setgray
fill
grestore
1.000 setlinewidth
1 setlinejoin
0 setlinecap
[] 0 setdash
0.000 0.000 1.000 setrgbcolor
gsave
279 277.2 45 39.6 clipbox
59.271605 53.790973 m
59.271605 53.790973 59.271605 53.790973 59.271605 53.790973 c
59.271605 53.790973 59.271605 53.790973 59.271605 53.790973 c
59.271605 53.790973 59.271605 53.790973 59.271605 53.790973 c
59.271605 53.790973 59.271605 53.790973 59.271605 53.790973 c
59.271605 53.790973 59.271605 53.790973 59.271605 53.790973 c
59.271605 53.790973 59.271605 53.790973 59.271605 53.790973 c
59.271605 53.790973 59.271605 53.790973 59.271605 53.790973 c
59.271605 53.790973 59.271605 53.790973 59.271605 53.790973 c
cl
gsave
fill
grestore
stroke
grestore
gsave
279 277.2 45 39.6 clipbox
87.100137 53.790973 m
87.100137 53.790973 87.100137 53.790973 87.100137 53.790973 c
87.100137 53.790973 87.100137 53.790973 87.100137 53.790973 c
87.100137 53.790973 87.100137 53.790973 87.100137 53.790973 c
87.100137 53.790973 87.100137 53.790973 87.100137 53.790973 c
87.100137 53.790973 87.100137 53.790973 87.100137 53.790973 c
87.100137 53.790973 87.100137 53.790973 87.100137 53.790973 c
87.100137 53.790973 87.100137 53.790973 87.100137 53.790973 c
87.100137 53.790973 87.100137 53.790973 87.100137 53.790973 c
cl
gsave
fill
grestore
stroke
grestore
gsave
279 277.2 45 39.6 clipbox
114.928669 53.790973 m
114.928669 53.790973 114.928669 53.790973 114.928669 53.790973 c
114.928669 53.790973 114.928669 53.790973 114.928669 53.790973 c
114.928669 53.790973 114.928669 53.790973 114.928669 53.790973 c
114.928669 53.790973 114.928669 53.790973 114.928669 53.790973 c
114.928669 53.790973 114.928669 53.790973 114.928669 53.790973 c
114.928669 53.790973 114.928669 53.790973 114.928669 53.790973 c
114.928669 53.790973 114.928669 53.790973 114.928669 53.790973 c
114.928669 53.790973 114.928669 53.790973 114.928669 53.790973 c
cl
gsave
fill
grestore
stroke
grestore
gsave
279 277.2 45 39.6 clipbox
142.757202 53.790973 m
142.757202 53.790973 142.757202 53.790973 142.757202 53.790973 c
142.757202 53.790973 142.757202 53.790973 142.757202 53.790973 c
142.757202 53.790973 142.757202 53.790973 142.757202 53.790973 c
142.757202 53.790973 142.757202 53.790973 142.757202 53.790973 c
142.757202 53.790973 142.757202 53.790973 142.757202 53.790973 c
142.757202 53.790973 142.757202 53.790973 142.757202 53.790973 c
142.757202 53.790973 142.757202 53.790973 142.757202 53.790973 c
142.757202 53.790973 142.757202 53.790973 142.757202 53.790973 c
cl
gsave
fill
grestore
stroke
grestore
gsave
279 277.2 45 39.6 clipbox
170.585734 53.790973 m
170.585734 53.790973 170.585734 53.790973 170.585734 53.790973 c
170.585734 53.790973 170.585734 53.790973 170.585734 53.790973 c
170.585734 53.790973 170.585734 53.790973 170.585734 53.790973 c
170.585734 53.790973 170.585734 53.790973 170.585734 53.790973 c
170.585734 53.790973 170.585734 53.790973 170.585734 53.790973 c
170.585734 53.790973 170.585734 53.790973 170.585734 53.790973 c
170.585734 53.790973 170.585734 53.790973 170.585734 53.790973 c
170.585734 53.790973 170.585734 53.790973 170.585734 53.790973 c
cl
gsave
fill
grestore
stroke
grestore
gsave
279 277.2 45 39.6 clipbox
198.414266 53.790973 m
198.414266 53.790973 198.414266 53.790973 198.414266 53.790973 c
198.414266 53.790973 198.414266 53.790973 198.414266 53.790973 c
198.414266 53.790973 198.414266 53.790973 198.414266 53.790973 c
198.414266 53.790973 198.414266 53.790973 198.414266 53.790973 c
198.414266 53.790973 198.414266 53.790973 198.414266 53.790973 c
198.414266 53.790973 198.414266 53.790973 198.414266 53.790973 c
198.414266 53.790973 198.414266 53.790973 198.414266 53.790973 c
198.414266 53.790973 198.414266 53.790973 198.414266 53.790973 c
cl
gsave
fill
grestore
stroke
grestore
gsave
279 277.2 45 39.6 clipbox
226.242798 53.790973 m
226.242798 53.790973 226.242798 53.790973 226.242798 53.790973 c
226.242798 53.790973 226.242798 53.790973 226.242798 53.790973 c
226.242798 53.790973 226.242798 53.790973 226.242798 53.790973 c
226.242798 53.790973 226.242798 53.790973 226.242798 53.790973 c
226.242798 53.790973 226.242798 53.790973 226.242798 53.790973 c
226.242798 53.790973 226.242798 53.790973 226.242798 53.790973 c
226.242798 53.790973 226.242798 53.790973 226.242798 53.790973 c
226.242798 53.790973 226.242798 53.790973 226.242798 53.790973 c
cl
gsave
fill
grestore
stroke
grestore
gsave
279 277.2 45 39.6 clipbox
254.071331 53.790973 m
254.071331 53.790973 254.071331 53.790973 254.071331 53.790973 c
254.071331 53.790973 254.071331 53.790973 254.071331 53.790973 c
254.071331 53.790973 254.071331 53.790973 254.071331 53.790973 c
254.071331 53.790973 254.071331 53.790973 254.071331 53.790973 c
254.071331 53.790973 254.071331 53.790973 254.071331 53.790973 c
254.071331 53.790973 254.071331 53.790973 254.071331 53.790973 c
254.071331 53.790973 254.071331 53.790973 254.071331 53.790973 c
254.071331 53.790973 254.071331 53.790973 254.071331 53.790973 c
cl
gsave
fill
grestore
stroke
grestore
gsave
279 277.2 45 39.6 clipbox
281.899863 53.790973 m
281.899863 53.790973 281.899863 53.790973 281.899863 53.790973 c
281.899863 53.790973 281.899863 53.790973 281.899863 53.790973 c
281.899863 53.790973 281.899863 53.790973 281.899863 53.790973 c
281.899863 53.790973 281.899863 53.790973 281.899863 53.790973 c
281.899863 53.790973 281.899863 53.790973 281.899863 53.790973 c
281.899863 53.790973 281.899863 53.790973 281.899863 53.790973 c
281.899863 53.790973 281.899863 53.790973 281.899863 53.790973 c
281.899863 53.790973 281.899863 53.790973 281.899863 53.790973 c
cl
gsave
fill
grestore
stroke
grestore
gsave
279 277.2 45 39.6 clipbox
309.728395 53.790973 m
309.728395 53.790973 309.728395 53.790973 309.728395 53.790973 c
309.728395 53.790973 309.728395 53.790973 309.728395 53.790973 c
309.728395 53.790973 309.728395 53.790973 309.728395 53.790973 c
309.728395 53.790973 309.728395 53.790973 309.728395 53.790973 c
309.728395 53.790973 309.728395 53.790973 309.728395 53.790973 c
309.728395 53.790973 309.728395 53.790973 309.728395 53.790973 c
309.728395 53.790973 309.728395 53.790973 309.728395 53.790973 c
309.728395 53.790973 309.728395 53.790973 309.728395 53.790973 c
cl
gsave
fill
grestore
stroke
grestore
gsave
279 277.2 45 39.6 clipbox
59.271605 81.437423 m
59.271605 81.437423 59.271605 81.437423 59.271605 81.437423 c
59.271605 81.437423 59.271605 81.437423 59.271605 81.437423 c
59.271605 81.437423 59.271605 81.437423 59.271605 81.437423 c
59.271605 81.437423 59.271605 81.437423 59.271605 81.437423 c
59.271605 81.437423 59.271605 81.437423 59.271605 81.437423 c
59.271605 81.437423 59.271605 81.437423 59.271605 81.437423 c
59.271605 81.437423 59.271605 81.437423 59.271605 81.437423 c
59.271605 81.437423 59.271605 81.437423 59.271605 81.437423 c
cl
gsave
fill
grestore
stroke
grestore
gsave
279 277.2 45 39.6 clipbox
87.100137 81.437423 m
87.100137 81.437423 87.100137 81.437423 87.100137 81.437423 c
87.100137 81.437423 87.100137 81.437423 87.100137 81.437423 c
87.100137 81.437423 87.100137 81.437423 87.100137 81.437423 c
87.100137 81.437423 87.100137 81.437423 87.100137 81.437423 c
87.100137 81.437423 87.100137 81.437423 87.100137 81.437423 c
87.100137 81.437423 87.100137 81.437423 87.100137 81.437423 c
87.100137 81.437423 87.100137 81.437423 87.100137 81.437423 c
87.100137 81.437423 87.100137 81.437423 87.100137 81.437423 c
cl
gsave
fill
grestore
stroke
grestore
gsave
279 277.2 45 39.6 clipbox
114.928669 81.437423 m
114.928669 81.437423 114.928669 81.437423 114.928669 81.437423 c
114.928669 81.437423 114.928669 81.437423 114.928669 81.437423 c
114.928669 81.437423 114.928669 81.437423 114.928669 81.437423 c
114.928669 81.437423 114.928669 81.437423 114.928669 81.437423 c
114.928669 81.437423 114.928669 81.437423 114.928669 81.437423 c
114.928669 81.437423 114.928669 81.437423 114.928669 81.437423 c
114.928669 81.437423 114.928669 81.437423 114.928669 81.437423 c
114.928669 81.437423 114.928669 81.437423 114.928669 81.437423 c
cl
gsave
fill
grestore
stroke
grestore
gsave
279 277.2 45 39.6 clipbox
142.757202 81.437423 m
142.757202 81.437423 142.757202 81.437423 142.757202 81.437423 c
142.757202 81.437423 142.757202 81.437423 142.757202 81.437423 c
142.757202 81.437423 142.757202 81.437423 142.757202 81.437423 c
142.757202 81.437423 142.757202 81.437423 142.757202 81.437423 c
142.757202 81.437423 142.757202 81.437423 142.757202 81.437423 c
142.757202 81.437423 142.757202 81.437423 142.757202 81.437423 c
142.757202 81.437423 142.757202 81.437423 142.757202 81.437423 c
142.757202 81.437423 142.757202 81.437423 142.757202 81.437423 c
cl
gsave
fill
grestore
stroke
grestore
gsave
279 277.2 45 39.6 clipbox
170.585734 81.437423 m
170.585734 81.437423 170.585734 81.437423 170.585734 81.437423 c
170.585734 81.437423 170.585734 81.437423 170.585734 81.437423 c
170.585734 81.437423 170.585734 81.437423 170.585734 81.437423 c
170.585734 81.437423 170.585734 81.437423 170.585734 81.437423 c
170.585734 81.437423 170.585734 81.437423 170.585734 81.437423 c
170.585734 81.437423 170.585734 81.437423 170.585734 81.437423 c
170.585734 81.437423 170.585734 81.437423 170.585734 81.437423 c
170.585734 81.437423 170.585734 81.437423 170.585734 81.437423 c
cl
gsave
fill
grestore
stroke
grestore
gsave
279 277.2 45 39.6 clipbox
198.414266 81.437423 m
198.414266 81.437423 198.414266 81.437423 198.414266 81.437423 c
198.414266 81.437423 198.414266 81.437423 198.414266 81.437423 c
198.414266 81.437423 198.414266 81.437423 198.414266 81.437423 c
198.414266 81.437423 198.414266 81.437423 198.414266 81.437423 c
198.414266 81.437423 198.414266 81.437423 198.414266 81.437423 c
198.414266 81.437423 198.414266 81.437423 198.414266 81.437423 c
198.414266 81.437423 198.414266 81.437423 198.414266 81.437423 c
198.414266 81.437423 198.414266 81.437423 198.414266 81.437423 c
cl
gsave
fill
grestore
stroke
grestore
gsave
279 277.2 45 39.6 clipbox
226.242798 81.437423 m
226.242798 81.437423 226.242798 81.437423 226.242798 81.437423 c
226.242798 81.437423 226.242798 81.437423 226.242798 81.437423 c
226.242798 81.437423 226.242798 81.437423 226.242798 81.437423 c
226.242798 81.437423 226.242798 81.437423 226.242798 81.437423 c
226.242798 81.437423 226.242798 81.437423 226.242798 81.437423 c
226.242798 81.437423 226.242798 81.437423 226.242798 81.437423 c
226.242798 81.437423 226.242798 81.437423 226.242798 81.437423 c
226.242798 81.437423 226.242798 81.437423 226.242798 81.437423 c
cl
gsave
fill
grestore
stroke
grestore
gsave
279 277.2 45 39.6 clipbox
254.071331 81.437423 m
254.071331 81.437423 254.071331 81.437423 254.071331 81.437423 c
254.071331 81.437423 254.071331 81.437423 254.071331 81.437423 c
254.071331 81.437423 254.071331 81.437423 254.071331 81.437423 c
254.071331 81.437423 254.071331 81.437423 254.071331 81.437423 c
254.071331 81.437423 254.071331 81.437423 254.071331 81.437423 c
254.071331 81.437423 254.071331 81.437423 254.071331 81.437423 c
254.071331 81.437423 254.071331 81.437423 254.071331 81.437423 c
254.071331 81.437423 254.071331 81.437423 254.071331 81.437423 c
cl
gsave
fill
grestore
stroke
grestore
gsave
279 277.2 45 39.6 clipbox
281.899863 81.437423 m
281.899863 81.437423 281.899863 81.437423 281.899863 81.437423 c
281.899863 81.437423 281.899863 81.437423 281.899863 81.437423 c
281.899863 81.437423 281.899863 81.437423 281.899863 81.437423 c
281.899863 81.437423 281.899863 81.437423 281.899863 81.437423 c
281.899863 81.437423 281.899863 81.437423 281.899863 81.437423 c
281.899863 81.437423 281.899863 81.437423 281.899863 81.437423 c
281.899863 81.437423 281.899863 81.437423 281.899863 81.437423 c
281.899863 81.437423 281.899863 81.437423 281.899863 81.437423 c
cl
gsave
fill
grestore
stroke
grestore
gsave
279 277.2 45 39.6 clipbox
309.728395 81.437423 m
309.728395 81.437423 309.728395 81.437423 309.728395 81.437423 c
309.728395 81.437423 309.728395 81.437423 309.728395 81.437423 c
309.728395 81.437423 309.728395 81.437423 309.728395 81.437423 c
309.728395 81.437423 309.728395 81.437423 309.728395 81.437423 c
309.728395 81.437423 309.728395 81.437423 309.728395 81.437423 c
309.728395 81.437423 309.728395 81.437423 309.728395 81.437423 c
309.728395 81.437423 309.728395 81.437423 309.728395 81.437423 c
309.728395 81.437423 309.728395 81.437423 309.728395 81.437423 c
cl
gsave
fill
grestore
stroke
grestore
gsave
279 277.2 45 39.6 clipbox
59.271605 109.083874 m
59.271605 109.083874 59.271605 109.083874 59.271605 109.083874 c
59.271605 109.083874 59.271605 109.083874 59.271605 109.083874 c
59.271605 109.083874 59.271605 109.083874 59.271605 109.083874 c
59.271605 109.083874 59.271605 109.083874 59.271605 109.083874 c
59.271605 109.083874 59.271605 109.083874 59.271605 109.083874 c
59.271605 109.083874 59.271605 109.083874 59.271605 109.083874 c
59.271605 109.083874 59.271605 109.083874 59.271605 109.083874 c
59.271605 109.083874 59.271605 109.083874 59.271605 109.083874 c
cl
gsave
fill
grestore
stroke
grestore
gsave
279 277.2 45 39.6 clipbox
87.100137 109.083874 m
87.100137 109.083874 87.100137 109.083874 87.100137 109.083874 c
87.100137 109.083874 87.100137 109.083874 87.100137 109.083874 c
87.100137 109.083874 87.100137 109.083874 87.100137 109.083874 c
87.100137 109.083874 87.100137 109.083874 87.100137 109.083874 c
87.100137 109.083874 87.100137 109.083874 87.100137 109.083874 c
87.100137 109.083874 87.100137 109.083874 87.100137 109.083874 c
87.100137 109.083874 87.100137 109.083874 87.100137 109.083874 c
87.100137 109.083874 87.100137 109.083874 87.100137 109.083874 c
cl
gsave
fill
grestore
stroke
grestore
gsave
279 277.2 45 39.6 clipbox
114.928669 105.21089 m
115.955796 105.21089 116.940993 105.618972 117.667282 106.345261 c
118.393571 107.07155 118.801653 108.056747 118.801653 109.083874 c
118.801653 110.111001 118.393571 111.096198 117.667282 111.822487 c
116.940993 112.548775 115.955796 112.956857 114.928669 112.956857 c
113.901542 112.956857 112.916345 112.548775 112.190056 111.822487 c
111.463768 111.096198 111.055686 110.111001 111.055686 109.083874 c
111.055686 108.056747 111.463768 107.07155 112.190056 106.345261 c
112.916345 105.618972 113.901542 105.21089 114.928669 105.21089 c
cl
gsave
fill
grestore
stroke
grestore
gsave
279 277.2 45 39.6 clipbox
142.757202 109.083874 m
142.757202 109.083874 142.757202 109.083874 142.757202 109.083874 c
142.757202 109.083874 142.757202 109.083874 142.757202 109.083874 c
142.757202 109.083874 142.757202 109.083874 142.757202 109.083874 c
142.757202 109.083874 142.757202 109.083874 142.757202 109.083874 c
142.757202 109.083874 142.757202 109.083874 142.757202 109.083874 c
142.757202 109.083874 142.757202 109.083874 142.757202 109.083874 c
142.757202 109.083874 142.757202 109.083874 142.757202 109.083874 c
142.757202 109.083874 142.757202 109.083874 142.757202 109.083874 c
cl
gsave
fill
grestore
stroke
grestore
gsave
279 277.2 45 39.6 clipbox
170.585734 109.083874 m
170.585734 109.083874 170.585734 109.083874 170.585734 109.083874 c
170.585734 109.083874 170.585734 109.083874 170.585734 109.083874 c
170.585734 109.083874 170.585734 109.083874 170.585734 109.083874 c
170.585734 109.083874 170.585734 109.083874 170.585734 109.083874 c
170.585734 109.083874 170.585734 109.083874 170.585734 109.083874 c
170.585734 109.083874 170.585734 109.083874 170.585734 109.083874 c
170.585734 109.083874 170.585734 109.083874 170.585734 109.083874 c
170.585734 109.083874 170.585734 109.083874 170.585734 109.083874 c
cl
gsave
fill
grestore
stroke
grestore
gsave
279 277.2 45 39.6 clipbox
198.414266 109.083874 m
198.414266 109.083874 198.414266 109.083874 198.414266 109.083874 c
198.414266 109.083874 198.414266 109.083874 198.414266 109.083874 c
198.414266 109.083874 198.414266 109.083874 198.414266 109.083874 c
198.414266 109.083874 198.414266 109.083874 198.414266 109.083874 c
198.414266 109.083874 198.414266 109.083874 198.414266 109.083874 c
198.414266 109.083874 198.414266 109.083874 198.414266 109.083874 c
198.414266 109.083874 198.414266 109.083874 198.414266 109.083874 c
198.414266 109.083874 198.414266 109.083874 198.414266 109.083874 c
cl
gsave
fill
grestore
stroke
grestore
gsave
279 277.2 45 39.6 clipbox
226.242798 109.083874 m
226.242798 109.083874 226.242798 109.083874 226.242798 109.083874 c
226.242798 109.083874 226.242798 109.083874 226.242798 109.083874 c
226.242798 109.083874 226.242798 109.083874 226.242798 109.083874 c
226.242798 109.083874 226.242798 109.083874 226.242798 109.083874 c
226.242798 109.083874 226.242798 109.083874 226.242798 109.083874 c
226.242798 109.083874 226.242798 109.083874 226.242798 109.083874 c
226.242798 109.083874 226.242798 109.083874 226.242798 109.083874 c
226.242798 109.083874 226.242798 109.083874 226.242798 109.083874 c
cl
gsave
fill
grestore
stroke
grestore
gsave
279 277.2 45 39.6 clipbox
254.071331 109.083874 m
254.071331 109.083874 254.071331 109.083874 254.071331 109.083874 c
254.071331 109.083874 254.071331 109.083874 254.071331 109.083874 c
254.071331 109.083874 254.071331 109.083874 254.071331 109.083874 c
254.071331 109.083874 254.071331 109.083874 254.071331 109.083874 c
254.071331 109.083874 254.071331 109.083874 254.071331 109.083874 c
254.071331 109.083874 254.071331 109.083874 254.071331 109.083874 c
254.071331 109.083874 254.071331 109.083874 254.071331 109.083874 c
254.071331 109.083874 254.071331 109.083874 254.071331 109.083874 c
cl
gsave
fill
grestore
stroke
grestore
gsave
279 277.2 45 39.6 clipbox
281.899863 109.083874 m
281.899863 109.083874 281.899863 109.083874 281.899863 109.083874 c
281.899863 109.083874 281.899863 109.083874 281.899863 109.083874 c
281.899863 109.083874 281.899863 109.083874 281.899863 109.083874 c
281.899863 109.083874 281.899863 109.083874 281.899863 109.083874 c
281.899863 109.083874 281.899863 109.083874 281.899863 109.083874 c
281.899863 109.083874 281.899863 109.083874 281.899863 109.083874 c
281.899863 109.083874 281.899863 109.083874 281.899863 109.083874 c
281.899863 109.083874 281.899863 109.083874 281.899863 109.083874 c
cl
gsave
fill
grestore
stroke
grestore
gsave
279 277.2 45 39.6 clipbox
309.728395 109.083874 m
309.728395 109.083874 309.728395 109.083874 309.728395 109.083874 c
309.728395 109.083874 309.728395 109.083874 309.728395 109.083874 c
309.728395 109.083874 309.728395 109.083874 309.728395 109.083874 c
309.728395 109.083874 309.728395 109.083874 309.728395 109.083874 c
309.728395 109.083874 309.728395 109.083874 309.728395 109.083874 c
309.728395 109.083874 309.728395 109.083874 309.728395 109.083874 c
309.728395 109.083874 309.728395 109.083874 309.728395 109.083874 c
309.728395 109.083874 309.728395 109.083874 309.728395 109.083874 c
cl
gsave
fill
grestore
stroke
grestore
gsave
279 277.2 45 39.6 clipbox
59.271605 136.730324 m
59.271605 136.730324 59.271605 136.730324 59.271605 136.730324 c
59.271605 136.730324 59.271605 136.730324 59.271605 136.730324 c
59.271605 136.730324 59.271605 136.730324 59.271605 136.730324 c
59.271605 136.730324 59.271605 136.730324 59.271605 136.730324 c
59.271605 136.730324 59.271605 136.730324 59.271605 136.730324 c
59.271605 136.730324 59.271605 136.730324 59.271605 136.730324 c
59.271605 136.730324 59.271605 136.730324 59.271605 136.730324 c
59.271605 136.730324 59.271605 136.730324 59.271605 136.730324 c
cl
gsave
fill
grestore
stroke
grestore
gsave
279 277.2 45 39.6 clipbox
87.100137 132.857341 m
88.127264 132.857341 89.112461 133.265423 89.83875 133.991711 c
90.565038 134.718 90.97312 135.703197 90.97312 136.730324 c
90.97312 137.757451 90.565038 138.742648 89.83875 139.468937 c
89.112461 140.195226 88.127264 140.603308 87.100137 140.603308 c
86.07301 140.603308 85.087813 140.195226 84.361524 139.468937 c
83.635236 138.742648 83.227154 137.757451 83.227154 136.730324 c
83.227154 135.703197 83.635236 134.718 84.361524 133.991711 c
85.087813 133.265423 86.07301 132.857341 87.100137 132.857341 c
cl
gsave
fill
grestore
stroke
grestore
gsave
279 277.2 45 39.6 clipbox
114.928669 132.857341 m
115.955796 132.857341 116.940993 133.265423 117.667282 133.991711 c
118.393571 134.718 118.801653 135.703197 118.801653 136.730324 c
118.801653 137.757451 118.393571 138.742648 117.667282 139.468937 c
116.940993 140.195226 115.955796 140.603308 114.928669 140.603308 c
113.901542 140.603308 112.916345 140.195226 112.190056 139.468937 c
111.463768 138.742648 111.055686 137.757451 111.055686 136.730324 c
111.055686 135.703197 111.463768 134.718 112.190056 133.991711 c
112.916345 133.265423 113.901542 132.857341 114.928669 132.857341 c
cl
gsave
fill
grestore
stroke
grestore
gsave
279 277.2 45 39.6 clipbox
142.757202 132.857341 m
143.784329 132.857341 144.769526 133.265423 145.495814 133.991711 c
146.222103 134.718 146.630185 135.703197 146.630185 136.730324 c
146.630185 137.757451 146.222103 138.742648 145.495814 139.468937 c
144.769526 140.195226 143.784329 140.603308 142.757202 140.603308 c
141.730074 140.603308 140.744877 140.195226 140.018589 139.468937 c
139.2923 138.742648 138.884218 137.757451 138.884218 136.730324 c
138.884218 135.703197 139.2923 134.718 140.018589 133.991711 c
140.744877 133.265423 141.730074 132.857341 142.757202 132.857341 c
cl
gsave
fill
grestore
stroke
grestore
gsave
279 277.2 45 39.6 clipbox
170.585734 136.730324 m
170.585734 136.730324 170.585734 136.730324 170.585734 136.730324 c
170.585734 136.730324 170.585734 136.730324 170.585734 136.730324 c
170.585734 136.730324 170.585734 136.730324 170.585734 136.730324 c
170.585734 136.730324 170.585734 136.730324 170.585734 136.730324 c
170.585734 136.730324 170.585734 136.730324 170.585734 136.730324 c
170.585734 136.730324 170.585734 136.730324 170.585734 136.730324 c
170.585734 136.730324 170.585734 136.730324 170.585734 136.730324 c
170.585734 136.730324 170.585734 136.730324 170.585734 136.730324 c
cl
gsave
fill
grestore
stroke
grestore
gsave
279 277.2 45 39.6 clipbox
198.414266 136.730324 m
198.414266 136.730324 198.414266 136.730324 198.414266 136.730324 c
198.414266 136.730324 198.414266 136.730324 198.414266 136.730324 c
198.414266 136.730324 198.414266 136.730324 198.414266 136.730324 c
198.414266 136.730324 198.414266 136.730324 198.414266 136.730324 c
198.414266 136.730324 198.414266 136.730324 198.414266 136.730324 c
198.414266 136.730324 198.414266 136.730324 198.414266 136.730324 c
198.414266 136.730324 198.414266 136.730324 198.414266 136.730324 c
198.414266 136.730324 198.414266 136.730324 198.414266 136.730324 c
cl
gsave
fill
grestore
stroke
grestore
gsave
279 277.2 45 39.6 clipbox
226.242798 136.730324 m
226.242798 136.730324 226.242798 136.730324 226.242798 136.730324 c
226.242798 136.730324 226.242798 136.730324 226.242798 136.730324 c
226.242798 136.730324 226.242798 136.730324 226.242798 136.730324 c
226.242798 136.730324 226.242798 136.730324 226.242798 136.730324 c
226.242798 136.730324 226.242798 136.730324 226.242798 136.730324 c
226.242798 136.730324 226.242798 136.730324 226.242798 136.730324 c
226.242798 136.730324 226.242798 136.730324 226.242798 136.730324 c
226.242798 136.730324 226.242798 136.730324 226.242798 136.730324 c
cl
gsave
fill
grestore
stroke
grestore
gsave
279 277.2 45 39.6 clipbox
254.071331 136.730324 m
254.071331 136.730324 254.071331 136.730324 254.071331 136.730324 c
254.071331 136.730324 254.071331 136.730324 254.071331 136.730324 c
254.071331 136.730324 254.071331 136.730324 254.071331 136.730324 c
254.071331 136.730324 254.071331 136.730324 254.071331 136.730324 c
254.071331 136.730324 254.071331 136.730324 254.071331 136.730324 c
254.071331 136.730324 254.071331 136.730324 254.071331 136.730324 c
254.071331 136.730324 254.071331 136.730324 254.071331 136.730324 c
254.071331 136.730324 254.071331 136.730324 254.071331 136.730324 c
cl
gsave
fill
grestore
stroke
grestore
gsave
279 277.2 45 39.6 clipbox
281.899863 136.730324 m
281.899863 136.730324 281.899863 136.730324 281.899863 136.730324 c
281.899863 136.730324 281.899863 136.730324 281.899863 136.730324 c
281.899863 136.730324 281.899863 136.730324 281.899863 136.730324 c
281.899863 136.730324 281.899863 136.730324 281.899863 136.730324 c
281.899863 136.730324 281.899863 136.730324 281.899863 136.730324 c
281.899863 136.730324 281.899863 136.730324 281.899863 136.730324 c
281.899863 136.730324 281.899863 136.730324 281.899863 136.730324 c
281.899863 136.730324 281.899863 136.730324 281.899863 136.730324 c
cl
gsave
fill
grestore
stroke
grestore
gsave
279 277.2 45 39.6 clipbox
309.728395 136.730324 m
309.728395 136.730324 309.728395 136.730324 309.728395 136.730324 c
309.728395 136.730324 309.728395 136.730324 309.728395 136.730324 c
309.728395 136.730324 309.728395 136.730324 309.728395 136.730324 c
309.728395 136.730324 309.728395 136.730324 309.728395 136.730324 c
309.728395 136.730324 309.728395 136.730324 309.728395 136.730324 c
309.728395 136.730324 309.728395 136.730324 309.728395 136.730324 c
309.728395 136.730324 309.728395 136.730324 309.728395 136.730324 c
309.728395 136.730324 309.728395 136.730324 309.728395 136.730324 c
cl
gsave
fill
grestore
stroke
grestore
gsave
279 277.2 45 39.6 clipbox
59.271605 164.376775 m
59.271605 164.376775 59.271605 164.376775 59.271605 164.376775 c
59.271605 164.376775 59.271605 164.376775 59.271605 164.376775 c
59.271605 164.376775 59.271605 164.376775 59.271605 164.376775 c
59.271605 164.376775 59.271605 164.376775 59.271605 164.376775 c
59.271605 164.376775 59.271605 164.376775 59.271605 164.376775 c
59.271605 164.376775 59.271605 164.376775 59.271605 164.376775 c
59.271605 164.376775 59.271605 164.376775 59.271605 164.376775 c
59.271605 164.376775 59.271605 164.376775 59.271605 164.376775 c
cl
gsave
fill
grestore
stroke
grestore
gsave
279 277.2 45 39.6 clipbox
87.100137 164.376775 m
87.100137 164.376775 87.100137 164.376775 87.100137 164.376775 c
87.100137 164.376775 87.100137 164.376775 87.100137 164.376775 c
87.100137 164.376775 87.100137 164.376775 87.100137 164.376775 c
87.100137 164.376775 87.100137 164.376775 87.100137 164.376775 c
87.100137 164.376775 87.100137 164.376775 87.100137 164.376775 c
87.100137 164.376775 87.100137 164.376775 87.100137 164.376775 c
87.100137 164.376775 87.100137 164.376775 87.100137 164.376775 c
87.100137 164.376775 87.100137 164.376775 87.100137 164.376775 c
cl
gsave
fill
grestore
stroke
grestore
gsave
279 277.2 45 39.6 clipbox
114.928669 164.376775 m
114.928669 164.376775 114.928669 164.376775 114.928669 164.376775 c
114.928669 164.376775 114.928669 164.376775 114.928669 164.376775 c
114.928669 164.376775 114.928669 164.376775 114.928669 164.376775 c
114.928669 164.376775 114.928669 164.376775 114.928669 164.376775 c
114.928669 164.376775 114.928669 164.376775 114.928669 164.376775 c
114.928669 164.376775 114.928669 164.376775 114.928669 164.376775 c
114.928669 164.376775 114.928669 164.376775 114.928669 164.376775 c
114.928669 164.376775 114.928669 164.376775 114.928669 164.376775 c
cl
gsave
fill
grestore
stroke
grestore
gsave
279 277.2 45 39.6 clipbox
142.757202 164.376775 m
142.757202 164.376775 142.757202 164.376775 142.757202 164.376775 c
142.757202 164.376775 142.757202 164.376775 142.757202 164.376775 c
142.757202 164.376775 142.757202 164.376775 142.757202 164.376775 c
142.757202 164.376775 142.757202 164.376775 142.757202 164.376775 c
142.757202 164.376775 142.757202 164.376775 142.757202 164.376775 c
142.757202 164.376775 142.757202 164.376775 142.757202 164.376775 c
142.757202 164.376775 142.757202 164.376775 142.757202 164.376775 c
142.757202 164.376775 142.757202 164.376775 142.757202 164.376775 c
cl
gsave
fill
grestore
stroke
grestore
gsave
279 277.2 45 39.6 clipbox
170.585734 164.376775 m
170.585734 164.376775 170.585734 164.376775 170.585734 164.376775 c
170.585734 164.376775 170.585734 164.376775 170.585734 164.376775 c
170.585734 164.376775 170.585734 164.376775 170.585734 164.376775 c
170.585734 164.376775 170.585734 164.376775 170.585734 164.376775 c
170.585734 164.376775 170.585734 164.376775 170.585734 164.376775 c
170.585734 164.376775 170.585734 164.376775 170.585734 164.376775 c
170.585734 164.376775 170.585734 164.376775 170.585734 164.376775 c
170.585734 164.376775 170.585734 164.376775 170.585734 164.376775 c
cl
gsave
fill
grestore
stroke
grestore
gsave
279 277.2 45 39.6 clipbox
198.414266 164.376775 m
198.414266 164.376775 198.414266 164.376775 198.414266 164.376775 c
198.414266 164.376775 198.414266 164.376775 198.414266 164.376775 c
198.414266 164.376775 198.414266 164.376775 198.414266 164.376775 c
198.414266 164.376775 198.414266 164.376775 198.414266 164.376775 c
198.414266 164.376775 198.414266 164.376775 198.414266 164.376775 c
198.414266 164.376775 198.414266 164.376775 198.414266 164.376775 c
198.414266 164.376775 198.414266 164.376775 198.414266 164.376775 c
198.414266 164.376775 198.414266 164.376775 198.414266 164.376775 c
cl
gsave
fill
grestore
stroke
grestore
gsave
279 277.2 45 39.6 clipbox
226.242798 164.376775 m
226.242798 164.376775 226.242798 164.376775 226.242798 164.376775 c
226.242798 164.376775 226.242798 164.376775 226.242798 164.376775 c
226.242798 164.376775 226.242798 164.376775 226.242798 164.376775 c
226.242798 164.376775 226.242798 164.376775 226.242798 164.376775 c
226.242798 164.376775 226.242798 164.376775 226.242798 164.376775 c
226.242798 164.376775 226.242798 164.376775 226.242798 164.376775 c
226.242798 164.376775 226.242798 164.376775 226.242798 164.376775 c
226.242798 164.376775 226.242798 164.376775 226.242798 164.376775 c
cl
gsave
fill
grestore
stroke
grestore
gsave
279 277.2 45 39.6 clipbox
254.071331 164.376775 m
254.071331 164.376775 254.071331 164.376775 254.071331 164.376775 c
254.071331 164.376775 254.071331 164.376775 254.071331 164.376775 c
254.071331 164.376775 254.071331 164.376775 254.071331 164.376775 c
254.071331 164.376775 254.071331 164.376775 254.071331 164.376775 c
254.071331 164.376775 254.071331 164.376775 254.071331 164.376775 c
254.071331 164.376775 254.071331 164.376775 254.071331 164.376775 c
254.071331 164.376775 254.071331 164.376775 254.071331 164.376775 c
254.071331 164.376775 254.071331 164.376775 254.071331 164.376775 c
cl
gsave
fill
grestore
stroke
grestore
gsave
279 277.2 45 39.6 clipbox
281.899863 164.376775 m
281.899863 164.376775 281.899863 164.376775 281.899863 164.376775 c
281.899863 164.376775 281.899863 164.376775 281.899863 164.376775 c
281.899863 164.376775 281.899863 164.376775 281.899863 164.376775 c
281.899863 164.376775 281.899863 164.376775 281.899863 164.376775 c
281.899863 164.376775 281.899863 164.376775 281.899863 164.376775 c
281.899863 164.376775 281.899863 164.376775 281.899863 164.376775 c
281.899863 164.376775 281.899863 164.376775 281.899863 164.376775 c
281.899863 164.376775 281.899863 164.376775 281.899863 164.376775 c
cl
gsave
fill
grestore
stroke
grestore
gsave
279 277.2 45 39.6 clipbox
309.728395 164.376775 m
309.728395 164.376775 309.728395 164.376775 309.728395 164.376775 c
309.728395 164.376775 309.728395 164.376775 309.728395 164.376775 c
309.728395 164.376775 309.728395 164.376775 309.728395 164.376775 c
309.728395 164.376775 309.728395 164.376775 309.728395 164.376775 c
309.728395 164.376775 309.728395 164.376775 309.728395 164.376775 c
309.728395 164.376775 309.728395 164.376775 309.728395 164.376775 c
309.728395 164.376775 309.728395 164.376775 309.728395 164.376775 c
309.728395 164.376775 309.728395 164.376775 309.728395 164.376775 c
cl
gsave
fill
grestore
stroke
grestore
gsave
279 277.2 45 39.6 clipbox
59.271605 192.023225 m
59.271605 192.023225 59.271605 192.023225 59.271605 192.023225 c
59.271605 192.023225 59.271605 192.023225 59.271605 192.023225 c
59.271605 192.023225 59.271605 192.023225 59.271605 192.023225 c
59.271605 192.023225 59.271605 192.023225 59.271605 192.023225 c
59.271605 192.023225 59.271605 192.023225 59.271605 192.023225 c
59.271605 192.023225 59.271605 192.023225 59.271605 192.023225 c
59.271605 192.023225 59.271605 192.023225 59.271605 192.023225 c
59.271605 192.023225 59.271605 192.023225 59.271605 192.023225 c
cl
gsave
fill
grestore
stroke
grestore
gsave
279 277.2 45 39.6 clipbox
87.100137 192.023225 m
87.100137 192.023225 87.100137 192.023225 87.100137 192.023225 c
87.100137 192.023225 87.100137 192.023225 87.100137 192.023225 c
87.100137 192.023225 87.100137 192.023225 87.100137 192.023225 c
87.100137 192.023225 87.100137 192.023225 87.100137 192.023225 c
87.100137 192.023225 87.100137 192.023225 87.100137 192.023225 c
87.100137 192.023225 87.100137 192.023225 87.100137 192.023225 c
87.100137 192.023225 87.100137 192.023225 87.100137 192.023225 c
87.100137 192.023225 87.100137 192.023225 87.100137 192.023225 c
cl
gsave
fill
grestore
stroke
grestore
gsave
279 277.2 45 39.6 clipbox
114.928669 192.023225 m
114.928669 192.023225 114.928669 192.023225 114.928669 192.023225 c
114.928669 192.023225 114.928669 192.023225 114.928669 192.023225 c
114.928669 192.023225 114.928669 192.023225 114.928669 192.023225 c
114.928669 192.023225 114.928669 192.023225 114.928669 192.023225 c
114.928669 192.023225 114.928669 192.023225 114.928669 192.023225 c
114.928669 192.023225 114.928669 192.023225 114.928669 192.023225 c
114.928669 192.023225 114.928669 192.023225 114.928669 192.023225 c
114.928669 192.023225 114.928669 192.023225 114.928669 192.023225 c
cl
gsave
fill
grestore
stroke
grestore
gsave
279 277.2 45 39.6 clipbox
142.757202 192.023225 m
142.757202 192.023225 142.757202 192.023225 142.757202 192.023225 c
142.757202 192.023225 142.757202 192.023225 142.757202 192.023225 c
142.757202 192.023225 142.757202 192.023225 142.757202 192.023225 c
142.757202 192.023225 142.757202 192.023225 142.757202 192.023225 c
142.757202 192.023225 142.757202 192.023225 142.757202 192.023225 c
142.757202 192.023225 142.757202 192.023225 142.757202 192.023225 c
142.757202 192.023225 142.757202 192.023225 142.757202 192.023225 c
142.757202 192.023225 142.757202 192.023225 142.757202 192.023225 c
cl
gsave
fill
grestore
stroke
grestore
gsave
279 277.2 45 39.6 clipbox
170.585734 192.023225 m
170.585734 192.023225 170.585734 192.023225 170.585734 192.023225 c
170.585734 192.023225 170.585734 192.023225 170.585734 192.023225 c
170.585734 192.023225 170.585734 192.023225 170.585734 192.023225 c
170.585734 192.023225 170.585734 192.023225 170.585734 192.023225 c
170.585734 192.023225 170.585734 192.023225 170.585734 192.023225 c
170.585734 192.023225 170.585734 192.023225 170.585734 192.023225 c
170.585734 192.023225 170.585734 192.023225 170.585734 192.023225 c
170.585734 192.023225 170.585734 192.023225 170.585734 192.023225 c
cl
gsave
fill
grestore
stroke
grestore
gsave
279 277.2 45 39.6 clipbox
198.414266 192.023225 m
198.414266 192.023225 198.414266 192.023225 198.414266 192.023225 c
198.414266 192.023225 198.414266 192.023225 198.414266 192.023225 c
198.414266 192.023225 198.414266 192.023225 198.414266 192.023225 c
198.414266 192.023225 198.414266 192.023225 198.414266 192.023225 c
198.414266 192.023225 198.414266 192.023225 198.414266 192.023225 c
198.414266 192.023225 198.414266 192.023225 198.414266 192.023225 c
198.414266 192.023225 198.414266 192.023225 198.414266 192.023225 c
198.414266 192.023225 198.414266 192.023225 198.414266 192.023225 c
cl
gsave
fill
grestore
stroke
grestore
gsave
279 277.2 45 39.6 clipbox
226.242798 192.023225 m
226.242798 192.023225 226.242798 192.023225 226.242798 192.023225 c
226.242798 192.023225 226.242798 192.023225 226.242798 192.023225 c
226.242798 192.023225 226.242798 192.023225 226.242798 192.023225 c
226.242798 192.023225 226.242798 192.023225 226.242798 192.023225 c
226.242798 192.023225 226.242798 192.023225 226.242798 192.023225 c
226.242798 192.023225 226.242798 192.023225 226.242798 192.023225 c
226.242798 192.023225 226.242798 192.023225 226.242798 192.023225 c
226.242798 192.023225 226.242798 192.023225 226.242798 192.023225 c
cl
gsave
fill
grestore
stroke
grestore
gsave
279 277.2 45 39.6 clipbox
254.071331 192.023225 m
254.071331 192.023225 254.071331 192.023225 254.071331 192.023225 c
254.071331 192.023225 254.071331 192.023225 254.071331 192.023225 c
254.071331 192.023225 254.071331 192.023225 254.071331 192.023225 c
254.071331 192.023225 254.071331 192.023225 254.071331 192.023225 c
254.071331 192.023225 254.071331 192.023225 254.071331 192.023225 c
254.071331 192.023225 254.071331 192.023225 254.071331 192.023225 c
254.071331 192.023225 254.071331 192.023225 254.071331 192.023225 c
254.071331 192.023225 254.071331 192.023225 254.071331 192.023225 c
cl
gsave
fill
grestore
stroke
grestore
gsave
279 277.2 45 39.6 clipbox
281.899863 192.023225 m
281.899863 192.023225 281.899863 192.023225 281.899863 192.023225 c
281.899863 192.023225 281.899863 192.023225 281.899863 192.023225 c
281.899863 192.023225 281.899863 192.023225 281.899863 192.023225 c
281.899863 192.023225 281.899863 192.023225 281.899863 192.023225 c
281.899863 192.023225 281.899863 192.023225 281.899863 192.023225 c
281.899863 192.023225 281.899863 192.023225 281.899863 192.023225 c
281.899863 192.023225 281.899863 192.023225 281.899863 192.023225 c
281.899863 192.023225 281.899863 192.023225 281.899863 192.023225 c
cl
gsave
fill
grestore
stroke
grestore
gsave
279 277.2 45 39.6 clipbox
309.728395 192.023225 m
309.728395 192.023225 309.728395 192.023225 309.728395 192.023225 c
309.728395 192.023225 309.728395 192.023225 309.728395 192.023225 c
309.728395 192.023225 309.728395 192.023225 309.728395 192.023225 c
309.728395 192.023225 309.728395 192.023225 309.728395 192.023225 c
309.728395 192.023225 309.728395 192.023225 309.728395 192.023225 c
309.728395 192.023225 309.728395 192.023225 309.728395 192.023225 c
309.728395 192.023225 309.728395 192.023225 309.728395 192.023225 c
309.728395 192.023225 309.728395 192.023225 309.728395 192.023225 c
cl
gsave
fill
grestore
stroke
grestore
gsave
279 277.2 45 39.6 clipbox
59.271605 219.669676 m
59.271605 219.669676 59.271605 219.669676 59.271605 219.669676 c
59.271605 219.669676 59.271605 219.669676 59.271605 219.669676 c
59.271605 219.669676 59.271605 219.669676 59.271605 219.669676 c
59.271605 219.669676 59.271605 219.669676 59.271605 219.669676 c
59.271605 219.669676 59.271605 219.669676 59.271605 219.669676 c
59.271605 219.669676 59.271605 219.669676 59.271605 219.669676 c
59.271605 219.669676 59.271605 219.669676 59.271605 219.669676 c
59.271605 219.669676 59.271605 219.669676 59.271605 219.669676 c
cl
gsave
fill
grestore
stroke
grestore
gsave
279 277.2 45 39.6 clipbox
87.100137 215.796692 m
88.127264 215.796692 89.112461 216.204774 89.83875 216.931063 c
90.565038 217.657352 90.97312 218.642549 90.97312 219.669676 c
90.97312 220.696803 90.565038 221.682 89.83875 222.408289 c
89.112461 223.134577 88.127264 223.542659 87.100137 223.542659 c
86.07301 223.542659 85.087813 223.134577 84.361524 222.408289 c
83.635236 221.682 83.227154 220.696803 83.227154 219.669676 c
83.227154 218.642549 83.635236 217.657352 84.361524 216.931063 c
85.087813 216.204774 86.07301 215.796692 87.100137 215.796692 c
cl
gsave
fill
grestore
stroke
grestore
gsave
279 277.2 45 39.6 clipbox
114.928669 215.796692 m
115.955796 215.796692 116.940993 216.204774 117.667282 216.931063 c
118.393571 217.657352 118.801653 218.642549 118.801653 219.669676 c
118.801653 220.696803 118.393571 221.682 117.667282 222.408289 c
116.940993 223.134577 115.955796 223.542659 114.928669 223.542659 c
113.901542 223.542659 112.916345 223.134577 112.190056 222.408289 c
111.463768 221.682 111.055686 220.696803 111.055686 219.669676 c
111.055686 218.642549 111.463768 217.657352 112.190056 216.931063 c
112.916345 216.204774 113.901542 215.796692 114.928669 215.796692 c
cl
gsave
fill
grestore
stroke
grestore
gsave
279 277.2 45 39.6 clipbox
142.757202 215.796692 m
143.784329 215.796692 144.769526 216.204774 145.495814 216.931063 c
146.222103 217.657352 146.630185 218.642549 146.630185 219.669676 c
146.630185 220.696803 146.222103 221.682 145.495814 222.408289 c
144.769526 223.134577 143.784329 223.542659 142.757202 223.542659 c
141.730074 223.542659 140.744877 223.134577 140.018589 222.408289 c
139.2923 221.682 138.884218 220.696803 138.884218 219.669676 c
138.884218 218.642549 139.2923 217.657352 140.018589 216.931063 c
140.744877 216.204774 141.730074 215.796692 142.757202 215.796692 c
cl
gsave
fill
grestore
stroke
grestore
gsave
279 277.2 45 39.6 clipbox
170.585734 219.669676 m
170.585734 219.669676 170.585734 219.669676 170.585734 219.669676 c
170.585734 219.669676 170.585734 219.669676 170.585734 219.669676 c
170.585734 219.669676 170.585734 219.669676 170.585734 219.669676 c
170.585734 219.669676 170.585734 219.669676 170.585734 219.669676 c
170.585734 219.669676 170.585734 219.669676 170.585734 219.669676 c
170.585734 219.669676 170.585734 219.669676 170.585734 219.669676 c
170.585734 219.669676 170.585734 219.669676 170.585734 219.669676 c
170.585734 219.669676 170.585734 219.669676 170.585734 219.669676 c
cl
gsave
fill
grestore
stroke
grestore
gsave
279 277.2 45 39.6 clipbox
198.414266 219.669676 m
198.414266 219.669676 198.414266 219.669676 198.414266 219.669676 c
198.414266 219.669676 198.414266 219.669676 198.414266 219.669676 c
198.414266 219.669676 198.414266 219.669676 198.414266 219.669676 c
198.414266 219.669676 198.414266 219.669676 198.414266 219.669676 c
198.414266 219.669676 198.414266 219.669676 198.414266 219.669676 c
198.414266 219.669676 198.414266 219.669676 198.414266 219.669676 c
198.414266 219.669676 198.414266 219.669676 198.414266 219.669676 c
198.414266 219.669676 198.414266 219.669676 198.414266 219.669676 c
cl
gsave
fill
grestore
stroke
grestore
gsave
279 277.2 45 39.6 clipbox
226.242798 219.669676 m
226.242798 219.669676 226.242798 219.669676 226.242798 219.669676 c
226.242798 219.669676 226.242798 219.669676 226.242798 219.669676 c
226.242798 219.669676 226.242798 219.669676 226.242798 219.669676 c
226.242798 219.669676 226.242798 219.669676 226.242798 219.669676 c
226.242798 219.669676 226.242798 219.669676 226.242798 219.669676 c
226.242798 219.669676 226.242798 219.669676 226.242798 219.669676 c
226.242798 219.669676 226.242798 219.669676 226.242798 219.669676 c
226.242798 219.669676 226.242798 219.669676 226.242798 219.669676 c
cl
gsave
fill
grestore
stroke
grestore
gsave
279 277.2 45 39.6 clipbox
254.071331 219.669676 m
254.071331 219.669676 254.071331 219.669676 254.071331 219.669676 c
254.071331 219.669676 254.071331 219.669676 254.071331 219.669676 c
254.071331 219.669676 254.071331 219.669676 254.071331 219.669676 c
254.071331 219.669676 254.071331 219.669676 254.071331 219.669676 c
254.071331 219.669676 254.071331 219.669676 254.071331 219.669676 c
254.071331 219.669676 254.071331 219.669676 254.071331 219.669676 c
254.071331 219.669676 254.071331 219.669676 254.071331 219.669676 c
254.071331 219.669676 254.071331 219.669676 254.071331 219.669676 c
cl
gsave
fill
grestore
stroke
grestore
gsave
279 277.2 45 39.6 clipbox
281.899863 219.669676 m
281.899863 219.669676 281.899863 219.669676 281.899863 219.669676 c
281.899863 219.669676 281.899863 219.669676 281.899863 219.669676 c
281.899863 219.669676 281.899863 219.669676 281.899863 219.669676 c
281.899863 219.669676 281.899863 219.669676 281.899863 219.669676 c
281.899863 219.669676 281.899863 219.669676 281.899863 219.669676 c
281.899863 219.669676 281.899863 219.669676 281.899863 219.669676 c
281.899863 219.669676 281.899863 219.669676 281.899863 219.669676 c
281.899863 219.669676 281.899863 219.669676 281.899863 219.669676 c
cl
gsave
fill
grestore
stroke
grestore
gsave
279 277.2 45 39.6 clipbox
309.728395 219.669676 m
309.728395 219.669676 309.728395 219.669676 309.728395 219.669676 c
309.728395 219.669676 309.728395 219.669676 309.728395 219.669676 c
309.728395 219.669676 309.728395 219.669676 309.728395 219.669676 c
309.728395 219.669676 309.728395 219.669676 309.728395 219.669676 c
309.728395 219.669676 309.728395 219.669676 309.728395 219.669676 c
309.728395 219.669676 309.728395 219.669676 309.728395 219.669676 c
309.728395 219.669676 309.728395 219.669676 309.728395 219.669676 c
309.728395 219.669676 309.728395 219.669676 309.728395 219.669676 c
cl
gsave
fill
grestore
stroke
grestore
gsave
279 277.2 45 39.6 clipbox
59.271605 247.316126 m
59.271605 247.316126 59.271605 247.316126 59.271605 247.316126 c
59.271605 247.316126 59.271605 247.316126 59.271605 247.316126 c
59.271605 247.316126 59.271605 247.316126 59.271605 247.316126 c
59.271605 247.316126 59.271605 247.316126 59.271605 247.316126 c
59.271605 247.316126 59.271605 247.316126 59.271605 247.316126 c
59.271605 247.316126 59.271605 247.316126 59.271605 247.316126 c
59.271605 247.316126 59.271605 247.316126 59.271605 247.316126 c
59.271605 247.316126 59.271605 247.316126 59.271605 247.316126 c
cl
gsave
fill
grestore
stroke
grestore
gsave
279 277.2 45 39.6 clipbox
87.100137 247.316126 m
87.100137 247.316126 87.100137 247.316126 87.100137 247.316126 c
87.100137 247.316126 87.100137 247.316126 87.100137 247.316126 c
87.100137 247.316126 87.100137 247.316126 87.100137 247.316126 c
87.100137 247.316126 87.100137 247.316126 87.100137 247.316126 c
87.100137 247.316126 87.100137 247.316126 87.100137 247.316126 c
87.100137 247.316126 87.100137 247.316126 87.100137 247.316126 c
87.100137 247.316126 87.100137 247.316126 87.100137 247.316126 c
87.100137 247.316126 87.100137 247.316126 87.100137 247.316126 c
cl
gsave
fill
grestore
stroke
grestore
gsave
279 277.2 45 39.6 clipbox
114.928669 247.316126 m
114.928669 247.316126 114.928669 247.316126 114.928669 247.316126 c
114.928669 247.316126 114.928669 247.316126 114.928669 247.316126 c
114.928669 247.316126 114.928669 247.316126 114.928669 247.316126 c
114.928669 247.316126 114.928669 247.316126 114.928669 247.316126 c
114.928669 247.316126 114.928669 247.316126 114.928669 247.316126 c
114.928669 247.316126 114.928669 247.316126 114.928669 247.316126 c
114.928669 247.316126 114.928669 247.316126 114.928669 247.316126 c
114.928669 247.316126 114.928669 247.316126 114.928669 247.316126 c
cl
gsave
fill
grestore
stroke
grestore
gsave
279 277.2 45 39.6 clipbox
142.757202 247.316126 m
142.757202 247.316126 142.757202 247.316126 142.757202 247.316126 c
142.757202 247.316126 142.757202 247.316126 142.757202 247.316126 c
142.757202 247.316126 142.757202 247.316126 142.757202 247.316126 c
142.757202 247.316126 142.757202 247.316126 142.757202 247.316126 c
142.757202 247.316126 142.757202 247.316126 142.757202 247.316126 c
142.757202 247.316126 142.757202 247.316126 142.757202 247.316126 c
142.757202 247.316126 142.757202 247.316126 142.757202 247.316126 c
142.757202 247.316126 142.757202 247.316126 142.757202 247.316126 c
cl
gsave
fill
grestore
stroke
grestore
gsave
279 277.2 45 39.6 clipbox
170.585734 247.316126 m
170.585734 247.316126 170.585734 247.316126 170.585734 247.316126 c
170.585734 247.316126 170.585734 247.316126 170.585734 247.316126 c
170.585734 247.316126 170.585734 247.316126 170.585734 247.316126 c
170.585734 247.316126 170.585734 247.316126 170.585734 247.316126 c
170.585734 247.316126 170.585734 247.316126 170.585734 247.316126 c
170.585734 247.316126 170.585734 247.316126 170.585734 247.316126 c
170.585734 247.316126 170.585734 247.316126 170.585734 247.316126 c
170.585734 247.316126 170.585734 247.316126 170.585734 247.316126 c
cl
gsave
fill
grestore
stroke
grestore
gsave
279 277.2 45 39.6 clipbox
198.414266 247.316126 m
198.414266 247.316126 198.414266 247.316126 198.414266 247.316126 c
198.414266 247.316126 198.414266 247.316126 198.414266 247.316126 c
198.414266 247.316126 198.414266 247.316126 198.414266 247.316126 c
198.414266 247.316126 198.414266 247.316126 198.414266 247.316126 c
198.414266 247.316126 198.414266 247.316126 198.414266 247.316126 c
198.414266 247.316126 198.414266 247.316126 198.414266 247.316126 c
198.414266 247.316126 198.414266 247.316126 198.414266 247.316126 c
198.414266 247.316126 198.414266 247.316126 198.414266 247.316126 c
cl
gsave
fill
grestore
stroke
grestore
gsave
279 277.2 45 39.6 clipbox
226.242798 247.316126 m
226.242798 247.316126 226.242798 247.316126 226.242798 247.316126 c
226.242798 247.316126 226.242798 247.316126 226.242798 247.316126 c
226.242798 247.316126 226.242798 247.316126 226.242798 247.316126 c
226.242798 247.316126 226.242798 247.316126 226.242798 247.316126 c
226.242798 247.316126 226.242798 247.316126 226.242798 247.316126 c
226.242798 247.316126 226.242798 247.316126 226.242798 247.316126 c
226.242798 247.316126 226.242798 247.316126 226.242798 247.316126 c
226.242798 247.316126 226.242798 247.316126 226.242798 247.316126 c
cl
gsave
fill
grestore
stroke
grestore
gsave
279 277.2 45 39.6 clipbox
254.071331 247.316126 m
254.071331 247.316126 254.071331 247.316126 254.071331 247.316126 c
254.071331 247.316126 254.071331 247.316126 254.071331 247.316126 c
254.071331 247.316126 254.071331 247.316126 254.071331 247.316126 c
254.071331 247.316126 254.071331 247.316126 254.071331 247.316126 c
254.071331 247.316126 254.071331 247.316126 254.071331 247.316126 c
254.071331 247.316126 254.071331 247.316126 254.071331 247.316126 c
254.071331 247.316126 254.071331 247.316126 254.071331 247.316126 c
254.071331 247.316126 254.071331 247.316126 254.071331 247.316126 c
cl
gsave
fill
grestore
stroke
grestore
gsave
279 277.2 45 39.6 clipbox
281.899863 247.316126 m
281.899863 247.316126 281.899863 247.316126 281.899863 247.316126 c
281.899863 247.316126 281.899863 247.316126 281.899863 247.316126 c
281.899863 247.316126 281.899863 247.316126 281.899863 247.316126 c
281.899863 247.316126 281.899863 247.316126 281.899863 247.316126 c
281.899863 247.316126 281.899863 247.316126 281.899863 247.316126 c
281.899863 247.316126 281.899863 247.316126 281.899863 247.316126 c
281.899863 247.316126 281.899863 247.316126 281.899863 247.316126 c
281.899863 247.316126 281.899863 247.316126 281.899863 247.316126 c
cl
gsave
fill
grestore
stroke
grestore
gsave
279 277.2 45 39.6 clipbox
309.728395 247.316126 m
309.728395 247.316126 309.728395 247.316126 309.728395 247.316126 c
309.728395 247.316126 309.728395 247.316126 309.728395 247.316126 c
309.728395 247.316126 309.728395 247.316126 309.728395 247.316126 c
309.728395 247.316126 309.728395 247.316126 309.728395 247.316126 c
309.728395 247.316126 309.728395 247.316126 309.728395 247.316126 c
309.728395 247.316126 309.728395 247.316126 309.728395 247.316126 c
309.728395 247.316126 309.728395 247.316126 309.728395 247.316126 c
309.728395 247.316126 309.728395 247.316126 309.728395 247.316126 c
cl
gsave
fill
grestore
stroke
grestore
gsave
279 277.2 45 39.6 clipbox
59.271605 274.962577 m
59.271605 274.962577 59.271605 274.962577 59.271605 274.962577 c
59.271605 274.962577 59.271605 274.962577 59.271605 274.962577 c
59.271605 274.962577 59.271605 274.962577 59.271605 274.962577 c
59.271605 274.962577 59.271605 274.962577 59.271605 274.962577 c
59.271605 274.962577 59.271605 274.962577 59.271605 274.962577 c
59.271605 274.962577 59.271605 274.962577 59.271605 274.962577 c
59.271605 274.962577 59.271605 274.962577 59.271605 274.962577 c
59.271605 274.962577 59.271605 274.962577 59.271605 274.962577 c
cl
gsave
fill
grestore
stroke
grestore
gsave
279 277.2 45 39.6 clipbox
87.100137 271.089593 m
88.127264 271.089593 89.112461 271.497675 89.83875 272.223964 c
90.565038 272.950252 90.97312 273.935449 90.97312 274.962577 c
90.97312 275.989704 90.565038 276.974901 89.83875 277.701189 c
89.112461 278.427478 88.127264 278.83556 87.100137 278.83556 c
86.07301 278.83556 85.087813 278.427478 84.361524 277.701189 c
83.635236 276.974901 83.227154 275.989704 83.227154 274.962577 c
83.227154 273.935449 83.635236 272.950252 84.361524 272.223964 c
85.087813 271.497675 86.07301 271.089593 87.100137 271.089593 c
cl
gsave
fill
grestore
stroke
grestore
gsave
279 277.2 45 39.6 clipbox
114.928669 271.089593 m
115.955796 271.089593 116.940993 271.497675 117.667282 272.223964 c
118.393571 272.950252 118.801653 273.935449 118.801653 274.962577 c
118.801653 275.989704 118.393571 276.974901 117.667282 277.701189 c
116.940993 278.427478 115.955796 278.83556 114.928669 278.83556 c
113.901542 278.83556 112.916345 278.427478 112.190056 277.701189 c
111.463768 276.974901 111.055686 275.989704 111.055686 274.962577 c
111.055686 273.935449 111.463768 272.950252 112.190056 272.223964 c
112.916345 271.497675 113.901542 271.089593 114.928669 271.089593 c
cl
gsave
fill
grestore
stroke
grestore
gsave
279 277.2 45 39.6 clipbox
142.757202 271.089593 m
143.784329 271.089593 144.769526 271.497675 145.495814 272.223964 c
146.222103 272.950252 146.630185 273.935449 146.630185 274.962577 c
146.630185 275.989704 146.222103 276.974901 145.495814 277.701189 c
144.769526 278.427478 143.784329 278.83556 142.757202 278.83556 c
141.730074 278.83556 140.744877 278.427478 140.018589 277.701189 c
139.2923 276.974901 138.884218 275.989704 138.884218 274.962577 c
138.884218 273.935449 139.2923 272.950252 140.018589 272.223964 c
140.744877 271.497675 141.730074 271.089593 142.757202 271.089593 c
cl
gsave
fill
grestore
stroke
grestore
gsave
279 277.2 45 39.6 clipbox
170.585734 274.962577 m
170.585734 274.962577 170.585734 274.962577 170.585734 274.962577 c
170.585734 274.962577 170.585734 274.962577 170.585734 274.962577 c
170.585734 274.962577 170.585734 274.962577 170.585734 274.962577 c
170.585734 274.962577 170.585734 274.962577 170.585734 274.962577 c
170.585734 274.962577 170.585734 274.962577 170.585734 274.962577 c
170.585734 274.962577 170.585734 274.962577 170.585734 274.962577 c
170.585734 274.962577 170.585734 274.962577 170.585734 274.962577 c
170.585734 274.962577 170.585734 274.962577 170.585734 274.962577 c
cl
gsave
fill
grestore
stroke
grestore
gsave
279 277.2 45 39.6 clipbox
198.414266 274.962577 m
198.414266 274.962577 198.414266 274.962577 198.414266 274.962577 c
198.414266 274.962577 198.414266 274.962577 198.414266 274.962577 c
198.414266 274.962577 198.414266 274.962577 198.414266 274.962577 c
198.414266 274.962577 198.414266 274.962577 198.414266 274.962577 c
198.414266 274.962577 198.414266 274.962577 198.414266 274.962577 c
198.414266 274.962577 198.414266 274.962577 198.414266 274.962577 c
198.414266 274.962577 198.414266 274.962577 198.414266 274.962577 c
198.414266 274.962577 198.414266 274.962577 198.414266 274.962577 c
cl
gsave
fill
grestore
stroke
grestore
gsave
279 277.2 45 39.6 clipbox
226.242798 274.962577 m
226.242798 274.962577 226.242798 274.962577 226.242798 274.962577 c
226.242798 274.962577 226.242798 274.962577 226.242798 274.962577 c
226.242798 274.962577 226.242798 274.962577 226.242798 274.962577 c
226.242798 274.962577 226.242798 274.962577 226.242798 274.962577 c
226.242798 274.962577 226.242798 274.962577 226.242798 274.962577 c
226.242798 274.962577 226.242798 274.962577 226.242798 274.962577 c
226.242798 274.962577 226.242798 274.962577 226.242798 274.962577 c
226.242798 274.962577 226.242798 274.962577 226.242798 274.962577 c
cl
gsave
fill
grestore
stroke
grestore
gsave
279 277.2 45 39.6 clipbox
254.071331 274.962577 m
254.071331 274.962577 254.071331 274.962577 254.071331 274.962577 c
254.071331 274.962577 254.071331 274.962577 254.071331 274.962577 c
254.071331 274.962577 254.071331 274.962577 254.071331 274.962577 c
254.071331 274.962577 254.071331 274.962577 254.071331 274.962577 c
254.071331 274.962577 254.071331 274.962577 254.071331 274.962577 c
254.071331 274.962577 254.071331 274.962577 254.071331 274.962577 c
254.071331 274.962577 254.071331 274.962577 254.071331 274.962577 c
254.071331 274.962577 254.071331 274.962577 254.071331 274.962577 c
cl
gsave
fill
grestore
stroke
grestore
gsave
279 277.2 45 39.6 clipbox
281.899863 274.962577 m
281.899863 274.962577 281.899863 274.962577 281.899863 274.962577 c
281.899863 274.962577 281.899863 274.962577 281.899863 274.962577 c
281.899863 274.962577 281.899863 274.962577 281.899863 274.962577 c
281.899863 274.962577 281.899863 274.962577 281.899863 274.962577 c
281.899863 274.962577 281.899863 274.962577 281.899863 274.962577 c
281.899863 274.962577 281.899863 274.962577 281.899863 274.962577 c
281.899863 274.962577 281.899863 274.962577 281.899863 274.962577 c
281.899863 274.962577 281.899863 274.962577 281.899863 274.962577 c
cl
gsave
fill
grestore
stroke
grestore
gsave
279 277.2 45 39.6 clipbox
309.728395 274.962577 m
309.728395 274.962577 309.728395 274.962577 309.728395 274.962577 c
309.728395 274.962577 309.728395 274.962577 309.728395 274.962577 c
309.728395 274.962577 309.728395 274.962577 309.728395 274.962577 c
309.728395 274.962577 309.728395 274.962577 309.728395 274.962577 c
309.728395 274.962577 309.728395 274.962577 309.728395 274.962577 c
309.728395 274.962577 309.728395 274.962577 309.728395 274.962577 c
309.728395 274.962577 309.728395 274.962577 309.728395 274.962577 c
309.728395 274.962577 309.728395 274.962577 309.728395 274.962577 c
cl
gsave
fill
grestore
stroke
grestore
gsave
279 277.2 45 39.6 clipbox
59.271605 302.609027 m
59.271605 302.609027 59.271605 302.609027 59.271605 302.609027 c
59.271605 302.609027 59.271605 302.609027 59.271605 302.609027 c
59.271605 302.609027 59.271605 302.609027 59.271605 302.609027 c
59.271605 302.609027 59.271605 302.609027 59.271605 302.609027 c
59.271605 302.609027 59.271605 302.609027 59.271605 302.609027 c
59.271605 302.609027 59.271605 302.609027 59.271605 302.609027 c
59.271605 302.609027 59.271605 302.609027 59.271605 302.609027 c
59.271605 302.609027 59.271605 302.609027 59.271605 302.609027 c
cl
gsave
fill
grestore
stroke
grestore
gsave
279 277.2 45 39.6 clipbox
87.100137 302.609027 m
87.100137 302.609027 87.100137 302.609027 87.100137 302.609027 c
87.100137 302.609027 87.100137 302.609027 87.100137 302.609027 c
87.100137 302.609027 87.100137 302.609027 87.100137 302.609027 c
87.100137 302.609027 87.100137 302.609027 87.100137 302.609027 c
87.100137 302.609027 87.100137 302.609027 87.100137 302.609027 c
87.100137 302.609027 87.100137 302.609027 87.100137 302.609027 c
87.100137 302.609027 87.100137 302.609027 87.100137 302.609027 c
87.100137 302.609027 87.100137 302.609027 87.100137 302.609027 c
cl
gsave
fill
grestore
stroke
grestore
gsave
279 277.2 45 39.6 clipbox
114.928669 298.736044 m
115.955796 298.736044 116.940993 299.144126 117.667282 299.870414 c
118.393571 300.596703 118.801653 301.5819 118.801653 302.609027 c
118.801653 303.636154 118.393571 304.621351 117.667282 305.34764 c
116.940993 306.073929 115.955796 306.48201 114.928669 306.48201 c
113.901542 306.48201 112.916345 306.073929 112.190056 305.34764 c
111.463768 304.621351 111.055686 303.636154 111.055686 302.609027 c
111.055686 301.5819 111.463768 300.596703 112.190056 299.870414 c
112.916345 299.144126 113.901542 298.736044 114.928669 298.736044 c
cl
gsave
fill
grestore
stroke
grestore
gsave
279 277.2 45 39.6 clipbox
142.757202 302.609027 m
142.757202 302.609027 142.757202 302.609027 142.757202 302.609027 c
142.757202 302.609027 142.757202 302.609027 142.757202 302.609027 c
142.757202 302.609027 142.757202 302.609027 142.757202 302.609027 c
142.757202 302.609027 142.757202 302.609027 142.757202 302.609027 c
142.757202 302.609027 142.757202 302.609027 142.757202 302.609027 c
142.757202 302.609027 142.757202 302.609027 142.757202 302.609027 c
142.757202 302.609027 142.757202 302.609027 142.757202 302.609027 c
142.757202 302.609027 142.757202 302.609027 142.757202 302.609027 c
cl
gsave
fill
grestore
stroke
grestore
gsave
279 277.2 45 39.6 clipbox
170.585734 302.609027 m
170.585734 302.609027 170.585734 302.609027 170.585734 302.609027 c
170.585734 302.609027 170.585734 302.609027 170.585734 302.609027 c
170.585734 302.609027 170.585734 302.609027 170.585734 302.609027 c
170.585734 302.609027 170.585734 302.609027 170.585734 302.609027 c
170.585734 302.609027 170.585734 302.609027 170.585734 302.609027 c
170.585734 302.609027 170.585734 302.609027 170.585734 302.609027 c
170.585734 302.609027 170.585734 302.609027 170.585734 302.609027 c
170.585734 302.609027 170.585734 302.609027 170.585734 302.609027 c
cl
gsave
fill
grestore
stroke
grestore
gsave
279 277.2 45 39.6 clipbox
198.414266 302.609027 m
198.414266 302.609027 198.414266 302.609027 198.414266 302.609027 c
198.414266 302.609027 198.414266 302.609027 198.414266 302.609027 c
198.414266 302.609027 198.414266 302.609027 198.414266 302.609027 c
198.414266 302.609027 198.414266 302.609027 198.414266 302.609027 c
198.414266 302.609027 198.414266 302.609027 198.414266 302.609027 c
198.414266 302.609027 198.414266 302.609027 198.414266 302.609027 c
198.414266 302.609027 198.414266 302.609027 198.414266 302.609027 c
198.414266 302.609027 198.414266 302.609027 198.414266 302.609027 c
cl
gsave
fill
grestore
stroke
grestore
gsave
279 277.2 45 39.6 clipbox
226.242798 302.609027 m
226.242798 302.609027 226.242798 302.609027 226.242798 302.609027 c
226.242798 302.609027 226.242798 302.609027 226.242798 302.609027 c
226.242798 302.609027 226.242798 302.609027 226.242798 302.609027 c
226.242798 302.609027 226.242798 302.609027 226.242798 302.609027 c
226.242798 302.609027 226.242798 302.609027 226.242798 302.609027 c
226.242798 302.609027 226.242798 302.609027 226.242798 302.609027 c
226.242798 302.609027 226.242798 302.609027 226.242798 302.609027 c
226.242798 302.609027 226.242798 302.609027 226.242798 302.609027 c
cl
gsave
fill
grestore
stroke
grestore
gsave
279 277.2 45 39.6 clipbox
254.071331 302.609027 m
254.071331 302.609027 254.071331 302.609027 254.071331 302.609027 c
254.071331 302.609027 254.071331 302.609027 254.071331 302.609027 c
254.071331 302.609027 254.071331 302.609027 254.071331 302.609027 c
254.071331 302.609027 254.071331 302.609027 254.071331 302.609027 c
254.071331 302.609027 254.071331 302.609027 254.071331 302.609027 c
254.071331 302.609027 254.071331 302.609027 254.071331 302.609027 c
254.071331 302.609027 254.071331 302.609027 254.071331 302.609027 c
254.071331 302.609027 254.071331 302.609027 254.071331 302.609027 c
cl
gsave
fill
grestore
stroke
grestore
gsave
279 277.2 45 39.6 clipbox
281.899863 302.609027 m
281.899863 302.609027 281.899863 302.609027 281.899863 302.609027 c
281.899863 302.609027 281.899863 302.609027 281.899863 302.609027 c
281.899863 302.609027 281.899863 302.609027 281.899863 302.609027 c
281.899863 302.609027 281.899863 302.609027 281.899863 302.609027 c
281.899863 302.609027 281.899863 302.609027 281.899863 302.609027 c
281.899863 302.609027 281.899863 302.609027 281.899863 302.609027 c
281.899863 302.609027 281.899863 302.609027 281.899863 302.609027 c
281.899863 302.609027 281.899863 302.609027 281.899863 302.609027 c
cl
gsave
fill
grestore
stroke
grestore
gsave
279 277.2 45 39.6 clipbox
309.728395 302.609027 m
309.728395 302.609027 309.728395 302.609027 309.728395 302.609027 c
309.728395 302.609027 309.728395 302.609027 309.728395 302.609027 c
309.728395 302.609027 309.728395 302.609027 309.728395 302.609027 c
309.728395 302.609027 309.728395 302.609027 309.728395 302.609027 c
309.728395 302.609027 309.728395 302.609027 309.728395 302.609027 c
309.728395 302.609027 309.728395 302.609027 309.728395 302.609027 c
309.728395 302.609027 309.728395 302.609027 309.728395 302.609027 c
309.728395 302.609027 309.728395 302.609027 309.728395 302.609027 c
cl
gsave
fill
grestore
stroke
grestore
1.000 0.000 0.000 setrgbcolor
gsave
279 277.2 45 39.6 clipbox
/o {
gsave
newpath
translate
1.0 setlinewidth
1 setlinejoin
0 setlinecap
0 -2.236068 m
0.593012 -2.236068 1.161816 -2.000462 1.581139 -1.581139 c
2.000462 -1.161816 2.236068 -0.593012 2.236068 0 c
2.236068 0.593012 2.000462 1.161816 1.581139 1.581139 c
1.161816 2.000462 0.593012 2.236068 0 2.236068 c
-0.593012 2.236068 -1.161816 2.000462 -1.581139 1.581139 c
-2.000462 1.161816 -2.236068 0.593012 -2.236068 0 c
-2.236068 -0.593012 -2.000462 -1.161816 -1.581139 -1.581139 c
-1.161816 -2.000462 -0.593012 -2.236068 0 -2.236068 c
cl

gsave
1.000 0.000 0.000 setrgbcolor
fill
grestore
stroke
grestore
} bind def
114.929 136.73 o
114.929 164.377 o
114.929 192.023 o
114.929 219.67 o
114.929 247.316 o
114.929 274.963 o
grestore
0.000 0.502 0.000 setrgbcolor
gsave
279 277.2 45 39.6 clipbox
/o {
gsave
newpath
translate
1.0 setlinewidth
1 setlinejoin
0 setlinecap
0 -2.236068 m
0.593012 -2.236068 1.161816 -2.000462 1.581139 -1.581139 c
2.000462 -1.161816 2.236068 -0.593012 2.236068 0 c
2.236068 0.593012 2.000462 1.161816 1.581139 1.581139 c
1.161816 2.000462 0.593012 2.236068 0 2.236068 c
-0.593012 2.236068 -1.161816 2.000462 -1.581139 1.581139 c
-2.000462 1.161816 -2.236068 0.593012 -2.236068 0 c
-2.236068 -0.593012 -2.000462 -1.161816 -1.581139 -1.581139 c
-1.161816 -2.000462 -0.593012 -2.236068 0 -2.236068 c
cl

gsave
0.000 0.502 0.000 setrgbcolor
fill
grestore
stroke
grestore
} bind def
59.2716 53.791 o
87.1001 53.791 o
114.929 53.791 o
142.757 53.791 o
170.586 53.791 o
198.414 53.791 o
226.243 53.791 o
254.071 53.791 o
281.9 53.791 o
309.728 53.791 o
59.2716 81.4374 o
87.1001 81.4374 o
114.929 81.4374 o
142.757 81.4374 o
170.586 81.4374 o
198.414 81.4374 o
226.243 81.4374 o
254.071 81.4374 o
281.9 81.4374 o
309.728 81.4374 o
59.2716 109.084 o
87.1001 109.084 o
114.929 109.084 o
142.757 109.084 o
170.586 109.084 o
198.414 109.084 o
226.243 109.084 o
254.071 109.084 o
281.9 109.084 o
309.728 109.084 o
59.2716 136.73 o
87.1001 136.73 o
142.757 136.73 o
170.586 136.73 o
198.414 136.73 o
226.243 136.73 o
254.071 136.73 o
281.9 136.73 o
309.728 136.73 o
59.2716 164.377 o
87.1001 164.377 o
142.757 164.377 o
170.586 164.377 o
198.414 164.377 o
226.243 164.377 o
254.071 164.377 o
281.9 164.377 o
309.728 164.377 o
59.2716 192.023 o
87.1001 192.023 o
142.757 192.023 o
170.586 192.023 o
198.414 192.023 o
226.243 192.023 o
254.071 192.023 o
281.9 192.023 o
309.728 192.023 o
59.2716 219.67 o
87.1001 219.67 o
142.757 219.67 o
170.586 219.67 o
198.414 219.67 o
226.243 219.67 o
254.071 219.67 o
281.9 219.67 o
309.728 219.67 o
59.2716 247.316 o
87.1001 247.316 o
142.757 247.316 o
170.586 247.316 o
198.414 247.316 o
226.243 247.316 o
254.071 247.316 o
281.9 247.316 o
309.728 247.316 o
59.2716 274.963 o
87.1001 274.963 o
142.757 274.963 o
170.586 274.963 o
198.414 274.963 o
226.243 274.963 o
254.071 274.963 o
281.9 274.963 o
309.728 274.963 o
59.2716 302.609 o
87.1001 302.609 o
114.929 302.609 o
142.757 302.609 o
170.586 302.609 o
198.414 302.609 o
226.243 302.609 o
254.071 302.609 o
281.9 302.609 o
309.728 302.609 o
grestore
0.800 setlinewidth
0.000 setgray
gsave
/o {
gsave
newpath
translate
0.8 setlinewidth
1 setlinejoin
0 setlinecap
0 0 m
0 -3.5 l

gsave
0.000 setgray
fill
grestore
stroke
grestore
} bind def
59.2716 39.6 o
grestore
/DejaVuSans findfont
10.000 scalefont
setfont
gsave
51.904417 25.006250 translate
0.000000 rotate
0.000000 0.000000 m /minus glyphshow
8.378906 0.000000 m /six glyphshow
grestore
gsave
/o {
gsave
newpath
translate
0.8 setlinewidth
1 setlinejoin
0 setlinecap
0 0 m
0 -3.5 l

gsave
0.000 setgray
fill
grestore
stroke
grestore
} bind def
101.014 39.6 o
grestore
gsave
93.647216 25.006250 translate
0.000000 rotate
0.000000 0.000000 m /minus glyphshow
8.378906 0.000000 m /four glyphshow
grestore
gsave
/o {
gsave
newpath
translate
0.8 setlinewidth
1 setlinejoin
0 setlinecap
0 0 m
0 -3.5 l

gsave
0.000 setgray
fill
grestore
stroke
grestore
} bind def
142.757 39.6 o
grestore
gsave
135.390014 25.006250 translate
0.000000 rotate
0.000000 0.000000 m /minus glyphshow
8.378906 0.000000 m /two glyphshow
grestore
gsave
/o {
gsave
newpath
translate
0.8 setlinewidth
1 setlinejoin
0 setlinecap
0 0 m
0 -3.5 l

gsave
0.000 setgray
fill
grestore
stroke
grestore
} bind def
184.5 39.6 o
grestore
gsave
181.320313 25.006250 translate
0.000000 rotate
0.000000 0.000000 m /zero glyphshow
grestore
gsave
/o {
gsave
newpath
translate
0.8 setlinewidth
1 setlinejoin
0 setlinecap
0 0 m
0 -3.5 l

gsave
0.000 setgray
fill
grestore
stroke
grestore
} bind def
226.243 39.6 o
grestore
gsave
223.063111 25.006250 translate
0.000000 rotate
0.000000 0.000000 m /two glyphshow
grestore
gsave
/o {
gsave
newpath
translate
0.8 setlinewidth
1 setlinejoin
0 setlinecap
0 0 m
0 -3.5 l

gsave
0.000 setgray
fill
grestore
stroke
grestore
} bind def
267.986 39.6 o
grestore
gsave
264.805909 25.006250 translate
0.000000 rotate
0.000000 0.000000 m /four glyphshow
grestore
gsave
/o {
gsave
newpath
translate
0.8 setlinewidth
1 setlinejoin
0 setlinecap
0 0 m
0 -3.5 l

gsave
0.000 setgray
fill
grestore
stroke
grestore
} bind def
309.728 39.6 o
grestore
gsave
306.548708 25.006250 translate
0.000000 rotate
0.000000 0.000000 m /six glyphshow
grestore
gsave
/o {
gsave
newpath
translate
0.8 setlinewidth
1 setlinejoin
0 setlinecap
0 0 m
-3.5 0 l

gsave
0.000 setgray
fill
grestore
stroke
grestore
} bind def
45 53.791 o
grestore
gsave
23.265625 49.994098 translate
0.000000 rotate
0.000000 0.000000 m /minus glyphshow
8.378906 0.000000 m /six glyphshow
grestore
gsave
/o {
gsave
newpath
translate
0.8 setlinewidth
1 setlinejoin
0 setlinecap
0 0 m
-3.5 0 l

gsave
0.000 setgray
fill
grestore
stroke
grestore
} bind def
45 95.2606 o
grestore
gsave
23.265625 91.463774 translate
0.000000 rotate
0.000000 0.000000 m /minus glyphshow
8.378906 0.000000 m /four glyphshow
grestore
gsave
/o {
gsave
newpath
translate
0.8 setlinewidth
1 setlinejoin
0 setlinecap
0 0 m
-3.5 0 l

gsave
0.000 setgray
fill
grestore
stroke
grestore
} bind def
45 136.73 o
grestore
gsave
23.265625 132.933449 translate
0.000000 rotate
0.000000 0.000000 m /minus glyphshow
8.378906 0.000000 m /two glyphshow
grestore
gsave
/o {
gsave
newpath
translate
0.8 setlinewidth
1 setlinejoin
0 setlinecap
0 0 m
-3.5 0 l

gsave
0.000 setgray
fill
grestore
stroke
grestore
} bind def
45 178.2 o
grestore
gsave
31.640625 174.403125 translate
0.000000 rotate
0.000000 0.000000 m /zero glyphshow
grestore
gsave
/o {
gsave
newpath
translate
0.8 setlinewidth
1 setlinejoin
0 setlinecap
0 0 m
-3.5 0 l

gsave
0.000 setgray
fill
grestore
stroke
grestore
} bind def
45 219.67 o
grestore
gsave
31.640625 215.872801 translate
0.000000 rotate
0.000000 0.000000 m /two glyphshow
grestore
gsave
/o {
gsave
newpath
translate
0.8 setlinewidth
1 setlinejoin
0 setlinecap
0 0 m
-3.5 0 l

gsave
0.000 setgray
fill
grestore
stroke
grestore
} bind def
45 261.139 o
grestore
gsave
31.640625 257.342476 translate
0.000000 rotate
0.000000 0.000000 m /four glyphshow
grestore
gsave
/o {
gsave
newpath
translate
0.8 setlinewidth
1 setlinejoin
0 setlinecap
0 0 m
-3.5 0 l

gsave
0.000 setgray
fill
grestore
stroke
grestore
} bind def
45 302.609 o
grestore
gsave
31.640625 298.812152 translate
0.000000 rotate
0.000000 0.000000 m /six glyphshow
grestore
1.500 setlinewidth
gsave
279 277.2 45 39.6 clipbox
99.381891 177.37272 m
99.38341 175.66104 l
99.391871 170.583121 l
99.406073 165.505201 l
99.432562 160.427282 l
99.483472 155.349362 l
99.582227 150.271443 l
99.775749 145.193523 l
100.162228 140.115604 l
100.162509 140.113767 l
100.957931 135.037684 l
102.742948 129.959765 l
105.273872 126.735287 l
108.486249 124.881846 l
110.385235 124.139219 l
115.496598 123.627082 l
120.607962 124.460128 l
121.528154 124.881846 l
125.719325 127.883792 l
127.15489 129.959765 l
128.898108 135.037684 l
129.675245 140.115604 l
130.050268 145.193523 l
130.238153 150.271443 l
130.334057 155.349362 l
130.383504 160.427282 l
130.409233 165.505201 l
130.423029 170.583121 l
130.431248 175.66104 l
130.435624 180.73896 l
130.436585 185.816879 l
130.436679 190.894799 l
130.436686 195.972718 l
130.436686 201.050638 l
130.436686 206.128557 l
130.436686 211.206477 l
130.436686 216.284396 l
130.436685 221.362316 l
130.436676 226.440235 l
130.436616 231.518154 l
130.436207 236.596074 l
130.433754 241.673993 l
130.422907 246.751913 l
130.393123 251.829832 l
130.334953 256.907752 l
130.227854 261.985671 l
130.022988 267.063591 l
129.616105 272.14151 l
128.769651 277.21943 l
126.846399 282.297349 l
125.719325 283.835992 l
120.607962 287.222684 l
119.821942 287.375269 l
115.496598 288.070166 l
110.385235 287.555199 l
109.8915 287.375269 l
105.273872 284.959738 l
103.058858 282.297349 l
101.089461 277.21943 l
100.222781 272.14151 l
100.162509 271.345248 l
99.803854 267.063591 l
99.592834 261.985671 l
99.482549 256.907752 l
99.422659 251.829832 l
99.391997 246.751913 l
99.38083 241.673993 l
99.378305 236.596074 l
99.377884 231.518154 l
99.377822 226.440235 l
99.377813 221.362316 l
99.377811 216.284396 l
99.377811 214.572718 l
stroke
grestore
0.800 setlinewidth
0 setlinejoin
2 setlinecap
[] 0 setdash
gsave
45 39.6 m
45 316.8 l
stroke
grestore
gsave
324 39.6 m
324 316.8 l
stroke
grestore
gsave
45 39.6 m
324 39.6 l
stroke
grestore
gsave
45 316.8 m
324 316.8 l
stroke
grestore
gsave
96.619499 210.285122 translate
270.002002 rotate
0.000000 0.000000 m /zero glyphshow
6.362305 0.000000 m /period glyphshow
9.541016 0.000000 m /zero glyphshow
15.903320 0.000000 m /zero glyphshow
22.265625 0.000000 m /zero glyphshow
grestore
1.000 setlinewidth
0 setlinecap
0.800 setgray
gsave
239.90625 44.6 m
317 44.6 l
318.333333 44.6 319 45.266667 319 46.6 c
319 74.94375 l
319 76.277083 318.333333 76.94375 317 76.94375 c
239.90625 76.94375 l
238.572917 76.94375 237.90625 76.277083 237.90625 74.94375 c
237.90625 46.6 l
237.90625 45.266667 238.572917 44.6 239.90625 44.6 c
cl
gsave
1.000 setgray
fill
grestore
stroke
grestore
1 setlinejoin
[] 0 setdash
1.000 0.000 0.000 setrgbcolor
gsave
/o {
gsave
newpath
translate
1.0 setlinewidth
1 setlinejoin
0 setlinecap
0 -2.236068 m
0.593012 -2.236068 1.161816 -2.000462 1.581139 -1.581139 c
2.000462 -1.161816 2.236068 -0.593012 2.236068 0 c
2.236068 0.593012 2.000462 1.161816 1.581139 1.581139 c
1.161816 2.000462 0.593012 2.236068 0 2.236068 c
-0.593012 2.236068 -1.161816 2.000462 -1.581139 1.581139 c
-2.000462 1.161816 -2.236068 0.593012 -2.236068 0 c
-2.236068 -0.593012 -2.000462 -1.161816 -1.581139 -1.581139 c
-1.161816 -2.000462 -0.593012 -2.236068 0 -2.236068 c
cl

gsave
1.000 0.000 0.000 setrgbcolor
fill
grestore
stroke
grestore
} bind def
251.906 67.975 o
grestore
0.000 setgray
gsave
269.906250 65.350000 translate
0.000000 rotate
0.000000 0.000000 m /o glyphshow
6.118164 0.000000 m /c glyphshow
11.616211 0.000000 m /c glyphshow
17.114258 0.000000 m /u glyphshow
23.452148 0.000000 m /p glyphshow
29.799805 0.000000 m /i glyphshow
32.578125 0.000000 m /e glyphshow
38.730469 0.000000 m /d glyphshow
grestore
0.000 0.502 0.000 setrgbcolor
gsave
/o {
gsave
newpath
translate
1.0 setlinewidth
1 setlinejoin
0 setlinecap
0 -2.236068 m
0.593012 -2.236068 1.161816 -2.000462 1.581139 -1.581139 c
2.000462 -1.161816 2.236068 -0.593012 2.236068 0 c
2.236068 0.593012 2.000462 1.161816 1.581139 1.581139 c
1.161816 2.000462 0.593012 2.236068 0 2.236068 c
-0.593012 2.236068 -1.161816 2.000462 -1.581139 1.581139 c
-2.000462 1.161816 -2.236068 0.593012 -2.236068 0 c
-2.236068 -0.593012 -2.000462 -1.161816 -1.581139 -1.581139 c
-1.161816 -2.000462 -0.593012 -2.236068 0 -2.236068 c
cl

gsave
0.000 0.502 0.000 setrgbcolor
fill
grestore
stroke
grestore
} bind def
251.906 53.3031 o
grestore
0.000 setgray
gsave
269.906250 50.678125 translate
0.000000 rotate
0.000000 0.000000 m /f glyphshow
3.520508 0.000000 m /r glyphshow
7.631836 0.000000 m /e glyphshow
13.784180 0.000000 m /e glyphshow
grestore

end
showpage
